%!PS-Adobe-3.0 EPSF-3.0
%%Creator: (MATLAB, The Mathworks, Inc. Version 9.5.0.944444 \(R2018b\). Operating System: Mac OS X)
%%Title: ./all_saccades_adFig3RVpk.eps
%%CreationDate: 2020-05-04T17:47:56
%%Pages: (atend)
%%BoundingBox:    49     0   447   398
%%LanguageLevel: 2
%%EndComments
%%BeginProlog
%%BeginResource: procset (Apache XML Graphics Std ProcSet) 1.2 0
%%Version: 1.2 0
%%Copyright: (Copyright 2001-2003,2010 The Apache Software Foundation. License terms: http://www.apache.org/licenses/LICENSE-2.0)
/bd{bind def}bind def
/ld{load def}bd
/GR/grestore ld
/GS/gsave ld
/RM/rmoveto ld
/C/curveto ld
/t/show ld
/L/lineto ld
/ML/setmiterlimit ld
/CT/concat ld
/f/fill ld
/N/newpath ld
/S/stroke ld
/CC/setcmykcolor ld
/A/ashow ld
/cp/closepath ld
/RC/setrgbcolor ld
/LJ/setlinejoin ld
/GC/setgray ld
/LW/setlinewidth ld
/M/moveto ld
/re {4 2 roll M
1 index 0 rlineto
0 exch rlineto
neg 0 rlineto
cp } bd
/_ctm matrix def
/_tm matrix def
/BT { _ctm currentmatrix pop matrix _tm copy pop 0 0 moveto } bd
/ET { _ctm setmatrix } bd
/iTm { _ctm setmatrix _tm concat } bd
/Tm { _tm astore pop iTm 0 0 moveto } bd
/ux 0.0 def
/uy 0.0 def
/F {
  /Tp exch def
  /Tf exch def
  Tf findfont Tp scalefont setfont
  /cf Tf def  /cs Tp def
} bd
/ULS {currentpoint /uy exch def /ux exch def} bd
/ULE {
  /Tcx currentpoint pop def
  gsave
  newpath
  cf findfont cs scalefont dup
  /FontMatrix get 0 get /Ts exch def /FontInfo get dup
  /UnderlinePosition get Ts mul /To exch def
  /UnderlineThickness get Ts mul /Tt exch def
  ux uy To add moveto  Tcx uy To add lineto
  Tt setlinewidth stroke
  grestore
} bd
/OLE {
  /Tcx currentpoint pop def
  gsave
  newpath
  cf findfont cs scalefont dup
  /FontMatrix get 0 get /Ts exch def /FontInfo get dup
  /UnderlinePosition get Ts mul /To exch def
  /UnderlineThickness get Ts mul /Tt exch def
  ux uy To add cs add moveto Tcx uy To add cs add lineto
  Tt setlinewidth stroke
  grestore
} bd
/SOE {
  /Tcx currentpoint pop def
  gsave
  newpath
  cf findfont cs scalefont dup
  /FontMatrix get 0 get /Ts exch def /FontInfo get dup
  /UnderlinePosition get Ts mul /To exch def
  /UnderlineThickness get Ts mul /Tt exch def
  ux uy To add cs 10 mul 26 idiv add moveto Tcx uy To add cs 10 mul 26 idiv add lineto
  Tt setlinewidth stroke
  grestore
} bd
/QT {
/Y22 exch store
/X22 exch store
/Y21 exch store
/X21 exch store
currentpoint
/Y21 load 2 mul add 3 div exch
/X21 load 2 mul add 3 div exch
/X21 load 2 mul /X22 load add 3 div
/Y21 load 2 mul /Y22 load add 3 div
/X22 load /Y22 load curveto
} bd
/SSPD {
dup length /d exch dict def
{
/v exch def
/k exch def
currentpagedevice k known {
/cpdv currentpagedevice k get def
v cpdv ne {
/upd false def
/nullv v type /nulltype eq def
/nullcpdv cpdv type /nulltype eq def
nullv nullcpdv or
{
/upd true def
} {
/sametype v type cpdv type eq def
sametype {
v type /arraytype eq {
/vlen v length def
/cpdvlen cpdv length def
vlen cpdvlen eq {
0 1 vlen 1 sub {
/i exch def
/obj v i get def
/cpdobj cpdv i get def
obj cpdobj ne {
/upd true def
exit
} if
} for
} {
/upd true def
} ifelse
} {
v type /dicttype eq {
v {
/dv exch def
/dk exch def
/cpddv cpdv dk get def
dv cpddv ne {
/upd true def
exit
} if
} forall
} {
/upd true def
} ifelse
} ifelse
} if
} ifelse
upd true eq {
d k v put
} if
} if
} if
} forall
d length 0 gt {
d setpagedevice
} if
} bd
/RE { % /NewFontName [NewEncodingArray] /FontName RE -
  findfont dup length dict begin
  {
    1 index /FID ne
    {def} {pop pop} ifelse
  } forall
  /Encoding exch def
  /FontName 1 index def
  currentdict definefont pop
  end
} bind def
%%EndResource
%%BeginResource: procset (Apache XML Graphics EPS ProcSet) 1.0 0
%%Version: 1.0 0
%%Copyright: (Copyright 2002-2003 The Apache Software Foundation. License terms: http://www.apache.org/licenses/LICENSE-2.0)
/BeginEPSF { %def
/b4_Inc_state save def         % Save state for cleanup
/dict_count countdictstack def % Count objects on dict stack
/op_count count 1 sub def      % Count objects on operand stack
userdict begin                 % Push userdict on dict stack
/showpage { } def              % Redefine showpage, { } = null proc
0 setgray 0 setlinecap         % Prepare graphics state
1 setlinewidth 0 setlinejoin
10 setmiterlimit [ ] 0 setdash newpath
/languagelevel where           % If level not equal to 1 then
{pop languagelevel             % set strokeadjust and
1 ne                           % overprint to their defaults.
{false setstrokeadjust false setoverprint
} if
} if
} bd
/EndEPSF { %def
count op_count sub {pop} repeat            % Clean up stacks
countdictstack dict_count sub {end} repeat
b4_Inc_state restore
} bd
%%EndResource
%FOPBeginFontDict
%%IncludeResource: font Courier-Oblique
%%IncludeResource: font Courier-BoldOblique
%%IncludeResource: font Courier-Bold
%%IncludeResource: font ZapfDingbats
%%IncludeResource: font Symbol
%%IncludeResource: font Helvetica
%%IncludeResource: font Helvetica-Oblique
%%IncludeResource: font Helvetica-Bold
%%IncludeResource: font Helvetica-BoldOblique
%%IncludeResource: font Times-Roman
%%IncludeResource: font Times-Italic
%%IncludeResource: font Times-Bold
%%IncludeResource: font Times-BoldItalic
%%IncludeResource: font Courier
%FOPEndFontDict
%%BeginResource: encoding WinAnsiEncoding
/WinAnsiEncoding [
/.notdef /.notdef /.notdef /.notdef /.notdef
/.notdef /.notdef /.notdef /.notdef /.notdef
/.notdef /.notdef /.notdef /.notdef /.notdef
/.notdef /.notdef /.notdef /.notdef /.notdef
/.notdef /.notdef /.notdef /.notdef /.notdef
/.notdef /.notdef /.notdef /.notdef /.notdef
/.notdef /.notdef /space /exclam /quotedbl
/numbersign /dollar /percent /ampersand /quotesingle
/parenleft /parenright /asterisk /plus /comma
/hyphen /period /slash /zero /one
/two /three /four /five /six
/seven /eight /nine /colon /semicolon
/less /equal /greater /question /at
/A /B /C /D /E
/F /G /H /I /J
/K /L /M /N /O
/P /Q /R /S /T
/U /V /W /X /Y
/Z /bracketleft /backslash /bracketright /asciicircum
/underscore /quoteleft /a /b /c
/d /e /f /g /h
/i /j /k /l /m
/n /o /p /q /r
/s /t /u /v /w
/x /y /z /braceleft /bar
/braceright /asciitilde /bullet /Euro /bullet
/quotesinglbase /florin /quotedblbase /ellipsis /dagger
/daggerdbl /circumflex /perthousand /Scaron /guilsinglleft
/OE /bullet /Zcaron /bullet /bullet
/quoteleft /quoteright /quotedblleft /quotedblright /bullet
/endash /emdash /asciitilde /trademark /scaron
/guilsinglright /oe /bullet /zcaron /Ydieresis
/space /exclamdown /cent /sterling /currency
/yen /brokenbar /section /dieresis /copyright
/ordfeminine /guillemotleft /logicalnot /sfthyphen /registered
/macron /degree /plusminus /twosuperior /threesuperior
/acute /mu /paragraph /middot /cedilla
/onesuperior /ordmasculine /guillemotright /onequarter /onehalf
/threequarters /questiondown /Agrave /Aacute /Acircumflex
/Atilde /Adieresis /Aring /AE /Ccedilla
/Egrave /Eacute /Ecircumflex /Edieresis /Igrave
/Iacute /Icircumflex /Idieresis /Eth /Ntilde
/Ograve /Oacute /Ocircumflex /Otilde /Odieresis
/multiply /Oslash /Ugrave /Uacute /Ucircumflex
/Udieresis /Yacute /Thorn /germandbls /agrave
/aacute /acircumflex /atilde /adieresis /aring
/ae /ccedilla /egrave /eacute /ecircumflex
/edieresis /igrave /iacute /icircumflex /idieresis
/eth /ntilde /ograve /oacute /ocircumflex
/otilde /odieresis /divide /oslash /ugrave
/uacute /ucircumflex /udieresis /yacute /thorn
/ydieresis
] def
%%EndResource
%FOPBeginFontReencode
/Courier-Oblique findfont
dup length dict begin
  {1 index /FID ne {def} {pop pop} ifelse} forall
  /Encoding WinAnsiEncoding def
  currentdict
end
/Courier-Oblique exch definefont pop
/Courier-BoldOblique findfont
dup length dict begin
  {1 index /FID ne {def} {pop pop} ifelse} forall
  /Encoding WinAnsiEncoding def
  currentdict
end
/Courier-BoldOblique exch definefont pop
/Courier-Bold findfont
dup length dict begin
  {1 index /FID ne {def} {pop pop} ifelse} forall
  /Encoding WinAnsiEncoding def
  currentdict
end
/Courier-Bold exch definefont pop
/Helvetica findfont
dup length dict begin
  {1 index /FID ne {def} {pop pop} ifelse} forall
  /Encoding WinAnsiEncoding def
  currentdict
end
/Helvetica exch definefont pop
/Helvetica-Oblique findfont
dup length dict begin
  {1 index /FID ne {def} {pop pop} ifelse} forall
  /Encoding WinAnsiEncoding def
  currentdict
end
/Helvetica-Oblique exch definefont pop
/Helvetica-Bold findfont
dup length dict begin
  {1 index /FID ne {def} {pop pop} ifelse} forall
  /Encoding WinAnsiEncoding def
  currentdict
end
/Helvetica-Bold exch definefont pop
/Helvetica-BoldOblique findfont
dup length dict begin
  {1 index /FID ne {def} {pop pop} ifelse} forall
  /Encoding WinAnsiEncoding def
  currentdict
end
/Helvetica-BoldOblique exch definefont pop
/Times-Roman findfont
dup length dict begin
  {1 index /FID ne {def} {pop pop} ifelse} forall
  /Encoding WinAnsiEncoding def
  currentdict
end
/Times-Roman exch definefont pop
/Times-Italic findfont
dup length dict begin
  {1 index /FID ne {def} {pop pop} ifelse} forall
  /Encoding WinAnsiEncoding def
  currentdict
end
/Times-Italic exch definefont pop
/Times-Bold findfont
dup length dict begin
  {1 index /FID ne {def} {pop pop} ifelse} forall
  /Encoding WinAnsiEncoding def
  currentdict
end
/Times-Bold exch definefont pop
/Times-BoldItalic findfont
dup length dict begin
  {1 index /FID ne {def} {pop pop} ifelse} forall
  /Encoding WinAnsiEncoding def
  currentdict
end
/Times-BoldItalic exch definefont pop
/Courier findfont
dup length dict begin
  {1 index /FID ne {def} {pop pop} ifelse} forall
  /Encoding WinAnsiEncoding def
  currentdict
end
/Courier exch definefont pop
%FOPEndFontReencode
%%EndProlog
%%Page: 1 1
%%PageBoundingBox: 0 0 560 420
%%BeginPageSetup
[1 0 0 -1 0 420] CT
%%EndPageSetup
GS
1 GC
N
0 0 560 420 re
f
GR
GS
1 GC
N
0 0 560 420 re
f
GR
GS
1 GC
N
134.25 343 M
445.75 343 L
445.75 31.5 L
134.25 31.5 L
cp
f
GR
GS
0.896 GC
1 LJ
N
134.25 343 M
134.25 31.5 L
S
GR
GS
0.896 GC
1 LJ
N
182.173 343 M
182.173 31.5 L
S
GR
GS
0.896 GC
1 LJ
N
230.096 343 M
230.096 31.5 L
S
GR
GS
0.896 GC
1 LJ
N
278.019 343 M
278.019 31.5 L
S
GR
GS
0.896 GC
1 LJ
N
325.942 343 M
325.942 31.5 L
S
GR
GS
0.896 GC
1 LJ
N
373.865 343 M
373.865 31.5 L
S
GR
GS
0.896 GC
1 LJ
N
421.788 343 M
421.788 31.5 L
S
GR
GS
0.896 GC
1 LJ
N
445.75 343 M
134.25 343 L
S
GR
GS
0.896 GC
1 LJ
N
445.75 265.125 M
134.25 265.125 L
S
GR
GS
0.896 GC
1 LJ
N
445.75 187.25 M
134.25 187.25 L
S
GR
GS
0.896 GC
1 LJ
N
445.75 109.375 M
134.25 109.375 L
S
GR
GS
0.896 GC
1 LJ
N
445.75 31.5 M
134.25 31.5 L
S
GR
GS
0.302 GC
2 setlinecap
1 LJ
N
134.25 343 M
445.75 343 L
S
GR
GS
0.302 GC
2 setlinecap
1 LJ
N
134.25 343 M
134.25 349.23 L
S
GR
GS
0.302 GC
2 setlinecap
1 LJ
N
182.173 343 M
182.173 349.23 L
S
GR
GS
0.302 GC
2 setlinecap
1 LJ
N
230.096 343 M
230.096 349.23 L
S
GR
GS
0.302 GC
2 setlinecap
1 LJ
N
278.019 343 M
278.019 349.23 L
S
GR
GS
0.302 GC
2 setlinecap
1 LJ
N
325.942 343 M
325.942 349.23 L
S
GR
GS
0.302 GC
2 setlinecap
1 LJ
N
373.865 343 M
373.865 349.23 L
S
GR
GS
0.302 GC
2 setlinecap
1 LJ
N
421.788 343 M
421.788 349.23 L
S
GR
GS
0.302 GC
2 setlinecap
1 LJ
N
143.835 343 M
143.835 346.115 L
S
GR
GS
0.302 GC
2 setlinecap
1 LJ
N
153.419 343 M
153.419 346.115 L
S
GR
GS
0.302 GC
2 setlinecap
1 LJ
N
163.004 343 M
163.004 346.115 L
S
GR
GS
0.302 GC
2 setlinecap
1 LJ
N
172.588 343 M
172.588 346.115 L
S
GR
GS
0.302 GC
2 setlinecap
1 LJ
N
191.758 343 M
191.758 346.115 L
S
GR
GS
0.302 GC
2 setlinecap
1 LJ
N
201.342 343 M
201.342 346.115 L
S
GR
GS
0.302 GC
2 setlinecap
1 LJ
N
210.927 343 M
210.927 346.115 L
S
GR
GS
0.302 GC
2 setlinecap
1 LJ
N
220.512 343 M
220.512 346.115 L
S
GR
GS
0.302 GC
2 setlinecap
1 LJ
N
239.681 343 M
239.681 346.115 L
S
GR
GS
0.302 GC
2 setlinecap
1 LJ
N
249.265 343 M
249.265 346.115 L
S
GR
GS
0.302 GC
2 setlinecap
1 LJ
N
258.85 343 M
258.85 346.115 L
S
GR
GS
0.302 GC
2 setlinecap
1 LJ
N
268.435 343 M
268.435 346.115 L
S
GR
GS
0.302 GC
2 setlinecap
1 LJ
N
287.604 343 M
287.604 346.115 L
S
GR
GS
0.302 GC
2 setlinecap
1 LJ
N
297.188 343 M
297.188 346.115 L
S
GR
GS
0.302 GC
2 setlinecap
1 LJ
N
306.773 343 M
306.773 346.115 L
S
GR
GS
0.302 GC
2 setlinecap
1 LJ
N
316.358 343 M
316.358 346.115 L
S
GR
GS
0.302 GC
2 setlinecap
1 LJ
N
335.527 343 M
335.527 346.115 L
S
GR
GS
0.302 GC
2 setlinecap
1 LJ
N
345.112 343 M
345.112 346.115 L
S
GR
GS
0.302 GC
2 setlinecap
1 LJ
N
354.696 343 M
354.696 346.115 L
S
GR
GS
0.302 GC
2 setlinecap
1 LJ
N
364.281 343 M
364.281 346.115 L
S
GR
GS
0.302 GC
2 setlinecap
1 LJ
N
383.45 343 M
383.45 346.115 L
S
GR
GS
0.302 GC
2 setlinecap
1 LJ
N
393.035 343 M
393.035 346.115 L
S
GR
GS
0.302 GC
2 setlinecap
1 LJ
N
402.619 343 M
402.619 346.115 L
S
GR
GS
0.302 GC
2 setlinecap
1 LJ
N
412.204 343 M
412.204 346.115 L
S
GR
GS
0.302 GC
2 setlinecap
1 LJ
N
431.373 343 M
431.373 346.115 L
S
GR
GS
0.302 GC
2 setlinecap
1 LJ
N
440.958 343 M
440.958 346.115 L
S
GR
GS
[1 0 0 1 134.25 356.23001] CT
0.302 GC
/Helvetica 25 F
GS
[1 0 0 1 0 0] CT
-7 24 moveto 
1 -1 scale
(0) t 
GR
GR
GS
[1 0 0 1 182.17308 356.23001] CT
0.302 GC
/Helvetica 25 F
GS
[1 0 0 1 0 0] CT
-14 24 moveto 
1 -1 scale
(10) t 
GR
GR
GS
[1 0 0 1 230.09616 356.23001] CT
0.302 GC
/Helvetica 25 F
GS
[1 0 0 1 0 0] CT
-14 24 moveto 
1 -1 scale
(20) t 
GR
GR
GS
[1 0 0 1 278.01923 356.23001] CT
0.302 GC
/Helvetica 25 F
GS
[1 0 0 1 0 0] CT
-14 24 moveto 
1 -1 scale
(30) t 
GR
GR
GS
[1 0 0 1 325.94232 356.23001] CT
0.302 GC
/Helvetica 25 F
GS
[1 0 0 1 0 0] CT
-14 24 moveto 
1 -1 scale
(40) t 
GR
GR
GS
[1 0 0 1 373.86539 356.23001] CT
0.302 GC
/Helvetica 25 F
GS
[1 0 0 1 0 0] CT
-14 24 moveto 
1 -1 scale
(50) t 
GR
GR
GS
[1 0 0 1 421.78845 356.23001] CT
0.302 GC
/Helvetica 25 F
GS
[1 0 0 1 0 0] CT
-14 24 moveto 
1 -1 scale
(60) t 
GR
GR
GS
[1 0 0 1 290.00015 386.73001] CT
0.302 GC
/Helvetica 27.5 F
GS
[1 0 0 1 0 0] CT
-153.5 27 moveto 
1 -1 scale
(Saccade amplitude \(deg\)) t 
GR
GR
GS
0.302 GC
2 setlinecap
1 LJ
N
134.25 343 M
134.25 31.5 L
S
GR
GS
0.302 GC
2 setlinecap
1 LJ
N
134.25 343 M
128.02 343 L
S
GR
GS
0.302 GC
2 setlinecap
1 LJ
N
134.25 265.125 M
128.02 265.125 L
S
GR
GS
0.302 GC
2 setlinecap
1 LJ
N
134.25 187.25 M
128.02 187.25 L
S
GR
GS
0.302 GC
2 setlinecap
1 LJ
N
134.25 109.375 M
128.02 109.375 L
S
GR
GS
0.302 GC
2 setlinecap
1 LJ
N
134.25 31.5 M
128.02 31.5 L
S
GR
GS
0.302 GC
2 setlinecap
1 LJ
N
134.25 323.531 M
131.135 323.531 L
S
GR
GS
0.302 GC
2 setlinecap
1 LJ
N
134.25 304.063 M
131.135 304.063 L
S
GR
GS
0.302 GC
2 setlinecap
1 LJ
N
134.25 284.594 M
131.135 284.594 L
S
GR
GS
0.302 GC
2 setlinecap
1 LJ
N
134.25 245.656 M
131.135 245.656 L
S
GR
GS
0.302 GC
2 setlinecap
1 LJ
N
134.25 226.188 M
131.135 226.188 L
S
GR
GS
0.302 GC
2 setlinecap
1 LJ
N
134.25 206.719 M
131.135 206.719 L
S
GR
GS
0.302 GC
2 setlinecap
1 LJ
N
134.25 167.781 M
131.135 167.781 L
S
GR
GS
0.302 GC
2 setlinecap
1 LJ
N
134.25 148.313 M
131.135 148.313 L
S
GR
GS
0.302 GC
2 setlinecap
1 LJ
N
134.25 128.844 M
131.135 128.844 L
S
GR
GS
0.302 GC
2 setlinecap
1 LJ
N
134.25 89.906 M
131.135 89.906 L
S
GR
GS
0.302 GC
2 setlinecap
1 LJ
N
134.25 70.438 M
131.135 70.438 L
S
GR
GS
0.302 GC
2 setlinecap
1 LJ
N
134.25 50.969 M
131.135 50.969 L
S
GR
GS
[1 0 0 1 121.02 343] CT
0.302 GC
/Helvetica 25 F
GS
[1 0 0 1 0 0] CT
-14 9 moveto 
1 -1 scale
(0) t 
GR
GR
GS
[1 0 0 1 121.02 265.125] CT
0.302 GC
/Helvetica 25 F
GS
[1 0 0 1 0 0] CT
-42 9 moveto 
1 -1 scale
(200) t 
GR
GR
GS
[1 0 0 1 121.02 187.25] CT
0.302 GC
/Helvetica 25 F
GS
[1 0 0 1 0 0] CT
-42 9 moveto 
1 -1 scale
(400) t 
GR
GR
GS
[1 0 0 1 121.02 109.375] CT
0.302 GC
/Helvetica 25 F
GS
[1 0 0 1 0 0] CT
-42 9 moveto 
1 -1 scale
(600) t 
GR
GR
GS
[1 0 0 1 121.02 31.5] CT
0.302 GC
/Helvetica 25 F
GS
[1 0 0 1 0 0] CT
-42 9 moveto 
1 -1 scale
(800) t 
GR
GR
GS
[0 -1 1 0 76.02 187.24986] CT
0.302 GC
/Helvetica 27.5 F
GS
[1 0 0 1 0 0] CT
-127.5 -6 moveto 
1 -1 scale
(Peak velocity \(deg/s\)) t 
GR
GR
GS
[1 0 0 1 201.12445 210.41156] CT
N
1.333 0 M
1.333 0.736 0.736 1.333 0 1.333 C
-0.736 1.333 -1.333 0.736 -1.333 0 C
-1.333 -0.736 -0.736 -1.333 0 -1.333 C
0.736 -1.333 1.333 -0.736 1.333 0 C
cp
f
GR
GS
[1 0 0 1 262.39511 108.86861] CT
N
/f-1057828618{1.333 0 M
1.333 0.736 0.736 1.333 0 1.333 C
-0.736 1.333 -1.333 0.736 -1.333 0 C
-1.333 -0.736 -0.736 -1.333 0 -1.333 C
0.736 -1.333 1.333 -0.736 1.333 0 C
cp}def
f-1057828618
f
GR
GS
[1 0 0 1 225.45221 253.36284] CT
N
f-1057828618
f
GR
GS
[1 0 0 1 238.99721 105.64167] CT
N
f-1057828618
f
GR
GS
[1 0 0 1 186.47696 266.71738] CT
N
f-1057828618
f
GR
GS
[1 0 0 1 267.41772 148.93454] CT
N
f-1057828618
f
GR
GS
[1 0 0 1 168.1198 322.44443] CT
N
f-1057828618
f
GR
GS
[1 0 0 1 181.41624 248.50725] CT
N
f-1057828618
f
GR
GS
[1 0 0 1 190.00949 271.01901] CT
N
f-1057828618
f
GR
GS
[1 0 0 1 280.77716 109.62152] CT
N
f-1057828618
f
GR
GS
[1 0 0 1 259.10751 220.11676] CT
N
f-1057828618
f
GR
GS
[1 0 0 1 212.96417 210.54897] CT
N
f-1057828618
f
GR
GS
[1 0 0 1 269.56943 77.62223] CT
N
f-1057828618
f
GR
GS
[1 0 0 1 208.52092 250.41595] CT
N
f-1057828618
f
GR
GS
[1 0 0 1 179.47729 265.37204] CT
N
f-1057828618
f
GR
GS
[1 0 0 1 292.53464 96.62466] CT
N
f-1057828618
f
GR
GS
[1 0 0 1 171.0244 299.09085] CT
N
f-1057828618
f
GR
GS
[1 0 0 1 223.52644 184.0186] CT
N
f-1057828618
f
GR
GS
[1 0 0 1 248.20447 83.98055] CT
N
f-1057828618
f
GR
GS
[1 0 0 1 197.79623 257.56909] CT
N
f-1057828618
f
GR
GS
[1 0 0 1 350.38544 38.88738] CT
N
f-1057828618
f
GR
GS
[1 0 0 1 209.33347 294.216] CT
N
f-1057828618
f
GR
GS
[1 0 0 1 145.90125 253.77354] CT
N
f-1057828618
f
GR
GS
[1 0 0 1 236.95261 277.18375] CT
N
f-1057828618
f
GR
GS
[1 0 0 1 218.5827 196.06377] CT
N
f-1057828618
f
GR
GS
[1 0 0 1 238.4343 201.14871] CT
N
f-1057828618
f
GR
GS
[1 0 0 1 237.73825 257.01938] CT
N
f-1057828618
f
GR
GS
[1 0 0 1 270.6293 146.50046] CT
N
f-1057828618
f
GR
GS
[1 0 0 1 210.49469 271.13171] CT
N
f-1057828618
f
GR
GS
[1 0 0 1 201.74496 236.9137] CT
N
f-1057828618
f
GR
GS
[1 0 0 1 274.58142 120.28919] CT
N
f-1057828618
f
GR
GS
[1 0 0 1 295.99393 39.81768] CT
N
f-1057828618
f
GR
GS
[1 0 0 1 211.11278 214.61061] CT
N
f-1057828618
f
GR
GS
[1 0 0 1 157.32913 271.26962] CT
N
f-1057828618
f
GR
GS
[1 0 0 1 206.63942 249.13982] CT
N
f-1057828618
f
GR
GS
[1 0 0 1 226.981 172.95465] CT
N
f-1057828618
f
GR
GS
[1 0 0 1 208.61478 270.43176] CT
N
f-1057828618
f
GR
GS
[1 0 0 1 218.17168 230.57275] CT
N
f-1057828618
f
GR
GS
[1 0 0 1 301.57236 79.20132] CT
N
f-1057828618
f
GR
GS
[1 0 0 1 320.49805 78.21257] CT
N
f-1057828618
f
GR
GS
[1 0 0 1 283.57309 55.20938] CT
N
f-1057828618
f
GR
GS
[1 0 0 1 244.86308 264.95584] CT
N
f-1057828618
f
GR
GS
[1 0 0 1 161.8622 265.34357] CT
N
f-1057828618
f
GR
GS
[1 0 0 1 242.39163 189.08713] CT
N
f-1057828618
f
GR
GS
[1 0 0 1 282.24265 172.85033] CT
N
f-1057828618
f
GR
GS
[1 0 0 1 255.01025 156.16913] CT
N
f-1057828618
f
GR
GS
[1 0 0 1 275.06815 37.2135] CT
N
f-1057828618
f
GR
GS
[1 0 0 1 198.32137 203.5661] CT
N
f-1057828618
f
GR
GS
[1 0 0 1 225.59436 194.53899] CT
N
f-1057828618
f
GR
GS
[1 0 0 1 203.04707 177.80754] CT
N
f-1057828618
f
GR
GS
[1 0 0 1 311.8035 61.82726] CT
N
f-1057828618
f
GR
GS
[1 0 0 1 200.77789 176.27333] CT
N
f-1057828618
f
GR
GS
[1 0 0 1 255.53325 137.66101] CT
N
f-1057828618
f
GR
GS
[1 0 0 1 202.34825 274.31732] CT
N
f-1057828618
f
GR
GS
[1 0 0 1 260.6055 85.15765] CT
N
f-1057828618
f
GR
GS
[1 0 0 1 275.18692 82.28323] CT
N
f-1057828618
f
GR
GS
[1 0 0 1 279.60254 81.57587] CT
N
f-1057828618
f
GR
GS
[1 0 0 1 296.98489 84.77386] CT
N
f-1057828618
f
GR
GS
[1 0 0 1 259.59665 270.5318] CT
N
f-1057828618
f
GR
GS
[1 0 0 1 147.08255 316.90448] CT
N
f-1057828618
f
GR
GS
[1 0 0 1 152.83165 325.85361] CT
N
f-1057828618
f
GR
GS
[1 0 0 1 256.73032 149.18941] CT
N
f-1057828618
f
GR
GS
[1 0 0 1 152.64543 304.11624] CT
N
f-1057828618
f
GR
GS
[1 0 0 1 249.43997 173.03055] CT
N
f-1057828618
f
GR
GS
[1 0 0 1 153.99135 312.56012] CT
N
f-1057828618
f
GR
GS
[1 0 0 1 266.31583 77.98815] CT
N
f-1057828618
f
GR
GS
[1 0 0 1 380.71988 47.32673] CT
N
f-1057828618
f
GR
GS
[1 0 0 1 171.46986 238.22836] CT
N
f-1057828618
f
GR
GS
[1 0 0 1 182.01245 233.83258] CT
N
f-1057828618
f
GR
GS
[1 0 0 1 211.60446 268.05182] CT
N
f-1057828618
f
GR
GS
[1 0 0 1 288.86493 130.61673] CT
N
f-1057828618
f
GR
GS
[1 0 0 1 162.12599 319.78363] CT
N
f-1057828618
f
GR
GS
[1 0 0 1 227.70586 212.44513] CT
N
f-1057828618
f
GR
GS
[1 0 0 1 225.13347 226.68781] CT
N
f-1057828618
f
GR
GS
[1 0 0 1 240.91928 143.24266] CT
N
f-1057828618
f
GR
GS
[1 0 0 1 229.27454 222.96121] CT
N
f-1057828618
f
GR
GS
[1 0 0 1 206.53542 179.60193] CT
N
f-1057828618
f
GR
GS
[1 0 0 1 231.79311 228.92305] CT
N
f-1057828618
f
GR
GS
[1 0 0 1 199.69562 262.82224] CT
N
f-1057828618
f
GR
GS
[1 0 0 1 203.62173 235.61737] CT
N
f-1057828618
f
GR
GS
[1 0 0 1 270.78445 153.76642] CT
N
f-1057828618
f
GR
GS
[1 0 0 1 207.10158 185.23503] CT
N
f-1057828618
f
GR
GS
[1 0 0 1 233.7683 168.07085] CT
N
f-1057828618
f
GR
GS
[1 0 0 1 197.25322 203.68945] CT
N
f-1057828618
f
GR
GS
[1 0 0 1 212.15233 221.11562] CT
N
f-1057828618
f
GR
GS
[1 0 0 1 222.22383 179.21118] CT
N
f-1057828618
f
GR
GS
[1 0 0 1 193.31996 253.07269] CT
N
f-1057828618
f
GR
GS
[1 0 0 1 192.1691 292.73053] CT
N
f-1057828618
f
GR
GS
[1 0 0 1 223.83406 196.01768] CT
N
f-1057828618
f
GR
GS
[1 0 0 1 245.75414 159.69189] CT
N
f-1057828618
f
GR
GS
[1 0 0 1 260.35098 102.21398] CT
N
f-1057828618
f
GR
GS
[1 0 0 1 258.06473 128.56056] CT
N
f-1057828618
f
GR
GS
[1 0 0 1 259.36111 117.14254] CT
N
f-1057828618
f
GR
GS
[1 0 0 1 202.57805 170.80339] CT
N
f-1057828618
f
GR
GS
[1 0 0 1 287.72925 84.34715] CT
N
f-1057828618
f
GR
GS
[1 0 0 1 246.46967 91.49424] CT
N
f-1057828618
f
GR
GS
[1 0 0 1 223.05385 257.22177] CT
N
f-1057828618
f
GR
GS
[1 0 0 1 217.1219 224.18094] CT
N
f-1057828618
f
GR
GS
[1 0 0 1 295.64471 52.66224] CT
N
f-1057828618
f
GR
GS
[1 0 0 1 214.72226 260.7121] CT
N
f-1057828618
f
GR
GS
[1 0 0 1 159.03874 329.17188] CT
N
f-1057828618
f
GR
GS
[1 0 0 1 184.90503 275.24658] CT
N
f-1057828618
f
GR
GS
[1 0 0 1 258.66486 135.29047] CT
N
f-1057828618
f
GR
GS
[1 0 0 1 258.83026 156.54053] CT
N
f-1057828618
f
GR
GS
[1 0 0 1 176.52524 263.03458] CT
N
f-1057828618
f
GR
GS
[1 0 0 1 204.94749 311.08582] CT
N
f-1057828618
f
GR
GS
[1 0 0 1 266.06653 78.29083] CT
N
f-1057828618
f
GR
GS
[1 0 0 1 245.11749 222.82744] CT
N
f-1057828618
f
GR
GS
[1 0 0 1 197.08192 299.11139] CT
N
f-1057828618
f
GR
GS
[1 0 0 1 255.55159 161.76045] CT
N
f-1057828618
f
GR
GS
[1 0 0 1 197.0648 221.69893] CT
N
f-1057828618
f
GR
GS
[1 0 0 1 241.37276 278.98923] CT
N
f-1057828618
f
GR
GS
[1 0 0 1 260.84766 291.57611] CT
N
f-1057828618
f
GR
GS
[1 0 0 1 195.88643 319.79703] CT
N
f-1057828618
f
GR
GS
[1 0 0 1 254.82921 193.04427] CT
N
f-1057828618
f
GR
GS
[1 0 0 1 232.13107 228.82626] CT
N
f-1057828618
f
GR
GS
[1 0 0 1 262.13644 150.55138] CT
N
f-1057828618
f
GR
GS
[1 0 0 1 202.84758 277.32706] CT
N
f-1057828618
f
GR
GS
[1 0 0 1 210.07361 305.48492] CT
N
f-1057828618
f
GR
GS
[1 0 0 1 240.28079 139.12015] CT
N
f-1057828618
f
GR
GS
[1 0 0 1 222.29489 238.35886] CT
N
f-1057828618
f
GR
GS
[1 0 0 1 229.69252 217.12891] CT
N
f-1057828618
f
GR
GS
[1 0 0 1 245.28825 182.72125] CT
N
f-1057828618
f
GR
GS
[1 0 0 1 331.56229 118.40415] CT
N
f-1057828618
f
GR
GS
[1 0 0 1 188.97238 193.14539] CT
N
f-1057828618
f
GR
GS
[1 0 0 1 194.20662 312.72177] CT
N
f-1057828618
f
GR
GS
[1 0 0 1 296.40207 53.59988] CT
N
f-1057828618
f
GR
GS
[1 0 0 1 200.70448 217.69604] CT
N
f-1057828618
f
GR
GS
[1 0 0 1 265.38779 86.49377] CT
N
f-1057828618
f
GR
GS
[1 0 0 1 157.74629 313.52756] CT
N
f-1057828618
f
GR
GS
[1 0 0 1 184.80533 279.18979] CT
N
f-1057828618
f
GR
GS
[1 0 0 1 143.1888 321.20422] CT
N
f-1057828618
f
GR
GS
[1 0 0 1 173.26913 300.28534] CT
N
f-1057828618
f
GR
GS
[1 0 0 1 191.70352 276.62927] CT
N
f-1057828618
f
GR
GS
[1 0 0 1 178.02585 279.7475] CT
N
f-1057828618
f
GR
GS
[1 0 0 1 212.3398 309.87411] CT
N
f-1057828618
f
GR
GS
[1 0 0 1 192.89688 208.43471] CT
N
f-1057828618
f
GR
GS
[1 0 0 1 211.48988 219.72249] CT
N
f-1057828618
f
GR
GS
[1 0 0 1 204.82835 220.66403] CT
N
f-1057828618
f
GR
GS
[1 0 0 1 222.14455 178.70441] CT
N
f-1057828618
f
GR
GS
[1 0 0 1 255.92133 142.95239] CT
N
f-1057828618
f
GR
GS
[1 0 0 1 185.20981 319.2663] CT
N
f-1057828618
f
GR
GS
[1 0 0 1 180.54861 289.00839] CT
N
f-1057828618
f
GR
GS
[1 0 0 1 264.02567 125.81367] CT
N
f-1057828618
f
GR
GS
[1 0 0 1 238.27728 131.65971] CT
N
f-1057828618
f
GR
GS
[1 0 0 1 292.3634 60.76302] CT
N
f-1057828618
f
GR
GS
[1 0 0 1 269.25809 154.73199] CT
N
f-1057828618
f
GR
GS
[1 0 0 1 181.19969 274.84851] CT
N
f-1057828618
f
GR
GS
[1 0 0 1 209.70609 305.81799] CT
N
f-1057828618
f
GR
GS
[1 0 0 1 212.30887 197.57715] CT
N
f-1057828618
f
GR
GS
[1 0 0 1 298.3811 58.90131] CT
N
f-1057828618
f
GR
GS
[1 0 0 1 195.42964 233.31575] CT
N
f-1057828618
f
GR
GS
[1 0 0 1 177.68787 283.24286] CT
N
f-1057828618
f
GR
GS
[1 0 0 1 254.52275 107.30563] CT
N
f-1057828618
f
GR
GS
[1 0 0 1 198.18266 221.76566] CT
N
f-1057828618
f
GR
GS
[1 0 0 1 178.36569 256.68158] CT
N
f-1057828618
f
GR
GS
[1 0 0 1 223.02074 141.34302] CT
N
f-1057828618
f
GR
GS
[1 0 0 1 249.65137 122.41417] CT
N
f-1057828618
f
GR
GS
[1 0 0 1 257.67374 117.1317] CT
N
f-1057828618
f
GR
GS
[1 0 0 1 176.72643 278.46347] CT
N
f-1057828618
f
GR
GS
[1 0 0 1 212.04842 211.55678] CT
N
f-1057828618
f
GR
GS
[1 0 0 1 189.68091 255.3567] CT
N
f-1057828618
f
GR
GS
[1 0 0 1 277.65552 111.04018] CT
N
f-1057828618
f
GR
GS
[1 0 0 1 152.51324 298.02188] CT
N
f-1057828618
f
GR
GS
[1 0 0 1 192.49306 291.93872] CT
N
f-1057828618
f
GR
GS
[1 0 0 1 188.96146 228.8031] CT
N
f-1057828618
f
GR
GS
[1 0 0 1 225.52298 230.70917] CT
N
f-1057828618
f
GR
GS
[1 0 0 1 324.9194 46.03207] CT
N
f-1057828618
f
GR
GS
[1 0 0 1 265.46774 116.21147] CT
N
f-1057828618
f
GR
GS
[1 0 0 1 162.76663 258.67798] CT
N
f-1057828618
f
GR
GS
[1 0 0 1 207.60251 239.31186] CT
N
f-1057828618
f
GR
GS
[1 0 0 1 174.18109 285.3811] CT
N
f-1057828618
f
GR
GS
[1 0 0 1 304.22192 53.91775] CT
N
f-1057828618
f
GR
GS
[1 0 0 1 194.42415 285.86813] CT
N
f-1057828618
f
GR
GS
[1 0 0 1 246.26782 187.17236] CT
N
f-1057828618
f
GR
GS
[1 0 0 1 224.1062 153.24126] CT
N
f-1057828618
f
GR
GS
[1 0 0 1 215.47398 208.20329] CT
N
f-1057828618
f
GR
GS
[1 0 0 1 226.33266 117.45356] CT
N
f-1057828618
f
GR
GS
[1 0 0 1 244.61833 179.10826] CT
N
f-1057828618
f
GR
GS
[1 0 0 1 178.28268 273.98264] CT
N
f-1057828618
f
GR
GS
[1 0 0 1 194.29083 264.38162] CT
N
f-1057828618
f
GR
GS
[1 0 0 1 260.22836 110.21129] CT
N
f-1057828618
f
GR
GS
[1 0 0 1 242.4814 169.35539] CT
N
f-1057828618
f
GR
GS
[1 0 0 1 159.12347 307.07376] CT
N
f-1057828618
f
GR
GS
[1 0 0 1 280.27075 88.72622] CT
N
f-1057828618
f
GR
GS
[1 0 0 1 205.00916 184.46143] CT
N
f-1057828618
f
GR
GS
[1 0 0 1 188.05186 172.49179] CT
N
f-1057828618
f
GR
GS
[1 0 0 1 225.71217 216.9593] CT
N
f-1057828618
f
GR
GS
[1 0 0 1 345.56119 122.5339] CT
N
f-1057828618
f
GR
GS
[1 0 0 1 215.37532 245.95] CT
N
f-1057828618
f
GR
GS
[1 0 0 1 350.89676 85.3773] CT
N
f-1057828618
f
GR
GS
[1 0 0 1 164.5484 248.86154] CT
N
f-1057828618
f
GR
GS
[1 0 0 1 192.08496 247.84651] CT
N
f-1057828618
f
GR
GS
[1 0 0 1 310.2222 49.86531] CT
N
f-1057828618
f
GR
GS
[1 0 0 1 206.81847 230.33197] CT
N
f-1057828618
f
GR
GS
[1 0 0 1 196.51515 228.32391] CT
N
f-1057828618
f
GR
GS
[1 0 0 1 224.0231 266.35507] CT
N
f-1057828618
f
GR
GS
[1 0 0 1 230.5903 97.49469] CT
N
f-1057828618
f
GR
GS
[1 0 0 1 205.30666 218.35083] CT
N
f-1057828618
f
GR
GS
[1 0 0 1 217.22586 290.68552] CT
N
f-1057828618
f
GR
GS
[1 0 0 1 171.81407 295.72086] CT
N
f-1057828618
f
GR
GS
[1 0 0 1 264.72745 177.54745] CT
N
f-1057828618
f
GR
GS
[1 0 0 1 223.97873 254.0121] CT
N
f-1057828618
f
GR
GS
[1 0 0 1 251.42805 164.91411] CT
N
f-1057828618
f
GR
GS
[1 0 0 1 309.25876 86.08622] CT
N
f-1057828618
f
GR
GS
[1 0 0 1 168.88179 311.15668] CT
N
f-1057828618
f
GR
GS
[1 0 0 1 209.9942 253.84927] CT
N
f-1057828618
f
GR
GS
[1 0 0 1 187.18922 224.97314] CT
N
f-1057828618
f
GR
GS
[1 0 0 1 252.761 134.11769] CT
N
f-1057828618
f
GR
GS
[1 0 0 1 219.87732 241.68735] CT
N
f-1057828618
f
GR
GS
[1 0 0 1 222.17355 272.17319] CT
N
f-1057828618
f
GR
GS
[1 0 0 1 228.30078 165.47621] CT
N
f-1057828618
f
GR
GS
[1 0 0 1 149.34195 329.58856] CT
N
f-1057828618
f
GR
GS
[1 0 0 1 151.79105 327.51059] CT
N
f-1057828618
f
GR
GS
[1 0 0 1 174.80881 263.68069] CT
N
f-1057828618
f
GR
GS
[1 0 0 1 219.40131 127.47575] CT
N
f-1057828618
f
GR
GS
[1 0 0 1 216.12354 213.08926] CT
N
f-1057828618
f
GR
GS
[1 0 0 1 246.32155 128.3537] CT
N
f-1057828618
f
GR
GS
[1 0 0 1 228.12996 156.85632] CT
N
f-1057828618
f
GR
GS
[1 0 0 1 182.8981 269.03387] CT
N
f-1057828618
f
GR
GS
[1 0 0 1 161.89925 261.76129] CT
N
f-1057828618
f
GR
GS
[1 0 0 1 201.46071 177.16913] CT
N
f-1057828618
f
GR
GS
[1 0 0 1 236.62492 207.24338] CT
N
f-1057828618
f
GR
GS
[1 0 0 1 227.67873 166.72986] CT
N
f-1057828618
f
GR
GS
[1 0 0 1 223.6431 283.62201] CT
N
f-1057828618
f
GR
GS
[1 0 0 1 184.02643 321.298] CT
N
f-1057828618
f
GR
GS
[1 0 0 1 237.67682 174.90756] CT
N
f-1057828618
f
GR
GS
[1 0 0 1 161.07484 291.55804] CT
N
f-1057828618
f
GR
GS
[1 0 0 1 203.43539 208.11575] CT
N
f-1057828618
f
GR
GS
[1 0 0 1 178.95409 293.69434] CT
N
f-1057828618
f
GR
GS
[1 0 0 1 191.28705 235.66685] CT
N
f-1057828618
f
GR
GS
[1 0 0 1 186.58199 307.27438] CT
N
f-1057828618
f
GR
GS
[1 0 0 1 326.94162 55.90773] CT
N
f-1057828618
f
GR
GS
[1 0 0 1 252.69638 218.37936] CT
N
f-1057828618
f
GR
GS
[1 0 0 1 190.96507 277.52634] CT
N
f-1057828618
f
GR
GS
[1 0 0 1 316.67099 56.35284] CT
N
f-1057828618
f
GR
GS
[1 0 0 1 250.99297 161.724] CT
N
f-1057828618
f
GR
GS
[1 0 0 1 207.32657 202.80653] CT
N
f-1057828618
f
GR
GS
[1 0 0 1 158.72191 319.35559] CT
N
f-1057828618
f
GR
GS
[1 0 0 1 263.65897 141.05132] CT
N
f-1057828618
f
GR
GS
[1 0 0 1 209.63095 303.22003] CT
N
f-1057828618
f
GR
GS
[1 0 0 1 190.84328 267.57318] CT
N
f-1057828618
f
GR
GS
[1 0 0 1 166.40578 316.86911] CT
N
f-1057828618
f
GR
GS
[1 0 0 1 242.98534 235.1877] CT
N
f-1057828618
f
GR
GS
[1 0 0 1 189.51097 309.91626] CT
N
f-1057828618
f
GR
GS
[1 0 0 1 174.6357 261.36465] CT
N
f-1057828618
f
GR
GS
[1 0 0 1 280.17422 103.53102] CT
N
f-1057828618
f
GR
GS
[1 0 0 1 228.35124 166.13686] CT
N
f-1057828618
f
GR
GS
[1 0 0 1 199.84891 295.31921] CT
N
f-1057828618
f
GR
GS
[1 0 0 1 281.15411 100.05415] CT
N
f-1057828618
f
GR
GS
[1 0 0 1 234.2538 144.17085] CT
N
f-1057828618
f
GR
GS
[1 0 0 1 287.51617 44.81516] CT
N
f-1057828618
f
GR
GS
[1 0 0 1 212.3093 232.92384] CT
N
f-1057828618
f
GR
GS
[1 0 0 1 265.25534 145.49385] CT
N
f-1057828618
f
GR
GS
[1 0 0 1 223.52177 123.70129] CT
N
f-1057828618
f
GR
GS
[1 0 0 1 206.39876 232.81058] CT
N
f-1057828618
f
GR
GS
[1 0 0 1 186.25581 285.55823] CT
N
f-1057828618
f
GR
GS
[1 0 0 1 196.63071 235.05388] CT
N
f-1057828618
f
GR
GS
[1 0 0 1 226.01622 198.45665] CT
N
f-1057828618
f
GR
GS
[1 0 0 1 252.34645 163.80757] CT
N
f-1057828618
f
GR
GS
[1 0 0 1 186.41 304.86075] CT
N
f-1057828618
f
GR
GS
[1 0 0 1 286.54031 168.22322] CT
N
f-1057828618
f
GR
GS
[1 0 0 1 206.36255 242.30315] CT
N
f-1057828618
f
GR
GS
[1 0 0 1 216.89717 193.94426] CT
N
f-1057828618
f
GR
GS
[1 0 0 1 174.78122 304.75555] CT
N
f-1057828618
f
GR
GS
[1 0 0 1 231.21939 98.37026] CT
N
f-1057828618
f
GR
GS
[1 0 0 1 220.73827 218.4138] CT
N
f-1057828618
f
GR
GS
[1 0 0 1 201.83148 232.10942] CT
N
f-1057828618
f
GR
GS
[1 0 0 1 224.21873 196.02943] CT
N
f-1057828618
f
GR
GS
[1 0 0 1 193.41959 270.70264] CT
N
f-1057828618
f
GR
GS
[1 0 0 1 245.73773 143.26938] CT
N
f-1057828618
f
GR
GS
[1 0 0 1 200.46838 216.56094] CT
N
f-1057828618
f
GR
GS
[1 0 0 1 268.74387 119.4487] CT
N
f-1057828618
f
GR
GS
[1 0 0 1 270.23785 226.85783] CT
N
f-1057828618
f
GR
GS
[1 0 0 1 213.56639 263.13751] CT
N
f-1057828618
f
GR
GS
[1 0 0 1 211.03787 307.0209] CT
N
f-1057828618
f
GR
GS
[1 0 0 1 219.9409 270.70816] CT
N
f-1057828618
f
GR
GS
[1 0 0 1 221.10426 198.87039] CT
N
f-1057828618
f
GR
GS
[1 0 0 1 175.65685 283.28052] CT
N
f-1057828618
f
GR
GS
[1 0 0 1 168.4028 274.59048] CT
N
f-1057828618
f
GR
GS
[1 0 0 1 242.24828 155.06728] CT
N
f-1057828618
f
GR
GS
[1 0 0 1 209.49911 156.10785] CT
N
f-1057828618
f
GR
GS
[1 0 0 1 218.26431 293.68481] CT
N
f-1057828618
f
GR
GS
[1 0 0 1 262.08313 97.63712] CT
N
f-1057828618
f
GR
GS
[1 0 0 1 188.4648 316.86142] CT
N
f-1057828618
f
GR
GS
[1 0 0 1 159.42479 321.77979] CT
N
f-1057828618
f
GR
GS
[1 0 0 1 262.3298 87.66397] CT
N
f-1057828618
f
GR
GS
[1 0 0 1 275.56958 76.13365] CT
N
f-1057828618
f
GR
GS
[1 0 0 1 223.63661 226.8969] CT
N
f-1057828618
f
GR
GS
[1 0 0 1 263.47543 119.60548] CT
N
f-1057828618
f
GR
GS
[1 0 0 1 250.32845 135.14485] CT
N
f-1057828618
f
GR
GS
[1 0 0 1 225.46783 198.89664] CT
N
f-1057828618
f
GR
GS
[1 0 0 1 208.12303 216.64951] CT
N
f-1057828618
f
GR
GS
[1 0 0 1 164.8365 311.08923] CT
N
f-1057828618
f
GR
GS
[1 0 0 1 169.10062 282.66235] CT
N
f-1057828618
f
GR
GS
[1 0 0 1 196.77901 294.93317] CT
N
f-1057828618
f
GR
GS
[1 0 0 1 195.19444 259.13049] CT
N
f-1057828618
f
GR
GS
[1 0 0 1 198.37393 164.42007] CT
N
f-1057828618
f
GR
GS
[1 0 0 1 240.47682 172.10162] CT
N
f-1057828618
f
GR
GS
[1 0 0 1 203.76808 272.26959] CT
N
f-1057828618
f
GR
GS
[1 0 0 1 189.40601 276.19888] CT
N
f-1057828618
f
GR
GS
[1 0 0 1 276.41696 72.06123] CT
N
f-1057828618
f
GR
GS
[1 0 0 1 166.26932 301.20486] CT
N
f-1057828618
f
GR
GS
[1 0 0 1 313.6889 68.00224] CT
N
f-1057828618
f
GR
GS
[1 0 0 1 158.80266 298.70621] CT
N
f-1057828618
f
GR
GS
[1 0 0 1 194.83015 313.58234] CT
N
f-1057828618
f
GR
GS
[1 0 0 1 179.20715 315.40103] CT
N
f-1057828618
f
GR
GS
[1 0 0 1 380.55893 37.20571] CT
N
f-1057828618
f
GR
GS
[1 0 0 1 188.81482 263.6825] CT
N
f-1057828618
f
GR
GS
[1 0 0 1 255.07056 144.50713] CT
N
f-1057828618
f
GR
GS
[1 0 0 1 188.64699 272.0354] CT
N
f-1057828618
f
GR
GS
[1 0 0 1 257.36536 188.95625] CT
N
f-1057828618
f
GR
GS
[1 0 0 1 282.0697 74.88974] CT
N
f-1057828618
f
GR
GS
[1 0 0 1 296.62149 80.42236] CT
N
f-1057828618
f
GR
GS
[1 0 0 1 147.86879 299.00021] CT
N
f-1057828618
f
GR
GS
[1 0 0 1 213.28329 192.08606] CT
N
f-1057828618
f
GR
GS
[1 0 0 1 200.76799 220.26944] CT
N
f-1057828618
f
GR
GS
[1 0 0 1 191.57167 277.52585] CT
N
f-1057828618
f
GR
GS
[1 0 0 1 233.44363 174.25464] CT
N
f-1057828618
f
GR
GS
[1 0 0 1 201.814 267.65829] CT
N
f-1057828618
f
GR
GS
[1 0 0 1 200.15945 302.6329] CT
N
f-1057828618
f
GR
GS
[1 0 0 1 182.5826 199.26016] CT
N
f-1057828618
f
GR
GS
[1 0 0 1 237.94646 184.14987] CT
N
f-1057828618
f
GR
GS
[1 0 0 1 202.48801 248.66159] CT
N
f-1057828618
f
GR
GS
[1 0 0 1 261.47964 85.48688] CT
N
f-1057828618
f
GR
GS
[1 0 0 1 171.7774 295.83414] CT
N
f-1057828618
f
GR
GS
[1 0 0 1 176.688 239.242] CT
N
f-1057828618
f
GR
GS
[1 0 0 1 206.14894 292.33438] CT
N
f-1057828618
f
GR
GS
[1 0 0 1 256.61508 106.40483] CT
N
f-1057828618
f
GR
GS
[1 0 0 1 183.21201 270.50351] CT
N
f-1057828618
f
GR
GS
[1 0 0 1 180.96388 277.93546] CT
N
f-1057828618
f
GR
GS
[1 0 0 1 295.74265 50.81613] CT
N
f-1057828618
f
GR
GS
[1 0 0 1 289.983 81.87116] CT
N
f-1057828618
f
GR
GS
[1 0 0 1 242.47169 161.60477] CT
N
f-1057828618
f
GR
GS
[1 0 0 1 288.36746 67.38408] CT
N
f-1057828618
f
GR
GS
[1 0 0 1 189.98106 241.74121] CT
N
f-1057828618
f
GR
GS
[1 0 0 1 181.63123 248.30717] CT
N
f-1057828618
f
GR
GS
[1 0 0 1 282.85812 149.96892] CT
N
f-1057828618
f
GR
GS
[1 0 0 1 219.18607 216.11673] CT
N
f-1057828618
f
GR
GS
[1 0 0 1 257.59467 195.51208] CT
N
f-1057828618
f
GR
GS
[1 0 0 1 164.49916 303.78891] CT
N
f-1057828618
f
GR
GS
[1 0 0 1 253.35719 160.43365] CT
N
f-1057828618
f
GR
GS
[1 0 0 1 183.47914 289.7695] CT
N
f-1057828618
f
GR
GS
[1 0 0 1 258.94662 148.88924] CT
N
f-1057828618
f
GR
GS
[1 0 0 1 238.91739 173.84625] CT
N
f-1057828618
f
GR
GS
[1 0 0 1 195.81113 295.4476] CT
N
f-1057828618
f
GR
GS
[1 0 0 1 174.59392 278.38272] CT
N
f-1057828618
f
GR
GS
[1 0 0 1 336.88214 72.66901] CT
N
f-1057828618
f
GR
GS
[1 0 0 1 186.93468 232.88716] CT
N
f-1057828618
f
GR
GS
[1 0 0 1 266.44421 193.66046] CT
N
f-1057828618
f
GR
GS
[1 0 0 1 192.18707 203.27971] CT
N
f-1057828618
f
GR
GS
[1 0 0 1 193.28362 254.23593] CT
N
f-1057828618
f
GR
GS
[1 0 0 1 232.80356 138.00026] CT
N
f-1057828618
f
GR
GS
[1 0 0 1 289.5574 158.71571] CT
N
f-1057828618
f
GR
GS
[1 0 0 1 161.25529 319.81628] CT
N
f-1057828618
f
GR
GS
[1 0 0 1 227.84674 173.53702] CT
N
f-1057828618
f
GR
GS
[1 0 0 1 183.26949 303.72446] CT
N
f-1057828618
f
GR
GS
[1 0 0 1 247.77328 99.70976] CT
N
f-1057828618
f
GR
GS
[1 0 0 1 229.34898 203.75217] CT
N
f-1057828618
f
GR
GS
[1 0 0 1 165.43352 294.58557] CT
N
f-1057828618
f
GR
GS
[1 0 0 1 228.41089 178.13765] CT
N
f-1057828618
f
GR
GS
[1 0 0 1 241.93138 144.03894] CT
N
f-1057828618
f
GR
GS
[1 0 0 1 313.44141 126.16411] CT
N
f-1057828618
f
GR
GS
[1 0 0 1 217.48338 287.69888] CT
N
f-1057828618
f
GR
GS
[1 0 0 1 260.93448 64.51807] CT
N
f-1057828618
f
GR
GS
[1 0 0 1 232.4778 298.59509] CT
N
f-1057828618
f
GR
GS
[1 0 0 1 220.33615 301.06793] CT
N
f-1057828618
f
GR
GS
[1 0 0 1 241.44574 182.99077] CT
N
f-1057828618
f
GR
GS
[1 0 0 1 269.49438 237.5898] CT
N
f-1057828618
f
GR
GS
[1 0 0 1 222.86751 192.98671] CT
N
f-1057828618
f
GR
GS
[1 0 0 1 205.34294 207.43608] CT
N
f-1057828618
f
GR
GS
[1 0 0 1 170.69565 299.32935] CT
N
f-1057828618
f
GR
GS
[1 0 0 1 273.93692 181.29234] CT
N
f-1057828618
f
GR
GS
[1 0 0 1 171.19295 301.25922] CT
N
f-1057828618
f
GR
GS
[1 0 0 1 262.76352 82.7035] CT
N
f-1057828618
f
GR
GS
[1 0 0 1 271.47092 77.94324] CT
N
f-1057828618
f
GR
GS
[1 0 0 1 228.29323 207.1088] CT
N
f-1057828618
f
GR
GS
[1 0 0 1 179.95032 289.24615] CT
N
f-1057828618
f
GR
GS
[1 0 0 1 246.9994 124.11621] CT
N
f-1057828618
f
GR
GS
[1 0 0 1 200.42845 235.55809] CT
N
f-1057828618
f
GR
GS
[1 0 0 1 242.03886 220.42992] CT
N
f-1057828618
f
GR
GS
[1 0 0 1 244.8768 157.22455] CT
N
f-1057828618
f
GR
GS
[1 0 0 1 177.51067 239.88423] CT
N
f-1057828618
f
GR
GS
[1 0 0 1 278.8671 275.15778] CT
N
f-1057828618
f
GR
GS
[1 0 0 1 174.14809 300.20493] CT
N
f-1057828618
f
GR
GS
[1 0 0 1 236.50926 173.56586] CT
N
f-1057828618
f
GR
GS
[1 0 0 1 207.07196 277.11197] CT
N
f-1057828618
f
GR
GS
[1 0 0 1 190.61595 281.51123] CT
N
f-1057828618
f
GR
GS
[1 0 0 1 265.42325 38.93204] CT
N
f-1057828618
f
GR
GS
[1 0 0 1 211.42482 265.82574] CT
N
f-1057828618
f
GR
GS
[1 0 0 1 258.36115 222.03636] CT
N
f-1057828618
f
GR
GS
[1 0 0 1 302.72351 117.05748] CT
N
f-1057828618
f
GR
GS
[1 0 0 1 208.47295 247.84602] CT
N
f-1057828618
f
GR
GS
[1 0 0 1 284.91083 73.94746] CT
N
f-1057828618
f
GR
GS
[1 0 0 1 221.05115 181.41745] CT
N
f-1057828618
f
GR
GS
[1 0 0 1 252.36078 236.99335] CT
N
f-1057828618
f
GR
GS
[1 0 0 1 276.13782 60.01597] CT
N
f-1057828618
f
GR
GS
[1 0 0 1 286.0965 116.62906] CT
N
f-1057828618
f
GR
GS
[1 0 0 1 310.87924 34.76734] CT
N
f-1057828618
f
GR
GS
[1 0 0 1 259.63962 96.62466] CT
N
f-1057828618
f
GR
GS
[1 0 0 1 285.70325 60.0698] CT
N
f-1057828618
f
GR
GS
[1 0 0 1 280.74768 47.75168] CT
N
f-1057828618
f
GR
GS
[1 0 0 1 247.27284 264.21255] CT
N
f-1057828618
f
GR
GS
[1 0 0 1 190.38826 259.3671] CT
N
f-1057828618
f
GR
GS
[1 0 0 1 310.90808 78.88014] CT
N
f-1057828618
f
GR
GS
[1 0 0 1 273.86835 78.68406] CT
N
f-1057828618
f
GR
GS
[1 0 0 1 228.32101 201.14192] CT
N
f-1057828618
f
GR
GS
[1 0 0 1 247.57449 162.62685] CT
N
f-1057828618
f
GR
GS
[1 0 0 1 172.00305 262.03799] CT
N
f-1057828618
f
GR
GS
[1 0 0 1 224.33386 192.94458] CT
N
f-1057828618
f
GR
GS
[1 0 0 1 212.68697 222.56267] CT
N
f-1057828618
f
GR
GS
[1 0 0 1 296.92957 48.72552] CT
N
f-1057828618
f
GR
GS
[1 0 0 1 228.78638 289.23203] CT
N
f-1057828618
f
GR
GS
[1 0 0 1 282.61835 57.97802] CT
N
f-1057828618
f
GR
GS
[1 0 0 1 260.0657 237.29816] CT
N
f-1057828618
f
GR
GS
[1 0 0 1 184.79492 273.20862] CT
N
f-1057828618
f
GR
GS
[1 0 0 1 292.8053 155.92703] CT
N
f-1057828618
f
GR
GS
[1 0 0 1 314.83755 117.95855] CT
N
f-1057828618
f
GR
GS
[1 0 0 1 196.28998 240.54462] CT
N
f-1057828618
f
GR
GS
[1 0 0 1 160.50735 285.83798] CT
N
f-1057828618
f
GR
GS
[1 0 0 1 230.61145 179.38617] CT
N
f-1057828618
f
GR
GS
[1 0 0 1 202.34508 223.62064] CT
N
f-1057828618
f
GR
GS
[1 0 0 1 226.42879 225.14883] CT
N
f-1057828618
f
GR
GS
[1 0 0 1 291.09219 36.35944] CT
N
f-1057828618
f
GR
GS
[1 0 0 1 187.69028 224.62856] CT
N
f-1057828618
f
GR
GS
[1 0 0 1 210.3721 252.29306] CT
N
f-1057828618
f
GR
GS
[1 0 0 1 233.95915 285.96033] CT
N
f-1057828618
f
GR
GS
[1 0 0 1 194.82957 242.68254] CT
N
f-1057828618
f
GR
GS
[1 0 0 1 261.7919 163.41165] CT
N
f-1057828618
f
GR
GS
[1 0 0 1 178.13361 317.38065] CT
N
f-1057828618
f
GR
GS
[1 0 0 1 211.94162 138.53276] CT
N
f-1057828618
f
GR
GS
[1 0 0 1 216.28465 293.18521] CT
N
f-1057828618
f
GR
GS
[1 0 0 1 221.07599 170.59201] CT
N
f-1057828618
f
GR
GS
[1 0 0 1 234.43442 224.96254] CT
N
f-1057828618
f
GR
GS
[1 0 0 1 256.47333 242.75562] CT
N
f-1057828618
f
GR
GS
[1 0 0 1 210.14262 228.24252] CT
N
f-1057828618
f
GR
GS
[1 0 0 1 191.36513 264.01437] CT
N
f-1057828618
f
GR
GS
[1 0 0 1 248.44855 173.56233] CT
N
f-1057828618
f
GR
GS
[1 0 0 1 229.91336 247.72772] CT
N
f-1057828618
f
GR
GS
[1 0 0 1 276.44394 130.60265] CT
N
f-1057828618
f
GR
GS
[1 0 0 1 195.80081 269.83014] CT
N
f-1057828618
f
GR
GS
[1 0 0 1 205.48241 227.37038] CT
N
f-1057828618
f
GR
GS
[1 0 0 1 236.96722 162.40546] CT
N
f-1057828618
f
GR
GS
[1 0 0 1 261.96878 76.83721] CT
N
f-1057828618
f
GR
GS
[1 0 0 1 262.263 169.70256] CT
N
f-1057828618
f
GR
GS
[1 0 0 1 234.30814 130.63441] CT
N
f-1057828618
f
GR
GS
[1 0 0 1 263.73306 177.03209] CT
N
f-1057828618
f
GR
GS
[1 0 0 1 268.79321 171.9666] CT
N
f-1057828618
f
GR
GS
[1 0 0 1 207.53197 207.12794] CT
N
f-1057828618
f
GR
GS
[1 0 0 1 230.36278 187.17773] CT
N
f-1057828618
f
GR
GS
[1 0 0 1 247.8848 132.68439] CT
N
f-1057828618
f
GR
GS
[1 0 0 1 251.13528 286.52591] CT
N
f-1057828618
f
GR
GS
[1 0 0 1 208.43675 300.10065] CT
N
f-1057828618
f
GR
GS
[1 0 0 1 273.19638 124.26334] CT
N
f-1057828618
f
GR
GS
[1 0 0 1 277.28864 101.63018] CT
N
f-1057828618
f
GR
GS
[1 0 0 1 206.19556 240.62926] CT
N
f-1057828618
f
GR
GS
[1 0 0 1 204.99858 255.13454] CT
N
f-1057828618
f
GR
GS
[1 0 0 1 211.68307 264.34131] CT
N
f-1057828618
f
GR
GS
[1 0 0 1 200.85478 263.8757] CT
N
f-1057828618
f
GR
GS
[1 0 0 1 253.65616 208.56201] CT
N
f-1057828618
f
GR
GS
[1 0 0 1 198.62204 270.38962] CT
N
f-1057828618
f
GR
GS
[1 0 0 1 292.69928 93.374] CT
N
f-1057828618
f
GR
GS
[1 0 0 1 275.43884 97.83504] CT
N
f-1057828618
f
GR
GS
[1 0 0 1 212.44592 201.86928] CT
N
f-1057828618
f
GR
GS
[1 0 0 1 158.59802 304.052] CT
N
f-1057828618
f
GR
GS
[1 0 0 1 258.28445 205.33347] CT
N
f-1057828618
f
GR
GS
[1 0 0 1 189.32454 299.15659] CT
N
f-1057828618
f
GR
GS
[1 0 0 1 202.13324 250.5107] CT
N
f-1057828618
f
GR
GS
[1 0 0 1 184.99081 276.19339] CT
N
f-1057828618
f
GR
GS
[1 0 0 1 180.12048 276.74939] CT
N
f-1057828618
f
GR
GS
[1 0 0 1 200.15903 308.48535] CT
N
f-1057828618
f
GR
GS
[1 0 0 1 249.35301 162.54222] CT
N
f-1057828618
f
GR
GS
[1 0 0 1 228.01938 232.97972] CT
N
f-1057828618
f
GR
GS
[1 0 0 1 235.7056 103.87484] CT
N
f-1057828618
f
GR
GS
[1 0 0 1 241.39005 247.54329] CT
N
f-1057828618
f
GR
GS
[1 0 0 1 168.48315 278.0387] CT
N
f-1057828618
f
GR
GS
[1 0 0 1 181.89568 294.2359] CT
N
f-1057828618
f
GR
GS
[1 0 0 1 226.24536 175.95049] CT
N
f-1057828618
f
GR
GS
[1 0 0 1 184.56528 279.14468] CT
N
f-1057828618
f
GR
GS
[1 0 0 1 197.93059 195.50687] CT
N
f-1057828618
f
GR
GS
[1 0 0 1 238.52667 186.6329] CT
N
f-1057828618
f
GR
GS
[1 0 0 1 227.47943 246.91338] CT
N
f-1057828618
f
GR
GS
[1 0 0 1 302.74786 129.91884] CT
N
f-1057828618
f
GR
GS
[1 0 0 1 287.32483 69.1216] CT
N
f-1057828618
f
GR
GS
[1 0 0 1 278.96954 96.11885] CT
N
f-1057828618
f
GR
GS
[1 0 0 1 242.04752 119.34071] CT
N
f-1057828618
f
GR
GS
[1 0 0 1 233.14745 163.92566] CT
N
f-1057828618
f
GR
GS
[1 0 0 1 283.07404 111.18063] CT
N
f-1057828618
f
GR
GS
[1 0 0 1 305.16345 75.52305] CT
N
f-1057828618
f
GR
GS
[1 0 0 1 160.90297 312.9382] CT
N
f-1057828618
f
GR
GS
[1 0 0 1 182.31512 295.53381] CT
N
f-1057828618
f
GR
GS
[1 0 0 1 205.41806 194.0459] CT
N
f-1057828618
f
GR
GS
[1 0 0 1 180.96104 279.34213] CT
N
f-1057828618
f
GR
GS
[1 0 0 1 211.97328 253.21571] CT
N
f-1057828618
f
GR
GS
[1 0 0 1 215.43512 219.04266] CT
N
f-1057828618
f
GR
GS
[1 0 0 1 213.13484 210.70456] CT
N
f-1057828618
f
GR
GS
[1 0 0 1 162.87254 308.49933] CT
N
f-1057828618
f
GR
GS
[1 0 0 1 203.85396 274.81042] CT
N
f-1057828618
f
GR
GS
[1 0 0 1 181.17969 292.27148] CT
N
f-1057828618
f
GR
GS
[1 0 0 1 167.80907 321.02423] CT
N
f-1057828618
f
GR
GS
[1 0 0 1 202.7141 227.27518] CT
N
f-1057828618
f
GR
GS
[1 0 0 1 167.79276 301.15994] CT
N
f-1057828618
f
GR
GS
[1 0 0 1 195.15663 254.57596] CT
N
f-1057828618
f
GR
GS
[1 0 0 1 262.19507 162.70076] CT
N
f-1057828618
f
GR
GS
[1 0 0 1 202.13261 252.10315] CT
N
f-1057828618
f
GR
GS
[1 0 0 1 174.8309 283.59558] CT
N
f-1057828618
f
GR
GS
[1 0 0 1 242.81418 92.1938] CT
N
f-1057828618
f
GR
GS
[1 0 0 1 245.23331 205.27992] CT
N
f-1057828618
f
GR
GS
[1 0 0 1 259.35602 43.64083] CT
N
f-1057828618
f
GR
GS
[1 0 0 1 208.68614 237.64056] CT
N
f-1057828618
f
GR
GS
[1 0 0 1 203.03285 243.9926] CT
N
f-1057828618
f
GR
GS
[1 0 0 1 275.8432 109.42189] CT
N
f-1057828618
f
GR
GS
[1 0 0 1 268.98746 98.43999] CT
N
f-1057828618
f
GR
GS
[1 0 0 1 230.14717 196.65895] CT
N
f-1057828618
f
GR
GS
[1 0 0 1 175.51967 289.6694] CT
N
f-1057828618
f
GR
GS
[1 0 0 1 260.80765 123.2889] CT
N
f-1057828618
f
GR
GS
[1 0 0 1 194.96729 285.88095] CT
N
f-1057828618
f
GR
GS
[1 0 0 1 174.6741 306.24985] CT
N
f-1057828618
f
GR
GS
[1 0 0 1 231.19893 206.67943] CT
N
f-1057828618
f
GR
GS
[1 0 0 1 183.15332 308.26422] CT
N
f-1057828618
f
GR
GS
[1 0 0 1 175.39401 306.87878] CT
N
f-1057828618
f
GR
GS
[1 0 0 1 329.27853 53.5847] CT
N
f-1057828618
f
GR
GS
[1 0 0 1 147.76862 315.3154] CT
N
f-1057828618
f
GR
GS
[1 0 0 1 293.23935 104.51395] CT
N
f-1057828618
f
GR
GS
[1 0 0 1 257.776 288.84631] CT
N
f-1057828618
f
GR
GS
[1 0 0 1 206.10428 306.44827] CT
N
f-1057828618
f
GR
GS
[1 0 0 1 200.34641 292.15164] CT
N
f-1057828618
f
GR
GS
[1 0 0 1 236.81345 204.73589] CT
N
f-1057828618
f
GR
GS
[1 0 0 1 196.07426 296.63638] CT
N
f-1057828618
f
GR
GS
[1 0 0 1 223.26764 197.39827] CT
N
f-1057828618
f
GR
GS
[1 0 0 1 179.49858 315.04465] CT
N
f-1057828618
f
GR
GS
[1 0 0 1 203.08922 218.42415] CT
N
f-1057828618
f
GR
GS
[1 0 0 1 213.60007 215.52487] CT
N
f-1057828618
f
GR
GS
[1 0 0 1 281.40576 80.16821] CT
N
f-1057828618
f
GR
GS
[1 0 0 1 259.15076 106.35276] CT
N
f-1057828618
f
GR
GS
[1 0 0 1 224.80197 187.70293] CT
N
f-1057828618
f
GR
GS
[1 0 0 1 273.43701 118.85846] CT
N
f-1057828618
f
GR
GS
[1 0 0 1 294.01633 95.16756] CT
N
f-1057828618
f
GR
GS
[1 0 0 1 282.14557 156.42245] CT
N
f-1057828618
f
GR
GS
[1 0 0 1 169.45695 255.30635] CT
N
f-1057828618
f
GR
GS
[1 0 0 1 213.42476 250.9888] CT
N
f-1057828618
f
GR
GS
[1 0 0 1 179.86479 274.84137] CT
N
f-1057828618
f
GR
GS
[1 0 0 1 185.28943 253.49304] CT
N
f-1057828618
f
GR
GS
[1 0 0 1 236.40765 281.10532] CT
N
f-1057828618
f
GR
GS
[1 0 0 1 172.11877 306.99979] CT
N
f-1057828618
f
GR
GS
[1 0 0 1 168.67299 328.49774] CT
N
f-1057828618
f
GR
GS
[1 0 0 1 311.33047 36.24178] CT
N
f-1057828618
f
GR
GS
[1 0 0 1 206.21443 247.75897] CT
N
f-1057828618
f
GR
GS
[1 0 0 1 162.98926 309.85602] CT
N
f-1057828618
f
GR
GS
[1 0 0 1 227.55154 200.21191] CT
N
f-1057828618
f
GR
GS
[1 0 0 1 187.43526 286.79623] CT
N
f-1057828618
f
GR
GS
[1 0 0 1 191.31427 241.54242] CT
N
f-1057828618
f
GR
GS
[1 0 0 1 203.34579 183.91161] CT
N
f-1057828618
f
GR
GS
[1 0 0 1 223.99126 225.49207] CT
N
f-1057828618
f
GR
GS
[1 0 0 1 185.11464 317.81711] CT
N
f-1057828618
f
GR
GS
[1 0 0 1 282.17612 90.63148] CT
N
f-1057828618
f
GR
GS
[1 0 0 1 178.1525 264.99966] CT
N
f-1057828618
f
GR
GS
[1 0 0 1 204.7821 234.97388] CT
N
f-1057828618
f
GR
GS
[1 0 0 1 296.75092 99.35233] CT
N
f-1057828618
f
GR
GS
[1 0 0 1 163.74399 288.05453] CT
N
f-1057828618
f
GR
GS
[1 0 0 1 187.0854 237.79642] CT
N
f-1057828618
f
GR
GS
[1 0 0 1 197.81023 307.36157] CT
N
f-1057828618
f
GR
GS
[1 0 0 1 177.88918 275.60803] CT
N
f-1057828618
f
GR
GS
[1 0 0 1 297.97662 60.0225] CT
N
f-1057828618
f
GR
GS
[1 0 0 1 237.29715 223.18077] CT
N
f-1057828618
f
GR
GS
[1 0 0 1 317.82382 65.90486] CT
N
f-1057828618
f
GR
GS
[1 0 0 1 256.21008 102.18228] CT
N
f-1057828618
f
GR
GS
[1 0 0 1 255.679 139.91069] CT
N
f-1057828618
f
GR
GS
[1 0 0 1 214.03461 253.60835] CT
N
f-1057828618
f
GR
GS
[1 0 0 1 306.74771 62.92281] CT
N
f-1057828618
f
GR
GS
[1 0 0 1 291.88431 99.83945] CT
N
f-1057828618
f
GR
GS
[1 0 0 1 220.27321 184.20953] CT
N
f-1057828618
f
GR
GS
[1 0 0 1 196.13531 299.69519] CT
N
f-1057828618
f
GR
GS
[1 0 0 1 203.76367 276.0473] CT
N
f-1057828618
f
GR
GS
[1 0 0 1 275.83801 33.39794] CT
N
f-1057828618
f
GR
GS
[1 0 0 1 241.1174 180.5397] CT
N
f-1057828618
f
GR
GS
[1 0 0 1 307.39313 53.24345] CT
N
f-1057828618
f
GR
GS
[1 0 0 1 282.05472 71.37299] CT
N
f-1057828618
f
GR
GS
[1 0 0 1 217.96794 196.41692] CT
N
f-1057828618
f
GR
GS
[1 0 0 1 194.17067 235.94551] CT
N
f-1057828618
f
GR
GS
[1 0 0 1 270.18393 207.38449] CT
N
f-1057828618
f
GR
GS
[1 0 0 1 250.2411 188.83072] CT
N
f-1057828618
f
GR
GS
[1 0 0 1 184.78 256.58862] CT
N
f-1057828618
f
GR
GS
[1 0 0 1 196.31636 170.20288] CT
N
f-1057828618
f
GR
GS
[1 0 0 1 187.117 232.83221] CT
N
f-1057828618
f
GR
GS
[1 0 0 1 167.60469 294.37207] CT
N
f-1057828618
f
GR
GS
[1 0 0 1 263.11072 132.46558] CT
N
f-1057828618
f
GR
GS
[1 0 0 1 211.09637 256.91171] CT
N
f-1057828618
f
GR
GS
[1 0 0 1 270.60016 231.68488] CT
N
f-1057828618
f
GR
GS
[1 0 0 1 282.39426 80.83888] CT
N
f-1057828618
f
GR
GS
[1 0 0 1 154.17819 288.66455] CT
N
f-1057828618
f
GR
GS
[1 0 0 1 162.21042 303.75101] CT
N
f-1057828618
f
GR
GS
[1 0 0 1 191.64861 300.59354] CT
N
f-1057828618
f
GR
GS
[1 0 0 1 239.62021 140.97603] CT
N
f-1057828618
f
GR
GS
[1 0 0 1 197.77631 225.56369] CT
N
f-1057828618
f
GR
GS
[1 0 0 1 208.45865 232.66991] CT
N
f-1057828618
f
GR
GS
[1 0 0 1 204.08682 257.03082] CT
N
f-1057828618
f
GR
GS
[1 0 0 1 159.91132 296.07449] CT
N
f-1057828618
f
GR
GS
[1 0 0 1 224.16632 206.73238] CT
N
f-1057828618
f
GR
GS
[1 0 0 1 149.09814 311.52872] CT
N
f-1057828618
f
GR
GS
[1 0 0 1 266.38193 97.7722] CT
N
f-1057828618
f
GR
GS
[1 0 0 1 223.4393 209.40071] CT
N
f-1057828618
f
GR
GS
[1 0 0 1 238.86162 193.14183] CT
N
f-1057828618
f
GR
GS
[1 0 0 1 166.82269 309.7619] CT
N
f-1057828618
f
GR
GS
[1 0 0 1 370.60428 53.87273] CT
N
f-1057828618
f
GR
GS
[1 0 0 1 185.17656 210.78114] CT
N
f-1057828618
f
GR
GS
[1 0 0 1 267.96735 267.11719] CT
N
f-1057828618
f
GR
GS
[1 0 0 1 243.31937 221.77251] CT
N
f-1057828618
f
GR
GS
[1 0 0 1 183.38516 319.94949] CT
N
f-1057828618
f
GR
GS
[1 0 0 1 176.58054 299.40176] CT
N
f-1057828618
f
GR
GS
[1 0 0 1 240.85446 194.91061] CT
N
f-1057828618
f
GR
GS
[1 0 0 1 264.06445 84.77731] CT
N
f-1057828618
f
GR
GS
[1 0 0 1 224.51418 192.43262] CT
N
f-1057828618
f
GR
GS
[1 0 0 1 183.79149 297.56491] CT
N
f-1057828618
f
GR
GS
[1 0 0 1 217.00365 237.24715] CT
N
f-1057828618
f
GR
GS
[1 0 0 1 236.48822 166.80316] CT
N
f-1057828618
f
GR
GS
[1 0 0 1 169.79031 292.25064] CT
N
f-1057828618
f
GR
GS
[1 0 0 1 154.25592 268.41684] CT
N
f-1057828618
f
GR
GS
[1 0 0 1 283.16064 187.76973] CT
N
f-1057828618
f
GR
GS
[1 0 0 1 324.07785 33.48495] CT
N
f-1057828618
f
GR
GS
[1 0 0 1 302.47931 35.3187] CT
N
f-1057828618
f
GR
GS
[1 0 0 1 347.21295 79.36401] CT
N
f-1057828618
f
GR
GS
[1 0 0 1 230.54344 203.05688] CT
N
f-1057828618
f
GR
GS
[1 0 0 1 275.09772 119.77219] CT
N
f-1057828618
f
GR
GS
[1 0 0 1 288.80353 56.80916] CT
N
f-1057828618
f
GR
GS
[1 0 0 1 167.74327 252.35471] CT
N
f-1057828618
f
GR
GS
[1 0 0 1 200.56033 277.88937] CT
N
f-1057828618
f
GR
GS
[1 0 0 1 189.01141 284.87805] CT
N
f-1057828618
f
GR
GS
[1 0 0 1 160.9129 314.99271] CT
N
f-1057828618
f
GR
GS
[1 0 0 1 224.3618 250.44725] CT
N
f-1057828618
f
GR
GS
[1 0 0 1 249.1371 151.43243] CT
N
f-1057828618
f
GR
GS
[1 0 0 1 237.31735 120.07742] CT
N
f-1057828618
f
GR
GS
[1 0 0 1 216.60785 216.52879] CT
N
f-1057828618
f
GR
GS
[1 0 0 1 193.51144 260.68475] CT
N
f-1057828618
f
GR
GS
[1 0 0 1 203.6505 213.09665] CT
N
f-1057828618
f
GR
GS
[1 0 0 1 336.97473 119.99842] CT
N
f-1057828618
f
GR
GS
[1 0 0 1 210.01704 203.93344] CT
N
f-1057828618
f
GR
GS
[1 0 0 1 285.17487 100.8063] CT
N
f-1057828618
f
GR
GS
[1 0 0 1 220.24796 164.56775] CT
N
f-1057828618
f
GR
GS
[1 0 0 1 209.17381 229.59982] CT
N
f-1057828618
f
GR
GS
[1 0 0 1 244.89099 150.95944] CT
N
f-1057828618
f
GR
GS
[1 0 0 1 267.09222 182.0201] CT
N
f-1057828618
f
GR
GS
[1 0 0 1 337.65356 51.85005] CT
N
f-1057828618
f
GR
GS
[1 0 0 1 238.80721 241.43254] CT
N
f-1057828618
f
GR
GS
[1 0 0 1 226.54408 203.80054] CT
N
f-1057828618
f
GR
GS
[1 0 0 1 204.38652 270.87439] CT
N
f-1057828618
f
GR
GS
[1 0 0 1 166.00539 296.98923] CT
N
f-1057828618
f
GR
GS
[1 0 0 1 288.5119 159.69995] CT
N
f-1057828618
f
GR
GS
[1 0 0 1 181.42154 283.99155] CT
N
f-1057828618
f
GR
GS
[1 0 0 1 209.92842 204.24942] CT
N
f-1057828618
f
GR
GS
[1 0 0 1 207.79965 190.42171] CT
N
f-1057828618
f
GR
GS
[1 0 0 1 288.97061 77.37605] CT
N
f-1057828618
f
GR
GS
[1 0 0 1 230.99918 291.86292] CT
N
f-1057828618
f
GR
GS
[1 0 0 1 188.2029 270.84732] CT
N
f-1057828618
f
GR
GS
[1 0 0 1 300.8804 76.21429] CT
N
f-1057828618
f
GR
GS
[1 0 0 1 221.70937 237.29413] CT
N
f-1057828618
f
GR
GS
[1 0 0 1 213.05075 249.15405] CT
N
f-1057828618
f
GR
GS
[1 0 0 1 157.72925 289.56223] CT
N
f-1057828618
f
GR
GS
[1 0 0 1 281.93518 110.13419] CT
N
f-1057828618
f
GR
GS
[1 0 0 1 206.01628 182.8965] CT
N
f-1057828618
f
GR
GS
[1 0 0 1 192.88255 303.32138] CT
N
f-1057828618
f
GR
GS
[1 0 0 1 259.63779 137.52596] CT
N
f-1057828618
f
GR
GS
[1 0 0 1 199.56729 291.30518] CT
N
f-1057828618
f
GR
GS
[1 0 0 1 180.81726 314.2348] CT
N
f-1057828618
f
GR
GS
[1 0 0 1 210.20154 243.26283] CT
N
f-1057828618
f
GR
GS
[1 0 0 1 216.43617 159.29578] CT
N
f-1057828618
f
GR
GS
[1 0 0 1 291.12222 81.44067] CT
N
f-1057828618
f
GR
GS
[1 0 0 1 189.13052 197.71799] CT
N
f-1057828618
f
GR
GS
[1 0 0 1 244.15024 160.48595] CT
N
f-1057828618
f
GR
GS
[1 0 0 1 281.90326 88.91147] CT
N
f-1057828618
f
GR
GS
[1 0 0 1 261.79617 57.654] CT
N
f-1057828618
f
GR
GS
[1 0 0 1 214.35481 203.55626] CT
N
f-1057828618
f
GR
GS
[1 0 0 1 204.83432 220.51408] CT
N
f-1057828618
f
GR
GS
[1 0 0 1 272.96649 77.10417] CT
N
f-1057828618
f
GR
GS
[1 0 0 1 257.27792 115.48865] CT
N
f-1057828618
f
GR
GS
[1 0 0 1 230.73152 155.78148] CT
N
f-1057828618
f
GR
GS
[1 0 0 1 306.98184 58.40026] CT
N
f-1057828618
f
GR
GS
[1 0 0 1 257.2822 272.0134] CT
N
f-1057828618
f
GR
GS
[1 0 0 1 167.92397 275.23465] CT
N
f-1057828618
f
GR
GS
[1 0 0 1 220.90076 190.82655] CT
N
f-1057828618
f
GR
GS
[1 0 0 1 214.66925 233.31027] CT
N
f-1057828618
f
GR
GS
[1 0 0 1 207.34171 291.6265] CT
N
f-1057828618
f
GR
GS
[1 0 0 1 191.82986 263.68942] CT
N
f-1057828618
f
GR
GS
[1 0 0 1 214.42525 213.83174] CT
N
f-1057828618
f
GR
GS
[1 0 0 1 285.39154 75.3434] CT
N
f-1057828618
f
GR
GS
[1 0 0 1 341.73743 62.948] CT
N
f-1057828618
f
GR
GS
[1 0 0 1 215.44803 210.46577] CT
N
f-1057828618
f
GR
GS
[1 0 0 1 302.51886 170.45702] CT
N
f-1057828618
f
GR
GS
[1 0 0 1 333.98596 94.44645] CT
N
f-1057828618
f
GR
GS
[1 0 0 1 202.33659 303.8985] CT
N
f-1057828618
f
GR
GS
[1 0 0 1 224.05136 239.91512] CT
N
f-1057828618
f
GR
GS
[1 0 0 1 153.22408 300.27396] CT
N
f-1057828618
f
GR
GS
[1 0 0 1 200.22491 261.99579] CT
N
f-1057828618
f
GR
GS
[1 0 0 1 210.94708 199.5984] CT
N
f-1057828618
f
GR
GS
[1 0 0 1 200.46019 181.69142] CT
N
f-1057828618
f
GR
GS
[1 0 0 1 303.6041 63.41948] CT
N
f-1057828618
f
GR
GS
[1 0 0 1 286.33841 123.33187] CT
N
f-1057828618
f
GR
GS
[1 0 0 1 206.70233 239.08812] CT
N
f-1057828618
f
GR
GS
[1 0 0 1 300.56 62.99001] CT
N
f-1057828618
f
GR
GS
[1 0 0 1 214.77986 167.31799] CT
N
f-1057828618
f
GR
GS
[1 0 0 1 262.87253 127.44595] CT
N
f-1057828618
f
GR
GS
[1 0 0 1 168.32947 296.19711] CT
N
f-1057828618
f
GR
GS
[1 0 0 1 265.97876 106.26932] CT
N
f-1057828618
f
GR
GS
[1 0 0 1 156.0544 322.23132] CT
N
f-1057828618
f
GR
GS
[1 0 0 1 199.03781 274.54102] CT
N
f-1057828618
f
GR
GS
[1 0 0 1 165.98135 319.68335] CT
N
f-1057828618
f
GR
GS
[1 0 0 1 202.35178 189.74287] CT
N
f-1057828618
f
GR
GS
[1 0 0 1 203.94016 224.22449] CT
N
f-1057828618
f
GR
GS
[1 0 0 1 186.44109 315.08627] CT
N
f-1057828618
f
GR
GS
[1 0 0 1 229.98776 211.42464] CT
N
f-1057828618
f
GR
GS
[1 0 0 1 305.41516 193.13557] CT
N
f-1057828618
f
GR
GS
[1 0 0 1 289.6001 67.29619] CT
N
f-1057828618
f
GR
GS
[1 0 0 1 194.16222 227.71263] CT
N
f-1057828618
f
GR
GS
[1 0 0 1 180.14995 252.87881] CT
N
f-1057828618
f
GR
GS
[1 0 0 1 263.44867 191.57304] CT
N
f-1057828618
f
GR
GS
[1 0 0 1 145.7804 323.60449] CT
N
f-1057828618
f
GR
GS
[1 0 0 1 182.81128 246.76297] CT
N
f-1057828618
f
GR
GS
[1 0 0 1 267.21982 112.73769] CT
N
f-1057828618
f
GR
GS
[1 0 0 1 229.95456 128.28716] CT
N
f-1057828618
f
GR
GS
[1 0 0 1 247.21854 152.93085] CT
N
f-1057828618
f
GR
GS
[1 0 0 1 222.73679 159.55028] CT
N
f-1057828618
f
GR
GS
[1 0 0 1 246.06905 184.30551] CT
N
f-1057828618
f
GR
GS
[1 0 0 1 329.99817 63.57312] CT
N
f-1057828618
f
GR
GS
[1 0 0 1 205.03349 308.9614] CT
N
f-1057828618
f
GR
GS
[1 0 0 1 199.6268 276.25192] CT
N
f-1057828618
f
GR
GS
[1 0 0 1 264.98956 177.56824] CT
N
f-1057828618
f
GR
GS
[1 0 0 1 235.7881 289.82455] CT
N
f-1057828618
f
GR
GS
[1 0 0 1 226.56845 176.96846] CT
N
f-1057828618
f
GR
GS
[1 0 0 1 234.88991 141.44328] CT
N
f-1057828618
f
GR
GS
[1 0 0 1 265.8136 96.69491] CT
N
f-1057828618
f
GR
GS
[1 0 0 1 219.42972 202.85973] CT
N
f-1057828618
f
GR
GS
[1 0 0 1 218.46059 215.85199] CT
N
f-1057828618
f
GR
GS
[1 0 0 1 266.41006 137.48209] CT
N
f-1057828618
f
GR
GS
[1 0 0 1 241.58182 288.06015] CT
N
f-1057828618
f
GR
GS
[1 0 0 1 287.99365 178.03331] CT
N
f-1057828618
f
GR
GS
[1 0 0 1 208.05656 219.3974] CT
N
f-1057828618
f
GR
GS
[1 0 0 1 244.28157 108.16391] CT
N
f-1057828618
f
GR
GS
[1 0 0 1 255.09251 101.85796] CT
N
f-1057828618
f
GR
GS
[1 0 0 1 215.47739 257.61746] CT
N
f-1057828618
f
GR
GS
[1 0 0 1 300.11584 112.77901] CT
N
f-1057828618
f
GR
GS
[1 0 0 1 264.66016 246.23903] CT
N
f-1057828618
f
GR
GS
[1 0 0 1 233.61444 172.3022] CT
N
f-1057828618
f
GR
GS
[1 0 0 1 181.70917 253.53543] CT
N
f-1057828618
f
GR
GS
[1 0 0 1 245.67049 181.94356] CT
N
f-1057828618
f
GR
GS
[1 0 0 1 152.5327 297.16895] CT
N
f-1057828618
f
GR
GS
[1 0 0 1 187.02388 311.15002] CT
N
f-1057828618
f
GR
GS
[1 0 0 1 256.59698 156.21309] CT
N
f-1057828618
f
GR
GS
[1 0 0 1 227.51933 215.99977] CT
N
f-1057828618
f
GR
GS
[1 0 0 1 223.64149 159.93391] CT
N
f-1057828618
f
GR
GS
[1 0 0 1 190.7027 234.41374] CT
N
f-1057828618
f
GR
GS
[1 0 0 1 180.19888 285.616] CT
N
f-1057828618
f
GR
GS
[1 0 0 1 280.67053 115.44492] CT
N
f-1057828618
f
GR
GS
[1 0 0 1 228.07544 253.2402] CT
N
f-1057828618
f
GR
GS
[1 0 0 1 169.50491 322.48712] CT
N
f-1057828618
f
GR
GS
[1 0 0 1 157.14243 329.91705] CT
N
f-1057828618
f
GR
GS
[1 0 0 1 155.87903 309.01276] CT
N
f-1057828618
f
GR
GS
[1 0 0 1 277.06067 102.84085] CT
N
f-1057828618
f
GR
GS
[1 0 0 1 244.69794 171.13824] CT
N
f-1057828618
f
GR
GS
[1 0 0 1 255.28313 167.17525] CT
N
f-1057828618
f
GR
GS
[1 0 0 1 248.73882 159.38577] CT
N
f-1057828618
f
GR
GS
[1 0 0 1 201.29713 218.53752] CT
N
f-1057828618
f
GR
GS
[1 0 0 1 186.48529 311.99551] CT
N
f-1057828618
f
GR
GS
[1 0 0 1 321.91409 32.00412] CT
N
f-1057828618
f
GR
GS
[1 0 0 1 274.93723 126.58702] CT
N
f-1057828618
f
GR
GS
[1 0 0 1 148.83202 320.47009] CT
N
f-1057828618
f
GR
GS
[1 0 0 1 187.34355 264.10641] CT
N
f-1057828618
f
GR
GS
[1 0 0 1 247.60646 144.03758] CT
N
f-1057828618
f
GR
GS
[1 0 0 1 180.04854 297.43915] CT
N
f-1057828618
f
GR
GS
[1 0 0 1 264.83395 105.5968] CT
N
f-1057828618
f
GR
GS
[1 0 0 1 220.65683 248.61357] CT
N
f-1057828618
f
GR
GS
[1 0 0 1 182.04361 247.36841] CT
N
f-1057828618
f
GR
GS
[1 0 0 1 156.43367 315.90488] CT
N
f-1057828618
f
GR
GS
[1 0 0 1 195.90852 203.31987] CT
N
f-1057828618
f
GR
GS
[1 0 0 1 218.93195 216.45288] CT
N
f-1057828618
f
GR
GS
[1 0 0 1 276.52255 180.85168] CT
N
f-1057828618
f
GR
GS
[1 0 0 1 168.61111 287.95239] CT
N
f-1057828618
f
GR
GS
[1 0 0 1 262.14771 78.53873] CT
N
f-1057828618
f
GR
GS
[1 0 0 1 244.25436 169.47839] CT
N
f-1057828618
f
GR
GS
[1 0 0 1 267.69977 139.70746] CT
N
f-1057828618
f
GR
GS
[1 0 0 1 164.98497 300.79468] CT
N
f-1057828618
f
GR
GS
[1 0 0 1 224.60109 198.94417] CT
N
f-1057828618
f
GR
GS
[1 0 0 1 184.13045 294.23483] CT
N
f-1057828618
f
GR
GS
[1 0 0 1 243.71019 126.89388] CT
N
f-1057828618
f
GR
GS
[1 0 0 1 233.52399 257.02365] CT
N
f-1057828618
f
GR
GS
[1 0 0 1 273.32605 93.21124] CT
N
f-1057828618
f
GR
GS
[1 0 0 1 211.99106 185.96111] CT
N
f-1057828618
f
GR
GS
[1 0 0 1 239.44305 237.52864] CT
N
f-1057828618
f
GR
GS
[1 0 0 1 154.62836 307.95184] CT
N
f-1057828618
f
GR
GS
[1 0 0 1 296.4209 77.59457] CT
N
f-1057828618
f
GR
GS
[1 0 0 1 231.33022 208.68066] CT
N
f-1057828618
f
GR
GS
[1 0 0 1 212.45013 238.62479] CT
N
f-1057828618
f
GR
GS
[1 0 0 1 212.79326 278.8765] CT
N
f-1057828618
f
GR
GS
[1 0 0 1 198.5843 245.74532] CT
N
f-1057828618
f
GR
GS
[1 0 0 1 186.3394 285.92548] CT
N
f-1057828618
f
GR
GS
[1 0 0 1 165.96399 284.52603] CT
N
f-1057828618
f
GR
GS
[1 0 0 1 253.76941 197.24519] CT
N
f-1057828618
f
GR
GS
[1 0 0 1 286.79782 42.66901] CT
N
f-1057828618
f
GR
GS
[1 0 0 1 178.1909 250.98515] CT
N
f-1057828618
f
GR
GS
[1 0 0 1 209.98712 231.63567] CT
N
f-1057828618
f
GR
GS
[1 0 0 1 197.51582 292.54648] CT
N
f-1057828618
f
GR
GS
[1 0 0 1 254.82414 80.88672] CT
N
f-1057828618
f
GR
GS
[1 0 0 1 242.5723 168.80305] CT
N
f-1057828618
f
GR
GS
[1 0 0 1 195.02805 230.80663] CT
N
f-1057828618
f
GR
GS
[1 0 0 1 169.17276 288.98987] CT
N
f-1057828618
f
GR
GS
[1 0 0 1 228.03474 168.52162] CT
N
f-1057828618
f
GR
GS
[1 0 0 1 230.63823 133.12604] CT
N
f-1057828618
f
GR
GS
[1 0 0 1 232.32062 108.00708] CT
N
f-1057828618
f
GR
GS
[1 0 0 1 191.51402 262.1637] CT
N
f-1057828618
f
GR
GS
[1 0 0 1 183.5795 277.71878] CT
N
f-1057828618
f
GR
GS
[1 0 0 1 161.34198 308.50748] CT
N
f-1057828618
f
GR
GS
[1 0 0 1 265.87524 89.24574] CT
N
f-1057828618
f
GR
GS
[1 0 0 1 218.44389 180.69026] CT
N
f-1057828618
f
GR
GS
[1 0 0 1 280.57071 117.98724] CT
N
f-1057828618
f
GR
GS
[1 0 0 1 223.13416 253.7523] CT
N
f-1057828618
f
GR
GS
[1 0 0 1 191.81876 247.12268] CT
N
f-1057828618
f
GR
GS
[1 0 0 1 270.76367 66.21098] CT
N
f-1057828618
f
GR
GS
[1 0 0 1 290.28387 35.18563] CT
N
f-1057828618
f
GR
GS
[1 0 0 1 191.99471 293.11768] CT
N
f-1057828618
f
GR
GS
[1 0 0 1 274.25244 73.77903] CT
N
f-1057828618
f
GR
GS
[1 0 0 1 316.07056 91.90921] CT
N
f-1057828618
f
GR
GS
[1 0 0 1 232.64133 128.87866] CT
N
f-1057828618
f
GR
GS
[1 0 0 1 214.37183 300.04276] CT
N
f-1057828618
f
GR
GS
[1 0 0 1 200.39275 241.84836] CT
N
f-1057828618
f
GR
GS
[1 0 0 1 273.8288 74.15646] CT
N
f-1057828618
f
GR
GS
[1 0 0 1 272.07086 119.68305] CT
N
f-1057828618
f
GR
GS
[1 0 0 1 173.84512 300.31433] CT
N
f-1057828618
f
GR
GS
[1 0 0 1 207.84129 170.38193] CT
N
f-1057828618
f
GR
GS
[1 0 0 1 194.59526 258.99777] CT
N
f-1057828618
f
GR
GS
[1 0 0 1 249.0795 128.69409] CT
N
f-1057828618
f
GR
GS
[1 0 0 1 195.80087 228.51125] CT
N
f-1057828618
f
GR
GS
[1 0 0 1 267.29578 102.30881] CT
N
f-1057828618
f
GR
GS
[1 0 0 1 202.76892 252.07817] CT
N
f-1057828618
f
GR
GS
[1 0 0 1 250.83472 212.30595] CT
N
f-1057828618
f
GR
GS
[1 0 0 1 169.15579 271.16458] CT
N
f-1057828618
f
GR
GS
[1 0 0 1 246.49086 68.68224] CT
N
f-1057828618
f
GR
GS
[1 0 0 1 185.42049 241.88338] CT
N
f-1057828618
f
GR
GS
[1 0 0 1 203.24864 231.58369] CT
N
f-1057828618
f
GR
GS
[1 0 0 1 193.83394 300.44934] CT
N
f-1057828618
f
GR
GS
[1 0 0 1 224.65111 214.78159] CT
N
f-1057828618
f
GR
GS
[1 0 0 1 261.57751 96.52431] CT
N
f-1057828618
f
GR
GS
[1 0 0 1 229.31712 166.98808] CT
N
f-1057828618
f
GR
GS
[1 0 0 1 172.45352 311.31683] CT
N
f-1057828618
f
GR
GS
[1 0 0 1 246.89172 196.55324] CT
N
f-1057828618
f
GR
GS
[1 0 0 1 192.5148 266.64832] CT
N
f-1057828618
f
GR
GS
[1 0 0 1 236.38368 241.72403] CT
N
f-1057828618
f
GR
GS
[1 0 0 1 240.62199 130.98141] CT
N
f-1057828618
f
GR
GS
[1 0 0 1 214.99757 215.03189] CT
N
f-1057828618
f
GR
GS
[1 0 0 1 190.46875 304.22571] CT
N
f-1057828618
f
GR
GS
[1 0 0 1 181.44101 228.92288] CT
N
f-1057828618
f
GR
GS
[1 0 0 1 188.49042 265.63727] CT
N
f-1057828618
f
GR
GS
[1 0 0 1 276.94614 111.57831] CT
N
f-1057828618
f
GR
GS
[1 0 0 1 203.11253 303.41046] CT
N
f-1057828618
f
GR
GS
[1 0 0 1 251.43823 200.55153] CT
N
f-1057828618
f
GR
GS
[1 0 0 1 237.34204 197.47487] CT
N
f-1057828618
f
GR
GS
[1 0 0 1 156.90454 309.09393] CT
N
f-1057828618
f
GR
GS
[1 0 0 1 275.75085 179.95651] CT
N
f-1057828618
f
GR
GS
[1 0 0 1 215.18298 239.44604] CT
N
f-1057828618
f
GR
GS
[1 0 0 1 300.12378 46.10774] CT
N
f-1057828618
f
GR
GS
[1 0 0 1 234.51773 250.08766] CT
N
f-1057828618
f
GR
GS
[1 0 0 1 263.12799 101.96345] CT
N
f-1057828618
f
GR
GS
[1 0 0 1 336.89444 76.41585] CT
N
f-1057828618
f
GR
GS
[1 0 0 1 181.25888 241.47606] CT
N
f-1057828618
f
GR
GS
[1 0 0 1 181.84157 231.89711] CT
N
f-1057828618
f
GR
GS
[1 0 0 1 264.05576 112.09661] CT
N
f-1057828618
f
GR
GS
[1 0 0 1 225.11531 193.62885] CT
N
f-1057828618
f
GR
GS
[1 0 0 1 223.30811 165.01695] CT
N
f-1057828618
f
GR
GS
[1 0 0 1 160.66335 241.29346] CT
N
f-1057828618
f
GR
GS
[1 0 0 1 188.97134 296.2796] CT
N
f-1057828618
f
GR
GS
[1 0 0 1 170.82756 290.99966] CT
N
f-1057828618
f
GR
GS
[1 0 0 1 274.8103 74.16731] CT
N
f-1057828618
f
GR
GS
[1 0 0 1 267.46741 260.73441] CT
N
f-1057828618
f
GR
GS
[1 0 0 1 296.34622 76.37908] CT
N
f-1057828618
f
GR
GS
[1 0 0 1 339.86108 39.41431] CT
N
f-1057828618
f
GR
GS
[1 0 0 1 235.89902 157.99979] CT
N
f-1057828618
f
GR
GS
[1 0 0 1 245.49638 260.96371] CT
N
f-1057828618
f
GR
GS
[1 0 0 1 182.8331 319.3364] CT
N
f-1057828618
f
GR
GS
[1 0 0 1 238.71895 128.03888] CT
N
f-1057828618
f
GR
GS
[1 0 0 1 210.5352 261.28046] CT
N
f-1057828618
f
GR
GS
[1 0 0 1 289.89182 86.63734] CT
N
f-1057828618
f
GR
GS
[1 0 0 1 216.57086 196.37422] CT
N
f-1057828618
f
GR
GS
[1 0 0 1 169.47916 283.3988] CT
N
f-1057828618
f
GR
GS
[1 0 0 1 201.21175 222.20796] CT
N
f-1057828618
f
GR
GS
[1 0 0 1 303.41211 90.92487] CT
N
f-1057828618
f
GR
GS
[1 0 0 1 214.73221 138.84882] CT
N
f-1057828618
f
GR
GS
[1 0 0 1 197.5121 310.62894] CT
N
f-1057828618
f
GR
GS
[1 0 0 1 198.1729 254.49997] CT
N
f-1057828618
f
GR
GS
[1 0 0 1 159.34341 276.19614] CT
N
f-1057828618
f
GR
GS
[1 0 0 1 249.27641 136.80984] CT
N
f-1057828618
f
GR
GS
[1 0 0 1 276.12314 126.30846] CT
N
f-1057828618
f
GR
GS
[1 0 0 1 256.7312 162.01082] CT
N
f-1057828618
f
GR
GS
[1 0 0 1 276.56427 128.14737] CT
N
f-1057828618
f
GR
GS
[1 0 0 1 224.30188 193.13754] CT
N
f-1057828618
f
GR
GS
[1 0 0 1 238.67007 191.17755] CT
N
f-1057828618
f
GR
GS
[1 0 0 1 245.13744 143.82698] CT
N
f-1057828618
f
GR
GS
[1 0 0 1 204.34898 310.27423] CT
N
f-1057828618
f
GR
GS
[1 0 0 1 189.51117 255.22369] CT
N
f-1057828618
f
GR
GS
[1 0 0 1 225.89909 271.32629] CT
N
f-1057828618
f
GR
GS
[1 0 0 1 231.27521 108.73775] CT
N
f-1057828618
f
GR
GS
[1 0 0 1 231.49944 176.6456] CT
N
f-1057828618
f
GR
GS
[1 0 0 1 236.80786 227.04623] CT
N
f-1057828618
f
GR
GS
[1 0 0 1 208.93791 206.48305] CT
N
f-1057828618
f
GR
GS
[1 0 0 1 290.74057 63.50269] CT
N
f-1057828618
f
GR
GS
[1 0 0 1 273.15421 225.18842] CT
N
f-1057828618
f
GR
GS
[1 0 0 1 230.57033 208.38602] CT
N
f-1057828618
f
GR
GS
[1 0 0 1 314.55145 150.70863] CT
N
f-1057828618
f
GR
GS
[1 0 0 1 284.50793 206.45395] CT
N
f-1057828618
f
GR
GS
[1 0 0 1 205.088 249.13208] CT
N
f-1057828618
f
GR
GS
[1 0 0 1 196.49283 200.54094] CT
N
f-1057828618
f
GR
GS
[1 0 0 1 197.7155 244.5538] CT
N
f-1057828618
f
GR
GS
[1 0 0 1 276.65887 177.62221] CT
N
f-1057828618
f
GR
GS
[1 0 0 1 296.00528 200.91106] CT
N
f-1057828618
f
GR
GS
[1 0 0 1 209.70772 286.32977] CT
N
f-1057828618
f
GR
GS
[1 0 0 1 272.89569 83.94649] CT
N
f-1057828618
f
GR
GS
[1 0 0 1 233.80666 150.76407] CT
N
f-1057828618
f
GR
GS
[1 0 0 1 277.58362 139.5697] CT
N
f-1057828618
f
GR
GS
[1 0 0 1 177.76117 266.64651] CT
N
f-1057828618
f
GR
GS
[1 0 0 1 203.79517 278.5712] CT
N
f-1057828618
f
GR
GS
[1 0 0 1 198.2592 263.25781] CT
N
f-1057828618
f
GR
GS
[1 0 0 1 303.89597 66.26757] CT
N
f-1057828618
f
GR
GS
[1 0 0 1 243.96194 176.69946] CT
N
f-1057828618
f
GR
GS
[1 0 0 1 203.47966 237.1832] CT
N
f-1057828618
f
GR
GS
[1 0 0 1 240.04933 179.75496] CT
N
f-1057828618
f
GR
GS
[1 0 0 1 261.49002 253.46292] CT
N
f-1057828618
f
GR
GS
[1 0 0 1 179.09499 310.36057] CT
N
f-1057828618
f
GR
GS
[1 0 0 1 237.18073 151.79967] CT
N
f-1057828618
f
GR
GS
[1 0 0 1 160.34081 298.42914] CT
N
f-1057828618
f
GR
GS
[1 0 0 1 164.66371 253.76773] CT
N
f-1057828618
f
GR
GS
[1 0 0 1 280.12582 63.18116] CT
N
f-1057828618
f
GR
GS
[1 0 0 1 205.24101 231.34457] CT
N
f-1057828618
f
GR
GS
[1 0 0 1 230.04514 264.96423] CT
N
f-1057828618
f
GR
GS
[1 0 0 1 231.95233 220.48433] CT
N
f-1057828618
f
GR
GS
[1 0 0 1 253.01794 203.99786] CT
N
f-1057828618
f
GR
GS
[1 0 0 1 234.14749 274.83084] CT
N
f-1057828618
f
GR
GS
[1 0 0 1 205.53401 216.21222] CT
N
f-1057828618
f
GR
GS
[1 0 0 1 175.5591 311.79437] CT
N
f-1057828618
f
GR
GS
[1 0 0 1 179.19356 268.84418] CT
N
f-1057828618
f
GR
GS
[1 0 0 1 208.27151 137.02878] CT
N
f-1057828618
f
GR
GS
[1 0 0 1 249.01593 154.98799] CT
N
f-1057828618
f
GR
GS
[1 0 0 1 253.48184 127.3978] CT
N
f-1057828618
f
GR
GS
[1 0 0 1 166.8549 308.19516] CT
N
f-1057828618
f
GR
GS
[1 0 0 1 180.31805 267.1134] CT
N
f-1057828618
f
GR
GS
[1 0 0 1 227.46101 206.76953] CT
N
f-1057828618
f
GR
GS
[1 0 0 1 161.82703 290.52646] CT
N
f-1057828618
f
GR
GS
[1 0 0 1 260.44992 226.82622] CT
N
f-1057828618
f
GR
GS
[1 0 0 1 255.05579 227.84875] CT
N
f-1057828618
f
GR
GS
[1 0 0 1 221.12325 187.65572] CT
N
f-1057828618
f
GR
GS
[1 0 0 1 201.73244 299.81522] CT
N
f-1057828618
f
GR
GS
[1 0 0 1 318.65598 38.30064] CT
N
f-1057828618
f
GR
GS
[1 0 0 1 210.15375 234.53827] CT
N
f-1057828618
f
GR
GS
[1 0 0 1 183.85298 320.01733] CT
N
f-1057828618
f
GR
GS
[1 0 0 1 262.26868 129.98828] CT
N
f-1057828618
f
GR
GS
[1 0 0 1 260.73724 217.16966] CT
N
f-1057828618
f
GR
GS
[1 0 0 1 203.83115 246.91032] CT
N
f-1057828618
f
GR
GS
[1 0 0 1 220.3868 242.47771] CT
N
f-1057828618
f
GR
GS
[1 0 0 1 215.58493 158.80183] CT
N
f-1057828618
f
GR
GS
[1 0 0 1 198.49896 230.4808] CT
N
f-1057828618
f
GR
GS
[1 0 0 1 194.52606 272.5105] CT
N
f-1057828618
f
GR
GS
[1 0 0 1 198.34952 293.09457] CT
N
f-1057828618
f
GR
GS
[1 0 0 1 352.53317 34.62513] CT
N
f-1057828618
f
GR
GS
[1 0 0 1 189.19394 216.2822] CT
N
f-1057828618
f
GR
GS
[1 0 0 1 178.14613 234.16316] CT
N
f-1057828618
f
GR
GS
[1 0 0 1 212.99548 233.42305] CT
N
f-1057828618
f
GR
GS
[1 0 0 1 212.15062 202.8734] CT
N
f-1057828618
f
GR
GS
[1 0 0 1 194.84015 203.96988] CT
N
f-1057828618
f
GR
GS
[1 0 0 1 222.35553 199.10742] CT
N
f-1057828618
f
GR
GS
[1 0 0 1 285.6781 73.15141] CT
N
f-1057828618
f
GR
GS
[1 0 0 1 230.39423 175.92738] CT
N
f-1057828618
f
GR
GS
[1 0 0 1 189.87045 297.67712] CT
N
f-1057828618
f
GR
GS
[1 0 0 1 176.91429 275.48901] CT
N
f-1057828618
f
GR
GS
[1 0 0 1 263.11847 105.28233] CT
N
f-1057828618
f
GR
GS
[1 0 0 1 176.05678 317.46896] CT
N
f-1057828618
f
GR
GS
[1 0 0 1 169.34293 263.22238] CT
N
f-1057828618
f
GR
GS
[1 0 0 1 214.42581 220.04842] CT
N
f-1057828618
f
GR
GS
[1 0 0 1 158.2348 296.27789] CT
N
f-1057828618
f
GR
GS
[1 0 0 1 377.59381 47.55333] CT
N
f-1057828618
f
GR
GS
[1 0 0 1 181.48315 278.32431] CT
N
f-1057828618
f
GR
GS
[1 0 0 1 203.93134 209.63304] CT
N
f-1057828618
f
GR
GS
[1 0 0 1 195.63542 304.07361] CT
N
f-1057828618
f
GR
GS
[1 0 0 1 220.92863 194.44237] CT
N
f-1057828618
f
GR
GS
[1 0 0 1 214.5564 216.37386] CT
N
f-1057828618
f
GR
GS
[1 0 0 1 275.26306 73.03496] CT
N
f-1057828618
f
GR
GS
[1 0 0 1 228.76529 215.63715] CT
N
f-1057828618
f
GR
GS
[1 0 0 1 184.0603 302.28177] CT
N
f-1057828618
f
GR
GS
[1 0 0 1 249.93103 139.21019] CT
N
f-1057828618
f
GR
GS
[1 0 0 1 247.85107 190.6239] CT
N
f-1057828618
f
GR
GS
[1 0 0 1 180.63423 281.99695] CT
N
f-1057828618
f
GR
GS
[1 0 0 1 301.3103 94.74145] CT
N
f-1057828618
f
GR
GS
[1 0 0 1 183.87959 236.15434] CT
N
f-1057828618
f
GR
GS
[1 0 0 1 193.79305 255.493] CT
N
f-1057828618
f
GR
GS
[1 0 0 1 227.437 194.35628] CT
N
f-1057828618
f
GR
GS
[1 0 0 1 226.68994 178.51158] CT
N
f-1057828618
f
GR
GS
[1 0 0 1 221.11475 206.4631] CT
N
f-1057828618
f
GR
GS
[1 0 0 1 227.65994 167.39711] CT
N
f-1057828618
f
GR
GS
[1 0 0 1 330.80533 32.05816] CT
N
f-1057828618
f
GR
GS
[1 0 0 1 176.56503 297.9137] CT
N
f-1057828618
f
GR
GS
[1 0 0 1 269.08682 116.83537] CT
N
f-1057828618
f
GR
GS
[1 0 0 1 202.09456 307.74921] CT
N
f-1057828618
f
GR
GS
[1 0 0 1 201.85762 187.72504] CT
N
f-1057828618
f
GR
GS
[1 0 0 1 258.55789 129.59695] CT
N
f-1057828618
f
GR
GS
[1 0 0 1 182.09833 302.68375] CT
N
f-1057828618
f
GR
GS
[1 0 0 1 160.39371 276.8949] CT
N
f-1057828618
f
GR
GS
[1 0 0 1 245.91614 210.27986] CT
N
f-1057828618
f
GR
GS
[1 0 0 1 211.33055 205.67694] CT
N
f-1057828618
f
GR
GS
[1 0 0 1 220.89467 104.96133] CT
N
f-1057828618
f
GR
GS
[1 0 0 1 213.88193 249.16243] CT
N
f-1057828618
f
GR
GS
[1 0 0 1 277.51913 82.34737] CT
N
f-1057828618
f
GR
GS
[1 0 0 1 181.6395 304.69797] CT
N
f-1057828618
f
GR
GS
[1 0 0 1 278.33405 125.93896] CT
N
f-1057828618
f
GR
GS
[1 0 0 1 191.72971 231.31213] CT
N
f-1057828618
f
GR
GS
[1 0 0 1 291.30002 66.231] CT
N
f-1057828618
f
GR
GS
[1 0 0 1 276.73178 141.99524] CT
N
f-1057828618
f
GR
GS
[1 0 0 1 378.96439 72.31705] CT
N
f-1057828618
f
GR
GS
[1 0 0 1 173.93445 272.09323] CT
N
f-1057828618
f
GR
GS
[1 0 0 1 211.98433 206.60252] CT
N
f-1057828618
f
GR
GS
[1 0 0 1 288.00623 80.8596] CT
N
f-1057828618
f
GR
GS
[1 0 0 1 273.9874 183.31047] CT
N
f-1057828618
f
GR
GS
[1 0 0 1 190.9903 237.9398] CT
N
f-1057828618
f
GR
GS
[1 0 0 1 201.39771 227.01692] CT
N
f-1057828618
f
GR
GS
[1 0 0 1 186.53432 311.02826] CT
N
f-1057828618
f
GR
GS
[1 0 0 1 197.74835 249.54414] CT
N
f-1057828618
f
GR
GS
[1 0 0 1 214.51033 182.80241] CT
N
f-1057828618
f
GR
GS
[1 0 0 1 228.36482 190.70515] CT
N
f-1057828618
f
GR
GS
[1 0 0 1 157.80382 305.58337] CT
N
f-1057828618
f
GR
GS
[1 0 0 1 213.29543 262.05463] CT
N
f-1057828618
f
GR
GS
[1 0 0 1 328.00995 32.69341] CT
N
f-1057828618
f
GR
GS
[1 0 0 1 170.8963 321.4595] CT
N
f-1057828618
f
GR
GS
[1 0 0 1 172.7357 263.27579] CT
N
f-1057828618
f
GR
GS
[1 0 0 1 217.2281 208.49623] CT
N
f-1057828618
f
GR
GS
[1 0 0 1 240.39034 158.98042] CT
N
f-1057828618
f
GR
GS
[1 0 0 1 188.84885 188.26146] CT
N
f-1057828618
f
GR
GS
[1 0 0 1 223.73328 98.86551] CT
N
f-1057828618
f
GR
GS
[1 0 0 1 287.57596 115.76506] CT
N
f-1057828618
f
GR
GS
[1 0 0 1 172.2773 319.46149] CT
N
f-1057828618
f
GR
GS
[1 0 0 1 180.08817 265.21109] CT
N
f-1057828618
f
GR
GS
[1 0 0 1 325.44055 40.98902] CT
N
f-1057828618
f
GR
GS
[1 0 0 1 157.87038 283.0108] CT
N
f-1057828618
f
GR
GS
[1 0 0 1 203.91135 263.36276] CT
N
f-1057828618
f
GR
GS
[1 0 0 1 179.85239 312.99109] CT
N
f-1057828618
f
GR
GS
[1 0 0 1 164.12198 280.16882] CT
N
f-1057828618
f
GR
GS
[1 0 0 1 274.25024 87.18619] CT
N
f-1057828618
f
GR
GS
[1 0 0 1 188.56313 290.81549] CT
N
f-1057828618
f
GR
GS
[1 0 0 1 245.54965 173.38153] CT
N
f-1057828618
f
GR
GS
[1 0 0 1 235.19446 173.57584] CT
N
f-1057828618
f
GR
GS
[1 0 0 1 197.42899 159.28915] CT
N
f-1057828618
f
GR
GS
[1 0 0 1 194.49832 232.63918] CT
N
f-1057828618
f
GR
GS
[1 0 0 1 316.60159 40.00997] CT
N
f-1057828618
f
GR
GS
[1 0 0 1 251.88782 109.25406] CT
N
f-1057828618
f
GR
GS
[1 0 0 1 190.82959 187.37964] CT
N
f-1057828618
f
GR
GS
[1 0 0 1 268.69794 219.3606] CT
N
f-1057828618
f
GR
GS
[1 0 0 1 345.50049 31.8864] CT
N
f-1057828618
f
GR
GS
[1 0 0 1 175.12985 281.74521] CT
N
f-1057828618
f
GR
GS
[1 0 0 1 249.24411 175.12132] CT
N
f-1057828618
f
GR
GS
[1 0 0 1 211.5312 291.59088] CT
N
f-1057828618
f
GR
GS
[1 0 0 1 260.19009 119.57157] CT
N
f-1057828618
f
GR
GS
[1 0 0 1 199.78252 239.65887] CT
N
f-1057828618
f
GR
GS
[1 0 0 1 269.54092 253.65285] CT
N
f-1057828618
f
GR
GS
[1 0 0 1 256.70438 178.76289] CT
N
f-1057828618
f
GR
GS
[1 0 0 1 237.83757 130.76382] CT
N
f-1057828618
f
GR
GS
[1 0 0 1 282.2438 76.54924] CT
N
f-1057828618
f
GR
GS
[1 0 0 1 188.12321 299.58252] CT
N
f-1057828618
f
GR
GS
[1 0 0 1 192.46336 233.686] CT
N
f-1057828618
f
GR
GS
[1 0 0 1 197.68633 255.14407] CT
N
f-1057828618
f
GR
GS
[1 0 0 1 249.64124 239.02002] CT
N
f-1057828618
f
GR
GS
[1 0 0 1 203.13626 232.55255] CT
N
f-1057828618
f
GR
GS
[1 0 0 1 211.48799 271.18448] CT
N
f-1057828618
f
GR
GS
[1 0 0 1 184.75192 242.28494] CT
N
f-1057828618
f
GR
GS
[1 0 0 1 189.26678 227.65331] CT
N
f-1057828618
f
GR
GS
[1 0 0 1 229.0276 241.28816] CT
N
f-1057828618
f
GR
GS
[1 0 0 1 237.12439 158.25664] CT
N
f-1057828618
f
GR
GS
[1 0 0 1 181.31848 294.80713] CT
N
f-1057828618
f
GR
GS
[1 0 0 1 281.8848 69.42585] CT
N
f-1057828618
f
GR
GS
[1 0 0 1 235.6926 167.20338] CT
N
f-1057828618
f
GR
GS
[1 0 0 1 193.0235 309.77524] CT
N
f-1057828618
f
GR
GS
[1 0 0 1 200.0878 185.86775] CT
N
f-1057828618
f
GR
GS
[1 0 0 1 205.14259 222.69461] CT
N
f-1057828618
f
GR
GS
[1 0 0 1 182.8385 315.74527] CT
N
f-1057828618
f
GR
GS
[1 0 0 1 236.36063 205.05214] CT
N
f-1057828618
f
GR
GS
[1 0 0 1 234.98708 165.30417] CT
N
f-1057828618
f
GR
GS
[1 0 0 1 223.76419 203.69232] CT
N
f-1057828618
f
GR
GS
[1 0 0 1 218.61496 255.35004] CT
N
f-1057828618
f
GR
GS
[1 0 0 1 192.89543 255.73222] CT
N
f-1057828618
f
GR
GS
[1 0 0 1 183.99814 224.76492] CT
N
f-1057828618
f
GR
GS
[1 0 0 1 239.59152 158.17297] CT
N
f-1057828618
f
GR
GS
[1 0 0 1 171.94333 310.76807] CT
N
f-1057828618
f
GR
GS
[1 0 0 1 219.60561 194.04306] CT
N
f-1057828618
f
GR
GS
[1 0 0 1 238.86952 154.23744] CT
N
f-1057828618
f
GR
GS
[1 0 0 1 220.84186 248.68871] CT
N
f-1057828618
f
GR
GS
[1 0 0 1 208.69298 232.16255] CT
N
f-1057828618
f
GR
GS
[1 0 0 1 191.21936 252.51154] CT
N
f-1057828618
f
GR
GS
[1 0 0 1 223.66095 143.49344] CT
N
f-1057828618
f
GR
GS
[1 0 0 1 195.76822 251.36409] CT
N
f-1057828618
f
GR
GS
[1 0 0 1 254.10788 201.51192] CT
N
f-1057828618
f
GR
GS
[1 0 0 1 323.41092 98.78057] CT
N
f-1057828618
f
GR
GS
[1 0 0 1 226.69342 195.40866] CT
N
f-1057828618
f
GR
GS
[1 0 0 1 287.14468 116.60382] CT
N
f-1057828618
f
GR
GS
[1 0 0 1 227.1517 151.96339] CT
N
f-1057828618
f
GR
GS
[1 0 0 1 240.63747 153.77734] CT
N
f-1057828618
f
GR
GS
[1 0 0 1 191.34187 288.2558] CT
N
f-1057828618
f
GR
GS
[1 0 0 1 213.18524 139.84334] CT
N
f-1057828618
f
GR
GS
[1 0 0 1 262.4299 170.04991] CT
N
f-1057828618
f
GR
GS
[1 0 0 1 267.8172 232.74242] CT
N
f-1057828618
f
GR
GS
[1 0 0 1 222.67332 168.27768] CT
N
f-1057828618
f
GR
GS
[1 0 0 1 243.20079 157.83879] CT
N
f-1057828618
f
GR
GS
[1 0 0 1 167.422 285.82477] CT
N
f-1057828618
f
GR
GS
[1 0 0 1 203.33081 240.96455] CT
N
f-1057828618
f
GR
GS
[1 0 0 1 150.77351 310.02219] CT
N
f-1057828618
f
GR
GS
[1 0 0 1 317.19046 82.14793] CT
N
f-1057828618
f
GR
GS
[1 0 0 1 240.72005 273.12576] CT
N
f-1057828618
f
GR
GS
[1 0 0 1 201.54945 279.58249] CT
N
f-1057828618
f
GR
GS
[1 0 0 1 190.51328 302.0303] CT
N
f-1057828618
f
GR
GS
[1 0 0 1 232.99481 269.69794] CT
N
f-1057828618
f
GR
GS
[1 0 0 1 264.12369 79.35078] CT
N
f-1057828618
f
GR
GS
[1 0 0 1 164.83757 257.29578] CT
N
f-1057828618
f
GR
GS
[1 0 0 1 186.22777 179.74426] CT
N
f-1057828618
f
GR
GS
[1 0 0 1 312.47287 58.81856] CT
N
f-1057828618
f
GR
GS
[1 0 0 1 301.0845 59.60658] CT
N
f-1057828618
f
GR
GS
[1 0 0 1 230.45476 217.00391] CT
N
f-1057828618
f
GR
GS
[1 0 0 1 310.0347 93.426] CT
N
f-1057828618
f
GR
GS
[1 0 0 1 166.33931 312.63712] CT
N
f-1057828618
f
GR
GS
[1 0 0 1 178.2637 302.26846] CT
N
f-1057828618
f
GR
GS
[1 0 0 1 285.91724 136.19556] CT
N
f-1057828618
f
GR
GS
[1 0 0 1 198.85486 264.66785] CT
N
f-1057828618
f
GR
GS
[1 0 0 1 198.57082 250.5791] CT
N
f-1057828618
f
GR
GS
[1 0 0 1 284.1608 208.88628] CT
N
f-1057828618
f
GR
GS
[1 0 0 1 253.78464 95.12704] CT
N
f-1057828618
f
GR
GS
[1 0 0 1 214.13206 260.08746] CT
N
f-1057828618
f
GR
GS
[1 0 0 1 246.17702 202.84589] CT
N
f-1057828618
f
GR
GS
[1 0 0 1 208.53235 268.1524] CT
N
f-1057828618
f
GR
GS
[1 0 0 1 164.91869 302.82272] CT
N
f-1057828618
f
GR
GS
[1 0 0 1 269.40866 80.26834] CT
N
f-1057828618
f
GR
GS
[1 0 0 1 255.3071 165.86827] CT
N
f-1057828618
f
GR
GS
[1 0 0 1 228.15263 237.76816] CT
N
f-1057828618
f
GR
GS
[1 0 0 1 183.85252 279.20422] CT
N
f-1057828618
f
GR
GS
[1 0 0 1 242.7159 163.38608] CT
N
f-1057828618
f
GR
GS
[1 0 0 1 205.84392 197.79565] CT
N
f-1057828618
f
GR
GS
[1 0 0 1 229.56123 198.51338] CT
N
f-1057828618
f
GR
GS
[1 0 0 1 203.44771 243.94038] CT
N
f-1057828618
f
GR
GS
[1 0 0 1 210.15236 213.73773] CT
N
f-1057828618
f
GR
GS
[1 0 0 1 201.69792 244.81972] CT
N
f-1057828618
f
GR
GS
[1 0 0 1 223.6131 178.58566] CT
N
f-1057828618
f
GR
GS
[1 0 0 1 254.16345 223.85645] CT
N
f-1057828618
f
GR
GS
[1 0 0 1 276.58774 263.76578] CT
N
f-1057828618
f
GR
GS
[1 0 0 1 325.72388 94.41251] CT
N
f-1057828618
f
GR
GS
[1 0 0 1 208.63223 256.34372] CT
N
f-1057828618
f
GR
GS
[1 0 0 1 169.53688 300.03534] CT
N
f-1057828618
f
GR
GS
[1 0 0 1 158.68175 299.0661] CT
N
f-1057828618
f
GR
GS
[1 0 0 1 232.14067 139.96095] CT
N
f-1057828618
f
GR
GS
[1 0 0 1 229.31755 218.31316] CT
N
f-1057828618
f
GR
GS
[1 0 0 1 286.80136 80.18784] CT
N
f-1057828618
f
GR
GS
[1 0 0 1 237.74815 221.44537] CT
N
f-1057828618
f
GR
GS
[1 0 0 1 166.08867 289.84418] CT
N
f-1057828618
f
GR
GS
[1 0 0 1 203.02571 258.9938] CT
N
f-1057828618
f
GR
GS
[1 0 0 1 181.61377 219.68652] CT
N
f-1057828618
f
GR
GS
[1 0 0 1 227.40826 109.95538] CT
N
f-1057828618
f
GR
GS
[1 0 0 1 280.53003 84.34121] CT
N
f-1057828618
f
GR
GS
[1 0 0 1 215.46974 146.70589] CT
N
f-1057828618
f
GR
GS
[1 0 0 1 174.98102 280.80484] CT
N
f-1057828618
f
GR
GS
[1 0 0 1 218.66644 118.02068] CT
N
f-1057828618
f
GR
GS
[1 0 0 1 219.12436 291.25507] CT
N
f-1057828618
f
GR
GS
[1 0 0 1 161.07446 282.74918] CT
N
f-1057828618
f
GR
GS
[1 0 0 1 245.86377 245.8754] CT
N
f-1057828618
f
GR
GS
[1 0 0 1 196.03032 300.71005] CT
N
f-1057828618
f
GR
GS
[1 0 0 1 175.88005 256.88168] CT
N
f-1057828618
f
GR
GS
[1 0 0 1 232.70059 182.09387] CT
N
f-1057828618
f
GR
GS
[1 0 0 1 199.51726 224.8369] CT
N
f-1057828618
f
GR
GS
[1 0 0 1 181.55183 244.54208] CT
N
f-1057828618
f
GR
GS
[1 0 0 1 196.70346 246.8354] CT
N
f-1057828618
f
GR
GS
[1 0 0 1 205.67212 149.80452] CT
N
f-1057828618
f
GR
GS
[1 0 0 1 225.04498 198.09224] CT
N
f-1057828618
f
GR
GS
[1 0 0 1 199.38239 289.53665] CT
N
f-1057828618
f
GR
GS
[1 0 0 1 169.51338 315.33673] CT
N
f-1057828618
f
GR
GS
[1 0 0 1 249.04692 162.85812] CT
N
f-1057828618
f
GR
GS
[1 0 0 1 204.08313 225.81099] CT
N
f-1057828618
f
GR
GS
[1 0 0 1 148.12953 252.46202] CT
N
f-1057828618
f
GR
GS
[1 0 0 1 240.42368 265.39371] CT
N
f-1057828618
f
GR
GS
[1 0 0 1 290.59778 87.51004] CT
N
f-1057828618
f
GR
GS
[1 0 0 1 378.52856 73.8409] CT
N
f-1057828618
f
GR
GS
[1 0 0 1 220.34846 280.27377] CT
N
f-1057828618
f
GR
GS
[1 0 0 1 201.14445 298.05634] CT
N
f-1057828618
f
GR
GS
[1 0 0 1 202.74707 220.42857] CT
N
f-1057828618
f
GR
GS
[1 0 0 1 177.82088 321.83136] CT
N
f-1057828618
f
GR
GS
[1 0 0 1 262.88641 114.63605] CT
N
f-1057828618
f
GR
GS
[1 0 0 1 188.89508 218.50754] CT
N
f-1057828618
f
GR
GS
[1 0 0 1 294.09149 106.82543] CT
N
f-1057828618
f
GR
GS
[1 0 0 1 270.94751 67.37177] CT
N
f-1057828618
f
GR
GS
[1 0 0 1 194.39658 281.64908] CT
N
f-1057828618
f
GR
GS
[1 0 0 1 219.16422 133.98273] CT
N
f-1057828618
f
GR
GS
[1 0 0 1 251.81711 166.46704] CT
N
f-1057828618
f
GR
GS
[1 0 0 1 245.47401 118.20139] CT
N
f-1057828618
f
GR
GS
[1 0 0 1 235.34494 164.03539] CT
N
f-1057828618
f
GR
GS
[1 0 0 1 226.30817 229.00235] CT
N
f-1057828618
f
GR
GS
[1 0 0 1 274.76794 78.55401] CT
N
f-1057828618
f
GR
GS
[1 0 0 1 167.23119 260.86578] CT
N
f-1057828618
f
GR
GS
[1 0 0 1 220.06996 304.27881] CT
N
f-1057828618
f
GR
GS
[1 0 0 1 240.48912 224.22993] CT
N
f-1057828618
f
GR
GS
[1 0 0 1 281.34506 172.76553] CT
N
f-1057828618
f
GR
GS
[1 0 0 1 260.02686 116.76241] CT
N
f-1057828618
f
GR
GS
[1 0 0 1 271.86639 246.24577] CT
N
f-1057828618
f
GR
GS
[1 0 0 1 181.02769 244.16737] CT
N
f-1057828618
f
GR
GS
[1 0 0 1 268.83066 112.21693] CT
N
f-1057828618
f
GR
GS
[1 0 0 1 233.94241 97.94835] CT
N
f-1057828618
f
GR
GS
[1 0 0 1 239.18568 264.67953] CT
N
f-1057828618
f
GR
GS
[1 0 0 1 209.53215 205.06894] CT
N
f-1057828618
f
GR
GS
[1 0 0 1 159.88873 308.94565] CT
N
f-1057828618
f
GR
GS
[1 0 0 1 245.76434 100.1993] CT
N
f-1057828618
f
GR
GS
[1 0 0 1 188.52147 243.66249] CT
N
f-1057828618
f
GR
GS
[1 0 0 1 287.34607 58.75718] CT
N
f-1057828618
f
GR
GS
[1 0 0 1 152.85075 248.33] CT
N
f-1057828618
f
GR
GS
[1 0 0 1 189.838 292.79602] CT
N
f-1057828618
f
GR
GS
[1 0 0 1 303.20438 42.45329] CT
N
f-1057828618
f
GR
GS
[1 0 0 1 220.79695 132.93962] CT
N
f-1057828618
f
GR
GS
[1 0 0 1 297.99615 76.00401] CT
N
f-1057828618
f
GR
GS
[1 0 0 1 245.9325 194.29955] CT
N
f-1057828618
f
GR
GS
[1 0 0 1 254.71257 163.33537] CT
N
f-1057828618
f
GR
GS
[1 0 0 1 233.58289 136.10139] CT
N
f-1057828618
f
GR
GS
[1 0 0 1 261.66876 245.04318] CT
N
f-1057828618
f
GR
GS
[1 0 0 1 194.18301 309.07578] CT
N
f-1057828618
f
GR
GS
[1 0 0 1 176.15396 292.36807] CT
N
f-1057828618
f
GR
GS
[1 0 0 1 173.5074 292.74377] CT
N
f-1057828618
f
GR
GS
[1 0 0 1 261.57462 104.21331] CT
N
f-1057828618
f
GR
GS
[1 0 0 1 256.44464 133.23439] CT
N
f-1057828618
f
GR
GS
[1 0 0 1 290.84543 78.3911] CT
N
f-1057828618
f
GR
GS
[1 0 0 1 257.93881 147.64346] CT
N
f-1057828618
f
GR
GS
[1 0 0 1 306.96701 159.53908] CT
N
f-1057828618
f
GR
GS
[1 0 0 1 145.13771 327.76892] CT
N
f-1057828618
f
GR
GS
[1 0 0 1 193.94534 254.49361] CT
N
f-1057828618
f
GR
GS
[1 0 0 1 223.04884 115.65303] CT
N
f-1057828618
f
GR
GS
[1 0 0 1 262.93448 124.45347] CT
N
f-1057828618
f
GR
GS
[1 0 0 1 216.95479 129.55786] CT
N
f-1057828618
f
GR
GS
[1 0 0 1 268.60928 108.55342] CT
N
f-1057828618
f
GR
GS
[1 0 0 1 198.92943 226.99808] CT
N
f-1057828618
f
GR
GS
[1 0 0 1 200.03004 228.80775] CT
N
f-1057828618
f
GR
GS
[1 0 0 1 219.74388 110.57457] CT
N
f-1057828618
f
GR
GS
[1 0 0 1 289.49203 201.67702] CT
N
f-1057828618
f
GR
GS
[1 0 0 1 208.65788 279.97556] CT
N
f-1057828618
f
GR
GS
[1 0 0 1 149.51465 307.73627] CT
N
f-1057828618
f
GR
GS
[1 0 0 1 194.825 257.45694] CT
N
f-1057828618
f
GR
GS
[1 0 0 1 238.54019 223.0899] CT
N
f-1057828618
f
GR
GS
[1 0 0 1 210.87805 214.14975] CT
N
f-1057828618
f
GR
GS
[1 0 0 1 252.01323 124.08263] CT
N
f-1057828618
f
GR
GS
[1 0 0 1 239.86685 141.70332] CT
N
f-1057828618
f
GR
GS
[1 0 0 1 289.91055 38.14397] CT
N
f-1057828618
f
GR
GS
[1 0 0 1 239.14153 160.50537] CT
N
f-1057828618
f
GR
GS
[1 0 0 1 175.6067 299.16681] CT
N
f-1057828618
f
GR
GS
[1 0 0 1 201.56479 249.94484] CT
N
f-1057828618
f
GR
GS
[1 0 0 1 308.10825 81.71668] CT
N
f-1057828618
f
GR
GS
[1 0 0 1 231.2347 146.28467] CT
N
f-1057828618
f
GR
GS
[1 0 0 1 212.56242 254.49495] CT
N
f-1057828618
f
GR
GS
[1 0 0 1 221.95644 266.35071] CT
N
f-1057828618
f
GR
GS
[1 0 0 1 322.45264 40.74825] CT
N
f-1057828618
f
GR
GS
[1 0 0 1 172.54373 246.84659] CT
N
f-1057828618
f
GR
GS
[1 0 0 1 226.91165 189.87083] CT
N
f-1057828618
f
GR
GS
[1 0 0 1 212.13049 232.67622] CT
N
f-1057828618
f
GR
GS
[1 0 0 1 234.05331 133.5587] CT
N
f-1057828618
f
GR
GS
[1 0 0 1 169.93552 275.34683] CT
N
f-1057828618
f
GR
GS
[1 0 0 1 304.66953 186.43266] CT
N
f-1057828618
f
GR
GS
[1 0 0 1 213.53185 188.96983] CT
N
f-1057828618
f
GR
GS
[1 0 0 1 214.60284 202.18884] CT
N
f-1057828618
f
GR
GS
[1 0 0 1 272.69122 73.44341] CT
N
f-1057828618
f
GR
GS
[1 0 0 1 238.69847 152.31058] CT
N
f-1057828618
f
GR
GS
[1 0 0 1 272.40793 81.37164] CT
N
f-1057828618
f
GR
GS
[1 0 0 1 198.45549 282.88019] CT
N
f-1057828618
f
GR
GS
[1 0 0 1 273.73416 205.74663] CT
N
f-1057828618
f
GR
GS
[1 0 0 1 178.43869 269.89557] CT
N
f-1057828618
f
GR
GS
[1 0 0 1 222.06042 166.83141] CT
N
f-1057828618
f
GR
GS
[1 0 0 1 215.41733 165.25645] CT
N
f-1057828618
f
GR
GS
[1 0 0 1 267.12183 91.08514] CT
N
f-1057828618
f
GR
GS
[1 0 0 1 169.07639 300.02405] CT
N
f-1057828618
f
GR
GS
[1 0 0 1 299.42917 91.75514] CT
N
f-1057828618
f
GR
GS
[1 0 0 1 286.46851 208.96654] CT
N
f-1057828618
f
GR
GS
[1 0 0 1 160.81244 286.4704] CT
N
f-1057828618
f
GR
GS
[1 0 0 1 188.85704 283.94562] CT
N
f-1057828618
f
GR
GS
[1 0 0 1 169.01701 273.91522] CT
N
f-1057828618
f
GR
GS
[1 0 0 1 344.75031 32.34527] CT
N
f-1057828618
f
GR
GS
[1 0 0 1 259.18869 115.90188] CT
N
f-1057828618
f
GR
GS
[1 0 0 1 213.45714 226.72966] CT
N
f-1057828618
f
GR
GS
[1 0 0 1 218.18698 242.87064] CT
N
f-1057828618
f
GR
GS
[1 0 0 1 235.32423 147.52736] CT
N
f-1057828618
f
GR
GS
[1 0 0 1 190.74197 242.43881] CT
N
f-1057828618
f
GR
GS
[1 0 0 1 204.10072 234.183] CT
N
f-1057828618
f
GR
GS
[1 0 0 1 209.75655 304.68533] CT
N
f-1057828618
f
GR
GS
[1 0 0 1 163.19949 246.86708] CT
N
f-1057828618
f
GR
GS
[1 0 0 1 208.73018 254.55121] CT
N
f-1057828618
f
GR
GS
[1 0 0 1 238.0403 173.05032] CT
N
f-1057828618
f
GR
GS
[1 0 0 1 271.88339 51.97829] CT
N
f-1057828618
f
GR
GS
[1 0 0 1 225.80838 191.72296] CT
N
f-1057828618
f
GR
GS
[1 0 0 1 207.43791 210.77121] CT
N
f-1057828618
f
GR
GS
[1 0 0 1 288.15668 82.66099] CT
N
f-1057828618
f
GR
GS
[1 0 0 1 160.12244 309.22455] CT
N
f-1057828618
f
GR
GS
[1 0 0 1 221.49126 120.59216] CT
N
f-1057828618
f
GR
GS
[1 0 0 1 222.59525 209.72267] CT
N
f-1057828618
f
GR
GS
[1 0 0 1 250.68163 198.64088] CT
N
f-1057828618
f
GR
GS
[1 0 0 1 170.99724 281.48312] CT
N
f-1057828618
f
GR
GS
[1 0 0 1 177.55713 313.46246] CT
N
f-1057828618
f
GR
GS
[1 0 0 1 249.89716 87.12312] CT
N
f-1057828618
f
GR
GS
[1 0 0 1 267.83676 95.82416] CT
N
f-1057828618
f
GR
GS
[1 0 0 1 162.88191 301.75366] CT
N
f-1057828618
f
GR
GS
[1 0 0 1 212.94662 177.52921] CT
N
f-1057828618
f
GR
GS
[1 0 0 1 242.92517 172.25635] CT
N
f-1057828618
f
GR
GS
[1 0 0 1 246.99178 142.30013] CT
N
f-1057828618
f
GR
GS
[1 0 0 1 287.75226 66.96606] CT
N
f-1057828618
f
GR
GS
[1 0 0 1 198.1062 237.02402] CT
N
f-1057828618
f
GR
GS
[1 0 0 1 168.82732 309.7066] CT
N
f-1057828618
f
GR
GS
[1 0 0 1 188.12413 305.44186] CT
N
f-1057828618
f
GR
GS
[1 0 0 1 200.16528 258.31369] CT
N
f-1057828618
f
GR
GS
[1 0 0 1 235.35715 126.30901] CT
N
f-1057828618
f
GR
GS
[1 0 0 1 172.57451 303.81479] CT
N
f-1057828618
f
GR
GS
[1 0 0 1 166.50266 260.5257] CT
N
f-1057828618
f
GR
GS
[1 0 0 1 195.58005 246.99451] CT
N
f-1057828618
f
GR
GS
[1 0 0 1 211.63605 224.38737] CT
N
f-1057828618
f
GR
GS
[1 0 0 1 154.81201 297.23395] CT
N
f-1057828618
f
GR
GS
[1 0 0 1 299.45029 106.8183] CT
N
f-1057828618
f
GR
GS
[1 0 0 1 253.93567 107.19463] CT
N
f-1057828618
f
GR
GS
[1 0 0 1 254.5603 117.21519] CT
N
f-1057828618
f
GR
GS
[1 0 0 1 180.23524 304.72665] CT
N
f-1057828618
f
GR
GS
[1 0 0 1 223.84636 194.31804] CT
N
f-1057828618
f
GR
GS
[1 0 0 1 255.88481 125.47123] CT
N
f-1057828618
f
GR
GS
[1 0 0 1 223.159 195.89168] CT
N
f-1057828618
f
GR
GS
[1 0 0 1 228.94298 181.55832] CT
N
f-1057828618
f
GR
GS
[1 0 0 1 299.23819 62.49358] CT
N
f-1057828618
f
GR
GS
[1 0 0 1 315.14716 36.94148] CT
N
f-1057828618
f
GR
GS
[1 0 0 1 241.22888 108.63596] CT
N
f-1057828618
f
GR
GS
[1 0 0 1 242.50623 174.65567] CT
N
f-1057828618
f
GR
GS
[1 0 0 1 218.50877 215.90625] CT
N
f-1057828618
f
GR
GS
[1 0 0 1 183.24681 288.27444] CT
N
f-1057828618
f
GR
GS
[1 0 0 1 198.8195 252.28383] CT
N
f-1057828618
f
GR
GS
[1 0 0 1 188.22449 273.21045] CT
N
f-1057828618
f
GR
GS
[1 0 0 1 310.27173 61.85233] CT
N
f-1057828618
f
GR
GS
[1 0 0 1 184.38687 225.22017] CT
N
f-1057828618
f
GR
GS
[1 0 0 1 200.6311 310.52576] CT
N
f-1057828618
f
GR
GS
[1 0 0 1 245.20345 142.9059] CT
N
f-1057828618
f
GR
GS
[1 0 0 1 246.55595 182.82126] CT
N
f-1057828618
f
GR
GS
[1 0 0 1 190.99651 280.47971] CT
N
f-1057828618
f
GR
GS
[1 0 0 1 298.33627 175.13068] CT
N
f-1057828618
f
GR
GS
[1 0 0 1 243.5808 208.21107] CT
N
f-1057828618
f
GR
GS
[1 0 0 1 219.89151 247.66232] CT
N
f-1057828618
f
GR
GS
[1 0 0 1 187.44202 200.09628] CT
N
f-1057828618
f
GR
GS
[1 0 0 1 251.22606 142.39378] CT
N
f-1057828618
f
GR
GS
[1 0 0 1 231.82332 170.20314] CT
N
f-1057828618
f
GR
GS
[1 0 0 1 245.539 251.4557] CT
N
f-1057828618
f
GR
GS
[1 0 0 1 225.12144 223.0894] CT
N
f-1057828618
f
GR
GS
[1 0 0 1 263.86948 104.73632] CT
N
f-1057828618
f
GR
GS
[1 0 0 1 217.49973 204.15833] CT
N
f-1057828618
f
GR
GS
[1 0 0 1 319.89737 118.01716] CT
N
f-1057828618
f
GR
GS
[1 0 0 1 269.9437 91.88751] CT
N
f-1057828618
f
GR
GS
[1 0 0 1 281.59485 64.51657] CT
N
f-1057828618
f
GR
GS
[1 0 0 1 231.25131 252.28912] CT
N
f-1057828618
f
GR
GS
[1 0 0 1 258.48001 129.44063] CT
N
f-1057828618
f
GR
GS
[1 0 0 1 226.85114 147.57028] CT
N
f-1057828618
f
GR
GS
[1 0 0 1 222.05011 215.19762] CT
N
f-1057828618
f
GR
GS
[1 0 0 1 243.05824 215.52641] CT
N
f-1057828618
f
GR
GS
[1 0 0 1 206.21996 221.55437] CT
N
f-1057828618
f
GR
GS
[1 0 0 1 191.43117 177.96358] CT
N
f-1057828618
f
GR
GS
[1 0 0 1 231.10019 181.39157] CT
N
f-1057828618
f
GR
GS
[1 0 0 1 323.0531 95.32166] CT
N
f-1057828618
f
GR
GS
[1 0 0 1 187.13698 257.48428] CT
N
f-1057828618
f
GR
GS
[1 0 0 1 230.26515 297.26788] CT
N
f-1057828618
f
GR
GS
[1 0 0 1 242.17911 144.82309] CT
N
f-1057828618
f
GR
GS
[1 0 0 1 233.9863 208.25793] CT
N
f-1057828618
f
GR
GS
[1 0 0 1 257.66 252.16713] CT
N
f-1057828618
f
GR
GS
[1 0 0 1 229.2411 258.68076] CT
N
f-1057828618
f
GR
GS
[1 0 0 1 249.92523 151.73096] CT
N
f-1057828618
f
GR
GS
[1 0 0 1 263.9285 108.94611] CT
N
f-1057828618
f
GR
GS
[1 0 0 1 222.04599 193.23914] CT
N
f-1057828618
f
GR
GS
[1 0 0 1 222.75523 183.06384] CT
N
f-1057828618
f
GR
GS
[1 0 0 1 227.02258 169.0858] CT
N
f-1057828618
f
GR
GS
[1 0 0 1 154.38086 251.91597] CT
N
f-1057828618
f
GR
GS
[1 0 0 1 242.56161 211.17207] CT
N
f-1057828618
f
GR
GS
[1 0 0 1 205.49904 268.89197] CT
N
f-1057828618
f
GR
GS
[1 0 0 1 214.97122 195.00269] CT
N
f-1057828618
f
GR
GS
[1 0 0 1 247.82764 154.34262] CT
N
f-1057828618
f
GR
GS
[1 0 0 1 199.64725 296.38657] CT
N
f-1057828618
f
GR
GS
[1 0 0 1 296.80856 69.60487] CT
N
f-1057828618
f
GR
GS
[1 0 0 1 196.2141 255.59889] CT
N
f-1057828618
f
GR
GS
[1 0 0 1 197.18874 250.25786] CT
N
f-1057828618
f
GR
GS
[1 0 0 1 176.82161 277.0452] CT
N
f-1057828618
f
GR
GS
[1 0 0 1 225.07352 246.27237] CT
N
f-1057828618
f
GR
GS
[1 0 0 1 219.49483 152.62239] CT
N
f-1057828618
f
GR
GS
[1 0 0 1 237.75201 230.72903] CT
N
f-1057828618
f
GR
GS
[1 0 0 1 181.15848 263.33609] CT
N
f-1057828618
f
GR
GS
[1 0 0 1 187.67825 271.32959] CT
N
f-1057828618
f
GR
GS
[1 0 0 1 315.2063 52.60995] CT
N
f-1057828618
f
GR
GS
[1 0 0 1 154.03014 311.57587] CT
N
f-1057828618
f
GR
GS
[1 0 0 1 179.64413 257.16452] CT
N
f-1057828618
f
GR
GS
[1 0 0 1 191.01843 269.07724] CT
N
f-1057828618
f
GR
GS
[1 0 0 1 288.98251 75.20295] CT
N
f-1057828618
f
GR
GS
[1 0 0 1 180.70024 249.54016] CT
N
f-1057828618
f
GR
GS
[1 0 0 1 320.65192 42.99754] CT
N
f-1057828618
f
GR
GS
[1 0 0 1 234.98172 170.94551] CT
N
f-1057828618
f
GR
GS
[1 0 0 1 193.61024 269.27155] CT
N
f-1057828618
f
GR
GS
[1 0 0 1 181.33041 317.33359] CT
N
f-1057828618
f
GR
GS
[1 0 0 1 266.70932 50.98622] CT
N
f-1057828618
f
GR
GS
[1 0 0 1 205.32617 238.15086] CT
N
f-1057828618
f
GR
GS
[1 0 0 1 222.29079 188.85033] CT
N
f-1057828618
f
GR
GS
[1 0 0 1 211.04695 266.2139] CT
N
f-1057828618
f
GR
GS
[1 0 0 1 169.84193 308.98065] CT
N
f-1057828618
f
GR
GS
[1 0 0 1 199.27879 257.57684] CT
N
f-1057828618
f
GR
GS
[1 0 0 1 286.30127 75.12768] CT
N
f-1057828618
f
GR
GS
[1 0 0 1 166.74814 310.05829] CT
N
f-1057828618
f
GR
GS
[1 0 0 1 236.50462 174.72827] CT
N
f-1057828618
f
GR
GS
[1 0 0 1 179.60562 307.90073] CT
N
f-1057828618
f
GR
GS
[1 0 0 1 203.04886 291.56396] CT
N
f-1057828618
f
GR
GS
[1 0 0 1 254.45824 96.18882] CT
N
f-1057828618
f
GR
GS
[1 0 0 1 216.90637 241.05994] CT
N
f-1057828618
f
GR
GS
[1 0 0 1 184.47803 264.96329] CT
N
f-1057828618
f
GR
GS
[1 0 0 1 253.77194 128.59027] CT
N
f-1057828618
f
GR
GS
[1 0 0 1 295.92728 76.29438] CT
N
f-1057828618
f
GR
GS
[1 0 0 1 192.67506 234.12495] CT
N
f-1057828618
f
GR
GS
[1 0 0 1 186.22505 314.53946] CT
N
f-1057828618
f
GR
GS
[1 0 0 1 240.56943 152.92357] CT
N
f-1057828618
f
GR
GS
[1 0 0 1 295.44321 67.81319] CT
N
f-1057828618
f
GR
GS
[1 0 0 1 187.73492 257.62326] CT
N
f-1057828618
f
GR
GS
[1 0 0 1 193.00352 239.25456] CT
N
f-1057828618
f
GR
GS
[1 0 0 1 241.39946 172.32436] CT
N
f-1057828618
f
GR
GS
[1 0 0 1 276.35153 145.70836] CT
N
f-1057828618
f
GR
GS
[1 0 0 1 251.37929 150.94682] CT
N
f-1057828618
f
GR
GS
[1 0 0 1 186.55782 266.19458] CT
N
f-1057828618
f
GR
GS
[1 0 0 1 218.16795 111.85201] CT
N
f-1057828618
f
GR
GS
[1 0 0 1 179.53322 236.99666] CT
N
f-1057828618
f
GR
GS
[1 0 0 1 312.93457 162.77588] CT
N
f-1057828618
f
GR
GS
[1 0 0 1 266.86664 182.30037] CT
N
f-1057828618
f
GR
GS
[1 0 0 1 270.61478 105.68711] CT
N
f-1057828618
f
GR
GS
[1 0 0 1 246.68385 95.02661] CT
N
f-1057828618
f
GR
GS
[1 0 0 1 278.91422 63.45577] CT
N
f-1057828618
f
GR
GS
[1 0 0 1 178.4304 256.01019] CT
N
f-1057828618
f
GR
GS
[1 0 0 1 187.70648 257.142] CT
N
f-1057828618
f
GR
GS
[1 0 0 1 180.57909 288.1579] CT
N
f-1057828618
f
GR
GS
[1 0 0 1 302.0163 74.7923] CT
N
f-1057828618
f
GR
GS
[1 0 0 1 294.79364 120.83388] CT
N
f-1057828618
f
GR
GS
[1 0 0 1 182.05153 244.76671] CT
N
f-1057828618
f
GR
GS
[1 0 0 1 240.26318 237.7012] CT
N
f-1057828618
f
GR
GS
[1 0 0 1 223.17236 203.26555] CT
N
f-1057828618
f
GR
GS
[1 0 0 1 152.19099 300.35156] CT
N
f-1057828618
f
GR
GS
[1 0 0 1 271.4213 153.83134] CT
N
f-1057828618
f
GR
GS
[1 0 0 1 189.29782 314.39746] CT
N
f-1057828618
f
GR
GS
[1 0 0 1 297.83057 56.06176] CT
N
f-1057828618
f
GR
GS
[1 0 0 1 161.77945 319.50107] CT
N
f-1057828618
f
GR
GS
[1 0 0 1 275.12808 164.58762] CT
N
f-1057828618
f
GR
GS
[1 0 0 1 171.32175 261.64285] CT
N
f-1057828618
f
GR
GS
[1 0 0 1 180.31381 290.08325] CT
N
f-1057828618
f
GR
GS
[1 0 0 1 183.01227 317.64554] CT
N
f-1057828618
f
GR
GS
[1 0 0 1 198.6743 282.44766] CT
N
f-1057828618
f
GR
GS
[1 0 0 1 285.59189 76.88847] CT
N
f-1057828618
f
GR
GS
[1 0 0 1 160.78535 283.67889] CT
N
f-1057828618
f
GR
GS
[1 0 0 1 224.36665 135.50464] CT
N
f-1057828618
f
GR
GS
[1 0 0 1 276.80402 142.76469] CT
N
f-1057828618
f
GR
GS
[1 0 0 1 200.80928 249.16017] CT
N
f-1057828618
f
GR
GS
[1 0 0 1 200.66817 280.15799] CT
N
f-1057828618
f
GR
GS
[1 0 0 1 249.06842 111.32674] CT
N
f-1057828618
f
GR
GS
[1 0 0 1 262.96698 202.13171] CT
N
f-1057828618
f
GR
GS
[1 0 0 1 156.10158 308.37088] CT
N
f-1057828618
f
GR
GS
[1 0 0 1 185.80807 216.62943] CT
N
f-1057828618
f
GR
GS
[1 0 0 1 284.6734 58.23607] CT
N
f-1057828618
f
GR
GS
[1 0 0 1 192.80688 240.37589] CT
N
f-1057828618
f
GR
GS
[1 0 0 1 242.47746 158.00525] CT
N
f-1057828618
f
GR
GS
[1 0 0 1 231.73387 207.74474] CT
N
f-1057828618
f
GR
GS
[1 0 0 1 236.79657 201.96156] CT
N
f-1057828618
f
GR
GS
[1 0 0 1 173.95886 282.66068] CT
N
f-1057828618
f
GR
GS
[1 0 0 1 223.02353 167.11633] CT
N
f-1057828618
f
GR
GS
[1 0 0 1 162.9433 296.33496] CT
N
f-1057828618
f
GR
GS
[1 0 0 1 267.35147 66.24361] CT
N
f-1057828618
f
GR
GS
[1 0 0 1 246.8215 158.06236] CT
N
f-1057828618
f
GR
GS
[1 0 0 1 191.63437 305.70541] CT
N
f-1057828618
f
GR
GS
1 0 0 RC
[10 6] 0 setdash
2 LJ
N
134.25 343 M
139.042 335.424 L
143.835 327.863 L
148.627 320.317 L
153.419 312.786 L
158.212 305.271 L
163.004 297.771 L
167.796 290.287 L
172.588 282.817 L
177.381 275.363 L
182.173 267.923 L
186.965 260.499 L
191.758 253.09 L
196.55 245.695 L
201.342 238.316 L
206.135 230.952 L
210.927 223.602 L
215.719 216.268 L
220.512 208.948 L
225.304 201.643 L
230.096 194.353 L
234.888 187.078 L
239.681 179.817 L
244.473 172.571 L
249.265 165.34 L
254.058 158.124 L
258.85 150.922 L
263.642 143.734 L
268.435 136.561 L
273.227 129.403 L
278.019 122.259 L
282.812 115.13 L
287.604 108.015 L
292.396 100.915 L
297.188 93.829 L
301.981 86.757 L
306.773 79.7 L
311.565 72.657 L
316.358 65.628 L
321.15 58.613 L
325.942 51.613 L
330.735 44.627 L
335.527 37.654 L
339.791 31.463 L
S
GR
GS
[1 0 0 1 144 53] CT
/Helvetica 14 F
GS
[1 0 0 1 0 0] CT
0 0 moveto 
1 -1 scale
(v) t 
GR
GR
GS
[1 0 0 1 151 60] CT
/Helvetica 11.2 F
GS
[1 0 0 1 0 0] CT
0 0 moveto 
1 -1 scale
(0) t 
GR
GR
GS
[1 0 0 1 158 53] CT
/Helvetica 14 F
GS
[1 0 0 1 0 0] CT
0 0 moveto 
1 -1 scale
( = 9607 deg/s, ) t 
GR
GR
GS
[1 0 0 1 253 53] CT
N
2.813 0.156 M
2.156 0.156 1.641 -0.156 QT
1.125 -0.469 0.844 -1 QT
0.563 -1.531 0.563 -2.219 QT
0.563 -3.172 1.094 -4.102 QT
1.625 -5.031 2.5 -5.609 QT
3.375 -6.188 4.344 -6.188 QT
5.047 -6.188 5.586 -5.813 QT
6.125 -5.438 6.406 -4.82 QT
6.688 -4.203 6.688 -3.5 QT
6.703 -2.563 L
7.188 -3.234 7.516 -3.945 QT
7.844 -4.656 8.031 -5.422 QT
8.047 -5.5 8.141 -5.5 QT
8.297 -5.5 L
8.422 -5.5 8.422 -5.375 QT
8.422 -5.359 8.422 -5.328 QT
8.25 -4.688 8.008 -4.094 QT
7.766 -3.5 7.43 -2.953 QT
7.094 -2.406 6.703 -1.953 QT
6.703 -0.219 7.109 -0.219 QT
7.375 -0.219 7.539 -0.367 QT
7.703 -0.516 7.828 -0.742 QT
7.953 -0.969 7.984 -0.984 QT
8.156 -0.984 L
8.266 -0.984 8.266 -0.844 QT
8.266 -0.5 7.867 -0.172 QT
7.469 0.156 7.078 0.156 QT
6.578 0.156 6.242 -0.172 QT
5.906 -0.5 5.781 -1.031 QT
5.125 -0.469 4.359 -0.156 QT
3.594 0.156 2.813 0.156 QT
cp
2.844 -0.219 M
4.344 -0.219 5.719 -1.438 QT
5.703 -1.531 5.695 -1.648 QT
5.688 -1.766 5.688 -1.781 QT
5.688 -3.281 L
5.688 -5.828 4.313 -5.828 QT
3.5 -5.828 2.883 -5.125 QT
2.266 -4.422 1.953 -3.445 QT
1.641 -2.469 1.641 -1.672 QT
1.641 -1.063 1.953 -0.641 QT
2.266 -0.219 2.844 -0.219 QT
cp
f
GR
GS
[1 0 0 1 262 53] CT
/Helvetica 14 F
GS
[1 0 0 1 0 0] CT
0 0 moveto 
1 -1 scale
( = 493.25 deg) t 
GR
GR
%%Trailer
%%Pages: 1
%%EOF
