%!PS-Adobe-3.0 EPSF-3.0
%%Creator: (MATLAB, The Mathworks, Inc. Version 9.5.0.944444 \(R2018b\). Operating System: Mac OS X)
%%Title: ./combims.eps
%%CreationDate: 2020-05-04T18:04:12
%%Pages: (atend)
%%BoundingBox:    37     0   459   398
%%LanguageLevel: 2
%%EndComments
%%BeginProlog
%%BeginResource: procset (Apache XML Graphics Std ProcSet) 1.2 0
%%Version: 1.2 0
%%Copyright: (Copyright 2001-2003,2010 The Apache Software Foundation. License terms: http://www.apache.org/licenses/LICENSE-2.0)
/bd{bind def}bind def
/ld{load def}bd
/GR/grestore ld
/GS/gsave ld
/RM/rmoveto ld
/C/curveto ld
/t/show ld
/L/lineto ld
/ML/setmiterlimit ld
/CT/concat ld
/f/fill ld
/N/newpath ld
/S/stroke ld
/CC/setcmykcolor ld
/A/ashow ld
/cp/closepath ld
/RC/setrgbcolor ld
/LJ/setlinejoin ld
/GC/setgray ld
/LW/setlinewidth ld
/M/moveto ld
/re {4 2 roll M
1 index 0 rlineto
0 exch rlineto
neg 0 rlineto
cp } bd
/_ctm matrix def
/_tm matrix def
/BT { _ctm currentmatrix pop matrix _tm copy pop 0 0 moveto } bd
/ET { _ctm setmatrix } bd
/iTm { _ctm setmatrix _tm concat } bd
/Tm { _tm astore pop iTm 0 0 moveto } bd
/ux 0.0 def
/uy 0.0 def
/F {
  /Tp exch def
  /Tf exch def
  Tf findfont Tp scalefont setfont
  /cf Tf def  /cs Tp def
} bd
/ULS {currentpoint /uy exch def /ux exch def} bd
/ULE {
  /Tcx currentpoint pop def
  gsave
  newpath
  cf findfont cs scalefont dup
  /FontMatrix get 0 get /Ts exch def /FontInfo get dup
  /UnderlinePosition get Ts mul /To exch def
  /UnderlineThickness get Ts mul /Tt exch def
  ux uy To add moveto  Tcx uy To add lineto
  Tt setlinewidth stroke
  grestore
} bd
/OLE {
  /Tcx currentpoint pop def
  gsave
  newpath
  cf findfont cs scalefont dup
  /FontMatrix get 0 get /Ts exch def /FontInfo get dup
  /UnderlinePosition get Ts mul /To exch def
  /UnderlineThickness get Ts mul /Tt exch def
  ux uy To add cs add moveto Tcx uy To add cs add lineto
  Tt setlinewidth stroke
  grestore
} bd
/SOE {
  /Tcx currentpoint pop def
  gsave
  newpath
  cf findfont cs scalefont dup
  /FontMatrix get 0 get /Ts exch def /FontInfo get dup
  /UnderlinePosition get Ts mul /To exch def
  /UnderlineThickness get Ts mul /Tt exch def
  ux uy To add cs 10 mul 26 idiv add moveto Tcx uy To add cs 10 mul 26 idiv add lineto
  Tt setlinewidth stroke
  grestore
} bd
/QT {
/Y22 exch store
/X22 exch store
/Y21 exch store
/X21 exch store
currentpoint
/Y21 load 2 mul add 3 div exch
/X21 load 2 mul add 3 div exch
/X21 load 2 mul /X22 load add 3 div
/Y21 load 2 mul /Y22 load add 3 div
/X22 load /Y22 load curveto
} bd
/SSPD {
dup length /d exch dict def
{
/v exch def
/k exch def
currentpagedevice k known {
/cpdv currentpagedevice k get def
v cpdv ne {
/upd false def
/nullv v type /nulltype eq def
/nullcpdv cpdv type /nulltype eq def
nullv nullcpdv or
{
/upd true def
} {
/sametype v type cpdv type eq def
sametype {
v type /arraytype eq {
/vlen v length def
/cpdvlen cpdv length def
vlen cpdvlen eq {
0 1 vlen 1 sub {
/i exch def
/obj v i get def
/cpdobj cpdv i get def
obj cpdobj ne {
/upd true def
exit
} if
} for
} {
/upd true def
} ifelse
} {
v type /dicttype eq {
v {
/dv exch def
/dk exch def
/cpddv cpdv dk get def
dv cpddv ne {
/upd true def
exit
} if
} forall
} {
/upd true def
} ifelse
} ifelse
} if
} ifelse
upd true eq {
d k v put
} if
} if
} if
} forall
d length 0 gt {
d setpagedevice
} if
} bd
/RE { % /NewFontName [NewEncodingArray] /FontName RE -
  findfont dup length dict begin
  {
    1 index /FID ne
    {def} {pop pop} ifelse
  } forall
  /Encoding exch def
  /FontName 1 index def
  currentdict definefont pop
  end
} bind def
%%EndResource
%%BeginResource: procset (Apache XML Graphics EPS ProcSet) 1.0 0
%%Version: 1.0 0
%%Copyright: (Copyright 2002-2003 The Apache Software Foundation. License terms: http://www.apache.org/licenses/LICENSE-2.0)
/BeginEPSF { %def
/b4_Inc_state save def         % Save state for cleanup
/dict_count countdictstack def % Count objects on dict stack
/op_count count 1 sub def      % Count objects on operand stack
userdict begin                 % Push userdict on dict stack
/showpage { } def              % Redefine showpage, { } = null proc
0 setgray 0 setlinecap         % Prepare graphics state
1 setlinewidth 0 setlinejoin
10 setmiterlimit [ ] 0 setdash newpath
/languagelevel where           % If level not equal to 1 then
{pop languagelevel             % set strokeadjust and
1 ne                           % overprint to their defaults.
{false setstrokeadjust false setoverprint
} if
} if
} bd
/EndEPSF { %def
count op_count sub {pop} repeat            % Clean up stacks
countdictstack dict_count sub {end} repeat
b4_Inc_state restore
} bd
%%EndResource
%FOPBeginFontDict
%%IncludeResource: font Courier-Oblique
%%IncludeResource: font Courier-BoldOblique
%%IncludeResource: font Courier-Bold
%%IncludeResource: font ZapfDingbats
%%IncludeResource: font Symbol
%%IncludeResource: font Helvetica
%%IncludeResource: font Helvetica-Oblique
%%IncludeResource: font Helvetica-Bold
%%IncludeResource: font Helvetica-BoldOblique
%%IncludeResource: font Times-Roman
%%IncludeResource: font Times-Italic
%%IncludeResource: font Times-Bold
%%IncludeResource: font Times-BoldItalic
%%IncludeResource: font Courier
%FOPEndFontDict
%%BeginResource: encoding WinAnsiEncoding
/WinAnsiEncoding [
/.notdef /.notdef /.notdef /.notdef /.notdef
/.notdef /.notdef /.notdef /.notdef /.notdef
/.notdef /.notdef /.notdef /.notdef /.notdef
/.notdef /.notdef /.notdef /.notdef /.notdef
/.notdef /.notdef /.notdef /.notdef /.notdef
/.notdef /.notdef /.notdef /.notdef /.notdef
/.notdef /.notdef /space /exclam /quotedbl
/numbersign /dollar /percent /ampersand /quotesingle
/parenleft /parenright /asterisk /plus /comma
/hyphen /period /slash /zero /one
/two /three /four /five /six
/seven /eight /nine /colon /semicolon
/less /equal /greater /question /at
/A /B /C /D /E
/F /G /H /I /J
/K /L /M /N /O
/P /Q /R /S /T
/U /V /W /X /Y
/Z /bracketleft /backslash /bracketright /asciicircum
/underscore /quoteleft /a /b /c
/d /e /f /g /h
/i /j /k /l /m
/n /o /p /q /r
/s /t /u /v /w
/x /y /z /braceleft /bar
/braceright /asciitilde /bullet /Euro /bullet
/quotesinglbase /florin /quotedblbase /ellipsis /dagger
/daggerdbl /circumflex /perthousand /Scaron /guilsinglleft
/OE /bullet /Zcaron /bullet /bullet
/quoteleft /quoteright /quotedblleft /quotedblright /bullet
/endash /emdash /asciitilde /trademark /scaron
/guilsinglright /oe /bullet /zcaron /Ydieresis
/space /exclamdown /cent /sterling /currency
/yen /brokenbar /section /dieresis /copyright
/ordfeminine /guillemotleft /logicalnot /sfthyphen /registered
/macron /degree /plusminus /twosuperior /threesuperior
/acute /mu /paragraph /middot /cedilla
/onesuperior /ordmasculine /guillemotright /onequarter /onehalf
/threequarters /questiondown /Agrave /Aacute /Acircumflex
/Atilde /Adieresis /Aring /AE /Ccedilla
/Egrave /Eacute /Ecircumflex /Edieresis /Igrave
/Iacute /Icircumflex /Idieresis /Eth /Ntilde
/Ograve /Oacute /Ocircumflex /Otilde /Odieresis
/multiply /Oslash /Ugrave /Uacute /Ucircumflex
/Udieresis /Yacute /Thorn /germandbls /agrave
/aacute /acircumflex /atilde /adieresis /aring
/ae /ccedilla /egrave /eacute /ecircumflex
/edieresis /igrave /iacute /icircumflex /idieresis
/eth /ntilde /ograve /oacute /ocircumflex
/otilde /odieresis /divide /oslash /ugrave
/uacute /ucircumflex /udieresis /yacute /thorn
/ydieresis
] def
%%EndResource
%FOPBeginFontReencode
/Courier-Oblique findfont
dup length dict begin
  {1 index /FID ne {def} {pop pop} ifelse} forall
  /Encoding WinAnsiEncoding def
  currentdict
end
/Courier-Oblique exch definefont pop
/Courier-BoldOblique findfont
dup length dict begin
  {1 index /FID ne {def} {pop pop} ifelse} forall
  /Encoding WinAnsiEncoding def
  currentdict
end
/Courier-BoldOblique exch definefont pop
/Courier-Bold findfont
dup length dict begin
  {1 index /FID ne {def} {pop pop} ifelse} forall
  /Encoding WinAnsiEncoding def
  currentdict
end
/Courier-Bold exch definefont pop
/Helvetica findfont
dup length dict begin
  {1 index /FID ne {def} {pop pop} ifelse} forall
  /Encoding WinAnsiEncoding def
  currentdict
end
/Helvetica exch definefont pop
/Helvetica-Oblique findfont
dup length dict begin
  {1 index /FID ne {def} {pop pop} ifelse} forall
  /Encoding WinAnsiEncoding def
  currentdict
end
/Helvetica-Oblique exch definefont pop
/Helvetica-Bold findfont
dup length dict begin
  {1 index /FID ne {def} {pop pop} ifelse} forall
  /Encoding WinAnsiEncoding def
  currentdict
end
/Helvetica-Bold exch definefont pop
/Helvetica-BoldOblique findfont
dup length dict begin
  {1 index /FID ne {def} {pop pop} ifelse} forall
  /Encoding WinAnsiEncoding def
  currentdict
end
/Helvetica-BoldOblique exch definefont pop
/Times-Roman findfont
dup length dict begin
  {1 index /FID ne {def} {pop pop} ifelse} forall
  /Encoding WinAnsiEncoding def
  currentdict
end
/Times-Roman exch definefont pop
/Times-Italic findfont
dup length dict begin
  {1 index /FID ne {def} {pop pop} ifelse} forall
  /Encoding WinAnsiEncoding def
  currentdict
end
/Times-Italic exch definefont pop
/Times-Bold findfont
dup length dict begin
  {1 index /FID ne {def} {pop pop} ifelse} forall
  /Encoding WinAnsiEncoding def
  currentdict
end
/Times-Bold exch definefont pop
/Times-BoldItalic findfont
dup length dict begin
  {1 index /FID ne {def} {pop pop} ifelse} forall
  /Encoding WinAnsiEncoding def
  currentdict
end
/Times-BoldItalic exch definefont pop
/Courier findfont
dup length dict begin
  {1 index /FID ne {def} {pop pop} ifelse} forall
  /Encoding WinAnsiEncoding def
  currentdict
end
/Courier exch definefont pop
%FOPEndFontReencode
%%EndProlog
%%Page: 1 1
%%PageBoundingBox: 0 0 560 420
%%BeginPageSetup
[1 0 0 -1 0 420] CT
%%EndPageSetup
GS
1 GC
N
0 0 560 420 re
f
GR
GS
1 GC
N
0 0 560 420 re
f
GR
GS
1 GC
N
134.25 343 M
445.75 343 L
445.75 31.5 L
134.25 31.5 L
cp
f
GR
GS
0.896 GC
1 LJ
N
134.25 343 M
134.25 31.5 L
S
GR
GS
0.896 GC
1 LJ
N
212.125 343 M
212.125 31.5 L
S
GR
GS
0.896 GC
1 LJ
N
290 343 M
290 31.5 L
S
GR
GS
0.896 GC
1 LJ
N
367.875 343 M
367.875 31.5 L
S
GR
GS
0.896 GC
1 LJ
N
445.75 343 M
445.75 31.5 L
S
GR
GS
0.896 GC
1 LJ
N
445.75 343 M
134.25 343 L
S
GR
GS
0.896 GC
1 LJ
N
445.75 265.125 M
134.25 265.125 L
S
GR
GS
0.896 GC
1 LJ
N
445.75 187.25 M
134.25 187.25 L
S
GR
GS
0.896 GC
1 LJ
N
445.75 109.375 M
134.25 109.375 L
S
GR
GS
0.896 GC
1 LJ
N
445.75 31.5 M
134.25 31.5 L
S
GR
GS
0.302 GC
2 setlinecap
1 LJ
N
134.25 343 M
445.75 343 L
S
GR
GS
0.302 GC
2 setlinecap
1 LJ
N
134.25 343 M
134.25 349.23 L
S
GR
GS
0.302 GC
2 setlinecap
1 LJ
N
212.125 343 M
212.125 349.23 L
S
GR
GS
0.302 GC
2 setlinecap
1 LJ
N
290 343 M
290 349.23 L
S
GR
GS
0.302 GC
2 setlinecap
1 LJ
N
367.875 343 M
367.875 349.23 L
S
GR
GS
0.302 GC
2 setlinecap
1 LJ
N
445.75 343 M
445.75 349.23 L
S
GR
GS
0.302 GC
2 setlinecap
1 LJ
N
149.825 343 M
149.825 346.115 L
S
GR
GS
0.302 GC
2 setlinecap
1 LJ
N
165.4 343 M
165.4 346.115 L
S
GR
GS
0.302 GC
2 setlinecap
1 LJ
N
180.975 343 M
180.975 346.115 L
S
GR
GS
0.302 GC
2 setlinecap
1 LJ
N
196.55 343 M
196.55 346.115 L
S
GR
GS
0.302 GC
2 setlinecap
1 LJ
N
227.7 343 M
227.7 346.115 L
S
GR
GS
0.302 GC
2 setlinecap
1 LJ
N
243.275 343 M
243.275 346.115 L
S
GR
GS
0.302 GC
2 setlinecap
1 LJ
N
258.85 343 M
258.85 346.115 L
S
GR
GS
0.302 GC
2 setlinecap
1 LJ
N
274.425 343 M
274.425 346.115 L
S
GR
GS
0.302 GC
2 setlinecap
1 LJ
N
305.575 343 M
305.575 346.115 L
S
GR
GS
0.302 GC
2 setlinecap
1 LJ
N
321.15 343 M
321.15 346.115 L
S
GR
GS
0.302 GC
2 setlinecap
1 LJ
N
336.725 343 M
336.725 346.115 L
S
GR
GS
0.302 GC
2 setlinecap
1 LJ
N
352.3 343 M
352.3 346.115 L
S
GR
GS
0.302 GC
2 setlinecap
1 LJ
N
383.45 343 M
383.45 346.115 L
S
GR
GS
0.302 GC
2 setlinecap
1 LJ
N
399.025 343 M
399.025 346.115 L
S
GR
GS
0.302 GC
2 setlinecap
1 LJ
N
414.6 343 M
414.6 346.115 L
S
GR
GS
0.302 GC
2 setlinecap
1 LJ
N
430.175 343 M
430.175 346.115 L
S
GR
GS
[1 0 0 1 134.25 356.23001] CT
0.302 GC
/Helvetica 25 F
GS
[1 0 0 1 0 0] CT
-7 24 moveto 
1 -1 scale
(0) t 
GR
GR
GS
[1 0 0 1 212.125 356.23001] CT
0.302 GC
/Helvetica 25 F
GS
[1 0 0 1 0 0] CT
-14 24 moveto 
1 -1 scale
(15) t 
GR
GR
GS
[1 0 0 1 290 356.23001] CT
0.302 GC
/Helvetica 25 F
GS
[1 0 0 1 0 0] CT
-14 24 moveto 
1 -1 scale
(30) t 
GR
GR
GS
[1 0 0 1 367.875 356.23001] CT
0.302 GC
/Helvetica 25 F
GS
[1 0 0 1 0 0] CT
-14 24 moveto 
1 -1 scale
(45) t 
GR
GR
GS
[1 0 0 1 445.75 356.23001] CT
0.302 GC
/Helvetica 25 F
GS
[1 0 0 1 0 0] CT
-14 24 moveto 
1 -1 scale
(60) t 
GR
GR
GS
[1 0 0 1 290.00015 386.73001] CT
0.302 GC
/Helvetica 27.5 F
GS
[1 0 0 1 0 0] CT
-151.5 27 moveto 
1 -1 scale
(saccade amplitude \(deg\)) t 
GR
GR
GS
0.302 GC
2 setlinecap
1 LJ
N
134.25 343 M
134.25 31.5 L
S
GR
GS
0.302 GC
2 setlinecap
1 LJ
N
134.25 343 M
128.02 343 L
S
GR
GS
0.302 GC
2 setlinecap
1 LJ
N
134.25 265.125 M
128.02 265.125 L
S
GR
GS
0.302 GC
2 setlinecap
1 LJ
N
134.25 187.25 M
128.02 187.25 L
S
GR
GS
0.302 GC
2 setlinecap
1 LJ
N
134.25 109.375 M
128.02 109.375 L
S
GR
GS
0.302 GC
2 setlinecap
1 LJ
N
134.25 31.5 M
128.02 31.5 L
S
GR
GS
0.302 GC
2 setlinecap
1 LJ
N
134.25 330.021 M
131.135 330.021 L
S
GR
GS
0.302 GC
2 setlinecap
1 LJ
N
134.25 317.042 M
131.135 317.042 L
S
GR
GS
0.302 GC
2 setlinecap
1 LJ
N
134.25 304.063 M
131.135 304.063 L
S
GR
GS
0.302 GC
2 setlinecap
1 LJ
N
134.25 291.083 M
131.135 291.083 L
S
GR
GS
0.302 GC
2 setlinecap
1 LJ
N
134.25 278.104 M
131.135 278.104 L
S
GR
GS
0.302 GC
2 setlinecap
1 LJ
N
134.25 252.146 M
131.135 252.146 L
S
GR
GS
0.302 GC
2 setlinecap
1 LJ
N
134.25 239.167 M
131.135 239.167 L
S
GR
GS
0.302 GC
2 setlinecap
1 LJ
N
134.25 226.188 M
131.135 226.188 L
S
GR
GS
0.302 GC
2 setlinecap
1 LJ
N
134.25 213.208 M
131.135 213.208 L
S
GR
GS
0.302 GC
2 setlinecap
1 LJ
N
134.25 200.229 M
131.135 200.229 L
S
GR
GS
0.302 GC
2 setlinecap
1 LJ
N
134.25 174.271 M
131.135 174.271 L
S
GR
GS
0.302 GC
2 setlinecap
1 LJ
N
134.25 161.292 M
131.135 161.292 L
S
GR
GS
0.302 GC
2 setlinecap
1 LJ
N
134.25 148.313 M
131.135 148.313 L
S
GR
GS
0.302 GC
2 setlinecap
1 LJ
N
134.25 135.333 M
131.135 135.333 L
S
GR
GS
0.302 GC
2 setlinecap
1 LJ
N
134.25 122.354 M
131.135 122.354 L
S
GR
GS
0.302 GC
2 setlinecap
1 LJ
N
134.25 96.396 M
131.135 96.396 L
S
GR
GS
0.302 GC
2 setlinecap
1 LJ
N
134.25 83.417 M
131.135 83.417 L
S
GR
GS
0.302 GC
2 setlinecap
1 LJ
N
134.25 70.438 M
131.135 70.438 L
S
GR
GS
0.302 GC
2 setlinecap
1 LJ
N
134.25 57.458 M
131.135 57.458 L
S
GR
GS
0.302 GC
2 setlinecap
1 LJ
N
134.25 44.479 M
131.135 44.479 L
S
GR
GS
[1 0 0 1 121.02 343] CT
0.302 GC
/Helvetica 25 F
GS
[1 0 0 1 0 0] CT
-14 9 moveto 
1 -1 scale
(0) t 
GR
GR
GS
[1 0 0 1 121.02 265.125] CT
0.302 GC
/Helvetica 25 F
GS
[1 0 0 1 0 0] CT
-28 9 moveto 
1 -1 scale
(30) t 
GR
GR
GS
[1 0 0 1 121.02 187.25] CT
0.302 GC
/Helvetica 25 F
GS
[1 0 0 1 0 0] CT
-28 9 moveto 
1 -1 scale
(60) t 
GR
GR
GS
[1 0 0 1 121.02 109.375] CT
0.302 GC
/Helvetica 25 F
GS
[1 0 0 1 0 0] CT
-28 9 moveto 
1 -1 scale
(90) t 
GR
GR
GS
[1 0 0 1 121.02 31.5] CT
0.302 GC
/Helvetica 25 F
GS
[1 0 0 1 0 0] CT
-42 9 moveto 
1 -1 scale
(120) t 
GR
GR
GS
[0 -1 1 0 58 266] CT
0.302 GC
/Helvetica 27.5 F
GS
[1 0 0 1 0 0] CT
0 0 moveto 
1 -1 scale
(v) t 
GR
GR
GS
[0 -1 1 0 71 252] CT
0.302 GC
/Helvetica 22 F
GS
[1 0 0 1 0 0] CT
0 0 moveto 
1 -1 scale
(pk) t 
GR
GR
GS
[0 -1 1 0 58 227] CT
0.302 GC
/Helvetica 27.5 F
GS
[1 0 0 1 0 0] CT
0 0 moveto 
1 -1 scale
( x D \(deg\)) t 
GR
GR
GS
[1 0 0 1 206.69733 283.86404] CT
N
1 0 M
1 0.552 0.552 1 0 1 C
-0.552 1 -1 0.552 -1 0 C
-1 -0.552 -0.552 -1 0 -1 C
0.552 -1 1 -0.552 1 0 C
cp
f
GR
GS
[1 0 0 1 311.5386 167.12993] CT
N
/f-891180347{1 0 M
1 0.552 0.552 1 0 1 C
-0.552 1 -1 0.552 -1 0 C
-1 -0.552 -0.552 -1 0 -1 C
0.552 -1 1 -0.552 1 0 C
cp}def
f-891180347
f
GR
GS
[1 0 0 1 250.17136 263.78491] CT
N
f-891180347
f
GR
GS
[1 0 0 1 291.3215 185.05684] CT
N
f-891180347
f
GR
GS
[1 0 0 1 245.52995 266.89697] CT
N
f-891180347
f
GR
GS
[1 0 0 1 266.02536 209.7775] CT
N
f-891180347
f
GR
GS
[1 0 0 1 399.93442 141.94804] CT
N
f-891180347
f
GR
GS
[1 0 0 1 208.50259 306.29764] CT
N
f-891180347
f
GR
GS
[1 0 0 1 247.79968 250.39751] CT
N
f-891180347
f
GR
GS
[1 0 0 1 263.64352 239.59131] CT
N
f-891180347
f
GR
GS
[1 0 0 1 290.16644 205.90276] CT
N
f-891180347
f
GR
GS
[1 0 0 1 285.61032 267.14484] CT
N
f-891180347
f
GR
GS
[1 0 0 1 212.51616 294.71152] CT
N
f-891180347
f
GR
GS
[1 0 0 1 321.9787 151.79286] CT
N
f-891180347
f
GR
GS
[1 0 0 1 235.26408 270.92743] CT
N
f-891180347
f
GR
GS
[1 0 0 1 170.24883 332.64676] CT
N
f-891180347
f
GR
GS
[1 0 0 1 292.82596 205.10434] CT
N
f-891180347
f
GR
GS
[1 0 0 1 231.73384 280.58636] CT
N
f-891180347
f
GR
GS
[1 0 0 1 211.34789 289.20081] CT
N
f-891180347
f
GR
GS
[1 0 0 1 253.3903 228.59938] CT
N
f-891180347
f
GR
GS
[1 0 0 1 224.68028 288.40768] CT
N
f-891180347
f
GR
GS
[1 0 0 1 401.1304 88.72621] CT
N
f-891180347
f
GR
GS
[1 0 0 1 219.97484 306.28394] CT
N
f-891180347
f
GR
GS
[1 0 0 1 188.05011 280.31458] CT
N
f-891180347
f
GR
GS
[1 0 0 1 270.1618 259.53101] CT
N
f-891180347
f
GR
GS
[1 0 0 1 167.59547 326.25064] CT
N
f-891180347
f
GR
GS
[1 0 0 1 264.09039 223.65857] CT
N
f-891180347
f
GR
GS
[1 0 0 1 281.51279 235.24884] CT
N
f-891180347
f
GR
GS
[1 0 0 1 274.29953 219.52963] CT
N
f-891180347
f
GR
GS
[1 0 0 1 230.63982 284.46933] CT
N
f-891180347
f
GR
GS
[1 0 0 1 237.50215 265.31802] CT
N
f-891180347
f
GR
GS
[1 0 0 1 344.14304 148.97685] CT
N
f-891180347
f
GR
GS
[1 0 0 1 344.42676 152.73048] CT
N
f-891180347
f
GR
GS
[1 0 0 1 237.54974 273.51111] CT
N
f-891180347
f
GR
GS
[1 0 0 1 164.94493 335.46008] CT
N
f-891180347
f
GR
GS
[1 0 0 1 182.12804 314.14172] CT
N
f-891180347
f
GR
GS
[1 0 0 1 220.03349 290.49124] CT
N
f-891180347
f
GR
GS
[1 0 0 1 223.0714 283.09576] CT
N
f-891180347
f
GR
GS
[1 0 0 1 251.00795 252.17361] CT
N
f-891180347
f
GR
GS
[1 0 0 1 355.61566 136.90802] CT
N
f-891180347
f
GR
GS
[1 0 0 1 386.58865 109.22375] CT
N
f-891180347
f
GR
GS
[1 0 0 1 328.48804 172.01451] CT
N
f-891180347
f
GR
GS
[1 0 0 1 267.94928 265.19794] CT
N
f-891180347
f
GR
GS
[1 0 0 1 202.77489 298.92761] CT
N
f-891180347
f
GR
GS
[1 0 0 1 282.69281 245.02373] CT
N
f-891180347
f
GR
GS
[1 0 0 1 315.87531 206.74265] CT
N
f-891180347
f
GR
GS
[1 0 0 1 274.24399 259.59854] CT
N
f-891180347
f
GR
GS
[1 0 0 1 343.02884 145.46245] CT
N
f-891180347
f
GR
GS
[1 0 0 1 247.12401 254.03131] CT
N
f-891180347
f
GR
GS
[1 0 0 1 218.76984 298.31921] CT
N
f-891180347
f
GR
GS
[1 0 0 1 195.52203 300.02628] CT
N
f-891180347
f
GR
GS
[1 0 0 1 342.13251 150.2265] CT
N
f-891180347
f
GR
GS
[1 0 0 1 290.16293 215.02922] CT
N
f-891180347
f
GR
GS
[1 0 0 1 314.5434 199.20741] CT
N
f-891180347
f
GR
GS
[1 0 0 1 262.02225 257.26794] CT
N
f-891180347
f
GR
GS
[1 0 0 1 339.33307 172.50484] CT
N
f-891180347
f
GR
GS
[1 0 0 1 319.40948 182.73611] CT
N
f-891180347
f
GR
GS
[1 0 0 1 326.0119 177.36037] CT
N
f-891180347
f
GR
GS
[1 0 0 1 315.22479 202.80681] CT
N
f-891180347
f
GR
GS
[1 0 0 1 344.70621 222.0238] CT
N
f-891180347
f
GR
GS
[1 0 0 1 268.20236 311.29013] CT
N
f-891180347
f
GR
GS
[1 0 0 1 254.11421 290.93866] CT
N
f-891180347
f
GR
GS
[1 0 0 1 268.4617 269.07068] CT
N
f-891180347
f
GR
GS
[1 0 0 1 258.505 292.29437] CT
N
f-891180347
f
GR
GS
[1 0 0 1 305.60532 233.41452] CT
N
f-891180347
f
GR
GS
[1 0 0 1 254.9221 327.61511] CT
N
f-891180347
f
GR
GS
[1 0 0 1 310.95068 213.12358] CT
N
f-891180347
f
GR
GS
[1 0 0 1 407.65109 118.22542] CT
N
f-891180347
f
GR
GS
[1 0 0 1 364.61081 191.47777] CT
N
f-891180347
f
GR
GS
[1 0 0 1 426.03412 253.73579] CT
N
f-891180347
f
GR
GS
[1 0 0 1 443.92664 264.02737] CT
N
f-891180347
f
GR
GS
[1 0 0 1 355.6525 295.47433] CT
N
f-891180347
f
GR
GS
[1 0 0 1 350.04089 236.68706] CT
N
f-891180347
f
GR
GS
[1 0 0 1 301.47867 296.82455] CT
N
f-891180347
f
GR
GS
[1 0 0 1 304.71918 268.05612] CT
N
f-891180347
f
GR
GS
[1 0 0 1 308.49701 246.70363] CT
N
f-891180347
f
GR
GS
[1 0 0 1 262.97955 322.5047] CT
N
f-891180347
f
GR
GS
[1 0 0 1 267.45853 275.16867] CT
N
f-891180347
f
GR
GS
[1 0 0 1 245.94112 304.25745] CT
N
f-891180347
f
GR
GS
[1 0 0 1 247.21021 276.86017] CT
N
f-891180347
f
GR
GS
[1 0 0 1 327.26257 187.40578] CT
N
f-891180347
f
GR
GS
[1 0 0 1 297.18094 222.94696] CT
N
f-891180347
f
GR
GS
[1 0 0 1 294.6908 214.96057] CT
N
f-891180347
f
GR
GS
[1 0 0 1 285.17764 224.11592] CT
N
f-891180347
f
GR
GS
[1 0 0 1 273.73236 232.7498] CT
N
f-891180347
f
GR
GS
[1 0 0 1 300.49048 197.16309] CT
N
f-891180347
f
GR
GS
[1 0 0 1 253.85237 249.95767] CT
N
f-891180347
f
GR
GS
[1 0 0 1 231.02162 290.82227] CT
N
f-891180347
f
GR
GS
[1 0 0 1 237.48158 246.68401] CT
N
f-891180347
f
GR
GS
[1 0 0 1 217.38469 301.28137] CT
N
f-891180347
f
GR
GS
[1 0 0 1 302.03018 185.08269] CT
N
f-891180347
f
GR
GS
[1 0 0 1 309.21329 187.85783] CT
N
f-891180347
f
GR
GS
[1 0 0 1 230.51259 254.3623] CT
N
f-891180347
f
GR
GS
[1 0 0 1 276.98865 217.9398] CT
N
f-891180347
f
GR
GS
[1 0 0 1 350.59491 153.56053] CT
N
f-891180347
f
GR
GS
[1 0 0 1 317.02066 180.69786] CT
N
f-891180347
f
GR
GS
[1 0 0 1 259.39072 269.61133] CT
N
f-891180347
f
GR
GS
[1 0 0 1 286.16833 208.05058] CT
N
f-891180347
f
GR
GS
[1 0 0 1 352.74792 161.16733] CT
N
f-891180347
f
GR
GS
[1 0 0 1 235.16122 293.87515] CT
N
f-891180347
f
GR
GS
[1 0 0 1 210.82608 324.99939] CT
N
f-891180347
f
GR
GS
[1 0 0 1 229.70033 274.43393] CT
N
f-891180347
f
GR
GS
[1 0 0 1 251.72041 285.17758] CT
N
f-891180347
f
GR
GS
[1 0 0 1 299.01059 212.47208] CT
N
f-891180347
f
GR
GS
[1 0 0 1 267.05252 295.26187] CT
N
f-891180347
f
GR
GS
[1 0 0 1 275.24969 298.80078] CT
N
f-891180347
f
GR
GS
[1 0 0 1 309.18619 215.6972] CT
N
f-891180347
f
GR
GS
[1 0 0 1 318.13116 230.02596] CT
N
f-891180347
f
GR
GS
[1 0 0 1 284.11807 266.70358] CT
N
f-891180347
f
GR
GS
[1 0 0 1 322.83771 182.46353] CT
N
f-891180347
f
GR
GS
[1 0 0 1 319.36157 169.10759] CT
N
f-891180347
f
GR
GS
[1 0 0 1 296.14279 293.7388] CT
N
f-891180347
f
GR
GS
[1 0 0 1 300.95969 304.03134] CT
N
f-891180347
f
GR
GS
[1 0 0 1 313.92847 283.86154] CT
N
f-891180347
f
GR
GS
[1 0 0 1 277.76459 310.84393] CT
N
f-891180347
f
GR
GS
[1 0 0 1 305.55832 235.1817] CT
N
f-891180347
f
GR
GS
[1 0 0 1 343.44559 213.14003] CT
N
f-891180347
f
GR
GS
[1 0 0 1 327.8989 205.22057] CT
N
f-891180347
f
GR
GS
[1 0 0 1 341.02341 224.67862] CT
N
f-891180347
f
GR
GS
[1 0 0 1 322.51431 289.30273] CT
N
f-891180347
f
GR
GS
[1 0 0 1 307.13925 246.56091] CT
N
f-891180347
f
GR
GS
[1 0 0 1 311.26321 251.59486] CT
N
f-891180347
f
GR
GS
[1 0 0 1 294.22357 285.49194] CT
N
f-891180347
f
GR
GS
[1 0 0 1 302.19064 241.08421] CT
N
f-891180347
f
GR
GS
[1 0 0 1 407.94583 134.56651] CT
N
f-891180347
f
GR
GS
[1 0 0 1 323.7179 224.53297] CT
N
f-891180347
f
GR
GS
[1 0 0 1 254.4194 302.21469] CT
N
f-891180347
f
GR
GS
[1 0 0 1 300.71689 243.49934] CT
N
f-891180347
f
GR
GS
[1 0 0 1 268.24661 300.10486] CT
N
f-891180347
f
GR
GS
[1 0 0 1 331.63367 197.31285] CT
N
f-891180347
f
GR
GS
[1 0 0 1 270.93942 324.49426] CT
N
f-891180347
f
GR
GS
[1 0 0 1 262.84668 297.56357] CT
N
f-891180347
f
GR
GS
[1 0 0 1 257.14377 298.5704] CT
N
f-891180347
f
GR
GS
[1 0 0 1 261.08438 264.31845] CT
N
f-891180347
f
GR
GS
[1 0 0 1 349.18732 153.21999] CT
N
f-891180347
f
GR
GS
[1 0 0 1 297.10913 254.34203] CT
N
f-891180347
f
GR
GS
[1 0 0 1 252.68898 288.11758] CT
N
f-891180347
f
GR
GS
[1 0 0 1 273.28973 283.54922] CT
N
f-891180347
f
GR
GS
[1 0 0 1 222.65155 332.57059] CT
N
f-891180347
f
GR
GS
[1 0 0 1 284.82681 210.93736] CT
N
f-891180347
f
GR
GS
[1 0 0 1 268.40717 234.96913] CT
N
f-891180347
f
GR
GS
[1 0 0 1 275.54453 232.91356] CT
N
f-891180347
f
GR
GS
[1 0 0 1 299.94052 221.34639] CT
N
f-891180347
f
GR
GS
[1 0 0 1 215.69707 313.4538] CT
N
f-891180347
f
GR
GS
[1 0 0 1 214.27522 290.06583] CT
N
f-891180347
f
GR
GS
[1 0 0 1 232.49805 264.99103] CT
N
f-891180347
f
GR
GS
[1 0 0 1 300.97379 194.86272] CT
N
f-891180347
f
GR
GS
[1 0 0 1 344.57813 167.73027] CT
N
f-891180347
f
GR
GS
[1 0 0 1 298.13043 195.2527] CT
N
f-891180347
f
GR
GS
[1 0 0 1 262.44269 249.23502] CT
N
f-891180347
f
GR
GS
[1 0 0 1 264.09369 287.18991] CT
N
f-891180347
f
GR
GS
[1 0 0 1 263.56049 251.95789] CT
N
f-891180347
f
GR
GS
[1 0 0 1 308.69424 207.65459] CT
N
f-891180347
f
GR
GS
[1 0 0 1 258.70499 294.99408] CT
N
f-891180347
f
GR
GS
[1 0 0 1 253.71074 272.95233] CT
N
f-891180347
f
GR
GS
[1 0 0 1 261.39865 275.09451] CT
N
f-891180347
f
GR
GS
[1 0 0 1 267.35269 270.00836] CT
N
f-891180347
f
GR
GS
[1 0 0 1 233.8842 299.82108] CT
N
f-891180347
f
GR
GS
[1 0 0 1 300.1756 194.70787] CT
N
f-891180347
f
GR
GS
[1 0 0 1 295.88202 204.38744] CT
N
f-891180347
f
GR
GS
[1 0 0 1 295.93103 221.55087] CT
N
f-891180347
f
GR
GS
[1 0 0 1 211.61391 292.82242] CT
N
f-891180347
f
GR
GS
[1 0 0 1 194.30424 323.01813] CT
N
f-891180347
f
GR
GS
[1 0 0 1 215.86166 289.52161] CT
N
f-891180347
f
GR
GS
[1 0 0 1 257.94534 237.81598] CT
N
f-891180347
f
GR
GS
[1 0 0 1 240.54884 290.27484] CT
N
f-891180347
f
GR
GS
[1 0 0 1 251.26369 273.0321] CT
N
f-891180347
f
GR
GS
[1 0 0 1 278.73868 226.07547] CT
N
f-891180347
f
GR
GS
[1 0 0 1 266.33206 246.61632] CT
N
f-891180347
f
GR
GS
[1 0 0 1 364.4339 163.4202] CT
N
f-891180347
f
GR
GS
[1 0 0 1 309.94345 190.42282] CT
N
f-891180347
f
GR
GS
[1 0 0 1 406.62964 70.35529] CT
N
f-891180347
f
GR
GS
[1 0 0 1 234.31847 294.18759] CT
N
f-891180347
f
GR
GS
[1 0 0 1 197.16289 299.30869] CT
N
f-891180347
f
GR
GS
[1 0 0 1 194.64624 310.6398] CT
N
f-891180347
f
GR
GS
[1 0 0 1 281.82056 249.52986] CT
N
f-891180347
f
GR
GS
[1 0 0 1 165.27745 333.67926] CT
N
f-891180347
f
GR
GS
[1 0 0 1 243.52257 254.70277] CT
N
f-891180347
f
GR
GS
[1 0 0 1 287.13638 194.45461] CT
N
f-891180347
f
GR
GS
[1 0 0 1 269.5976 234.97226] CT
N
f-891180347
f
GR
GS
[1 0 0 1 292.71521 186.18425] CT
N
f-891180347
f
GR
GS
[1 0 0 1 297.62317 226.77222] CT
N
f-891180347
f
GR
GS
[1 0 0 1 167.88196 318.29074] CT
N
f-891180347
f
GR
GS
[1 0 0 1 254.57045 244.15216] CT
N
f-891180347
f
GR
GS
[1 0 0 1 332.99487 152.37845] CT
N
f-891180347
f
GR
GS
[1 0 0 1 288.67685 212.07756] CT
N
f-891180347
f
GR
GS
[1 0 0 1 189.5437 302.52841] CT
N
f-891180347
f
GR
GS
[1 0 0 1 344.49619 157.12724] CT
N
f-891180347
f
GR
GS
[1 0 0 1 271.76181 235.44658] CT
N
f-891180347
f
GR
GS
[1 0 0 1 174.56868 303.10019] CT
N
f-891180347
f
GR
GS
[1 0 0 1 213.73109 308.23083] CT
N
f-891180347
f
GR
GS
[1 0 0 1 368.62408 161.64136] CT
N
f-891180347
f
GR
GS
[1 0 0 1 267.10294 244.67873] CT
N
f-891180347
f
GR
GS
[1 0 0 1 373.6358 157.30608] CT
N
f-891180347
f
GR
GS
[1 0 0 1 237.36925 304.34512] CT
N
f-891180347
f
GR
GS
[1 0 0 1 224.37614 317.94995] CT
N
f-891180347
f
GR
GS
[1 0 0 1 334.50818 148.03296] CT
N
f-891180347
f
GR
GS
[1 0 0 1 284.23798 271.5025] CT
N
f-891180347
f
GR
GS
[1 0 0 1 250.69391 289.7554] CT
N
f-891180347
f
GR
GS
[1 0 0 1 307.08759 249.67697] CT
N
f-891180347
f
GR
GS
[1 0 0 1 237.73175 264.03613] CT
N
f-891180347
f
GR
GS
[1 0 0 1 231.54517 279.49872] CT
N
f-891180347
f
GR
GS
[1 0 0 1 274.97952 247.17746] CT
N
f-891180347
f
GR
GS
[1 0 0 1 245.99483 257.82397] CT
N
f-891180347
f
GR
GS
[1 0 0 1 289.34357 220.21884] CT
N
f-891180347
f
GR
GS
[1 0 0 1 302.66028 214.80762] CT
N
f-891180347
f
GR
GS
[1 0 0 1 288.41888 210.69516] CT
N
f-891180347
f
GR
GS
[1 0 0 1 403.66928 124.81852] CT
N
f-891180347
f
GR
GS
[1 0 0 1 272.12695 316.08319] CT
N
f-891180347
f
GR
GS
[1 0 0 1 275.45367 270.00244] CT
N
f-891180347
f
GR
GS
[1 0 0 1 282.81775 241.54498] CT
N
f-891180347
f
GR
GS
[1 0 0 1 316.89423 197.54813] CT
N
f-891180347
f
GR
GS
[1 0 0 1 278.90158 250.39415] CT
N
f-891180347
f
GR
GS
[1 0 0 1 299.70834 227.63763] CT
N
f-891180347
f
GR
GS
[1 0 0 1 254.17238 304.4913] CT
N
f-891180347
f
GR
GS
[1 0 0 1 250.87477 313.8248] CT
N
f-891180347
f
GR
GS
[1 0 0 1 245.91948 309.14459] CT
N
f-891180347
f
GR
GS
[1 0 0 1 230.92787 303.69958] CT
N
f-891180347
f
GR
GS
[1 0 0 1 322.21478 168.54355] CT
N
f-891180347
f
GR
GS
[1 0 0 1 263.41287 245.91469] CT
N
f-891180347
f
GR
GS
[1 0 0 1 221.96181 288.47162] CT
N
f-891180347
f
GR
GS
[1 0 0 1 237.63626 266.54242] CT
N
f-891180347
f
GR
GS
[1 0 0 1 237.73262 284.1683] CT
N
f-891180347
f
GR
GS
[1 0 0 1 213.58574 307.30969] CT
N
f-891180347
f
GR
GS
[1 0 0 1 284.58148 200.9386] CT
N
f-891180347
f
GR
GS
[1 0 0 1 280.99884 225.12517] CT
N
f-891180347
f
GR
GS
[1 0 0 1 233.69127 250.37172] CT
N
f-891180347
f
GR
GS
[1 0 0 1 245.49908 304.80814] CT
N
f-891180347
f
GR
GS
[1 0 0 1 207.73515 318.09351] CT
N
f-891180347
f
GR
GS
[1 0 0 1 255.60226 260.21234] CT
N
f-891180347
f
GR
GS
[1 0 0 1 219.17331 325.01199] CT
N
f-891180347
f
GR
GS
[1 0 0 1 377.17511 138.09891] CT
N
f-891180347
f
GR
GS
[1 0 0 1 251.86179 289.49313] CT
N
f-891180347
f
GR
GS
[1 0 0 1 260.31665 268.63202] CT
N
f-891180347
f
GR
GS
[1 0 0 1 265.99475 255.28285] CT
N
f-891180347
f
GR
GS
[1 0 0 1 275.20288 251.19638] CT
N
f-891180347
f
GR
GS
[1 0 0 1 341.62195 176.3338] CT
N
f-891180347
f
GR
GS
[1 0 0 1 331.38568 208.40836] CT
N
f-891180347
f
GR
GS
[1 0 0 1 254.77423 263.97177] CT
N
f-891180347
f
GR
GS
[1 0 0 1 327.6752 201.70995] CT
N
f-891180347
f
GR
GS
[1 0 0 1 294.61258 292.47632] CT
N
f-891180347
f
GR
GS
[1 0 0 1 245.34009 327.90652] CT
N
f-891180347
f
GR
GS
[1 0 0 1 235.94412 330.55072] CT
N
f-891180347
f
GR
GS
[1 0 0 1 287.72824 223.62592] CT
N
f-891180347
f
GR
GS
[1 0 0 1 281.79843 266.28345] CT
N
f-891180347
f
GR
GS
[1 0 0 1 269.35138 243.55812] CT
N
f-891180347
f
GR
GS
[1 0 0 1 258.68491 275.44977] CT
N
f-891180347
f
GR
GS
[1 0 0 1 283.25378 247.4267] CT
N
f-891180347
f
GR
GS
[1 0 0 1 242.00983 316.92413] CT
N
f-891180347
f
GR
GS
[1 0 0 1 229.3589 303.15768] CT
N
f-891180347
f
GR
GS
[1 0 0 1 296.22372 200.17097] CT
N
f-891180347
f
GR
GS
[1 0 0 1 218.41086 294.59729] CT
N
f-891180347
f
GR
GS
[1 0 0 1 246.2747 279.19644] CT
N
f-891180347
f
GR
GS
[1 0 0 1 328.20529 201.11288] CT
N
f-891180347
f
GR
GS
[1 0 0 1 280.73331 216.24252] CT
N
f-891180347
f
GR
GS
[1 0 0 1 340.13504 164.98741] CT
N
f-891180347
f
GR
GS
[1 0 0 1 259.61093 301.92456] CT
N
f-891180347
f
GR
GS
[1 0 0 1 303.00317 203.96956] CT
N
f-891180347
f
GR
GS
[1 0 0 1 309.09421 202.42833] CT
N
f-891180347
f
GR
GS
[1 0 0 1 252.0107 259.95773] CT
N
f-891180347
f
GR
GS
[1 0 0 1 268.06027 239.65741] CT
N
f-891180347
f
GR
GS
[1 0 0 1 266.29498 232.40004] CT
N
f-891180347
f
GR
GS
[1 0 0 1 236.93813 296.75354] CT
N
f-891180347
f
GR
GS
[1 0 0 1 313.63303 185.50583] CT
N
f-891180347
f
GR
GS
[1 0 0 1 274.42422 265.34866] CT
N
f-891180347
f
GR
GS
[1 0 0 1 305.92023 225.21747] CT
N
f-891180347
f
GR
GS
[1 0 0 1 252.80371 279.97394] CT
N
f-891180347
f
GR
GS
[1 0 0 1 243.88165 296.50644] CT
N
f-891180347
f
GR
GS
[1 0 0 1 245.03427 305.04858] CT
N
f-891180347
f
GR
GS
[1 0 0 1 241.25322 254.15224] CT
N
f-891180347
f
GR
GS
[1 0 0 1 244.97667 273.51111] CT
N
f-891180347
f
GR
GS
[1 0 0 1 206.19244 312.64783] CT
N
f-891180347
f
GR
GS
[1 0 0 1 236.81241 293.3407] CT
N
f-891180347
f
GR
GS
[1 0 0 1 233.50081 289.63577] CT
N
f-891180347
f
GR
GS
[1 0 0 1 267.4707 242.57449] CT
N
f-891180347
f
GR
GS
[1 0 0 1 274.78906 231.16484] CT
N
f-891180347
f
GR
GS
[1 0 0 1 319.79642 171.39462] CT
N
f-891180347
f
GR
GS
[1 0 0 1 327.98679 133.14027] CT
N
f-891180347
f
GR
GS
[1 0 0 1 358.40079 195.35637] CT
N
f-891180347
f
GR
GS
[1 0 0 1 261.62302 270.61615] CT
N
f-891180347
f
GR
GS
[1 0 0 1 273.30658 279.44595] CT
N
f-891180347
f
GR
GS
[1 0 0 1 255.18913 287.00095] CT
N
f-891180347
f
GR
GS
[1 0 0 1 247.79794 289.33493] CT
N
f-891180347
f
GR
GS
[1 0 0 1 249.59734 295.65598] CT
N
f-891180347
f
GR
GS
[1 0 0 1 214.95688 324.0994] CT
N
f-891180347
f
GR
GS
[1 0 0 1 264.24139 244.51181] CT
N
f-891180347
f
GR
GS
[1 0 0 1 291.48291 220.59764] CT
N
f-891180347
f
GR
GS
[1 0 0 1 246.24548 287.22614] CT
N
f-891180347
f
GR
GS
[1 0 0 1 246.40137 269.80713] CT
N
f-891180347
f
GR
GS
[1 0 0 1 229.97316 312.80099] CT
N
f-891180347
f
GR
GS
[1 0 0 1 210.63863 322.05972] CT
N
f-891180347
f
GR
GS
[1 0 0 1 306.68585 206.59245] CT
N
f-891180347
f
GR
GS
[1 0 0 1 318.79752 187.1068] CT
N
f-891180347
f
GR
GS
[1 0 0 1 259.79123 248.60918] CT
N
f-891180347
f
GR
GS
[1 0 0 1 233.90388 265.31091] CT
N
f-891180347
f
GR
GS
[1 0 0 1 317.36783 184.12492] CT
N
f-891180347
f
GR
GS
[1 0 0 1 280.29926 219.22594] CT
N
f-891180347
f
GR
GS
[1 0 0 1 216.34454 313.08096] CT
N
f-891180347
f
GR
GS
[1 0 0 1 226.14819 294.16122] CT
N
f-891180347
f
GR
GS
[1 0 0 1 229.76265 293.38498] CT
N
f-891180347
f
GR
GS
[1 0 0 1 259.76993 260.33325] CT
N
f-891180347
f
GR
GS
[1 0 0 1 241.87276 286.79282] CT
N
f-891180347
f
GR
GS
[1 0 0 1 205.06847 308.28329] CT
N
f-891180347
f
GR
GS
[1 0 0 1 267.90683 242.20088] CT
N
f-891180347
f
GR
GS
[1 0 0 1 276.71301 239.36639] CT
N
f-891180347
f
GR
GS
[1 0 0 1 247.14673 266.6445] CT
N
f-891180347
f
GR
GS
[1 0 0 1 257.96368 251.05077] CT
N
f-891180347
f
GR
GS
[1 0 0 1 229.75677 334.00668] CT
N
f-891180347
f
GR
GS
[1 0 0 1 357.45096 150.02408] CT
N
f-891180347
f
GR
GS
[1 0 0 1 256.61279 312.92871] CT
N
f-891180347
f
GR
GS
[1 0 0 1 267.56039 283.46219] CT
N
f-891180347
f
GR
GS
[1 0 0 1 256.06854 315.10852] CT
N
f-891180347
f
GR
GS
[1 0 0 1 273.85712 293.73856] CT
N
f-891180347
f
GR
GS
[1 0 0 1 292.552 232.44926] CT
N
f-891180347
f
GR
GS
[1 0 0 1 230.36317 316.93323] CT
N
f-891180347
f
GR
GS
[1 0 0 1 262.60138 267.66544] CT
N
f-891180347
f
GR
GS
[1 0 0 1 291.76443 233.96452] CT
N
f-891180347
f
GR
GS
[1 0 0 1 327.19928 198.84203] CT
N
f-891180347
f
GR
GS
[1 0 0 1 251.81999 314.56146] CT
N
f-891180347
f
GR
GS
[1 0 0 1 269.56357 264.46701] CT
N
f-891180347
f
GR
GS
[1 0 0 1 283.94937 245.48643] CT
N
f-891180347
f
GR
GS
[1 0 0 1 251.68391 258.9003] CT
N
f-891180347
f
GR
GS
[1 0 0 1 276.93454 237.04462] CT
N
f-891180347
f
GR
GS
[1 0 0 1 233.61256 303.29221] CT
N
f-891180347
f
GR
GS
[1 0 0 1 240.46545 302.47354] CT
N
f-891180347
f
GR
GS
[1 0 0 1 215.19554 301.62091] CT
N
f-891180347
f
GR
GS
[1 0 0 1 241.05807 299.09933] CT
N
f-891180347
f
GR
GS
[1 0 0 1 233.65382 302.8103] CT
N
f-891180347
f
GR
GS
[1 0 0 1 301.74759 213.20233] CT
N
f-891180347
f
GR
GS
[1 0 0 1 253.60896 316.98874] CT
N
f-891180347
f
GR
GS
[1 0 0 1 252.29515 283.85828] CT
N
f-891180347
f
GR
GS
[1 0 0 1 266.92459 281.42499] CT
N
f-891180347
f
GR
GS
[1 0 0 1 250.11172 291.91907] CT
N
f-891180347
f
GR
GS
[1 0 0 1 246.42796 311.51453] CT
N
f-891180347
f
GR
GS
[1 0 0 1 249.18172 273.94501] CT
N
f-891180347
f
GR
GS
[1 0 0 1 384.00931 114.32493] CT
N
f-891180347
f
GR
GS
[1 0 0 1 372.51224 134.35408] CT
N
f-891180347
f
GR
GS
[1 0 0 1 299.19 227.03529] CT
N
f-891180347
f
GR
GS
[1 0 0 1 270.94543 225.00029] CT
N
f-891180347
f
GR
GS
[1 0 0 1 331.21698 149.49112] CT
N
f-891180347
f
GR
GS
[1 0 0 1 228.68239 275.08417] CT
N
f-891180347
f
GR
GS
[1 0 0 1 213.39214 272.63791] CT
N
f-891180347
f
GR
GS
[1 0 0 1 330.43268 211.222] CT
N
f-891180347
f
GR
GS
[1 0 0 1 268.35895 240.12358] CT
N
f-891180347
f
GR
GS
[1 0 0 1 291.45163 255.01694] CT
N
f-891180347
f
GR
GS
[1 0 0 1 220.82849 293.50159] CT
N
f-891180347
f
GR
GS
[1 0 0 1 269.09656 226.52213] CT
N
f-891180347
f
GR
GS
[1 0 0 1 223.23099 300.39438] CT
N
f-891180347
f
GR
GS
[1 0 0 1 295.02267 232.91742] CT
N
f-891180347
f
GR
GS
[1 0 0 1 282.37131 213.42424] CT
N
f-891180347
f
GR
GS
[1 0 0 1 234.93018 291.70749] CT
N
f-891180347
f
GR
GS
[1 0 0 1 252.03127 253.62398] CT
N
f-891180347
f
GR
GS
[1 0 0 1 355.35043 168.4922] CT
N
f-891180347
f
GR
GS
[1 0 0 1 291.47552 238.29329] CT
N
f-891180347
f
GR
GS
[1 0 0 1 343.56409 236.60608] CT
N
f-891180347
f
GR
GS
[1 0 0 1 285.18365 279.81003] CT
N
f-891180347
f
GR
GS
[1 0 0 1 289.3089 250.26021] CT
N
f-891180347
f
GR
GS
[1 0 0 1 281.50436 279.14923] CT
N
f-891180347
f
GR
GS
[1 0 0 1 372.98074 170.87076] CT
N
f-891180347
f
GR
GS
[1 0 0 1 313.54388 239.04707] CT
N
f-891180347
f
GR
GS
[1 0 0 1 225.80902 334.84381] CT
N
f-891180347
f
GR
GS
[1 0 0 1 255.49864 263.85202] CT
N
f-891180347
f
GR
GS
[1 0 0 1 244.64807 302.7662] CT
N
f-891180347
f
GR
GS
[1 0 0 1 321.60245 173.64771] CT
N
f-891180347
f
GR
GS
[1 0 0 1 273.87393 225.43973] CT
N
f-891180347
f
GR
GS
[1 0 0 1 205.44637 313.34711] CT
N
f-891180347
f
GR
GS
[1 0 0 1 293.02658 203.13658] CT
N
f-891180347
f
GR
GS
[1 0 0 1 246.42018 300.54584] CT
N
f-891180347
f
GR
GS
[1 0 0 1 342.33371 188.55638] CT
N
f-891180347
f
GR
GS
[1 0 0 1 300.94992 276.27594] CT
N
f-891180347
f
GR
GS
[1 0 0 1 328.14282 162.73422] CT
N
f-891180347
f
GR
GS
[1 0 0 1 283.36502 257.88129] CT
N
f-891180347
f
GR
GS
[1 0 0 1 267.56964 296.02673] CT
N
f-891180347
f
GR
GS
[1 0 0 1 285.03482 219.44368] CT
N
f-891180347
f
GR
GS
[1 0 0 1 306.57614 237.45007] CT
N
f-891180347
f
GR
GS
[1 0 0 1 217.22794 325.7334] CT
N
f-891180347
f
GR
GS
[1 0 0 1 230.89865 279.08786] CT
N
f-891180347
f
GR
GS
[1 0 0 1 236.34435 289.3078] CT
N
f-891180347
f
GR
GS
[1 0 0 1 316.07761 223.06918] CT
N
f-891180347
f
GR
GS
[1 0 0 1 241.13449 318.08826] CT
N
f-891180347
f
GR
GS
[1 0 0 1 305.66473 208.95578] CT
N
f-891180347
f
GR
GS
[1 0 0 1 316.40015 201.5773] CT
N
f-891180347
f
GR
GS
[1 0 0 1 271.29651 233.25285] CT
N
f-891180347
f
GR
GS
[1 0 0 1 230.74359 312.14734] CT
N
f-891180347
f
GR
GS
[1 0 0 1 325.56335 189.64507] CT
N
f-891180347
f
GR
GS
[1 0 0 1 269.67056 265.22147] CT
N
f-891180347
f
GR
GS
[1 0 0 1 317.595 202.8508] CT
N
f-891180347
f
GR
GS
[1 0 0 1 322.49374 199.23914] CT
N
f-891180347
f
GR
GS
[1 0 0 1 373.65448 109.24767] CT
N
f-891180347
f
GR
GS
[1 0 0 1 295.79117 262.24844] CT
N
f-891180347
f
GR
GS
[1 0 0 1 322.14539 264.5282] CT
N
f-891180347
f
GR
GS
[1 0 0 1 256.82373 325.81937] CT
N
f-891180347
f
GR
GS
[1 0 0 1 274.72379 235.08037] CT
N
f-891180347
f
GR
GS
[1 0 0 1 266.79596 290.47629] CT
N
f-891180347
f
GR
GS
[1 0 0 1 235.92268 311.72534] CT
N
f-891180347
f
GR
GS
[1 0 0 1 337.33957 150.55426] CT
N
f-891180347
f
GR
GS
[1 0 0 1 242.49269 283.53033] CT
N
f-891180347
f
GR
GS
[1 0 0 1 278.18408 251.17972] CT
N
f-891180347
f
GR
GS
[1 0 0 1 335.38156 172.10419] CT
N
f-891180347
f
GR
GS
[1 0 0 1 228.70503 304.61673] CT
N
f-891180347
f
GR
GS
[1 0 0 1 310.8638 200.20651] CT
N
f-891180347
f
GR
GS
[1 0 0 1 257.14734 275.61746] CT
N
f-891180347
f
GR
GS
[1 0 0 1 288.53778 242.88945] CT
N
f-891180347
f
GR
GS
[1 0 0 1 262.17587 216.04823] CT
N
f-891180347
f
GR
GS
[1 0 0 1 370.31952 136.35852] CT
N
f-891180347
f
GR
GS
[1 0 0 1 364.41208 148.25974] CT
N
f-891180347
f
GR
GS
[1 0 0 1 304.6951 185.63748] CT
N
f-891180347
f
GR
GS
[1 0 0 1 332.47464 171.79958] CT
N
f-891180347
f
GR
GS
[1 0 0 1 283.14642 212.7403] CT
N
f-891180347
f
GR
GS
[1 0 0 1 293.51907 262.53503] CT
N
f-891180347
f
GR
GS
[1 0 0 1 249.12979 281.20828] CT
N
f-891180347
f
GR
GS
[1 0 0 1 345.47205 200.40135] CT
N
f-891180347
f
GR
GS
[1 0 0 1 301.50064 202.51758] CT
N
f-891180347
f
GR
GS
[1 0 0 1 268.69223 242.19601] CT
N
f-891180347
f
GR
GS
[1 0 0 1 289.71249 204.23468] CT
N
f-891180347
f
GR
GS
[1 0 0 1 261.43213 250.9288] CT
N
f-891180347
f
GR
GS
[1 0 0 1 262.50125 288.07224] CT
N
f-891180347
f
GR
GS
[1 0 0 1 272.35242 285.74097] CT
N
f-891180347
f
GR
GS
[1 0 0 1 340.48801 182.47737] CT
N
f-891180347
f
GR
GS
[1 0 0 1 301.88715 261.34497] CT
N
f-891180347
f
GR
GS
[1 0 0 1 355.26453 168.0808] CT
N
f-891180347
f
GR
GS
[1 0 0 1 286.59506 266.64905] CT
N
f-891180347
f
GR
GS
[1 0 0 1 214.48273 311.43082] CT
N
f-891180347
f
GR
GS
[1 0 0 1 327.3038 178.41589] CT
N
f-891180347
f
GR
GS
[1 0 0 1 335.86292 238.22787] CT
N
f-891180347
f
GR
GS
[1 0 0 1 242.1927 294.90979] CT
N
f-891180347
f
GR
GS
[1 0 0 1 240.86855 308.32626] CT
N
f-891180347
f
GR
GS
[1 0 0 1 387.629 130.39626] CT
N
f-891180347
f
GR
GS
[1 0 0 1 285.27325 291.51797] CT
N
f-891180347
f
GR
GS
[1 0 0 1 258.80008 271.91296] CT
N
f-891180347
f
GR
GS
[1 0 0 1 287.62662 238.79204] CT
N
f-891180347
f
GR
GS
[1 0 0 1 373.793 134.07704] CT
N
f-891180347
f
GR
GS
[1 0 0 1 319.6272 273.88895] CT
N
f-891180347
f
GR
GS
[1 0 0 1 351.5777 266.94293] CT
N
f-891180347
f
GR
GS
[1 0 0 1 347.89606 260.33954] CT
N
f-891180347
f
GR
GS
[1 0 0 1 307.47595 255.20232] CT
N
f-891180347
f
GR
GS
[1 0 0 1 338.92313 184.39777] CT
N
f-891180347
f
GR
GS
[1 0 0 1 293.54092 275.25] CT
N
f-891180347
f
GR
GS
[1 0 0 1 248.52823 292.79434] CT
N
f-891180347
f
GR
GS
[1 0 0 1 300.6095 186.2711] CT
N
f-891180347
f
GR
GS
[1 0 0 1 309.03406 250.88771] CT
N
f-891180347
f
GR
GS
[1 0 0 1 238.48085 297.69006] CT
N
f-891180347
f
GR
GS
[1 0 0 1 255.72403 264.53622] CT
N
f-891180347
f
GR
GS
[1 0 0 1 287.40158 249.1748] CT
N
f-891180347
f
GR
GS
[1 0 0 1 228.56859 313.96411] CT
N
f-891180347
f
GR
GS
[1 0 0 1 230.47162 293.78784] CT
N
f-891180347
f
GR
GS
[1 0 0 1 274.39432 241.87152] CT
N
f-891180347
f
GR
GS
[1 0 0 1 246.54822 284.43875] CT
N
f-891180347
f
GR
GS
[1 0 0 1 306.62689 208.35059] CT
N
f-891180347
f
GR
GS
[1 0 0 1 237.42238 306.7579] CT
N
f-891180347
f
GR
GS
[1 0 0 1 239.24828 294.91815] CT
N
f-891180347
f
GR
GS
[1 0 0 1 270.49521 238.83894] CT
N
f-891180347
f
GR
GS
[1 0 0 1 262.60828 271.16479] CT
N
f-891180347
f
GR
GS
[1 0 0 1 307.17673 215.29398] CT
N
f-891180347
f
GR
GS
[1 0 0 1 274.47662 262.67288] CT
N
f-891180347
f
GR
GS
[1 0 0 1 325.57648 215.67848] CT
N
f-891180347
f
GR
GS
[1 0 0 1 313.01898 243.37674] CT
N
f-891180347
f
GR
GS
[1 0 0 1 279.02533 299.77377] CT
N
f-891180347
f
GR
GS
[1 0 0 1 334.40576 198.84254] CT
N
f-891180347
f
GR
GS
[1 0 0 1 301.3045 308.32617] CT
N
f-891180347
f
GR
GS
[1 0 0 1 318.36829 187.34219] CT
N
f-891180347
f
GR
GS
[1 0 0 1 346.43011 205.56456] CT
N
f-891180347
f
GR
GS
[1 0 0 1 297.56152 291.52948] CT
N
f-891180347
f
GR
GS
[1 0 0 1 336.53732 181.60945] CT
N
f-891180347
f
GR
GS
[1 0 0 1 297.14932 250.64645] CT
N
f-891180347
f
GR
GS
[1 0 0 1 208.14127 319.11255] CT
N
f-891180347
f
GR
GS
[1 0 0 1 236.49126 277.81998] CT
N
f-891180347
f
GR
GS
[1 0 0 1 239.41475 278.10144] CT
N
f-891180347
f
GR
GS
[1 0 0 1 442.37683 32.49081] CT
N
f-891180347
f
GR
GS
[1 0 0 1 247.15974 310.81198] CT
N
f-891180347
f
GR
GS
[1 0 0 1 256.46796 278.84549] CT
N
f-891180347
f
GR
GS
[1 0 0 1 208.16133 304.62497] CT
N
f-891180347
f
GR
GS
[1 0 0 1 284.58594 230.4678] CT
N
f-891180347
f
GR
GS
[1 0 0 1 237.50342 263.43042] CT
N
f-891180347
f
GR
GS
[1 0 0 1 227.96297 274.99872] CT
N
f-891180347
f
GR
GS
[1 0 0 1 176.73323 301.39371] CT
N
f-891180347
f
GR
GS
[1 0 0 1 297.85635 207.23265] CT
N
f-891180347
f
GR
GS
[1 0 0 1 235.84096 263.42487] CT
N
f-891180347
f
GR
GS
[1 0 0 1 269.69983 239.50609] CT
N
f-891180347
f
GR
GS
[1 0 0 1 320.40225 154.05882] CT
N
f-891180347
f
GR
GS
[1 0 0 1 263.09299 283.60007] CT
N
f-891180347
f
GR
GS
[1 0 0 1 237.23315 288.51028] CT
N
f-891180347
f
GR
GS
[1 0 0 1 259.88989 281.67838] CT
N
f-891180347
f
GR
GS
[1 0 0 1 289.4108 192.07582] CT
N
f-891180347
f
GR
GS
[1 0 0 1 275.16696 286.62927] CT
N
f-891180347
f
GR
GS
[1 0 0 1 387.51038 116.4127] CT
N
f-891180347
f
GR
GS
[1 0 0 1 331.90924 176.59471] CT
N
f-891180347
f
GR
GS
[1 0 0 1 276.75735 267.11197] CT
N
f-891180347
f
GR
GS
[1 0 0 1 260.84192 255.34225] CT
N
f-891180347
f
GR
GS
[1 0 0 1 244.32643 270.58765] CT
N
f-891180347
f
GR
GS
[1 0 0 1 221.72762 317.27008] CT
N
f-891180347
f
GR
GS
[1 0 0 1 244.60313 275.51767] CT
N
f-891180347
f
GR
GS
[1 0 0 1 200.62025 305.04395] CT
N
f-891180347
f
GR
GS
[1 0 0 1 324.7327 175.80086] CT
N
f-891180347
f
GR
GS
[1 0 0 1 262.14767 306.9263] CT
N
f-891180347
f
GR
GS
[1 0 0 1 267.5571 287.3465] CT
N
f-891180347
f
GR
GS
[1 0 0 1 332.69556 189.1189] CT
N
f-891180347
f
GR
GS
[1 0 0 1 376.19424 123.97201] CT
N
f-891180347
f
GR
GS
[1 0 0 1 332.31952 178.82739] CT
N
f-891180347
f
GR
GS
[1 0 0 1 311.34097 173.89052] CT
N
f-891180347
f
GR
GS
[1 0 0 1 281.08649 222.67119] CT
N
f-891180347
f
GR
GS
[1 0 0 1 263.35675 228.00192] CT
N
f-891180347
f
GR
GS
[1 0 0 1 294.28403 214.40695] CT
N
f-891180347
f
GR
GS
[1 0 0 1 238.90855 313.98105] CT
N
f-891180347
f
GR
GS
[1 0 0 1 254.62462 273.46152] CT
N
f-891180347
f
GR
GS
[1 0 0 1 294.42773 218.70918] CT
N
f-891180347
f
GR
GS
[1 0 0 1 199.11446 314.40967] CT
N
f-891180347
f
GR
GS
[1 0 0 1 238.79832 270.2142] CT
N
f-891180347
f
GR
GS
[1 0 0 1 291.57663 209.8437] CT
N
f-891180347
f
GR
GS
[1 0 0 1 235.00105 289.18307] CT
N
f-891180347
f
GR
GS
[1 0 0 1 247.65746 272.55637] CT
N
f-891180347
f
GR
GS
[1 0 0 1 275.64807 260.89636] CT
N
f-891180347
f
GR
GS
[1 0 0 1 241.52519 275.97757] CT
N
f-891180347
f
GR
GS
[1 0 0 1 231.97021 294.29257] CT
N
f-891180347
f
GR
GS
[1 0 0 1 279.87149 234.67647] CT
N
f-891180347
f
GR
GS
[1 0 0 1 251.02104 287.44116] CT
N
f-891180347
f
GR
GS
[1 0 0 1 263.1236 247.34686] CT
N
f-891180347
f
GR
GS
[1 0 0 1 304.23239 210.61649] CT
N
f-891180347
f
GR
GS
[1 0 0 1 239.14583 298.56711] CT
N
f-891180347
f
GR
GS
[1 0 0 1 229.41521 308.38141] CT
N
f-891180347
f
GR
GS
[1 0 0 1 262.14664 227.34291] CT
N
f-891180347
f
GR
GS
[1 0 0 1 256.1463 289.77832] CT
N
f-891180347
f
GR
GS
[1 0 0 1 331.70599 149.52484] CT
N
f-891180347
f
GR
GS
[1 0 0 1 253.69292 264.02716] CT
N
f-891180347
f
GR
GS
[1 0 0 1 182.28922 313.00391] CT
N
f-891180347
f
GR
GS
[1 0 0 1 309.80807 215.36552] CT
N
f-891180347
f
GR
GS
[1 0 0 1 297.82446 189.09117] CT
N
f-891180347
f
GR
GS
[1 0 0 1 268.1369 235.1002] CT
N
f-891180347
f
GR
GS
[1 0 0 1 185.81865 331.80487] CT
N
f-891180347
f
GR
GS
[1 0 0 1 306.66452 181.47827] CT
N
f-891180347
f
GR
GS
[1 0 0 1 282.32263 231.7887] CT
N
f-891180347
f
GR
GS
[1 0 0 1 219.09079 302.1319] CT
N
f-891180347
f
GR
GS
[1 0 0 1 247.0103 260.75867] CT
N
f-891180347
f
GR
GS
[1 0 0 1 253.98929 259.28653] CT
N
f-891180347
f
GR
GS
[1 0 0 1 244.80247 282.08023] CT
N
f-891180347
f
GR
GS
[1 0 0 1 395.84714 113.7338] CT
N
f-891180347
f
GR
GS
[1 0 0 1 240.0947 315.35764] CT
N
f-891180347
f
GR
GS
[1 0 0 1 342.61172 141.49866] CT
N
f-891180347
f
GR
GS
[1 0 0 1 322.32504 255.99483] CT
N
f-891180347
f
GR
GS
[1 0 0 1 262.17758 286.64215] CT
N
f-891180347
f
GR
GS
[1 0 0 1 282.37558 247.17667] CT
N
f-891180347
f
GR
GS
[1 0 0 1 290.96225 206.98494] CT
N
f-891180347
f
GR
GS
[1 0 0 1 268.72128 269.66544] CT
N
f-891180347
f
GR
GS
[1 0 0 1 301.9686 208.86392] CT
N
f-891180347
f
GR
GS
[1 0 0 1 270.86014 266.59143] CT
N
f-891180347
f
GR
GS
[1 0 0 1 281.60898 223.56364] CT
N
f-891180347
f
GR
GS
[1 0 0 1 312.86273 201.52098] CT
N
f-891180347
f
GR
GS
[1 0 0 1 342.93597 175.40938] CT
N
f-891180347
f
GR
GS
[1 0 0 1 300.80838 231.17876] CT
N
f-891180347
f
GR
GS
[1 0 0 1 266.26108 240.63901] CT
N
f-891180347
f
GR
GS
[1 0 0 1 270.50104 235.12642] CT
N
f-891180347
f
GR
GS
[1 0 0 1 355.33636 139.40457] CT
N
f-891180347
f
GR
GS
[1 0 0 1 299.8353 200.6963] CT
N
f-891180347
f
GR
GS
[1 0 0 1 201.55652 311.89603] CT
N
f-891180347
f
GR
GS
[1 0 0 1 299.58264 185.76016] CT
N
f-891180347
f
GR
GS
[1 0 0 1 259.52661 300.39407] CT
N
f-891180347
f
GR
GS
[1 0 0 1 250.21507 312.88232] CT
N
f-891180347
f
GR
GS
[1 0 0 1 363.83655 148.96724] CT
N
f-891180347
f
GR
GS
[1 0 0 1 313.07053 274.92184] CT
N
f-891180347
f
GR
GS
[1 0 0 1 341.11096 254.73711] CT
N
f-891180347
f
GR
GS
[1 0 0 1 278.56277 323.21622] CT
N
f-891180347
f
GR
GS
[1 0 0 1 259.18793 333.72934] CT
N
f-891180347
f
GR
GS
[1 0 0 1 355.98227 150.93767] CT
N
f-891180347
f
GR
GS
[1 0 0 1 246.63605 257.50079] CT
N
f-891180347
f
GR
GS
[1 0 0 1 199.02888 301.71405] CT
N
f-891180347
f
GR
GS
[1 0 0 1 261.70142 225.3974] CT
N
f-891180347
f
GR
GS
[1 0 0 1 240.0246 266.33612] CT
N
f-891180347
f
GR
GS
[1 0 0 1 255.52527 247.91112] CT
N
f-891180347
f
GR
GS
[1 0 0 1 220.50458 289.14288] CT
N
f-891180347
f
GR
GS
[1 0 0 1 261.99176 275.73575] CT
N
f-891180347
f
GR
GS
[1 0 0 1 237.64653 303.49805] CT
N
f-891180347
f
GR
GS
[1 0 0 1 340.85226 177.40199] CT
N
f-891180347
f
GR
GS
[1 0 0 1 266.06604 312.98352] CT
N
f-891180347
f
GR
GS
[1 0 0 1 268.40005 287.21817] CT
N
f-891180347
f
GR
GS
[1 0 0 1 331.13403 189.82855] CT
N
f-891180347
f
GR
GS
[1 0 0 1 269.94791 295.01526] CT
N
f-891180347
f
GR
GS
[1 0 0 1 269.90225 262.00647] CT
N
f-891180347
f
GR
GS
[1 0 0 1 289.07059 257.02835] CT
N
f-891180347
f
GR
GS
[1 0 0 1 257.90976 258.76297] CT
N
f-891180347
f
GR
GS
[1 0 0 1 288.35526 263.3483] CT
N
f-891180347
f
GR
GS
[1 0 0 1 305.63605 227.86734] CT
N
f-891180347
f
GR
GS
[1 0 0 1 336.25168 225.963] CT
N
f-891180347
f
GR
GS
[1 0 0 1 295.49042 283.8735] CT
N
f-891180347
f
GR
GS
[1 0 0 1 282.4231 242.30019] CT
N
f-891180347
f
GR
GS
[1 0 0 1 289.65295 252.28326] CT
N
f-891180347
f
GR
GS
[1 0 0 1 392.58325 131.01157] CT
N
f-891180347
f
GR
GS
[1 0 0 1 330.48981 180.49153] CT
N
f-891180347
f
GR
GS
[1 0 0 1 318.06674 213.72552] CT
N
f-891180347
f
GR
GS
[1 0 0 1 295.40045 303.05243] CT
N
f-891180347
f
GR
GS
[1 0 0 1 272.8465 285.13806] CT
N
f-891180347
f
GR
GS
[1 0 0 1 358.62494 145.90295] CT
N
f-891180347
f
GR
GS
[1 0 0 1 279.32217 237.69612] CT
N
f-891180347
f
GR
GS
[1 0 0 1 303.88831 225.14961] CT
N
f-891180347
f
GR
GS
[1 0 0 1 263.87479 238.50307] CT
N
f-891180347
f
GR
GS
[1 0 0 1 263.02771 246.53789] CT
N
f-891180347
f
GR
GS
[1 0 0 1 232.96532 306.83075] CT
N
f-891180347
f
GR
GS
[1 0 0 1 298.15573 231.94214] CT
N
f-891180347
f
GR
GS
[1 0 0 1 274.5119 278.68289] CT
N
f-891180347
f
GR
GS
[1 0 0 1 246.20866 293.05994] CT
N
f-891180347
f
GR
GS
[1 0 0 1 230.17339 271.83923] CT
N
f-891180347
f
GR
GS
[1 0 0 1 213.9301 294.85818] CT
N
f-891180347
f
GR
GS
[1 0 0 1 225.38463 279.07465] CT
N
f-891180347
f
GR
GS
[1 0 0 1 305.81805 167.12534] CT
N
f-891180347
f
GR
GS
[1 0 0 1 291.12546 231.54936] CT
N
f-891180347
f
GR
GS
[1 0 0 1 284.8342 258.944] CT
N
f-891180347
f
GR
GS
[1 0 0 1 314.02975 161.75224] CT
N
f-891180347
f
GR
GS
[1 0 0 1 171.63078 320.97037] CT
N
f-891180347
f
GR
GS
[1 0 0 1 171.69991 301.15924] CT
N
f-891180347
f
GR
GS
[1 0 0 1 226.34358 284.8822] CT
N
f-891180347
f
GR
GS
[1 0 0 1 199.1161 303.28268] CT
N
f-891180347
f
GR
GS
[1 0 0 1 195.97971 298.81638] CT
N
f-891180347
f
GR
GS
[1 0 0 1 235.36421 255.07527] CT
N
f-891180347
f
GR
GS
[1 0 0 1 262.61484 246.43713] CT
N
f-891180347
f
GR
GS
[1 0 0 1 239.70459 266.70084] CT
N
f-891180347
f
GR
GS
[1 0 0 1 292.70975 208.33682] CT
N
f-891180347
f
GR
GS
[1 0 0 1 242.84123 271.81955] CT
N
f-891180347
f
GR
GS
[1 0 0 1 338.98956 178.49826] CT
N
f-891180347
f
GR
GS
[1 0 0 1 273.05032 240.46524] CT
N
f-891180347
f
GR
GS
[1 0 0 1 324.56906 194.08003] CT
N
f-891180347
f
GR
GS
[1 0 0 1 261.16446 294.83484] CT
N
f-891180347
f
GR
GS
[1 0 0 1 410.71075 134.4126] CT
N
f-891180347
f
GR
GS
[1 0 0 1 309.86221 259.22031] CT
N
f-891180347
f
GR
GS
[1 0 0 1 390.81113 227.23277] CT
N
f-891180347
f
GR
GS
[1 0 0 1 348.39386 240.42947] CT
N
f-891180347
f
GR
GS
[1 0 0 1 299.50751 303.44135] CT
N
f-891180347
f
GR
GS
[1 0 0 1 291.54843 270.2717] CT
N
f-891180347
f
GR
GS
[1 0 0 1 299.11499 268.88318] CT
N
f-891180347
f
GR
GS
[1 0 0 1 364.56262 166.97656] CT
N
f-891180347
f
GR
GS
[1 0 0 1 331.43854 305.63092] CT
N
f-891180347
f
GR
GS
[1 0 0 1 301.10339 309.55768] CT
N
f-891180347
f
GR
GS
[1 0 0 1 290.8623 260.33255] CT
N
f-891180347
f
GR
GS
[1 0 0 1 282.02087 278.43796] CT
N
f-891180347
f
GR
GS
[1 0 0 1 282.34634 275.65564] CT
N
f-891180347
f
GR
GS
[1 0 0 1 235.0791 319.84802] CT
N
f-891180347
f
GR
GS
[1 0 0 1 340.53708 178.97412] CT
N
f-891180347
f
GR
GS
[1 0 0 1 323.56055 205.54106] CT
N
f-891180347
f
GR
GS
[1 0 0 1 292.22025 186.52283] CT
N
f-891180347
f
GR
GS
[1 0 0 1 424.79837 83.31521] CT
N
f-891180347
f
GR
GS
[1 0 0 1 277.88037 222.94728] CT
N
f-891180347
f
GR
GS
[1 0 0 1 307.01901 175.96931] CT
N
f-891180347
f
GR
GS
[1 0 0 1 344.02576 139.74161] CT
N
f-891180347
f
GR
GS
[1 0 0 1 248.45042 254.96014] CT
N
f-891180347
f
GR
GS
[1 0 0 1 247.41193 272.26083] CT
N
f-891180347
f
GR
GS
[1 0 0 1 228.32755 293.23883] CT
N
f-891180347
f
GR
GS
[1 0 0 1 237.94946 267.62811] CT
N
f-891180347
f
GR
GS
[1 0 0 1 279.50293 231.00356] CT
N
f-891180347
f
GR
GS
[1 0 0 1 328.60031 176.60721] CT
N
f-891180347
f
GR
GS
[1 0 0 1 306.41046 207.55238] CT
N
f-891180347
f
GR
GS
[1 0 0 1 267.50858 236.36533] CT
N
f-891180347
f
GR
GS
[1 0 0 1 270.06552 232.48579] CT
N
f-891180347
f
GR
GS
[1 0 0 1 208.39322 286.77585] CT
N
f-891180347
f
GR
GS
[1 0 0 1 360.56168 162.10063] CT
N
f-891180347
f
GR
GS
[1 0 0 1 212.73637 301.21228] CT
N
f-891180347
f
GR
GS
[1 0 0 1 274.35229 274.52756] CT
N
f-891180347
f
GR
GS
[1 0 0 1 246.33698 257.83514] CT
N
f-891180347
f
GR
GS
[1 0 0 1 247.59831 260.54279] CT
N
f-891180347
f
GR
GS
[1 0 0 1 214.65244 292.74384] CT
N
f-891180347
f
GR
GS
[1 0 0 1 292.55527 236.15965] CT
N
f-891180347
f
GR
GS
[1 0 0 1 407.30273 109.1072] CT
N
f-891180347
f
GR
GS
[1 0 0 1 304.92752 227.8783] CT
N
f-891180347
f
GR
GS
[1 0 0 1 258.31461 256.24005] CT
N
f-891180347
f
GR
GS
[1 0 0 1 237.52652 295.30124] CT
N
f-891180347
f
GR
GS
[1 0 0 1 220.43726 304.75824] CT
N
f-891180347
f
GR
GS
[1 0 0 1 337.63852 166.47299] CT
N
f-891180347
f
GR
GS
[1 0 0 1 253.70345 254.05724] CT
N
f-891180347
f
GR
GS
[1 0 0 1 219.74947 311.23657] CT
N
f-891180347
f
GR
GS
[1 0 0 1 247.63029 262.07401] CT
N
f-891180347
f
GR
GS
[1 0 0 1 327.26556 183.06911] CT
N
f-891180347
f
GR
GS
[1 0 0 1 268.62769 300.94482] CT
N
f-891180347
f
GR
GS
[1 0 0 1 222.98357 317.68365] CT
N
f-891180347
f
GR
GS
[1 0 0 1 297.84927 205.12834] CT
N
f-891180347
f
GR
GS
[1 0 0 1 276.37573 255.55591] CT
N
f-891180347
f
GR
GS
[1 0 0 1 291.1022 226.75343] CT
N
f-891180347
f
GR
GS
[1 0 0 1 266.21469 266.36368] CT
N
f-891180347
f
GR
GS
[1 0 0 1 338.99307 195.25514] CT
N
f-891180347
f
GR
GS
[1 0 0 1 266.25317 266.05649] CT
N
f-891180347
f
GR
GS
[1 0 0 1 259.32996 268.40778] CT
N
f-891180347
f
GR
GS
[1 0 0 1 286.66177 228.0909] CT
N
f-891180347
f
GR
GS
[1 0 0 1 292.82681 252.56506] CT
N
f-891180347
f
GR
GS
[1 0 0 1 268.65173 312.58136] CT
N
f-891180347
f
GR
GS
[1 0 0 1 270.43167 260.96735] CT
N
f-891180347
f
GR
GS
[1 0 0 1 322.67865 186.37883] CT
N
f-891180347
f
GR
GS
[1 0 0 1 353.88773 145.26743] CT
N
f-891180347
f
GR
GS
[1 0 0 1 277.87088 236.82622] CT
N
f-891180347
f
GR
GS
[1 0 0 1 235.4239 266.80728] CT
N
f-891180347
f
GR
GS
[1 0 0 1 309.99515 187.06686] CT
N
f-891180347
f
GR
GS
[1 0 0 1 323.74429 169.68852] CT
N
f-891180347
f
GR
GS
[1 0 0 1 266.57999 235.2411] CT
N
f-891180347
f
GR
GS
[1 0 0 1 189.06635 324.29376] CT
N
f-891180347
f
GR
GS
[1 0 0 1 263.36786 210.35394] CT
N
f-891180347
f
GR
GS
[1 0 0 1 294.36902 211.27666] CT
N
f-891180347
f
GR
GS
[1 0 0 1 214.65912 291.5416] CT
N
f-891180347
f
GR
GS
[1 0 0 1 318.1283 187.11565] CT
N
f-891180347
f
GR
GS
[1 0 0 1 325.74356 234.88794] CT
N
f-891180347
f
GR
GS
[1 0 0 1 247.87405 328.79633] CT
N
f-891180347
f
GR
GS
[1 0 0 1 269.73145 246.74052] CT
N
f-891180347
f
GR
GS
[1 0 0 1 271.2056 305.10803] CT
N
f-891180347
f
GR
GS
[1 0 0 1 244.10364 301.25833] CT
N
f-891180347
f
GR
GS
[1 0 0 1 226.1111 299.02762] CT
N
f-891180347
f
GR
GS
[1 0 0 1 224.74646 313.03909] CT
N
f-891180347
f
GR
GS
[1 0 0 1 301.57452 209.33391] CT
N
f-891180347
f
GR
GS
[1 0 0 1 390.86545 139.76688] CT
N
f-891180347
f
GR
GS
[1 0 0 1 262.74612 302.33759] CT
N
f-891180347
f
GR
GS
[1 0 0 1 338.2038 266.37268] CT
N
f-891180347
f
GR
GS
[1 0 0 1 371.06241 189.40123] CT
N
f-891180347
f
GR
GS
[1 0 0 1 330.59952 265.75674] CT
N
f-891180347
f
GR
GS
[1 0 0 1 311.64505 267.30316] CT
N
f-891180347
f
GR
GS
[1 0 0 1 274.52151 307.31296] CT
N
f-891180347
f
GR
GS
[1 0 0 1 279.78372 271.74689] CT
N
f-891180347
f
GR
GS
[1 0 0 1 264.72977 309.74466] CT
N
f-891180347
f
GR
GS
[1 0 0 1 283.79199 252.61655] CT
N
f-891180347
f
GR
GS
[1 0 0 1 345.22995 132.63805] CT
N
f-891180347
f
GR
GS
[1 0 0 1 403.51666 112.03036] CT
N
f-891180347
f
GR
GS
[1 0 0 1 252.52368 262.35928] CT
N
f-891180347
f
GR
GS
[1 0 0 1 262.9985 243.72304] CT
N
f-891180347
f
GR
GS
[1 0 0 1 276.62701 229.34329] CT
N
f-891180347
f
GR
GS
[1 0 0 1 306.90543 215.86462] CT
N
f-891180347
f
GR
GS
[1 0 0 1 233.44273 298.9295] CT
N
f-891180347
f
GR
GS
[1 0 0 1 332.07904 176.41315] CT
N
f-891180347
f
GR
GS
[1 0 0 1 246.85481 307.25943] CT
N
f-891180347
f
GR
GS
[1 0 0 1 251.3979 282.60455] CT
N
f-891180347
f
GR
GS
[1 0 0 1 237.10719 321.94623] CT
N
f-891180347
f
GR
GS
[1 0 0 1 233.18753 280.3855] CT
N
f-891180347
f
GR
GS
[1 0 0 1 254.74614 256.07516] CT
N
f-891180347
f
GR
GS
[1 0 0 1 239.36136 309.1691] CT
N
f-891180347
f
GR
GS
[1 0 0 1 257.31323 244.99693] CT
N
f-891180347
f
GR
GS
[1 0 0 1 343.5408 201.44963] CT
N
f-891180347
f
GR
GS
[1 0 0 1 381.3725 136.713] CT
N
f-891180347
f
GR
GS
[1 0 0 1 260.13229 285.51126] CT
N
f-891180347
f
GR
GS
[1 0 0 1 250.2238 276.59973] CT
N
f-891180347
f
GR
GS
[1 0 0 1 294.16443 252.49416] CT
N
f-891180347
f
GR
GS
[1 0 0 1 245.58598 314.98117] CT
N
f-891180347
f
GR
GS
[1 0 0 1 237.23563 287.38385] CT
N
f-891180347
f
GR
GS
[1 0 0 1 262.36539 287.07596] CT
N
f-891180347
f
GR
GS
[1 0 0 1 279.31024 244.70393] CT
N
f-891180347
f
GR
GS
[1 0 0 1 289.11551 212.20233] CT
N
f-891180347
f
GR
GS
[1 0 0 1 314.97324 188.01689] CT
N
f-891180347
f
GR
GS
[1 0 0 1 288.96646 233.79088] CT
N
f-891180347
f
GR
GS
[1 0 0 1 339.13644 172.57161] CT
N
f-891180347
f
GR
GS
[1 0 0 1 272.64212 278.68701] CT
N
f-891180347
f
GR
GS
[1 0 0 1 241.63899 291.22327] CT
N
f-891180347
f
GR
GS
[1 0 0 1 312.44159 216.06979] CT
N
f-891180347
f
GR
GS
[1 0 0 1 257.83545 284.81619] CT
N
f-891180347
f
GR
GS
[1 0 0 1 238.11487 283.48813] CT
N
f-891180347
f
GR
GS
[1 0 0 1 251.11797 259.62076] CT
N
f-891180347
f
GR
GS
[1 0 0 1 283.1622 250.67496] CT
N
f-891180347
f
GR
GS
[1 0 0 1 253.49977 254.18098] CT
N
f-891180347
f
GR
GS
[1 0 0 1 233.96397 291.51285] CT
N
f-891180347
f
GR
GS
[1 0 0 1 300.28528 200.39496] CT
N
f-891180347
f
GR
GS
[1 0 0 1 265.31662 299.53574] CT
N
f-891180347
f
GR
GS
[1 0 0 1 311.39117 211.22575] CT
N
f-891180347
f
GR
GS
[1 0 0 1 261.63406 244.11496] CT
N
f-891180347
f
GR
GS
[1 0 0 1 301.58392 177.77219] CT
N
f-891180347
f
GR
GS
[1 0 0 1 297.44312 198.84174] CT
N
f-891180347
f
GR
GS
[1 0 0 1 244.24992 291.58823] CT
N
f-891180347
f
GR
GS
[1 0 0 1 325.1091 189.41187] CT
N
f-891180347
f
GR
GS
[1 0 0 1 292.69531 275.75311] CT
N
f-891180347
f
GR
GS
[1 0 0 1 234.11169 287.61435] CT
N
f-891180347
f
GR
GS
[1 0 0 1 245.6631 265.78079] CT
N
f-891180347
f
GR
GS
[1 0 0 1 313.45926 191.31732] CT
N
f-891180347
f
GR
GS
[1 0 0 1 257.34366 266.62604] CT
N
f-891180347
f
GR
GS
[1 0 0 1 243.98198 282.47961] CT
N
f-891180347
f
GR
GS
[1 0 0 1 269.23785 245.03554] CT
N
f-891180347
f
GR
GS
[1 0 0 1 257.46774 297.8317] CT
N
f-891180347
f
GR
GS
[1 0 0 1 272.27756 251.37761] CT
N
f-891180347
f
GR
GS
[1 0 0 1 223.09822 297.172] CT
N
f-891180347
f
GR
GS
[1 0 0 1 233.29024 295.31506] CT
N
f-891180347
f
GR
GS
[1 0 0 1 337.49222 196.2263] CT
N
f-891180347
f
GR
GS
[1 0 0 1 285.96445 260.38428] CT
N
f-891180347
f
GR
GS
[1 0 0 1 243.66212 317.6405] CT
N
f-891180347
f
GR
GS
[1 0 0 1 239.52837 300.51077] CT
N
f-891180347
f
GR
GS
[1 0 0 1 255.43713 267.63449] CT
N
f-891180347
f
GR
GS
[1 0 0 1 355.70886 151.90611] CT
N
f-891180347
f
GR
GS
[1 0 0 1 309.76196 203.59956] CT
N
f-891180347
f
GR
GS
[1 0 0 1 321.56458 188.26404] CT
N
f-891180347
f
GR
GS
[1 0 0 1 310.41443 197.92105] CT
N
f-891180347
f
GR
GS
[1 0 0 1 272.18738 238.48776] CT
N
f-891180347
f
GR
GS
[1 0 0 1 246.50786 314.36383] CT
N
f-891180347
f
GR
GS
[1 0 0 1 372.66406 145.63429] CT
N
f-891180347
f
GR
GS
[1 0 0 1 330.60803 243.48854] CT
N
f-891180347
f
GR
GS
[1 0 0 1 323.21768 202.64401] CT
N
f-891180347
f
GR
GS
[1 0 0 1 263.27658 322.27347] CT
N
f-891180347
f
GR
GS
[1 0 0 1 254.33794 289.00192] CT
N
f-891180347
f
GR
GS
[1 0 0 1 287.15201 247.36351] CT
N
f-891180347
f
GR
GS
[1 0 0 1 269.16586 299.28189] CT
N
f-891180347
f
GR
GS
[1 0 0 1 311.69485 212.19804] CT
N
f-891180347
f
GR
GS
[1 0 0 1 289.61548 257.20163] CT
N
f-891180347
f
GR
GS
[1 0 0 1 289.91495 242.32416] CT
N
f-891180347
f
GR
GS
[1 0 0 1 260.74423 325.68552] CT
N
f-891180347
f
GR
GS
[1 0 0 1 242.21037 308.07327] CT
N
f-891180347
f
GR
GS
[1 0 0 1 257.10867 270.11417] CT
N
f-891180347
f
GR
GS
[1 0 0 1 300.009 226.36136] CT
N
f-891180347
f
GR
GS
[1 0 0 1 233.23676 288.8764] CT
N
f-891180347
f
GR
GS
[1 0 0 1 264.03275 242.99162] CT
N
f-891180347
f
GR
GS
[1 0 0 1 268.08755 306.59579] CT
N
f-891180347
f
GR
GS
[1 0 0 1 289.18292 234.05817] CT
N
f-891180347
f
GR
GS
[1 0 0 1 250.98459 310.51477] CT
N
f-891180347
f
GR
GS
[1 0 0 1 380.62708 117.93176] CT
N
f-891180347
f
GR
GS
[1 0 0 1 320.24875 207.60242] CT
N
f-891180347
f
GR
GS
[1 0 0 1 228.91246 308.56061] CT
N
f-891180347
f
GR
GS
[1 0 0 1 264.4111 237.34001] CT
N
f-891180347
f
GR
GS
[1 0 0 1 269.00513 299.24945] CT
N
f-891180347
f
GR
GS
[1 0 0 1 302.33859 224.9214] CT
N
f-891180347
f
GR
GS
[1 0 0 1 289.16165 256.71475] CT
N
f-891180347
f
GR
GS
[1 0 0 1 280.66495 274.59213] CT
N
f-891180347
f
GR
GS
[1 0 0 1 249.89397 295.80048] CT
N
f-891180347
f
GR
GS
[1 0 0 1 368.56274 137.8801] CT
N
f-891180347
f
GR
GS
[1 0 0 1 319.70413 204.05617] CT
N
f-891180347
f
GR
GS
[1 0 0 1 269.99524 233.38173] CT
N
f-891180347
f
GR
GS
[1 0 0 1 292.1214 232.55328] CT
N
f-891180347
f
GR
GS
[1 0 0 1 279.11749 224.51376] CT
N
f-891180347
f
GR
GS
[1 0 0 1 239.8235 301.2272] CT
N
f-891180347
f
GR
GS
[1 0 0 1 225.07179 303.56906] CT
N
f-891180347
f
GR
GS
[1 0 0 1 289.97748 222.83237] CT
N
f-891180347
f
GR
GS
[1 0 0 1 252.53189 216.20895] CT
N
f-891180347
f
GR
GS
[1 0 0 1 208.65005 298.56729] CT
N
f-891180347
f
GR
GS
[1 0 0 1 221.32568 299.81528] CT
N
f-891180347
f
GR
GS
[1 0 0 1 222.07233 310.40823] CT
N
f-891180347
f
GR
GS
[1 0 0 1 294.22263 174.21544] CT
N
f-891180347
f
GR
GS
[1 0 0 1 279.15192 224.47974] CT
N
f-891180347
f
GR
GS
[1 0 0 1 220.63612 303.59207] CT
N
f-891180347
f
GR
GS
[1 0 0 1 222.57248 305.60861] CT
N
f-891180347
f
GR
GS
[1 0 0 1 293.97864 214.19218] CT
N
f-891180347
f
GR
GS
[1 0 0 1 303.50479 201.42648] CT
N
f-891180347
f
GR
GS
[1 0 0 1 201.6815 268.87689] CT
N
f-891180347
f
GR
GS
[1 0 0 1 216.71165 287.51804] CT
N
f-891180347
f
GR
GS
[1 0 0 1 172.95415 320.9187] CT
N
f-891180347
f
GR
GS
[1 0 0 1 184.61879 316.4581] CT
N
f-891180347
f
GR
GS
[1 0 0 1 231.49063 276.61255] CT
N
f-891180347
f
GR
GS
[1 0 0 1 230.55573 259.34286] CT
N
f-891180347
f
GR
GS
[1 0 0 1 305.51108 186.53984] CT
N
f-891180347
f
GR
GS
[1 0 0 1 245.52393 302.92612] CT
N
f-891180347
f
GR
GS
[1 0 0 1 217.65033 299.04694] CT
N
f-891180347
f
GR
GS
[1 0 0 1 324.55832 153.75423] CT
N
f-891180347
f
GR
GS
[1 0 0 1 322.67816 169.42612] CT
N
f-891180347
f
GR
GS
[1 0 0 1 212.17485 318.88239] CT
N
f-891180347
f
GR
GS
[1 0 0 1 303.38409 161.7018] CT
N
f-891180347
f
GR
GS
[1 0 0 1 357.21994 148.27263] CT
N
f-891180347
f
GR
GS
[1 0 0 1 273.42831 216.84659] CT
N
f-891180347
f
GR
GS
[1 0 0 1 244.60118 276.82355] CT
N
f-891180347
f
GR
GS
[1 0 0 1 201.59581 306.7442] CT
N
f-891180347
f
GR
GS
[1 0 0 1 252.61325 221.74594] CT
N
f-891180347
f
GR
GS
[1 0 0 1 309.92041 187.35667] CT
N
f-891180347
f
GR
GS
[1 0 0 1 225.97073 274.95303] CT
N
f-891180347
f
GR
GS
[1 0 0 1 172.38899 317.75153] CT
N
f-891180347
f
GR
GS
[1 0 0 1 203.89418 299.32983] CT
N
f-891180347
f
GR
GS
[1 0 0 1 214.95947 294.54816] CT
N
f-891180347
f
GR
GS
[1 0 0 1 224.74995 268.31494] CT
N
f-891180347
f
GR
GS
[1 0 0 1 321.63068 182.42023] CT
N
f-891180347
f
GR
GS
[1 0 0 1 248.12495 265.10605] CT
N
f-891180347
f
GR
GS
[1 0 0 1 314.87418 198.57339] CT
N
f-891180347
f
GR
GS
[1 0 0 1 276.30722 235.06993] CT
N
f-891180347
f
GR
GS
[1 0 0 1 225.5593 256.25452] CT
N
f-891180347
f
GR
GS
[1 0 0 1 187.12646 314.49142] CT
N
f-891180347
f
GR
GS
[1 0 0 1 185.31923 316.64105] CT
N
f-891180347
f
GR
GS
[1 0 0 1 204.55426 307.68558] CT
N
f-891180347
f
GR
GS
[1 0 0 1 232.86577 267.68411] CT
N
f-891180347
f
GR
GS
[1 0 0 1 263.81805 219.73123] CT
N
f-891180347
f
GR
GS
[1 0 0 1 260.862 238.34818] CT
N
f-891180347
f
GR
GS
[1 0 0 1 192.18515 311.95523] CT
N
f-891180347
f
GR
GS
[1 0 0 1 275.07968 228.74648] CT
N
f-891180347
f
GR
GS
[1 0 0 1 223.97755 293.77322] CT
N
f-891180347
f
GR
GS
[1 0 0 1 260.27866 261.93668] CT
N
f-891180347
f
GR
GS
[1 0 0 1 281.74915 222.63019] CT
N
f-891180347
f
GR
GS
[1 0 0 1 256.55096 242.72227] CT
N
f-891180347
f
GR
GS
[1 0 0 1 229.00722 278.21011] CT
N
f-891180347
f
GR
GS
[1 0 0 1 196.36505 303.40128] CT
N
f-891180347
f
GR
GS
[1 0 0 1 176.01666 317.56186] CT
N
f-891180347
f
GR
GS
[1 0 0 1 338.22433 156.82703] CT
N
f-891180347
f
GR
GS
[1 0 0 1 254.67313 275.65598] CT
N
f-891180347
f
GR
GS
[1 0 0 1 291.72849 210.43919] CT
N
f-891180347
f
GR
GS
[1 0 0 1 251.1037 304.25562] CT
N
f-891180347
f
GR
GS
[1 0 0 1 224.04021 313.64633] CT
N
f-891180347
f
GR
GS
[1 0 0 1 303.3566 223.43314] CT
N
f-891180347
f
GR
GS
[1 0 0 1 258.63559 291.96664] CT
N
f-891180347
f
GR
GS
[1 0 0 1 295.88345 217.65176] CT
N
f-891180347
f
GR
GS
[1 0 0 1 285.939 289.31192] CT
N
f-891180347
f
GR
GS
[1 0 0 1 276.90222 256.27621] CT
N
f-891180347
f
GR
GS
[1 0 0 1 371.14761 164.68559] CT
N
f-891180347
f
GR
GS
[1 0 0 1 368.14819 213.03755] CT
N
f-891180347
f
GR
GS
[1 0 0 1 391.36646 254.07565] CT
N
f-891180347
f
GR
GS
[1 0 0 1 396.13617 281.95978] CT
N
f-891180347
f
GR
GS
[1 0 0 1 339.30414 288.40634] CT
N
f-891180347
f
GR
GS
[1 0 0 1 334.8493 249.87195] CT
N
f-891180347
f
GR
GS
[1 0 0 1 344.01074 271.85959] CT
N
f-891180347
f
GR
GS
[1 0 0 1 343.19693 301.1821] CT
N
f-891180347
f
GR
GS
[1 0 0 1 309.80667 311.99808] CT
N
f-891180347
f
GR
GS
[1 0 0 1 339.85266 209.64365] CT
N
f-891180347
f
GR
GS
[1 0 0 1 398.23425 203.57922] CT
N
f-891180347
f
GR
GS
[1 0 0 1 371.79572 178.53885] CT
N
f-891180347
f
GR
GS
[1 0 0 1 378.5173 215.63985] CT
N
f-891180347
f
GR
GS
[1 0 0 1 330.59103 253.21123] CT
N
f-891180347
f
GR
GS
[1 0 0 1 313.68683 253.64883] CT
N
f-891180347
f
GR
GS
[1 0 0 1 292.00946 260.99121] CT
N
f-891180347
f
GR
GS
[1 0 0 1 336.57181 200.20993] CT
N
f-891180347
f
GR
GS
[1 0 0 1 255.59962 272.97638] CT
N
f-891180347
f
GR
GS
[1 0 0 1 361.32602 140.28784] CT
N
f-891180347
f
GR
GS
[1 0 0 1 261.15775 238.17902] CT
N
f-891180347
f
GR
GS
[1 0 0 1 213.43764 303.22791] CT
N
f-891180347
f
GR
GS
[1 0 0 1 256.22345 248.64745] CT
N
f-891180347
f
GR
GS
[1 0 0 1 307.08212 200.62051] CT
N
f-891180347
f
GR
GS
[1 0 0 1 301.5697 202.75955] CT
N
f-891180347
f
GR
GS
[1 0 0 1 233.57791 291.45682] CT
N
f-891180347
f
GR
GS
[1 0 0 1 209.28244 320.77161] CT
N
f-891180347
f
GR
GS
[1 0 0 1 195.6731 330.89938] CT
N
f-891180347
f
GR
GS
[1 0 0 1 234.00523 283.33859] CT
N
f-891180347
f
GR
GS
[1 0 0 1 289.45316 205.2079] CT
N
f-891180347
f
GR
GS
[1 0 0 1 324.96353 197.87494] CT
N
f-891180347
f
GR
GS
[1 0 0 1 326.73175 238.28104] CT
N
f-891180347
f
GR
GS
[1 0 0 1 255.54289 266.88202] CT
N
f-891180347
f
GR
GS
[1 0 0 1 355.56763 143.07245] CT
N
f-891180347
f
GR
GS
[1 0 0 1 281.35666 235.81529] CT
N
f-891180347
f
GR
GS
[1 0 0 1 209.50412 285.62927] CT
N
f-891180347
f
GR
GS
[1 0 0 1 240.507 294.82141] CT
N
f-891180347
f
GR
GS
[1 0 0 1 232.34373 266.70847] CT
N
f-891180347
f
GR
GS
[1 0 0 1 289.70389 221.44377] CT
N
f-891180347
f
GR
GS
[1 0 0 1 189.96284 295.28632] CT
N
f-891180347
f
GR
GS
[1 0 0 1 231.43518 282.31119] CT
N
f-891180347
f
GR
GS
[1 0 0 1 238.24644 257.59979] CT
N
f-891180347
f
GR
GS
[1 0 0 1 219.13297 281.23584] CT
N
f-891180347
f
GR
GS
[1 0 0 1 261.6236 218.39644] CT
N
f-891180347
f
GR
GS
[1 0 0 1 324.31729 204.60489] CT
N
f-891180347
f
GR
GS
[1 0 0 1 296.45343 206.80559] CT
N
f-891180347
f
GR
GS
[1 0 0 1 346.60147 176.28409] CT
N
f-891180347
f
GR
GS
[1 0 0 1 358.79648 170.80582] CT
N
f-891180347
f
GR
GS
[1 0 0 1 275.28293 253.86299] CT
N
f-891180347
f
GR
GS
[1 0 0 1 223.30507 325.88031] CT
N
f-891180347
f
GR
GS
[1 0 0 1 207.30447 335.28528] CT
N
f-891180347
f
GR
GS
[1 0 0 1 295.32346 217.1209] CT
N
f-891180347
f
GR
GS
[1 0 0 1 319.1105 230.22049] CT
N
f-891180347
f
GR
GS
[1 0 0 1 249.98309 266.17804] CT
N
f-891180347
f
GR
GS
[1 0 0 1 248.94215 276.29471] CT
N
f-891180347
f
GR
GS
[1 0 0 1 264.10287 237.98372] CT
N
f-891180347
f
GR
GS
[1 0 0 1 327.60367 179.35217] CT
N
f-891180347
f
GR
GS
[1 0 0 1 253.48511 280.9184] CT
N
f-891180347
f
GR
GS
[1 0 0 1 339.49225 135.90903] CT
N
f-891180347
f
GR
GS
[1 0 0 1 303.82327 244.56776] CT
N
f-891180347
f
GR
GS
[1 0 0 1 266.46402 266.55637] CT
N
f-891180347
f
GR
GS
[1 0 0 1 289.8139 249.06169] CT
N
f-891180347
f
GR
GS
[1 0 0 1 303.33041 223.03102] CT
N
f-891180347
f
GR
GS
[1 0 0 1 270.59467 249.96591] CT
N
f-891180347
f
GR
GS
[1 0 0 1 306.42661 233.79286] CT
N
f-891180347
f
GR
GS
[1 0 0 1 288.81845 252.62865] CT
N
f-891180347
f
GR
GS
[1 0 0 1 222.36485 320.58624] CT
N
f-891180347
f
GR
GS
[1 0 0 1 249.89169 269.44626] CT
N
f-891180347
f
GR
GS
[1 0 0 1 228.48788 322.21649] CT
N
f-891180347
f
GR
GS
[1 0 0 1 244.35378 261.4519] CT
N
f-891180347
f
GR
GS
[1 0 0 1 277.52029 226.97183] CT
N
f-891180347
f
GR
GS
[1 0 0 1 198.91116 312.73813] CT
N
f-891180347
f
GR
GS
[1 0 0 1 252.66495 255.84268] CT
N
f-891180347
f
GR
GS
[1 0 0 1 279.1441 226.48378] CT
N
f-891180347
f
GR
GS
[1 0 0 1 274.21417 240.45245] CT
N
f-891180347
f
GR
GS
[1 0 0 1 270.94809 257.91431] CT
N
f-891180347
f
GR
GS
[1 0 0 1 205.91344 318.60764] CT
N
f-891180347
f
GR
GS
[1 0 0 1 213.56181 315.27094] CT
N
f-891180347
f
GR
GS
[1 0 0 1 207.70303 309.65768] CT
N
f-891180347
f
GR
GS
[1 0 0 1 267.32819 212.27206] CT
N
f-891180347
f
GR
GS
[1 0 0 1 297.28995 217.90518] CT
N
f-891180347
f
GR
GS
[1 0 0 1 229.62158 268.64374] CT
N
f-891180347
f
GR
GS
[1 0 0 1 227.59914 293.48685] CT
N
f-891180347
f
GR
GS
[1 0 0 1 242.57182 268.75317] CT
N
f-891180347
f
GR
GS
[1 0 0 1 258.48138 253.01471] CT
N
f-891180347
f
GR
GS
[1 0 0 1 249.81126 270.16888] CT
N
f-891180347
f
GR
GS
[1 0 0 1 313.87347 227.82288] CT
N
f-891180347
f
GR
GS
[1 0 0 1 286.88611 254.75549] CT
N
f-891180347
f
GR
GS
[1 0 0 1 243.77487 263.05127] CT
N
f-891180347
f
GR
GS
[1 0 0 1 257.82834 285.85828] CT
N
f-891180347
f
GR
GS
[1 0 0 1 315.4704 203.92458] CT
N
f-891180347
f
GR
GS
[1 0 0 1 277.28885 282.79233] CT
N
f-891180347
f
GR
GS
[1 0 0 1 243.4442 314.08011] CT
N
f-891180347
f
GR
GS
[1 0 0 1 299.0195 216.8083] CT
N
f-891180347
f
GR
GS
[1 0 0 1 309.45718 233.9193] CT
N
f-891180347
f
GR
GS
[1 0 0 1 309.24213 229.96709] CT
N
f-891180347
f
GR
GS
[1 0 0 1 292.94354 266.71802] CT
N
f-891180347
f
GR
GS
[1 0 0 1 284.95959 247.05148] CT
N
f-891180347
f
GR
GS
[1 0 0 1 243.82419 281.46994] CT
N
f-891180347
f
GR
GS
[1 0 0 1 256.49957 291.2785] CT
N
f-891180347
f
GR
GS
[1 0 0 1 247.6667 293.69162] CT
N
f-891180347
f
GR
GS
[1 0 0 1 349.90961 156.20248] CT
N
f-891180347
f
GR
GS
[1 0 0 1 284.21323 250.95805] CT
N
f-891180347
f
GR
GS
[1 0 0 1 218.77126 327.26105] CT
N
f-891180347
f
GR
GS
[1 0 0 1 223.09525 317.74521] CT
N
f-891180347
f
GR
GS
[1 0 0 1 249.97006 269.11725] CT
N
f-891180347
f
GR
GS
[1 0 0 1 282.69443 227.56847] CT
N
f-891180347
f
GR
GS
[1 0 0 1 276.81967 241.09145] CT
N
f-891180347
f
GR
GS
[1 0 0 1 342.49371 171.20337] CT
N
f-891180347
f
GR
GS
[1 0 0 1 276.28726 225.26094] CT
N
f-891180347
f
GR
GS
[1 0 0 1 257.28616 252.36031] CT
N
f-891180347
f
GR
GS
[1 0 0 1 250.54901 252.32817] CT
N
f-891180347
f
GR
GS
[1 0 0 1 243.98811 279.43127] CT
N
f-891180347
f
GR
GS
[1 0 0 1 223.43024 321.13403] CT
N
f-891180347
f
GR
GS
[1 0 0 1 240.58145 264.52515] CT
N
f-891180347
f
GR
GS
[1 0 0 1 415.83188 96.85633] CT
N
f-891180347
f
GR
GS
[1 0 0 1 267.02158 286.69046] CT
N
f-891180347
f
GR
GS
[1 0 0 1 210.10107 335.03967] CT
N
f-891180347
f
GR
GS
[1 0 0 1 420.42816 83.42902] CT
N
f-891180347
f
GR
GS
[1 0 0 1 228.08141 273.88147] CT
N
f-891180347
f
GR
GS
[1 0 0 1 177.76115 306.57089] CT
N
f-891180347
f
GR
GS
[1 0 0 1 188.63837 314.98599] CT
N
f-891180347
f
GR
GS
[1 0 0 1 199.9445 295.30252] CT
N
f-891180347
f
GR
GS
[1 0 0 1 252.18193 230.47633] CT
N
f-891180347
f
GR
GS
[1 0 0 1 321.99399 171.8109] CT
N
f-891180347
f
GR
GS
[1 0 0 1 236.06456 301.38098] CT
N
f-891180347
f
GR
GS
[1 0 0 1 212.25145 303.13312] CT
N
f-891180347
f
GR
GS
[1 0 0 1 227.68541 276.95377] CT
N
f-891180347
f
GR
GS
[1 0 0 1 274.245 226.92848] CT
N
f-891180347
f
GR
GS
[1 0 0 1 246.74425 289.54242] CT
N
f-891180347
f
GR
GS
[1 0 0 1 330.71539 163.86487] CT
N
f-891180347
f
GR
GS
[1 0 0 1 287.14365 241.44231] CT
N
f-891180347
f
GR
GS
[1 0 0 1 298.20929 300.74673] CT
N
f-891180347
f
GR
GS
[1 0 0 1 305.59933 288.6568] CT
N
f-891180347
f
GR
GS
[1 0 0 1 284.90585 249.80165] CT
N
f-891180347
f
GR
GS
[1 0 0 1 297.47476 267.19754] CT
N
f-891180347
f
GR
GS
[1 0 0 1 268.17859 236.00314] CT
N
f-891180347
f
GR
GS
[1 0 0 1 315.98022 241.52757] CT
N
f-891180347
f
GR
GS
[1 0 0 1 264.91486 309.0311] CT
N
f-891180347
f
GR
GS
[1 0 0 1 328.60739 210.48372] CT
N
f-891180347
f
GR
GS
[1 0 0 1 300.61603 283.65997] CT
N
f-891180347
f
GR
GS
[1 0 0 1 293.2778 249.83711] CT
N
f-891180347
f
GR
GS
[1 0 0 1 317.38034 195.63916] CT
N
f-891180347
f
GR
GS
[1 0 0 1 270.03693 280.22165] CT
N
f-891180347
f
GR
GS
[1 0 0 1 230.6951 322.57663] CT
N
f-891180347
f
GR
GS
[1 0 0 1 278.94073 240.50345] CT
N
f-891180347
f
GR
GS
[1 0 0 1 247.62253 268.31384] CT
N
f-891180347
f
GR
GS
[1 0 0 1 317.76962 174.67728] CT
N
f-891180347
f
GR
GS
[1 0 0 1 258.6973 263.68289] CT
N
f-891180347
f
GR
GS
[1 0 0 1 231.96698 250.56169] CT
N
f-891180347
f
GR
GS
[1 0 0 1 246.35568 283.77536] CT
N
f-891180347
f
GR
GS
[1 0 0 1 325.41437 208.47076] CT
N
f-891180347
f
GR
GS
[1 0 0 1 255.91472 277.9462] CT
N
f-891180347
f
GR
GS
[1 0 0 1 348.87653 165.91975] CT
N
f-891180347
f
GR
GS
[1 0 0 1 305.88733 216.01038] CT
N
f-891180347
f
GR
GS
[1 0 0 1 291.11957 284.85507] CT
N
f-891180347
f
GR
GS
[1 0 0 1 260.00842 313.92297] CT
N
f-891180347
f
GR
GS
[1 0 0 1 314.13013 224.42743] CT
N
f-891180347
f
GR
GS
[1 0 0 1 323.74069 217.82928] CT
N
f-891180347
f
GR
GS
[1 0 0 1 323.65002 230.43799] CT
N
f-891180347
f
GR
GS
[1 0 0 1 308.79938 292.66147] CT
N
f-891180347
f
GR
GS
[1 0 0 1 267.4292 293.40302] CT
N
f-891180347
f
GR
GS
[1 0 0 1 260.56781 297.47482] CT
N
f-891180347
f
GR
GS
[1 0 0 1 258.54492 266.97003] CT
N
f-891180347
f
GR
GS
[1 0 0 1 273.28049 231.00076] CT
N
f-891180347
f
GR
GS
[1 0 0 1 244.67325 291.30286] CT
N
f-891180347
f
GR
GS
[1 0 0 1 273.13617 260.16833] CT
N
f-891180347
f
GR
GS
[1 0 0 1 325.9823 194.71049] CT
N
f-891180347
f
GR
GS
[1 0 0 1 257.09589 322.24023] CT
N
f-891180347
f
GR
GS
[1 0 0 1 248.88327 314.34509] CT
N
f-891180347
f
GR
GS
[1 0 0 1 286.73993 258.59341] CT
N
f-891180347
f
GR
GS
[1 0 0 1 290.46176 213.14914] CT
N
f-891180347
f
GR
GS
[1 0 0 1 293.76807 221.07428] CT
N
f-891180347
f
GR
GS
[1 0 0 1 204.15944 284.22556] CT
N
f-891180347
f
GR
GS
[1 0 0 1 309.39319 230.49333] CT
N
f-891180347
f
GR
GS
[1 0 0 1 202.44469 331.84778] CT
N
f-891180347
f
GR
GS
[1 0 0 1 235.24808 274.08054] CT
N
f-891180347
f
GR
GS
[1 0 0 1 311.8851 183.93732] CT
N
f-891180347
f
GR
GS
[1 0 0 1 259.61511 281.90442] CT
N
f-891180347
f
GR
GS
[1 0 0 1 263.65811 272.08469] CT
N
f-891180347
f
GR
GS
[1 0 0 1 260.69531 279.24991] CT
N
f-891180347
f
GR
GS
[1 0 0 1 220.63921 317.66135] CT
N
f-891180347
f
GR
GS
[1 0 0 1 271.73523 247.20804] CT
N
f-891180347
f
GR
GS
[1 0 0 1 256.19333 289.37012] CT
N
f-891180347
f
GR
GS
[1 0 0 1 313.6207 224.26384] CT
N
f-891180347
f
GR
GS
[1 0 0 1 285.84644 214.10986] CT
N
f-891180347
f
GR
GS
[1 0 0 1 296.24658 204.78177] CT
N
f-891180347
f
GR
GS
[1 0 0 1 252.24107 250.70032] CT
N
f-891180347
f
GR
GS
[1 0 0 1 300.98523 239.59546] CT
N
f-891180347
f
GR
GS
[1 0 0 1 253.619 250.93201] CT
N
f-891180347
f
GR
GS
[1 0 0 1 210.7514 316.59497] CT
N
f-891180347
f
GR
GS
[1 0 0 1 284.06213 244.7645] CT
N
f-891180347
f
GR
GS
[1 0 0 1 327.10986 183.63387] CT
N
f-891180347
f
GR
GS
[1 0 0 1 251.66273 288.52853] CT
N
f-891180347
f
GR
GS
[1 0 0 1 288.19342 208.6655] CT
N
f-891180347
f
GR
GS
[1 0 0 1 277.08859 262.96799] CT
N
f-891180347
f
GR
GS
[1 0 0 1 303.75214 163.49928] CT
N
f-891180347
f
GR
GS
[1 0 0 1 298.12585 230.20224] CT
N
f-891180347
f
GR
GS
[1 0 0 1 306.17554 262.9903] CT
N
f-891180347
f
GR
GS
[1 0 0 1 279.18094 253.55754] CT
N
f-891180347
f
GR
GS
[1 0 0 1 240.78102 290.82803] CT
N
f-891180347
f
GR
GS
[1 0 0 1 313.39389 194.70769] CT
N
f-891180347
f
GR
GS
[1 0 0 1 257.05301 296.60336] CT
N
f-891180347
f
GR
GS
[1 0 0 1 244.21275 274.8978] CT
N
f-891180347
f
GR
GS
[1 0 0 1 230.53531 310.05261] CT
N
f-891180347
f
GR
GS
[1 0 0 1 283.71121 245.99397] CT
N
f-891180347
f
GR
GS
[1 0 0 1 274.90378 240.91695] CT
N
f-891180347
f
GR
GS
[1 0 0 1 265.35043 279.29544] CT
N
f-891180347
f
GR
GS
[1 0 0 1 306.392 178.89751] CT
N
f-891180347
f
GR
GS
[1 0 0 1 226.91142 274.1669] CT
N
f-891180347
f
GR
GS
[1 0 0 1 182.83788 311.36972] CT
N
f-891180347
f
GR
GS
[1 0 0 1 235.02177 283.22458] CT
N
f-891180347
f
GR
GS
[1 0 0 1 235.27501 267.19928] CT
N
f-891180347
f
GR
GS
[1 0 0 1 219.05945 297.22375] CT
N
f-891180347
f
GR
GS
[1 0 0 1 333.91049 181.67178] CT
N
f-891180347
f
GR
GS
[1 0 0 1 285.21957 251.98862] CT
N
f-891180347
f
GR
GS
[1 0 0 1 222.82463 302.80783] CT
N
f-891180347
f
GR
GS
[1 0 0 1 253.99075 238.74365] CT
N
f-891180347
f
GR
GS
[1 0 0 1 256.04926 242.86047] CT
N
f-891180347
f
GR
GS
[1 0 0 1 229.22083 279.94971] CT
N
f-891180347
f
GR
GS
[1 0 0 1 277.12296 218.84315] CT
N
f-891180347
f
GR
GS
[1 0 0 1 213.48399 311.27014] CT
N
f-891180347
f
GR
GS
[1 0 0 1 258.62006 273.52045] CT
N
f-891180347
f
GR
GS
[1 0 0 1 276.03186 250.07336] CT
N
f-891180347
f
GR
GS
[1 0 0 1 277.55811 234.48024] CT
N
f-891180347
f
GR
GS
[1 0 0 1 275.28607 245.17168] CT
N
f-891180347
f
GR
GS
[1 0 0 1 300.78143 215.98566] CT
N
f-891180347
f
GR
GS
[1 0 0 1 243.62769 302.603] CT
N
f-891180347
f
GR
GS
[1 0 0 1 273.38599 250.99904] CT
N
f-891180347
f
GR
GS
[1 0 0 1 292.38754 205.79637] CT
N
f-891180347
f
GR
GS
[1 0 0 1 298.83298 222.18799] CT
N
f-891180347
f
GR
GS
[1 0 0 1 252.48802 304.09146] CT
N
f-891180347
f
GR
GS
[1 0 0 1 256.20532 271.75098] CT
N
f-891180347
f
GR
GS
[1 0 0 1 230.65099 302.79651] CT
N
f-891180347
f
GR
GS
[1 0 0 1 204.29247 317.73367] CT
N
f-891180347
f
GR
GS
[1 0 0 1 272.96277 231.40741] CT
N
f-891180347
f
GR
GS
[1 0 0 1 345.92899 165.16809] CT
N
f-891180347
f
GR
GS
[1 0 0 1 259.36923 242.59842] CT
N
f-891180347
f
GR
GS
[1 0 0 1 263.87601 233.6371] CT
N
f-891180347
f
GR
GS
[1 0 0 1 290.38364 200.5329] CT
N
f-891180347
f
GR
GS
[1 0 0 1 294.00168 216.05969] CT
N
f-891180347
f
GR
GS
[1 0 0 1 230.47935 286.52252] CT
N
f-891180347
f
GR
GS
[1 0 0 1 197.4696 279.49802] CT
N
f-891180347
f
GR
GS
[1 0 0 1 282.09262 239.46774] CT
N
f-891180347
f
GR
GS
[1 0 0 1 279.79184 246.09392] CT
N
f-891180347
f
GR
GS
[1 0 0 1 216.0596 271.12613] CT
N
f-891180347
f
GR
GS
[1 0 0 1 240.3364 296.901] CT
N
f-891180347
f
GR
GS
[1 0 0 1 223.14612 310.07217] CT
N
f-891180347
f
GR
GS
[1 0 0 1 236.53508 292.84854] CT
N
f-891180347
f
GR
GS
[1 0 0 1 226.86444 314.68445] CT
N
f-891180347
f
GR
GS
[1 0 0 1 352.68622 127.27039] CT
N
f-891180347
f
GR
GS
[1 0 0 1 313.27872 247.55298] CT
N
f-891180347
f
GR
GS
[1 0 0 1 253.09555 281.80908] CT
N
f-891180347
f
GR
GS
[1 0 0 1 270.19437 260.29504] CT
N
f-891180347
f
GR
GS
[1 0 0 1 275.48419 261.89407] CT
N
f-891180347
f
GR
GS
[1 0 0 1 267.95804 248.13045] CT
N
f-891180347
f
GR
GS
[1 0 0 1 250.11383 310.70572] CT
N
f-891180347
f
GR
GS
[1 0 0 1 274.85251 235.4498] CT
N
f-891180347
f
GR
GS
[1 0 0 1 323.58322 208.86774] CT
N
f-891180347
f
GR
GS
[1 0 0 1 301.19955 238.74753] CT
N
f-891180347
f
GR
GS
[1 0 0 1 258.25006 249.79715] CT
N
f-891180347
f
GR
GS
[1 0 0 1 378.21655 144.82138] CT
N
f-891180347
f
GR
GS
[1 0 0 1 258.85287 307.44626] CT
N
f-891180347
f
GR
GS
[1 0 0 1 253.40916 287.35245] CT
N
f-891180347
f
GR
GS
[1 0 0 1 324.58875 188.40935] CT
N
f-891180347
f
GR
GS
[1 0 0 1 304.33829 240.04414] CT
N
f-891180347
f
GR
GS
[1 0 0 1 285.25455 302.89362] CT
N
f-891180347
f
GR
GS
[1 0 0 1 338.1311 219.35129] CT
N
f-891180347
f
GR
GS
[1 0 0 1 326.81403 179.53302] CT
N
f-891180347
f
GR
GS
[1 0 0 1 246.4776 292.36804] CT
N
f-891180347
f
GR
GS
[1 0 0 1 266.14084 302.84451] CT
N
f-891180347
f
GR
GS
[1 0 0 1 258.95435 290.53952] CT
N
f-891180347
f
GR
GS
[1 0 0 1 237.99927 332.88785] CT
N
f-891180347
f
GR
GS
[1 0 0 1 293.54755 230.89586] CT
N
f-891180347
f
GR
GS
[1 0 0 1 308.93121 260.70422] CT
N
f-891180347
f
GR
GS
[1 0 0 1 322.13885 171.70334] CT
N
f-891180347
f
GR
GS
[1 0 0 1 260.92892 265.40421] CT
N
f-891180347
f
GR
GS
[1 0 0 1 189.66989 320.01627] CT
N
f-891180347
f
GR
GS
[1 0 0 1 288.71323 203.13193] CT
N
f-891180347
f
GR
GS
[1 0 0 1 307.29666 189.40596] CT
N
f-891180347
f
GR
GS
[1 0 0 1 284.50662 233.93462] CT
N
f-891180347
f
GR
GS
[1 0 0 1 204.36 310.85318] CT
N
f-891180347
f
GR
GS
[1 0 0 1 228.84222 294.2113] CT
N
f-891180347
f
GR
GS
[1 0 0 1 239.99393 267.45712] CT
N
f-891180347
f
GR
GS
[1 0 0 1 435.44501 80.82076] CT
N
f-891180347
f
GR
GS
[1 0 0 1 263.63699 276.96002] CT
N
f-891180347
f
GR
GS
[1 0 0 1 288.01028 246.39763] CT
N
f-891180347
f
GR
GS
[1 0 0 1 351.25458 126.18737] CT
N
f-891180347
f
GR
GS
[1 0 0 1 294.72012 271.729] CT
N
f-891180347
f
GR
GS
[1 0 0 1 331.32736 207.35864] CT
N
f-891180347
f
GR
GS
[1 0 0 1 254.75958 250.39575] CT
N
f-891180347
f
GR
GS
[1 0 0 1 212.08211 319.48752] CT
N
f-891180347
f
GR
GS
[1 0 0 1 205.20937 316.64325] CT
N
f-891180347
f
GR
GS
[1 0 0 1 300.68445 192.89162] CT
N
f-891180347
f
GR
GS
[1 0 0 1 279.26355 243.62819] CT
N
f-891180347
f
GR
GS
[1 0 0 1 293.48697 216.08376] CT
N
f-891180347
f
GR
GS
[1 0 0 1 274.20081 231.00925] CT
N
f-891180347
f
GR
GS
[1 0 0 1 270.64868 243.12091] CT
N
f-891180347
f
GR
GS
[1 0 0 1 200.7473 313.922] CT
N
f-891180347
f
GR
GS
[1 0 0 1 262.49179 256.85748] CT
N
f-891180347
f
GR
GS
[1 0 0 1 268.72452 231.36246] CT
N
f-891180347
f
GR
GS
[1 0 0 1 185.30368 293.15167] CT
N
f-891180347
f
GR
GS
[1 0 0 1 312.07199 175.7403] CT
N
f-891180347
f
GR
GS
[1 0 0 1 206.36555 304.05618] CT
N
f-891180347
f
GR
GS
[1 0 0 1 225.5533 295.41843] CT
N
f-891180347
f
GR
GS
[1 0 0 1 225.05782 254.01088] CT
N
f-891180347
f
GR
GS
[1 0 0 1 230.80515 301.08746] CT
N
f-891180347
f
GR
GS
[1 0 0 1 184.81042 322.49432] CT
N
f-891180347
f
GR
GS
[1 0 0 1 265.15659 257.87543] CT
N
f-891180347
f
GR
GS
[1 0 0 1 243.36041 268.0394] CT
N
f-891180347
f
GR
GS
[1 0 0 1 259.87775 229.21249] CT
N
f-891180347
f
GR
GS
[1 0 0 1 304.22119 193.68678] CT
N
f-891180347
f
GR
GS
[1 0 0 1 205.36002 332.00552] CT
N
f-891180347
f
GR
GS
[1 0 0 1 213.46262 307.40323] CT
N
f-891180347
f
GR
GS
[1 0 0 1 209.54219 310.08997] CT
N
f-891180347
f
GR
GS
[1 0 0 1 276.2002 210.43169] CT
N
f-891180347
f
GR
GS
[1 0 0 1 280.07513 227.33369] CT
N
f-891180347
f
GR
GS
[1 0 0 1 233.85323 273.38794] CT
N
f-891180347
f
GR
GS
[1 0 0 1 233.61787 271.79697] CT
N
f-891180347
f
GR
GS
[1 0 0 1 225.95319 280.31723] CT
N
f-891180347
f
GR
GS
[1 0 0 1 341.29852 143.6907] CT
N
f-891180347
f
GR
GS
[1 0 0 1 261.65015 243.52689] CT
N
f-891180347
f
GR
GS
[1 0 0 1 303.01163 166.72897] CT
N
f-891180347
f
GR
GS
[1 0 0 1 236.89838 290.60712] CT
N
f-891180347
f
GR
GS
[1 0 0 1 257.68283 295.30896] CT
N
f-891180347
f
GR
GS
[1 0 0 1 306.38647 221.33891] CT
N
f-891180347
f
GR
GS
[1 0 0 1 422.2887 129.85631] CT
N
f-891180347
f
GR
GS
[1 0 0 1 289.26508 267.80054] CT
N
f-891180347
f
GR
GS
[1 0 0 1 243.18736 303.8866] CT
N
f-891180347
f
GR
GS
[1 0 0 1 223.26904 327.1449] CT
N
f-891180347
f
GR
GS
[1 0 0 1 234.71962 303.04523] CT
N
f-891180347
f
GR
GS
[1 0 0 1 329.13934 165.27008] CT
N
f-891180347
f
GR
GS
[1 0 0 1 300.22226 219.78288] CT
N
f-891180347
f
GR
GS
[1 0 0 1 346.54208 194.43077] CT
N
f-891180347
f
GR
GS
[1 0 0 1 297.01291 215.41328] CT
N
f-891180347
f
GR
GS
[1 0 0 1 299.79443 278.79968] CT
N
f-891180347
f
GR
GS
[1 0 0 1 296.04407 225.95964] CT
N
f-891180347
f
GR
GS
[1 0 0 1 352.84576 185.5864] CT
N
f-891180347
f
GR
GS
[1 0 0 1 323.73529 225.0717] CT
N
f-891180347
f
GR
GS
[1 0 0 1 292.27509 232.84795] CT
N
f-891180347
f
GR
GS
[1 0 0 1 285.56766 272.61392] CT
N
f-891180347
f
GR
GS
[1 0 0 1 306.83118 204.30536] CT
N
f-891180347
f
GR
GS
[1 0 0 1 275.7467 300.37921] CT
N
f-891180347
f
GR
GS
[1 0 0 1 283.35406 291.49399] CT
N
f-891180347
f
GR
GS
[1 0 0 1 305.7034 231.53084] CT
N
f-891180347
f
GR
GS
[1 0 0 1 346.68134 173.29074] CT
N
f-891180347
f
GR
GS
[1 0 0 1 322.91306 196.17799] CT
N
f-891180347
f
GR
GS
[1 0 0 1 314.39938 281.56769] CT
N
f-891180347
f
GR
GS
[1 0 0 1 264.6033 279.39441] CT
N
f-891180347
f
GR
GS
[1 0 0 1 324.17523 187.67218] CT
N
f-891180347
f
GR
GS
[1 0 0 1 330.77017 183.99287] CT
N
f-891180347
f
GR
GS
[1 0 0 1 259.38434 276.09897] CT
N
f-891180347
f
GR
GS
[1 0 0 1 220.10905 300.42661] CT
N
f-891180347
f
GR
GS
[1 0 0 1 209.83873 321.44711] CT
N
f-891180347
f
GR
GS
[1 0 0 1 247.11258 254.7261] CT
N
f-891180347
f
GR
GS
[1 0 0 1 203.06113 299.89557] CT
N
f-891180347
f
GR
GS
[1 0 0 1 252.02832 219.65292] CT
N
f-891180347
f
GR
GS
[1 0 0 1 239.16716 270.94482] CT
N
f-891180347
f
GR
GS
[1 0 0 1 230.01903 292.40585] CT
N
f-891180347
f
GR
GS
[1 0 0 1 270.82184 213.96664] CT
N
f-891180347
f
GR
GS
[1 0 0 1 306.76917 197.52518] CT
N
f-891180347
f
GR
GS
[1 0 0 1 357.57965 153.69502] CT
N
f-891180347
f
GR
GS
[1 0 0 1 307.54709 202.26721] CT
N
f-891180347
f
GR
GS
[1 0 0 1 312.13654 187.90262] CT
N
f-891180347
f
GR
GS
[1 0 0 1 237.60007 282.47348] CT
N
f-891180347
f
GR
GS
[1 0 0 1 310.7648 234.5907] CT
N
f-891180347
f
GR
GS
[1 0 0 1 417.51898 93.95666] CT
N
f-891180347
f
GR
GS
[1 0 0 1 273.84967 273.06332] CT
N
f-891180347
f
GR
GS
[1 0 0 1 256.96155 266.9957] CT
N
f-891180347
f
GR
GS
[1 0 0 1 266.91119 267.3833] CT
N
f-891180347
f
GR
GS
[1 0 0 1 242.65375 259.48764] CT
N
f-891180347
f
GR
GS
[1 0 0 1 288.59424 210.92274] CT
N
f-891180347
f
GR
GS
[1 0 0 1 285.14063 221.4585] CT
N
f-891180347
f
GR
GS
[1 0 0 1 313.7803 209.37123] CT
N
f-891180347
f
GR
GS
[1 0 0 1 337.02197 241.15919] CT
N
f-891180347
f
GR
GS
[1 0 0 1 239.36214 332.32886] CT
N
f-891180347
f
GR
GS
[1 0 0 1 239.48032 301.47659] CT
N
f-891180347
f
GR
GS
[1 0 0 1 287.13861 210.48801] CT
N
f-891180347
f
GR
GS
[1 0 0 1 314.25217 194.97548] CT
N
f-891180347
f
GR
GS
[1 0 0 1 299.12839 195.5788] CT
N
f-891180347
f
GR
GS
[1 0 0 1 324.9874 183.42216] CT
N
f-891180347
f
GR
GS
[1 0 0 1 261.51074 248.76241] CT
N
f-891180347
f
GR
GS
[1 0 0 1 246.2016 263.14566] CT
N
f-891180347
f
GR
GS
[1 0 0 1 314.57642 171.24084] CT
N
f-891180347
f
GR
GS
[1 0 0 1 308.70932 227.29559] CT
N
f-891180347
f
GR
GS
[1 0 0 1 204.34778 309.30399] CT
N
f-891180347
f
GR
GS
[1 0 0 1 166.19351 317.05359] CT
N
f-891180347
f
GR
GS
[1 0 0 1 236.70309 263.55569] CT
N
f-891180347
f
GR
GS
[1 0 0 1 261.07281 246.90302] CT
N
f-891180347
f
GR
GS
[1 0 0 1 219.86774 299.77374] CT
N
f-891180347
f
GR
GS
[1 0 0 1 204.68134 300.785] CT
N
f-891180347
f
GR
GS
[1 0 0 1 277.233 203.77203] CT
N
f-891180347
f
GR
GS
[1 0 0 1 281.48898 211.42207] CT
N
f-891180347
f
GR
GS
[1 0 0 1 282.1778 224.96844] CT
N
f-891180347
f
GR
GS
[1 0 0 1 161.95943 321.29703] CT
N
f-891180347
f
GR
GS
[1 0 0 1 251.57137 259.81802] CT
N
f-891180347
f
GR
GS
[1 0 0 1 281.85431 212.03804] CT
N
f-891180347
f
GR
GS
[1 0 0 1 284.96555 224.89999] CT
N
f-891180347
f
GR
GS
[1 0 0 1 247.60199 277.40265] CT
N
f-891180347
f
GR
GS
[1 0 0 1 279.58313 232.7522] CT
N
f-891180347
f
GR
GS
[1 0 0 1 328.66962 180.87939] CT
N
f-891180347
f
GR
GS
[1 0 0 1 178.84248 297.33649] CT
N
f-891180347
f
GR
GS
[1 0 0 1 257.09961 251.39909] CT
N
f-891180347
f
GR
GS
[1 0 0 1 211.90443 305.7998] CT
N
f-891180347
f
GR
GS
[1 0 0 1 282.39902 195.93314] CT
N
f-891180347
f
GR
GS
[1 0 0 1 273.11789 243.06322] CT
N
f-891180347
f
GR
GS
[1 0 0 1 340.30179 210.54263] CT
N
f-891180347
f
GR
GS
[1 0 0 1 260.98877 267.18597] CT
N
f-891180347
f
GR
GS
[1 0 0 1 258.27032 248.13893] CT
N
f-891180347
f
GR
GS
[1 0 0 1 265.6716 246.3425] CT
N
f-891180347
f
GR
GS
[1 0 0 1 285.42975 257.88019] CT
N
f-891180347
f
GR
GS
[1 0 0 1 312.20065 172.04166] CT
N
f-891180347
f
GR
GS
[1 0 0 1 295.08417 233.76103] CT
N
f-891180347
f
GR
GS
[1 0 0 1 292.72693 240.04364] CT
N
f-891180347
f
GR
GS
[1 0 0 1 222.72636 300.85455] CT
N
f-891180347
f
GR
GS
[1 0 0 1 222.96005 303.62445] CT
N
f-891180347
f
GR
GS
[1 0 0 1 262.77133 229.62827] CT
N
f-891180347
f
GR
GS
[1 0 0 1 329.50983 176.78281] CT
N
f-891180347
f
GR
GS
[1 0 0 1 238.80835 320.84802] CT
N
f-891180347
f
GR
GS
[1 0 0 1 342.63727 163.57178] CT
N
f-891180347
f
GR
GS
[1 0 0 1 336.90213 205.67497] CT
N
f-891180347
f
GR
GS
[1 0 0 1 269.52466 260.98523] CT
N
f-891180347
f
GR
GS
[1 0 0 1 254.11235 322.21048] CT
N
f-891180347
f
GR
GS
[1 0 0 1 239.15601 306.17075] CT
N
f-891180347
f
GR
GS
[1 0 0 1 383.05588 144.23567] CT
N
f-891180347
f
GR
GS
[1 0 0 1 319.37665 242.96741] CT
N
f-891180347
f
GR
GS
[1 0 0 1 258.0379 281.79083] CT
N
f-891180347
f
GR
GS
[1 0 0 1 295.39359 232.31374] CT
N
f-891180347
f
GR
GS
[1 0 0 1 317.91864 196.81763] CT
N
f-891180347
f
GR
GS
[1 0 0 1 273.3215 276.40448] CT
N
f-891180347
f
GR
GS
[1 0 0 1 247.90935 256.4581] CT
N
f-891180347
f
GR
GS
[1 0 0 1 262.03589 275.3866] CT
N
f-891180347
f
GR
GS
[1 0 0 1 306.8092 173.12181] CT
N
f-891180347
f
GR
GS
[1 0 0 1 175.54712 319.80719] CT
N
f-891180347
f
GR
GS
[1 0 0 1 206.71587 292.55682] CT
N
f-891180347
f
GR
GS
[1 0 0 1 273.25113 234.923] CT
N
f-891180347
f
GR
GS
[1 0 0 1 335.59482 139.42632] CT
N
f-891180347
f
GR
GS
[1 0 0 1 286.0777 228.28195] CT
N
f-891180347
f
GR
GS
[1 0 0 1 171.5925 298.8219] CT
N
f-891180347
f
GR
GS
[1 0 0 1 300.7482 198.19685] CT
N
f-891180347
f
GR
GS
[1 0 0 1 217.90494 293.29831] CT
N
f-891180347
f
GR
GS
[1 0 0 1 196.15045 296.95059] CT
N
f-891180347
f
GR
GS
[1 0 0 1 243.15303 264.0957] CT
N
f-891180347
f
GR
GS
[1 0 0 1 303.58066 198.98071] CT
N
f-891180347
f
GR
GS
[1 0 0 1 240.77779 258.93918] CT
N
f-891180347
f
GR
GS
[1 0 0 1 203.7554 315.12347] CT
N
f-891180347
f
GR
GS
[1 0 0 1 237.31564 237.71346] CT
N
f-891180347
f
GR
GS
[1 0 0 1 301.72705 197.83176] CT
N
f-891180347
f
GR
GS
[1 0 0 1 204.02423 295.97073] CT
N
f-891180347
f
GR
GS
[1 0 0 1 194.21231 290.13013] CT
N
f-891180347
f
GR
GS
[1 0 0 1 261.39261 244.0929] CT
N
f-891180347
f
GR
GS
[1 0 0 1 252.76646 258.79153] CT
N
f-891180347
f
GR
GS
[1 0 0 1 281.54938 209.32222] CT
N
f-891180347
f
GR
GS
[1 0 0 1 226.01909 274.94946] CT
N
f-891180347
f
GR
GS
[1 0 0 1 193.94556 319.99255] CT
N
f-891180347
f
GR
GS
[1 0 0 1 217.25185 292.61298] CT
N
f-891180347
f
GR
GS
[1 0 0 1 224.2334 278.27881] CT
N
f-891180347
f
GR
GS
[1 0 0 1 303.78131 200.45924] CT
N
f-891180347
f
GR
GS
[1 0 0 1 231.99799 322.95441] CT
N
f-891180347
f
GR
GS
[1 0 0 1 215.04947 326.81299] CT
N
f-891180347
f
GR
GS
[1 0 0 1 243.7289 269.3378] CT
N
f-891180347
f
GR
GS
[1 0 0 1 235.3082 297.86911] CT
N
f-891180347
f
GR
GS
[1 0 0 1 230.89902 298.41275] CT
N
f-891180347
f
GR
GS
[1 0 0 1 340.67279 189.25926] CT
N
f-891180347
f
GR
GS
[1 0 0 1 282.39658 244.25134] CT
N
f-891180347
f
GR
GS
[1 0 0 1 304.59995 205.63167] CT
N
f-891180347
f
GR
GS
[1 0 0 1 254.04814 317.48019] CT
N
f-891180347
f
GR
GS
[1 0 0 1 269.04465 253.99887] CT
N
f-891180347
f
GR
GS
[1 0 0 1 313.31326 219.2816] CT
N
f-891180347
f
GR
GS
[1 0 0 1 294.29575 279.46207] CT
N
f-891180347
f
GR
GS
[1 0 0 1 276.30759 265.66663] CT
N
f-891180347
f
GR
GS
[1 0 0 1 360.94519 144.0898] CT
N
f-891180347
f
GR
GS
[1 0 0 1 364.2767 128.19788] CT
N
f-891180347
f
GR
GS
[1 0 0 1 302.5126 206.30856] CT
N
f-891180347
f
GR
GS
[1 0 0 1 230.60806 267.84543] CT
N
f-891180347
f
GR
GS
[1 0 0 1 241.89891 260.27014] CT
N
f-891180347
f
GR
GS
[1 0 0 1 195.79187 309.47339] CT
N
f-891180347
f
GR
GS
[1 0 0 1 241.7621 269.56079] CT
N
f-891180347
f
GR
GS
[1 0 0 1 203.41454 327.32855] CT
N
f-891180347
f
GR
GS
[1 0 0 1 336.11047 154.75548] CT
N
f-891180347
f
GR
GS
[1 0 0 1 286.26636 227.39021] CT
N
f-891180347
f
GR
GS
[1 0 0 1 243.9632 284.13528] CT
N
f-891180347
f
GR
GS
[1 0 0 1 232.49918 300.40729] CT
N
f-891180347
f
GR
GS
[1 0 0 1 285.46939 220.34384] CT
N
f-891180347
f
GR
GS
[1 0 0 1 249.16982 292.95059] CT
N
f-891180347
f
GR
GS
[1 0 0 1 306.95508 175.77515] CT
N
f-891180347
f
GR
GS
[1 0 0 1 315.70609 257.18494] CT
N
f-891180347
f
GR
GS
[1 0 0 1 260.18433 280.74042] CT
N
f-891180347
f
GR
GS
[1 0 0 1 260.44254 253.06204] CT
N
f-891180347
f
GR
GS
[1 0 0 1 286.71143 209.19405] CT
N
f-891180347
f
GR
GS
[1 0 0 1 319.23633 178.30795] CT
N
f-891180347
f
GR
GS
[1 0 0 1 291.80017 208.46887] CT
N
f-891180347
f
GR
GS
[1 0 0 1 259.73877 289.69046] CT
N
f-891180347
f
GR
GS
[1 0 0 1 231.46133 291.60995] CT
N
f-891180347
f
GR
GS
[1 0 0 1 267.42502 232.86551] CT
N
f-891180347
f
GR
GS
[1 0 0 1 258.53931 250.10924] CT
N
f-891180347
f
GR
GS
[1 0 0 1 369.46704 138.99706] CT
N
f-891180347
f
GR
GS
[1 0 0 1 371.92944 129.47832] CT
N
f-891180347
f
GR
GS
[1 0 0 1 335.66934 139.21083] CT
N
f-891180347
f
GR
GS
[1 0 0 1 310.59155 204.79269] CT
N
f-891180347
f
GR
GS
[1 0 0 1 322.85541 178.31181] CT
N
f-891180347
f
GR
GS
[1 0 0 1 317.38214 174.3614] CT
N
f-891180347
f
GR
GS
[1 0 0 1 269.9729 247.77847] CT
N
f-891180347
f
GR
GS
[1 0 0 1 264.36877 240.03682] CT
N
f-891180347
f
GR
GS
[1 0 0 1 234.79204 273.86456] CT
N
f-891180347
f
GR
GS
[1 0 0 1 277.92728 203.62794] CT
N
f-891180347
f
GR
GS
[1 0 0 1 294.87851 208.51683] CT
N
f-891180347
f
GR
GS
[1 0 0 1 369.90146 131.56825] CT
N
f-891180347
f
GR
GS
[1 0 0 1 228.00304 266.84262] CT
N
f-891180347
f
GR
GS
[1 0 0 1 237.12827 295.8338] CT
N
f-891180347
f
GR
GS
[1 0 0 1 256.52234 240.45778] CT
N
f-891180347
f
GR
GS
[1 0 0 1 272.45044 224.79282] CT
N
f-891180347
f
GR
GS
[1 0 0 1 304.75027 219.34804] CT
N
f-891180347
f
GR
GS
[1 0 0 1 262.05869 256.17938] CT
N
f-891180347
f
GR
GS
[1 0 0 1 332.7113 174.49409] CT
N
f-891180347
f
GR
GS
[1 0 0 1 325.71732 167.57805] CT
N
f-891180347
f
GR
GS
[1 0 0 1 265.0386 238.61295] CT
N
f-891180347
f
GR
GS
[1 0 0 1 230.23387 289.83652] CT
N
f-891180347
f
GR
GS
[1 0 0 1 308.87283 192.37325] CT
N
f-891180347
f
GR
GS
[1 0 0 1 213.71701 248.00703] CT
N
f-891180347
f
GR
GS
[1 0 0 1 287.29709 245.92542] CT
N
f-891180347
f
GR
GS
[1 0 0 1 218.7823 274.10361] CT
N
f-891180347
f
GR
GS
[1 0 0 1 236.93829 235.28604] CT
N
f-891180347
f
GR
GS
[1 0 0 1 209.52539 299.5372] CT
N
f-891180347
f
GR
GS
[1 0 0 1 226.91512 296.79431] CT
N
f-891180347
f
GR
GS
[1 0 0 1 334.15005 141.46657] CT
N
f-891180347
f
GR
GS
[1 0 0 1 278.44473 253.84967] CT
N
f-891180347
f
GR
GS
[1 0 0 1 255.50443 258.12787] CT
N
f-891180347
f
GR
GS
[1 0 0 1 255.4698 273.29102] CT
N
f-891180347
f
GR
GS
[1 0 0 1 282.3439 250.71547] CT
N
f-891180347
f
GR
GS
[1 0 0 1 300.81668 215.00703] CT
N
f-891180347
f
GR
GS
[1 0 0 1 279.08942 256.3526] CT
N
f-891180347
f
GR
GS
[1 0 0 1 210.04279 332.32764] CT
N
f-891180347
f
GR
GS
[1 0 0 1 225.84776 288.52426] CT
N
f-891180347
f
GR
GS
[1 0 0 1 283.1489 221.73688] CT
N
f-891180347
f
GR
GS
[1 0 0 1 237.91403 316.00891] CT
N
f-891180347
f
GR
GS
[1 0 0 1 258.9328 256.54666] CT
N
f-891180347
f
GR
GS
[1 0 0 1 283.7316 237.65292] CT
N
f-891180347
f
GR
GS
[1 0 0 1 366.19482 145.88493] CT
N
f-891180347
f
GR
GS
[1 0 0 1 262.29373 274.08884] CT
N
f-891180347
f
GR
GS
[1 0 0 1 373.18124 153.59996] CT
N
f-891180347
f
GR
GS
[1 0 0 1 290.73788 299.70755] CT
N
f-891180347
f
GR
GS
[1 0 0 1 261.98688 296.48364] CT
N
f-891180347
f
GR
GS
[1 0 0 1 254.21472 315.52451] CT
N
f-891180347
f
GR
GS
[1 0 0 1 305.08508 197.25807] CT
N
f-891180347
f
GR
GS
[1 0 0 1 237.98262 271.24466] CT
N
f-891180347
f
GR
GS
[1 0 0 1 199.80649 321.57874] CT
N
f-891180347
f
GR
GS
[1 0 0 1 236.75928 296.0116] CT
N
f-891180347
f
GR
GS
[1 0 0 1 223.77081 289.51416] CT
N
f-891180347
f
GR
GS
[1 0 0 1 265.01965 238.73326] CT
N
f-891180347
f
GR
GS
[1 0 0 1 363.38821 143.94354] CT
N
f-891180347
f
GR
GS
[1 0 0 1 237.93269 304.76978] CT
N
f-891180347
f
GR
GS
[1 0 0 1 302.70236 200.08661] CT
N
f-891180347
f
GR
GS
[1 0 0 1 274.92673 258.31976] CT
N
f-891180347
f
GR
GS
[1 0 0 1 262.34851 269.46298] CT
N
f-891180347
f
GR
GS
[1 0 0 1 322.95255 164.97969] CT
N
f-891180347
f
GR
GS
[1 0 0 1 261.85483 247.3504] CT
N
f-891180347
f
GR
GS
[1 0 0 1 214.73077 325.09299] CT
N
f-891180347
f
GR
GS
[1 0 0 1 284.07684 228.76961] CT
N
f-891180347
f
GR
GS
[1 0 0 1 341.38599 149.3885] CT
N
f-891180347
f
GR
GS
[1 0 0 1 276.6384 229.18538] CT
N
f-891180347
f
GR
GS
[1 0 0 1 227.09721 294.56293] CT
N
f-891180347
f
GR
GS
[1 0 0 1 209.51277 301.41653] CT
N
f-891180347
f
GR
GS
[1 0 0 1 308.50485 173.01089] CT
N
f-891180347
f
GR
GS
[1 0 0 1 277.63574 248.50598] CT
N
f-891180347
f
GR
GS
[1 0 0 1 210.52342 311.15253] CT
N
f-891180347
f
GR
GS
[1 0 0 1 280.82156 215.36813] CT
N
f-891180347
f
GR
GS
[1 0 0 1 300.11752 191.04321] CT
N
f-891180347
f
GR
GS
[1 0 0 1 224.11592 295.55777] CT
N
f-891180347
f
GR
GS
[1 0 0 1 207.94249 306.40625] CT
N
f-891180347
f
GR
GS
[1 0 0 1 223.74319 254.31567] CT
N
f-891180347
f
GR
GS
[1 0 0 1 194.99734 303.37653] CT
N
f-891180347
f
GR
GS
[1 0 0 1 359.00739 158.15488] CT
N
f-891180347
f
GR
GS
[1 0 0 1 313.06613 195.68764] CT
N
f-891180347
f
GR
GS
[1 0 0 1 227.08521 266.13614] CT
N
f-891180347
f
GR
GS
[1 0 0 1 301.12897 185.39983] CT
N
f-891180347
f
GR
GS
[1 0 0 1 333.95993 146.80354] CT
N
f-891180347
f
GR
GS
[1 0 0 1 263.90759 238.77745] CT
N
f-891180347
f
GR
GS
[1 0 0 1 242.54434 265.19565] CT
N
f-891180347
f
GR
GS
[1 0 0 1 259.34253 238.69229] CT
N
f-891180347
f
GR
GS
[1 0 0 1 350.94113 127.05489] CT
N
f-891180347
f
GR
GS
[1 0 0 1 393.93527 106.84779] CT
N
f-891180347
f
GR
GS
[1 0 0 1 244.85309 262.04333] CT
N
f-891180347
f
GR
GS
[1 0 0 1 253.89917 260.94983] CT
N
f-891180347
f
GR
GS
[1 0 0 1 286.07306 213.26353] CT
N
f-891180347
f
GR
GS
[1 0 0 1 363.23257 134.51642] CT
N
f-891180347
f
GR
GS
[1 0 0 1 238.58867 304.53375] CT
N
f-891180347
f
GR
GS
[1 0 0 1 281.98688 250.39413] CT
N
f-891180347
f
GR
GS
[1 0 0 1 225.29594 313.04138] CT
N
f-891180347
f
GR
GS
[1 0 0 1 279.64865 228.73685] CT
N
f-891180347
f
GR
GS
[1 0 0 1 239.61005 328.07175] CT
N
f-891180347
f
GR
GS
[1 0 0 1 312.43179 209.24347] CT
N
f-891180347
f
GR
GS
[1 0 0 1 270.85739 289.93607] CT
N
f-891180347
f
GR
GS
[1 0 0 1 264.12805 317.39349] CT
N
f-891180347
f
GR
GS
[1 0 0 1 250.90331 314.01077] CT
N
f-891180347
f
GR
GS
[1 0 0 1 246.20123 300.67084] CT
N
f-891180347
f
GR
GS
[1 0 0 1 296.70175 197.79848] CT
N
f-891180347
f
GR
GS
[1 0 0 1 262.64966 294.50357] CT
N
f-891180347
f
GR
GS
[1 0 0 1 245.22813 287.06104] CT
N
f-891180347
f
GR
GS
[1 0 0 1 353.04059 149.88303] CT
N
f-891180347
f
GR
GS
[1 0 0 1 288.81345 250.6774] CT
N
f-891180347
f
GR
GS
[1 0 0 1 267.07657 277.97397] CT
N
f-891180347
f
GR
GS
[1 0 0 1 236.2317 308.34689] CT
N
f-891180347
f
GR
GS
[1 0 0 1 251.89294 243.06471] CT
N
f-891180347
f
GR
GS
[1 0 0 1 301.3844 260.3721] CT
N
f-891180347
f
GR
GS
[1 0 0 1 245.67696 293.31506] CT
N
f-891180347
f
GR
GS
[1 0 0 1 287.0686 218.34927] CT
N
f-891180347
f
GR
GS
[1 0 0 1 347.62741 161.44591] CT
N
f-891180347
f
GR
GS
[1 0 0 1 327.33084 155.32338] CT
N
f-891180347
f
GR
GS
[1 0 0 1 234.40575 263.8779] CT
N
f-891180347
f
GR
GS
[1 0 0 1 272.52988 254.74712] CT
N
f-891180347
f
GR
GS
[1 0 0 1 278.29129 288.90363] CT
N
f-891180347
f
GR
GS
[1 0 0 1 269.07031 243.15396] CT
N
f-891180347
f
GR
GS
[1 0 0 1 240.73009 295.1088] CT
N
f-891180347
f
GR
GS
[1 0 0 1 241.86229 293.95462] CT
N
f-891180347
f
GR
GS
[1 0 0 1 236.5318 322.62982] CT
N
f-891180347
f
GR
GS
[1 0 0 1 276.22455 232.19748] CT
N
f-891180347
f
GR
GS
[1 0 0 1 281.56461 215.52243] CT
N
f-891180347
f
GR
GS
[1 0 0 1 246.54115 273.95499] CT
N
f-891180347
f
GR
GS
1 0 0 RC
1 LJ
2 LW
N
173.286 343.037 M
367.875 163.159 L
S
GR
GS
[1 0 0 1 144.63333 57.45833] CT
/Helvetica 16 F
GS
[1 0 0 1 0 0] CT
0 6 moveto 
1 -1 scale
(Slope: 1.85) t 
GR
GR
GS
[1 0 0 1 145 92] CT
/Helvetica 16 F
GS
[1 0 0 1 0 0] CT
0 0 moveto 
1 -1 scale
(r) t 
GR
GR
GS
[1 0 0 1 151 84] CT
/Helvetica 12.8 F
GS
[1 0 0 1 0 0] CT
0 0 moveto 
1 -1 scale
(2) t 
GR
GR
GS
[1 0 0 1 159 92] CT
/Helvetica 16 F
GS
[1 0 0 1 0 0] CT
0 0 moveto 
1 -1 scale
(: 0.70) t 
GR
GR
%%Trailer
%%Pages: 1
%%EOF
