%!PS-Adobe-3.0 EPSF-3.0
%%Creator: (MATLAB, The Mathworks, Inc. Version 9.5.0.944444 \(R2018b\). Operating System: Mac OS X)
%%Title: ./combims.eps
%%CreationDate: 2020-04-29T17:57:56
%%Pages: (atend)
%%BoundingBox:    37     0   459   398
%%LanguageLevel: 2
%%EndComments
%%BeginProlog
%%BeginResource: procset (Apache XML Graphics Std ProcSet) 1.2 0
%%Version: 1.2 0
%%Copyright: (Copyright 2001-2003,2010 The Apache Software Foundation. License terms: http://www.apache.org/licenses/LICENSE-2.0)
/bd{bind def}bind def
/ld{load def}bd
/GR/grestore ld
/GS/gsave ld
/RM/rmoveto ld
/C/curveto ld
/t/show ld
/L/lineto ld
/ML/setmiterlimit ld
/CT/concat ld
/f/fill ld
/N/newpath ld
/S/stroke ld
/CC/setcmykcolor ld
/A/ashow ld
/cp/closepath ld
/RC/setrgbcolor ld
/LJ/setlinejoin ld
/GC/setgray ld
/LW/setlinewidth ld
/M/moveto ld
/re {4 2 roll M
1 index 0 rlineto
0 exch rlineto
neg 0 rlineto
cp } bd
/_ctm matrix def
/_tm matrix def
/BT { _ctm currentmatrix pop matrix _tm copy pop 0 0 moveto } bd
/ET { _ctm setmatrix } bd
/iTm { _ctm setmatrix _tm concat } bd
/Tm { _tm astore pop iTm 0 0 moveto } bd
/ux 0.0 def
/uy 0.0 def
/F {
  /Tp exch def
  /Tf exch def
  Tf findfont Tp scalefont setfont
  /cf Tf def  /cs Tp def
} bd
/ULS {currentpoint /uy exch def /ux exch def} bd
/ULE {
  /Tcx currentpoint pop def
  gsave
  newpath
  cf findfont cs scalefont dup
  /FontMatrix get 0 get /Ts exch def /FontInfo get dup
  /UnderlinePosition get Ts mul /To exch def
  /UnderlineThickness get Ts mul /Tt exch def
  ux uy To add moveto  Tcx uy To add lineto
  Tt setlinewidth stroke
  grestore
} bd
/OLE {
  /Tcx currentpoint pop def
  gsave
  newpath
  cf findfont cs scalefont dup
  /FontMatrix get 0 get /Ts exch def /FontInfo get dup
  /UnderlinePosition get Ts mul /To exch def
  /UnderlineThickness get Ts mul /Tt exch def
  ux uy To add cs add moveto Tcx uy To add cs add lineto
  Tt setlinewidth stroke
  grestore
} bd
/SOE {
  /Tcx currentpoint pop def
  gsave
  newpath
  cf findfont cs scalefont dup
  /FontMatrix get 0 get /Ts exch def /FontInfo get dup
  /UnderlinePosition get Ts mul /To exch def
  /UnderlineThickness get Ts mul /Tt exch def
  ux uy To add cs 10 mul 26 idiv add moveto Tcx uy To add cs 10 mul 26 idiv add lineto
  Tt setlinewidth stroke
  grestore
} bd
/QT {
/Y22 exch store
/X22 exch store
/Y21 exch store
/X21 exch store
currentpoint
/Y21 load 2 mul add 3 div exch
/X21 load 2 mul add 3 div exch
/X21 load 2 mul /X22 load add 3 div
/Y21 load 2 mul /Y22 load add 3 div
/X22 load /Y22 load curveto
} bd
/SSPD {
dup length /d exch dict def
{
/v exch def
/k exch def
currentpagedevice k known {
/cpdv currentpagedevice k get def
v cpdv ne {
/upd false def
/nullv v type /nulltype eq def
/nullcpdv cpdv type /nulltype eq def
nullv nullcpdv or
{
/upd true def
} {
/sametype v type cpdv type eq def
sametype {
v type /arraytype eq {
/vlen v length def
/cpdvlen cpdv length def
vlen cpdvlen eq {
0 1 vlen 1 sub {
/i exch def
/obj v i get def
/cpdobj cpdv i get def
obj cpdobj ne {
/upd true def
exit
} if
} for
} {
/upd true def
} ifelse
} {
v type /dicttype eq {
v {
/dv exch def
/dk exch def
/cpddv cpdv dk get def
dv cpddv ne {
/upd true def
exit
} if
} forall
} {
/upd true def
} ifelse
} ifelse
} if
} ifelse
upd true eq {
d k v put
} if
} if
} if
} forall
d length 0 gt {
d setpagedevice
} if
} bd
/RE { % /NewFontName [NewEncodingArray] /FontName RE -
  findfont dup length dict begin
  {
    1 index /FID ne
    {def} {pop pop} ifelse
  } forall
  /Encoding exch def
  /FontName 1 index def
  currentdict definefont pop
  end
} bind def
%%EndResource
%%BeginResource: procset (Apache XML Graphics EPS ProcSet) 1.0 0
%%Version: 1.0 0
%%Copyright: (Copyright 2002-2003 The Apache Software Foundation. License terms: http://www.apache.org/licenses/LICENSE-2.0)
/BeginEPSF { %def
/b4_Inc_state save def         % Save state for cleanup
/dict_count countdictstack def % Count objects on dict stack
/op_count count 1 sub def      % Count objects on operand stack
userdict begin                 % Push userdict on dict stack
/showpage { } def              % Redefine showpage, { } = null proc
0 setgray 0 setlinecap         % Prepare graphics state
1 setlinewidth 0 setlinejoin
10 setmiterlimit [ ] 0 setdash newpath
/languagelevel where           % If level not equal to 1 then
{pop languagelevel             % set strokeadjust and
1 ne                           % overprint to their defaults.
{false setstrokeadjust false setoverprint
} if
} if
} bd
/EndEPSF { %def
count op_count sub {pop} repeat            % Clean up stacks
countdictstack dict_count sub {end} repeat
b4_Inc_state restore
} bd
%%EndResource
%FOPBeginFontDict
%%IncludeResource: font Courier-Oblique
%%IncludeResource: font Courier-BoldOblique
%%IncludeResource: font Courier-Bold
%%IncludeResource: font ZapfDingbats
%%IncludeResource: font Symbol
%%IncludeResource: font Helvetica
%%IncludeResource: font Helvetica-Oblique
%%IncludeResource: font Helvetica-Bold
%%IncludeResource: font Helvetica-BoldOblique
%%IncludeResource: font Times-Roman
%%IncludeResource: font Times-Italic
%%IncludeResource: font Times-Bold
%%IncludeResource: font Times-BoldItalic
%%IncludeResource: font Courier
%FOPEndFontDict
%%BeginResource: encoding WinAnsiEncoding
/WinAnsiEncoding [
/.notdef /.notdef /.notdef /.notdef /.notdef
/.notdef /.notdef /.notdef /.notdef /.notdef
/.notdef /.notdef /.notdef /.notdef /.notdef
/.notdef /.notdef /.notdef /.notdef /.notdef
/.notdef /.notdef /.notdef /.notdef /.notdef
/.notdef /.notdef /.notdef /.notdef /.notdef
/.notdef /.notdef /space /exclam /quotedbl
/numbersign /dollar /percent /ampersand /quotesingle
/parenleft /parenright /asterisk /plus /comma
/hyphen /period /slash /zero /one
/two /three /four /five /six
/seven /eight /nine /colon /semicolon
/less /equal /greater /question /at
/A /B /C /D /E
/F /G /H /I /J
/K /L /M /N /O
/P /Q /R /S /T
/U /V /W /X /Y
/Z /bracketleft /backslash /bracketright /asciicircum
/underscore /quoteleft /a /b /c
/d /e /f /g /h
/i /j /k /l /m
/n /o /p /q /r
/s /t /u /v /w
/x /y /z /braceleft /bar
/braceright /asciitilde /bullet /Euro /bullet
/quotesinglbase /florin /quotedblbase /ellipsis /dagger
/daggerdbl /circumflex /perthousand /Scaron /guilsinglleft
/OE /bullet /Zcaron /bullet /bullet
/quoteleft /quoteright /quotedblleft /quotedblright /bullet
/endash /emdash /asciitilde /trademark /scaron
/guilsinglright /oe /bullet /zcaron /Ydieresis
/space /exclamdown /cent /sterling /currency
/yen /brokenbar /section /dieresis /copyright
/ordfeminine /guillemotleft /logicalnot /sfthyphen /registered
/macron /degree /plusminus /twosuperior /threesuperior
/acute /mu /paragraph /middot /cedilla
/onesuperior /ordmasculine /guillemotright /onequarter /onehalf
/threequarters /questiondown /Agrave /Aacute /Acircumflex
/Atilde /Adieresis /Aring /AE /Ccedilla
/Egrave /Eacute /Ecircumflex /Edieresis /Igrave
/Iacute /Icircumflex /Idieresis /Eth /Ntilde
/Ograve /Oacute /Ocircumflex /Otilde /Odieresis
/multiply /Oslash /Ugrave /Uacute /Ucircumflex
/Udieresis /Yacute /Thorn /germandbls /agrave
/aacute /acircumflex /atilde /adieresis /aring
/ae /ccedilla /egrave /eacute /ecircumflex
/edieresis /igrave /iacute /icircumflex /idieresis
/eth /ntilde /ograve /oacute /ocircumflex
/otilde /odieresis /divide /oslash /ugrave
/uacute /ucircumflex /udieresis /yacute /thorn
/ydieresis
] def
%%EndResource
%FOPBeginFontReencode
/Courier-Oblique findfont
dup length dict begin
  {1 index /FID ne {def} {pop pop} ifelse} forall
  /Encoding WinAnsiEncoding def
  currentdict
end
/Courier-Oblique exch definefont pop
/Courier-BoldOblique findfont
dup length dict begin
  {1 index /FID ne {def} {pop pop} ifelse} forall
  /Encoding WinAnsiEncoding def
  currentdict
end
/Courier-BoldOblique exch definefont pop
/Courier-Bold findfont
dup length dict begin
  {1 index /FID ne {def} {pop pop} ifelse} forall
  /Encoding WinAnsiEncoding def
  currentdict
end
/Courier-Bold exch definefont pop
/Helvetica findfont
dup length dict begin
  {1 index /FID ne {def} {pop pop} ifelse} forall
  /Encoding WinAnsiEncoding def
  currentdict
end
/Helvetica exch definefont pop
/Helvetica-Oblique findfont
dup length dict begin
  {1 index /FID ne {def} {pop pop} ifelse} forall
  /Encoding WinAnsiEncoding def
  currentdict
end
/Helvetica-Oblique exch definefont pop
/Helvetica-Bold findfont
dup length dict begin
  {1 index /FID ne {def} {pop pop} ifelse} forall
  /Encoding WinAnsiEncoding def
  currentdict
end
/Helvetica-Bold exch definefont pop
/Helvetica-BoldOblique findfont
dup length dict begin
  {1 index /FID ne {def} {pop pop} ifelse} forall
  /Encoding WinAnsiEncoding def
  currentdict
end
/Helvetica-BoldOblique exch definefont pop
/Times-Roman findfont
dup length dict begin
  {1 index /FID ne {def} {pop pop} ifelse} forall
  /Encoding WinAnsiEncoding def
  currentdict
end
/Times-Roman exch definefont pop
/Times-Italic findfont
dup length dict begin
  {1 index /FID ne {def} {pop pop} ifelse} forall
  /Encoding WinAnsiEncoding def
  currentdict
end
/Times-Italic exch definefont pop
/Times-Bold findfont
dup length dict begin
  {1 index /FID ne {def} {pop pop} ifelse} forall
  /Encoding WinAnsiEncoding def
  currentdict
end
/Times-Bold exch definefont pop
/Times-BoldItalic findfont
dup length dict begin
  {1 index /FID ne {def} {pop pop} ifelse} forall
  /Encoding WinAnsiEncoding def
  currentdict
end
/Times-BoldItalic exch definefont pop
/Courier findfont
dup length dict begin
  {1 index /FID ne {def} {pop pop} ifelse} forall
  /Encoding WinAnsiEncoding def
  currentdict
end
/Courier exch definefont pop
%FOPEndFontReencode
%%EndProlog
%%Page: 1 1
%%PageBoundingBox: 0 0 560 420
%%BeginPageSetup
[1 0 0 -1 0 420] CT
%%EndPageSetup
GS
1 GC
N
0 0 560 420 re
f
GR
GS
1 GC
N
0 0 560 420 re
f
GR
GS
1 GC
N
134.25 343 M
445.75 343 L
445.75 31.5 L
134.25 31.5 L
cp
f
GR
GS
0.896 GC
1 LJ
N
134.25 343 M
134.25 31.5 L
S
GR
GS
0.896 GC
1 LJ
N
212.125 343 M
212.125 31.5 L
S
GR
GS
0.896 GC
1 LJ
N
290 343 M
290 31.5 L
S
GR
GS
0.896 GC
1 LJ
N
367.875 343 M
367.875 31.5 L
S
GR
GS
0.896 GC
1 LJ
N
445.75 343 M
445.75 31.5 L
S
GR
GS
0.896 GC
1 LJ
N
445.75 343 M
134.25 343 L
S
GR
GS
0.896 GC
1 LJ
N
445.75 265.125 M
134.25 265.125 L
S
GR
GS
0.896 GC
1 LJ
N
445.75 187.25 M
134.25 187.25 L
S
GR
GS
0.896 GC
1 LJ
N
445.75 109.375 M
134.25 109.375 L
S
GR
GS
0.896 GC
1 LJ
N
445.75 31.5 M
134.25 31.5 L
S
GR
GS
0.302 GC
2 setlinecap
1 LJ
N
134.25 343 M
445.75 343 L
S
GR
GS
0.302 GC
2 setlinecap
1 LJ
N
134.25 343 M
134.25 349.23 L
S
GR
GS
0.302 GC
2 setlinecap
1 LJ
N
212.125 343 M
212.125 349.23 L
S
GR
GS
0.302 GC
2 setlinecap
1 LJ
N
290 343 M
290 349.23 L
S
GR
GS
0.302 GC
2 setlinecap
1 LJ
N
367.875 343 M
367.875 349.23 L
S
GR
GS
0.302 GC
2 setlinecap
1 LJ
N
445.75 343 M
445.75 349.23 L
S
GR
GS
0.302 GC
2 setlinecap
1 LJ
N
149.825 343 M
149.825 346.115 L
S
GR
GS
0.302 GC
2 setlinecap
1 LJ
N
165.4 343 M
165.4 346.115 L
S
GR
GS
0.302 GC
2 setlinecap
1 LJ
N
180.975 343 M
180.975 346.115 L
S
GR
GS
0.302 GC
2 setlinecap
1 LJ
N
196.55 343 M
196.55 346.115 L
S
GR
GS
0.302 GC
2 setlinecap
1 LJ
N
227.7 343 M
227.7 346.115 L
S
GR
GS
0.302 GC
2 setlinecap
1 LJ
N
243.275 343 M
243.275 346.115 L
S
GR
GS
0.302 GC
2 setlinecap
1 LJ
N
258.85 343 M
258.85 346.115 L
S
GR
GS
0.302 GC
2 setlinecap
1 LJ
N
274.425 343 M
274.425 346.115 L
S
GR
GS
0.302 GC
2 setlinecap
1 LJ
N
305.575 343 M
305.575 346.115 L
S
GR
GS
0.302 GC
2 setlinecap
1 LJ
N
321.15 343 M
321.15 346.115 L
S
GR
GS
0.302 GC
2 setlinecap
1 LJ
N
336.725 343 M
336.725 346.115 L
S
GR
GS
0.302 GC
2 setlinecap
1 LJ
N
352.3 343 M
352.3 346.115 L
S
GR
GS
0.302 GC
2 setlinecap
1 LJ
N
383.45 343 M
383.45 346.115 L
S
GR
GS
0.302 GC
2 setlinecap
1 LJ
N
399.025 343 M
399.025 346.115 L
S
GR
GS
0.302 GC
2 setlinecap
1 LJ
N
414.6 343 M
414.6 346.115 L
S
GR
GS
0.302 GC
2 setlinecap
1 LJ
N
430.175 343 M
430.175 346.115 L
S
GR
GS
[1 0 0 1 134.25 356.23001] CT
0.302 GC
/Helvetica 25 F
GS
[1 0 0 1 0 0] CT
-7 24 moveto 
1 -1 scale
(0) t 
GR
GR
GS
[1 0 0 1 212.125 356.23001] CT
0.302 GC
/Helvetica 25 F
GS
[1 0 0 1 0 0] CT
-14 24 moveto 
1 -1 scale
(15) t 
GR
GR
GS
[1 0 0 1 290 356.23001] CT
0.302 GC
/Helvetica 25 F
GS
[1 0 0 1 0 0] CT
-14 24 moveto 
1 -1 scale
(30) t 
GR
GR
GS
[1 0 0 1 367.875 356.23001] CT
0.302 GC
/Helvetica 25 F
GS
[1 0 0 1 0 0] CT
-14 24 moveto 
1 -1 scale
(45) t 
GR
GR
GS
[1 0 0 1 445.75 356.23001] CT
0.302 GC
/Helvetica 25 F
GS
[1 0 0 1 0 0] CT
-14 24 moveto 
1 -1 scale
(60) t 
GR
GR
GS
[1 0 0 1 290.00015 386.73001] CT
0.302 GC
/Helvetica 27.5 F
GS
[1 0 0 1 0 0] CT
-151.5 27 moveto 
1 -1 scale
(saccade amplitude \(deg\)) t 
GR
GR
GS
0.302 GC
2 setlinecap
1 LJ
N
134.25 343 M
134.25 31.5 L
S
GR
GS
0.302 GC
2 setlinecap
1 LJ
N
134.25 343 M
128.02 343 L
S
GR
GS
0.302 GC
2 setlinecap
1 LJ
N
134.25 265.125 M
128.02 265.125 L
S
GR
GS
0.302 GC
2 setlinecap
1 LJ
N
134.25 187.25 M
128.02 187.25 L
S
GR
GS
0.302 GC
2 setlinecap
1 LJ
N
134.25 109.375 M
128.02 109.375 L
S
GR
GS
0.302 GC
2 setlinecap
1 LJ
N
134.25 31.5 M
128.02 31.5 L
S
GR
GS
0.302 GC
2 setlinecap
1 LJ
N
134.25 330.021 M
131.135 330.021 L
S
GR
GS
0.302 GC
2 setlinecap
1 LJ
N
134.25 317.042 M
131.135 317.042 L
S
GR
GS
0.302 GC
2 setlinecap
1 LJ
N
134.25 304.063 M
131.135 304.063 L
S
GR
GS
0.302 GC
2 setlinecap
1 LJ
N
134.25 291.083 M
131.135 291.083 L
S
GR
GS
0.302 GC
2 setlinecap
1 LJ
N
134.25 278.104 M
131.135 278.104 L
S
GR
GS
0.302 GC
2 setlinecap
1 LJ
N
134.25 252.146 M
131.135 252.146 L
S
GR
GS
0.302 GC
2 setlinecap
1 LJ
N
134.25 239.167 M
131.135 239.167 L
S
GR
GS
0.302 GC
2 setlinecap
1 LJ
N
134.25 226.188 M
131.135 226.188 L
S
GR
GS
0.302 GC
2 setlinecap
1 LJ
N
134.25 213.208 M
131.135 213.208 L
S
GR
GS
0.302 GC
2 setlinecap
1 LJ
N
134.25 200.229 M
131.135 200.229 L
S
GR
GS
0.302 GC
2 setlinecap
1 LJ
N
134.25 174.271 M
131.135 174.271 L
S
GR
GS
0.302 GC
2 setlinecap
1 LJ
N
134.25 161.292 M
131.135 161.292 L
S
GR
GS
0.302 GC
2 setlinecap
1 LJ
N
134.25 148.313 M
131.135 148.313 L
S
GR
GS
0.302 GC
2 setlinecap
1 LJ
N
134.25 135.333 M
131.135 135.333 L
S
GR
GS
0.302 GC
2 setlinecap
1 LJ
N
134.25 122.354 M
131.135 122.354 L
S
GR
GS
0.302 GC
2 setlinecap
1 LJ
N
134.25 96.396 M
131.135 96.396 L
S
GR
GS
0.302 GC
2 setlinecap
1 LJ
N
134.25 83.417 M
131.135 83.417 L
S
GR
GS
0.302 GC
2 setlinecap
1 LJ
N
134.25 70.438 M
131.135 70.438 L
S
GR
GS
0.302 GC
2 setlinecap
1 LJ
N
134.25 57.458 M
131.135 57.458 L
S
GR
GS
0.302 GC
2 setlinecap
1 LJ
N
134.25 44.479 M
131.135 44.479 L
S
GR
GS
[1 0 0 1 121.02 343] CT
0.302 GC
/Helvetica 25 F
GS
[1 0 0 1 0 0] CT
-14 9 moveto 
1 -1 scale
(0) t 
GR
GR
GS
[1 0 0 1 121.02 265.125] CT
0.302 GC
/Helvetica 25 F
GS
[1 0 0 1 0 0] CT
-28 9 moveto 
1 -1 scale
(30) t 
GR
GR
GS
[1 0 0 1 121.02 187.25] CT
0.302 GC
/Helvetica 25 F
GS
[1 0 0 1 0 0] CT
-28 9 moveto 
1 -1 scale
(60) t 
GR
GR
GS
[1 0 0 1 121.02 109.375] CT
0.302 GC
/Helvetica 25 F
GS
[1 0 0 1 0 0] CT
-28 9 moveto 
1 -1 scale
(90) t 
GR
GR
GS
[1 0 0 1 121.02 31.5] CT
0.302 GC
/Helvetica 25 F
GS
[1 0 0 1 0 0] CT
-42 9 moveto 
1 -1 scale
(120) t 
GR
GR
GS
[0 -1 1 0 58 266] CT
0.302 GC
/Helvetica 27.5 F
GS
[1 0 0 1 0 0] CT
0 0 moveto 
1 -1 scale
(v) t 
GR
GR
GS
[0 -1 1 0 71 252] CT
0.302 GC
/Helvetica 22 F
GS
[1 0 0 1 0 0] CT
0 0 moveto 
1 -1 scale
(pk) t 
GR
GR
GS
[0 -1 1 0 58 227] CT
0.302 GC
/Helvetica 27.5 F
GS
[1 0 0 1 0 0] CT
0 0 moveto 
1 -1 scale
( x D \(deg\)) t 
GR
GR
GS
[1 0 0 1 206.69733 284.98712] CT
N
1 0 M
1 0.552 0.552 1 0 1 C
-0.552 1 -1 0.552 -1 0 C
-1 -0.552 -0.552 -1 0 -1 C
0.552 -1 1 -0.552 1 0 C
cp
f
GR
GS
[1 0 0 1 317.97107 158.7177] CT
N
/f-891180347{1 0 M
1 0.552 0.552 1 0 1 C
-0.552 1 -1 0.552 -1 0 C
-1 -0.552 -0.552 -1 0 -1 C
0.552 -1 1 -0.552 1 0 C
cp}def
f-891180347
f
GR
GS
[1 0 0 1 272.24747 238.71111] CT
N
f-891180347
f
GR
GS
[1 0 0 1 306.65704 171.2057] CT
N
f-891180347
f
GR
GS
[1 0 0 1 241.72244 263.52847] CT
N
f-891180347
f
GR
GS
[1 0 0 1 267.7543 209.42661] CT
N
f-891180347
f
GR
GS
[1 0 0 1 412.52469 124.08978] CT
N
f-891180347
f
GR
GS
[1 0 0 1 195.98831 286.34088] CT
N
f-891180347
f
GR
GS
[1 0 0 1 262.89609 233.79617] CT
N
f-891180347
f
GR
GS
[1 0 0 1 258.85101 220.88353] CT
N
f-891180347
f
GR
GS
[1 0 0 1 290.91055 208.72987] CT
N
f-891180347
f
GR
GS
[1 0 0 1 282.63043 257.69373] CT
N
f-891180347
f
GR
GS
[1 0 0 1 235.35837 266.15021] CT
N
f-891180347
f
GR
GS
[1 0 0 1 327.52045 146.46143] CT
N
f-891180347
f
GR
GS
[1 0 0 1 254.19231 249.6629] CT
N
f-891180347
f
GR
GS
[1 0 0 1 155.40652 322.79257] CT
N
f-891180347
f
GR
GS
[1 0 0 1 357.79541 146.85477] CT
N
f-891180347
f
GR
GS
[1 0 0 1 222.64287 255.79164] CT
N
f-891180347
f
GR
GS
[1 0 0 1 192.14775 299.20877] CT
N
f-891180347
f
GR
GS
[1 0 0 1 281.99518 195.47459] CT
N
f-891180347
f
GR
GS
[1 0 0 1 239.76045 274.82867] CT
N
f-891180347
f
GR
GS
[1 0 0 1 401.88199 95.39919] CT
N
f-891180347
f
GR
GS
[1 0 0 1 229.35168 297.43378] CT
N
f-891180347
f
GR
GS
[1 0 0 1 202.5228 264.08444] CT
N
f-891180347
f
GR
GS
[1 0 0 1 280.02261 238.89044] CT
N
f-891180347
f
GR
GS
[1 0 0 1 155.05315 335.20676] CT
N
f-891180347
f
GR
GS
[1 0 0 1 257.42709 230.61806] CT
N
f-891180347
f
GR
GS
[1 0 0 1 286.08533 231.48936] CT
N
f-891180347
f
GR
GS
[1 0 0 1 267.80035 221.74286] CT
N
f-891180347
f
GR
GS
[1 0 0 1 215.46857 297.53162] CT
N
f-891180347
f
GR
GS
[1 0 0 1 207.86386 293.16522] CT
N
f-891180347
f
GR
GS
[1 0 0 1 336.62445 150.25481] CT
N
f-891180347
f
GR
GS
[1 0 0 1 353.45779 143.41017] CT
N
f-891180347
f
GR
GS
[1 0 0 1 242.59526 241.6474] CT
N
f-891180347
f
GR
GS
[1 0 0 1 178.35374 322.77557] CT
N
f-891180347
f
GR
GS
[1 0 0 1 171.48984 312.50699] CT
N
f-891180347
f
GR
GS
[1 0 0 1 269.37137 240.46799] CT
N
f-891180347
f
GR
GS
[1 0 0 1 215.77994 281.30508] CT
N
f-891180347
f
GR
GS
[1 0 0 1 212.76572 291.74792] CT
N
f-891180347
f
GR
GS
[1 0 0 1 312.83627 186.69463] CT
N
f-891180347
f
GR
GS
[1 0 0 1 367.96188 125.66644] CT
N
f-891180347
f
GR
GS
[1 0 0 1 335.29517 165.94914] CT
N
f-891180347
f
GR
GS
[1 0 0 1 251.45361 269.19974] CT
N
f-891180347
f
GR
GS
[1 0 0 1 155.46397 322.59756] CT
N
f-891180347
f
GR
GS
[1 0 0 1 239.7394 285.52887] CT
N
f-891180347
f
GR
GS
[1 0 0 1 294.36612 211.73051] CT
N
f-891180347
f
GR
GS
[1 0 0 1 249.51675 284.30765] CT
N
f-891180347
f
GR
GS
[1 0 0 1 315.21811 151.36147] CT
N
f-891180347
f
GR
GS
[1 0 0 1 263.65396 242.30469] CT
N
f-891180347
f
GR
GS
[1 0 0 1 195.62431 303.45279] CT
N
f-891180347
f
GR
GS
[1 0 0 1 183.35867 286.22198] CT
N
f-891180347
f
GR
GS
[1 0 0 1 358.73532 141.4807] CT
N
f-891180347
f
GR
GS
[1 0 0 1 256.14188 214.60973] CT
N
f-891180347
f
GR
GS
[1 0 0 1 327.82758 185.44986] CT
N
f-891180347
f
GR
GS
[1 0 0 1 244.94321 242.82394] CT
N
f-891180347
f
GR
GS
[1 0 0 1 344.94595 162.35765] CT
N
f-891180347
f
GR
GS
[1 0 0 1 333.63794 138.47064] CT
N
f-891180347
f
GR
GS
[1 0 0 1 334.19449 168.92061] CT
N
f-891180347
f
GR
GS
[1 0 0 1 297.73724 199.20004] CT
N
f-891180347
f
GR
GS
[1 0 0 1 293.02893 244.33217] CT
N
f-891180347
f
GR
GS
[1 0 0 1 212.70023 268.26385] CT
N
f-891180347
f
GR
GS
[1 0 0 1 229.1833 272.10754] CT
N
f-891180347
f
GR
GS
[1 0 0 1 189.64886 292.83536] CT
N
f-891180347
f
GR
GS
[1 0 0 1 165.95319 321.26147] CT
N
f-891180347
f
GR
GS
[1 0 0 1 280.68399 240.01909] CT
N
f-891180347
f
GR
GS
[1 0 0 1 187.81755 296.64413] CT
N
f-891180347
f
GR
GS
[1 0 0 1 347.21399 161.23929] CT
N
f-891180347
f
GR
GS
[1 0 0 1 412.21777 76.64138] CT
N
f-891180347
f
GR
GS
[1 0 0 1 292.49249 201.9744] CT
N
f-891180347
f
GR
GS
[1 0 0 1 207.29442 310.62524] CT
N
f-891180347
f
GR
GS
[1 0 0 1 225.00343 301.16702] CT
N
f-891180347
f
GR
GS
[1 0 0 1 268.95792 247.10271] CT
N
f-891180347
f
GR
GS
[1 0 0 1 195.01884 290.02765] CT
N
f-891180347
f
GR
GS
[1 0 0 1 248.43343 245.1998] CT
N
f-891180347
f
GR
GS
[1 0 0 1 209.29842 303.50906] CT
N
f-891180347
f
GR
GS
[1 0 0 1 299.97885 205.55074] CT
N
f-891180347
f
GR
GS
[1 0 0 1 275.4523 208.51639] CT
N
f-891180347
f
GR
GS
[1 0 0 1 179.39594 327.08731] CT
N
f-891180347
f
GR
GS
[1 0 0 1 219.62189 276.58926] CT
N
f-891180347
f
GR
GS
[1 0 0 1 220.59676 300.48987] CT
N
f-891180347
f
GR
GS
[1 0 0 1 244.68597 230.07236] CT
N
f-891180347
f
GR
GS
[1 0 0 1 341.53333 160.58807] CT
N
f-891180347
f
GR
GS
[1 0 0 1 275.43137 197.80379] CT
N
f-891180347
f
GR
GS
[1 0 0 1 303.64722 200.02452] CT
N
f-891180347
f
GR
GS
[1 0 0 1 266.99506 207.81189] CT
N
f-891180347
f
GR
GS
[1 0 0 1 284.43985 218.19026] CT
N
f-891180347
f
GR
GS
[1 0 0 1 289.15271 189.39606] CT
N
f-891180347
f
GR
GS
[1 0 0 1 260.71512 242.11234] CT
N
f-891180347
f
GR
GS
[1 0 0 1 213.24451 276.30319] CT
N
f-891180347
f
GR
GS
[1 0 0 1 243.49939 239.09947] CT
N
f-891180347
f
GR
GS
[1 0 0 1 198.57878 305.89996] CT
N
f-891180347
f
GR
GS
[1 0 0 1 276.83939 199.14084] CT
N
f-891180347
f
GR
GS
[1 0 0 1 312.97852 186.68922] CT
N
f-891180347
f
GR
GS
[1 0 0 1 211.51207 260.83798] CT
N
f-891180347
f
GR
GS
[1 0 0 1 245.6776 224.18306] CT
N
f-891180347
f
GR
GS
[1 0 0 1 356.87448 152.50005] CT
N
f-891180347
f
GR
GS
[1 0 0 1 299.14996 171.72476] CT
N
f-891180347
f
GR
GS
[1 0 0 1 276.16043 249.78766] CT
N
f-891180347
f
GR
GS
[1 0 0 1 276.93887 205.91415] CT
N
f-891180347
f
GR
GS
[1 0 0 1 362.02878 149.06221] CT
N
f-891180347
f
GR
GS
[1 0 0 1 194.68742 312.2695] CT
N
f-891180347
f
GR
GS
[1 0 0 1 154.86438 333.68945] CT
N
f-891180347
f
GR
GS
[1 0 0 1 183.24883 301.46634] CT
N
f-891180347
f
GR
GS
[1 0 0 1 281.47833 240.76324] CT
N
f-891180347
f
GR
GS
[1 0 0 1 267.12775 221.65849] CT
N
f-891180347
f
GR
GS
[1 0 0 1 242.91376 254.66232] CT
N
f-891180347
f
GR
GS
[1 0 0 1 240.4194 263.62503] CT
N
f-891180347
f
GR
GS
[1 0 0 1 340.75989 167.5238] CT
N
f-891180347
f
GR
GS
[1 0 0 1 246.52838 264.06082] CT
N
f-891180347
f
GR
GS
[1 0 0 1 205.27957 300.26666] CT
N
f-891180347
f
GR
GS
[1 0 0 1 280.35623 214.88437] CT
N
f-891180347
f
GR
GS
[1 0 0 1 292.73941 154.94618] CT
N
f-891180347
f
GR
GS
[1 0 0 1 184.99028 314.59198] CT
N
f-891180347
f
GR
GS
[1 0 0 1 222.84491 299.3833] CT
N
f-891180347
f
GR
GS
[1 0 0 1 257.87137 287.00644] CT
N
f-891180347
f
GR
GS
[1 0 0 1 181.97749 318.76804] CT
N
f-891180347
f
GR
GS
[1 0 0 1 259.47067 237.88304] CT
N
f-891180347
f
GR
GS
[1 0 0 1 239.45474 276.9762] CT
N
f-891180347
f
GR
GS
[1 0 0 1 292.18951 188.17943] CT
N
f-891180347
f
GR
GS
[1 0 0 1 267.51428 245.20267] CT
N
f-891180347
f
GR
GS
[1 0 0 1 251.26683 249.09959] CT
N
f-891180347
f
GR
GS
[1 0 0 1 322.793 182.14763] CT
N
f-891180347
f
GR
GS
[1 0 0 1 224.37471 274.65567] CT
N
f-891180347
f
GR
GS
[1 0 0 1 261.81442 262.25018] CT
N
f-891180347
f
GR
GS
[1 0 0 1 279.94421 200.8503] CT
N
f-891180347
f
GR
GS
[1 0 0 1 389.59503 126.37702] CT
N
f-891180347
f
GR
GS
[1 0 0 1 259.63187 209.40781] CT
N
f-891180347
f
GR
GS
[1 0 0 1 242.42461 275.99786] CT
N
f-891180347
f
GR
GS
[1 0 0 1 247.57906 265.57977] CT
N
f-891180347
f
GR
GS
[1 0 0 1 203.01003 274.36896] CT
N
f-891180347
f
GR
GS
[1 0 0 1 318.86087 185.30161] CT
N
f-891180347
f
GR
GS
[1 0 0 1 193.81963 289.20972] CT
N
f-891180347
f
GR
GS
[1 0 0 1 257.16907 241.68004] CT
N
f-891180347
f
GR
GS
[1 0 0 1 217.57845 257.99362] CT
N
f-891180347
f
GR
GS
[1 0 0 1 257.35574 245.29762] CT
N
f-891180347
f
GR
GS
[1 0 0 1 303.29517 167.67004] CT
N
f-891180347
f
GR
GS
[1 0 0 1 224.75281 269.91653] CT
N
f-891180347
f
GR
GS
[1 0 0 1 219.72827 271.94809] CT
N
f-891180347
f
GR
GS
[1 0 0 1 225.66916 282.55884] CT
N
f-891180347
f
GR
GS
[1 0 0 1 168.4407 327.32764] CT
N
f-891180347
f
GR
GS
[1 0 0 1 281.04846 196.93744] CT
N
f-891180347
f
GR
GS
[1 0 0 1 276.33701 226.20258] CT
N
f-891180347
f
GR
GS
[1 0 0 1 270.18695 215.02887] CT
N
f-891180347
f
GR
GS
[1 0 0 1 315.08005 203.86783] CT
N
f-891180347
f
GR
GS
[1 0 0 1 196.29907 295.53232] CT
N
f-891180347
f
GR
GS
[1 0 0 1 240.22614 259.71606] CT
N
f-891180347
f
GR
GS
[1 0 0 1 193.74789 283.19711] CT
N
f-891180347
f
GR
GS
[1 0 0 1 272.50967 204.38329] CT
N
f-891180347
f
GR
GS
[1 0 0 1 354.11362 156.99579] CT
N
f-891180347
f
GR
GS
[1 0 0 1 303.71756 178.75305] CT
N
f-891180347
f
GR
GS
[1 0 0 1 264.10629 239.57376] CT
N
f-891180347
f
GR
GS
[1 0 0 1 253.98972 248.53915] CT
N
f-891180347
f
GR
GS
[1 0 0 1 287.33475 220.11482] CT
N
f-891180347
f
GR
GS
[1 0 0 1 244.85405 239.64687] CT
N
f-891180347
f
GR
GS
[1 0 0 1 217.56198 261.37076] CT
N
f-891180347
f
GR
GS
[1 0 0 1 239.62129 258.76804] CT
N
f-891180347
f
GR
GS
[1 0 0 1 189.88924 297.07211] CT
N
f-891180347
f
GR
GS
[1 0 0 1 220.51331 260.79236] CT
N
f-891180347
f
GR
GS
[1 0 0 1 194.9064 300.461] CT
N
f-891180347
f
GR
GS
[1 0 0 1 295.95813 175.47862] CT
N
f-891180347
f
GR
GS
[1 0 0 1 297.82413 199.89705] CT
N
f-891180347
f
GR
GS
[1 0 0 1 299.10672 191.39343] CT
N
f-891180347
f
GR
GS
[1 0 0 1 232.09442 273.59604] CT
N
f-891180347
f
GR
GS
[1 0 0 1 169.44556 321.30469] CT
N
f-891180347
f
GR
GS
[1 0 0 1 235.03745 262.59781] CT
N
f-891180347
f
GR
GS
[1 0 0 1 224.39427 252.46758] CT
N
f-891180347
f
GR
GS
[1 0 0 1 186.23723 298.7489] CT
N
f-891180347
f
GR
GS
[1 0 0 1 244.57573 263.42844] CT
N
f-891180347
f
GR
GS
[1 0 0 1 271.45831 205.1037] CT
N
f-891180347
f
GR
GS
[1 0 0 1 275.23999 239.19598] CT
N
f-891180347
f
GR
GS
[1 0 0 1 373.56741 135.43141] CT
N
f-891180347
f
GR
GS
[1 0 0 1 336.1279 168.286] CT
N
f-891180347
f
GR
GS
[1 0 0 1 397.60239 69.76189] CT
N
f-891180347
f
GR
GS
[1 0 0 1 219.4007 296.9007] CT
N
f-891180347
f
GR
GS
[1 0 0 1 197.64209 299.39557] CT
N
f-891180347
f
GR
GS
[1 0 0 1 195.77275 306.48138] CT
N
f-891180347
f
GR
GS
[1 0 0 1 279.61401 251.93457] CT
N
f-891180347
f
GR
GS
[1 0 0 1 155.8078 331.59839] CT
N
f-891180347
f
GR
GS
[1 0 0 1 257.92355 241.50377] CT
N
f-891180347
f
GR
GS
[1 0 0 1 283.61111 191.90515] CT
N
f-891180347
f
GR
GS
[1 0 0 1 280.80515 224.48976] CT
N
f-891180347
f
GR
GS
[1 0 0 1 292.76361 180.44861] CT
N
f-891180347
f
GR
GS
[1 0 0 1 298.72449 224.0316] CT
N
f-891180347
f
GR
GS
[1 0 0 1 168.55898 307.25882] CT
N
f-891180347
f
GR
GS
[1 0 0 1 264.14529 236.43512] CT
N
f-891180347
f
GR
GS
[1 0 0 1 339.67365 142.37849] CT
N
f-891180347
f
GR
GS
[1 0 0 1 296.47424 203.09283] CT
N
f-891180347
f
GR
GS
[1 0 0 1 191.32234 286.29327] CT
N
f-891180347
f
GR
GS
[1 0 0 1 363.27673 141.5128] CT
N
f-891180347
f
GR
GS
[1 0 0 1 258.97363 216.93756] CT
N
f-891180347
f
GR
GS
[1 0 0 1 173.33244 296.09677] CT
N
f-891180347
f
GR
GS
[1 0 0 1 197.28355 307.29333] CT
N
f-891180347
f
GR
GS
[1 0 0 1 363.84933 172.74379] CT
N
f-891180347
f
GR
GS
[1 0 0 1 239.56616 273.44299] CT
N
f-891180347
f
GR
GS
[1 0 0 1 349.51462 180.7494] CT
N
f-891180347
f
GR
GS
[1 0 0 1 161.88898 316.68378] CT
N
f-891180347
f
GR
GS
[1 0 0 1 179.82777 301.21707] CT
N
f-891180347
f
GR
GS
[1 0 0 1 347.77011 118.05406] CT
N
f-891180347
f
GR
GS
[1 0 0 1 185.57845 290.57327] CT
N
f-891180347
f
GR
GS
[1 0 0 1 221.06972 266.883] CT
N
f-891180347
f
GR
GS
[1 0 0 1 236.60696 262.79852] CT
N
f-891180347
f
GR
GS
[1 0 0 1 161.69519 301.59286] CT
N
f-891180347
f
GR
GS
[1 0 0 1 234.84924 272.45187] CT
N
f-891180347
f
GR
GS
[1 0 0 1 246.87201 252.64676] CT
N
f-891180347
f
GR
GS
[1 0 0 1 245.45966 257.45663] CT
N
f-891180347
f
GR
GS
[1 0 0 1 280.84528 215.98299] CT
N
f-891180347
f
GR
GS
[1 0 0 1 302.23334 204.73497] CT
N
f-891180347
f
GR
GS
[1 0 0 1 275.43793 196.52167] CT
N
f-891180347
f
GR
GS
[1 0 0 1 392.64728 116.86832] CT
N
f-891180347
f
GR
GS
[1 0 0 1 204.94139 282.18649] CT
N
f-891180347
f
GR
GS
[1 0 0 1 265.76926 234.6281] CT
N
f-891180347
f
GR
GS
[1 0 0 1 261.47308 211.23422] CT
N
f-891180347
f
GR
GS
[1 0 0 1 330.49164 177.81924] CT
N
f-891180347
f
GR
GS
[1 0 0 1 257.34509 231.60864] CT
N
f-891180347
f
GR
GS
[1 0 0 1 288.49255 222.8161] CT
N
f-891180347
f
GR
GS
[1 0 0 1 187.39714 305.28125] CT
N
f-891180347
f
GR
GS
[1 0 0 1 193.57498 298.83817] CT
N
f-891180347
f
GR
GS
[1 0 0 1 210.03804 268.07455] CT
N
f-891180347
f
GR
GS
[1 0 0 1 207.91705 292.57071] CT
N
f-891180347
f
GR
GS
[1 0 0 1 313.25583 159.57173] CT
N
f-891180347
f
GR
GS
[1 0 0 1 271.8244 240.2587] CT
N
f-891180347
f
GR
GS
[1 0 0 1 197.04028 303.15237] CT
N
f-891180347
f
GR
GS
[1 0 0 1 209.78731 275.08902] CT
N
f-891180347
f
GR
GS
[1 0 0 1 223.91512 254.1655] CT
N
f-891180347
f
GR
GS
[1 0 0 1 202.8669 296.71494] CT
N
f-891180347
f
GR
GS
[1 0 0 1 288.49008 186.97052] CT
N
f-891180347
f
GR
GS
[1 0 0 1 290.50406 213.59718] CT
N
f-891180347
f
GR
GS
[1 0 0 1 219.02933 248.28334] CT
N
f-891180347
f
GR
GS
[1 0 0 1 244.40825 299.37177] CT
N
f-891180347
f
GR
GS
[1 0 0 1 186.7395 306.04953] CT
N
f-891180347
f
GR
GS
[1 0 0 1 279.84317 232.9743] CT
N
f-891180347
f
GR
GS
[1 0 0 1 195.354 283.70502] CT
N
f-891180347
f
GR
GS
[1 0 0 1 443.71921 69.40939] CT
N
f-891180347
f
GR
GS
[1 0 0 1 244.01804 223.18105] CT
N
f-891180347
f
GR
GS
[1 0 0 1 243.1329 255.58919] CT
N
f-891180347
f
GR
GS
[1 0 0 1 245.66644 226.69264] CT
N
f-891180347
f
GR
GS
[1 0 0 1 259.99142 247.48883] CT
N
f-891180347
f
GR
GS
[1 0 0 1 298.76166 204.63329] CT
N
f-891180347
f
GR
GS
[1 0 0 1 267.92892 252.42354] CT
N
f-891180347
f
GR
GS
[1 0 0 1 231.12688 271.03006] CT
N
f-891180347
f
GR
GS
[1 0 0 1 307.66788 205.4137] CT
N
f-891180347
f
GR
GS
[1 0 0 1 233.476 306.04517] CT
N
f-891180347
f
GR
GS
[1 0 0 1 180.99741 311.61899] CT
N
f-891180347
f
GR
GS
[1 0 0 1 178.38135 307.85492] CT
N
f-891180347
f
GR
GS
[1 0 0 1 325.80035 175.52798] CT
N
f-891180347
f
GR
GS
[1 0 0 1 244.24277 257.84995] CT
N
f-891180347
f
GR
GS
[1 0 0 1 263.42734 235.13425] CT
N
f-891180347
f
GR
GS
[1 0 0 1 216.31923 259.5661] CT
N
f-891180347
f
GR
GS
[1 0 0 1 277.83524 246.28853] CT
N
f-891180347
f
GR
GS
[1 0 0 1 195.93587 300.70013] CT
N
f-891180347
f
GR
GS
[1 0 0 1 179.84578 321.09756] CT
N
f-891180347
f
GR
GS
[1 0 0 1 322.14429 155.99567] CT
N
f-891180347
f
GR
GS
[1 0 0 1 301.19153 205.71497] CT
N
f-891180347
f
GR
GS
[1 0 0 1 227.38681 264.32956] CT
N
f-891180347
f
GR
GS
[1 0 0 1 348.64136 171.72826] CT
N
f-891180347
f
GR
GS
[1 0 0 1 289.21304 181.63866] CT
N
f-891180347
f
GR
GS
[1 0 0 1 348.12772 152.99774] CT
N
f-891180347
f
GR
GS
[1 0 0 1 235.97932 259.1423] CT
N
f-891180347
f
GR
GS
[1 0 0 1 329.10843 174.70084] CT
N
f-891180347
f
GR
GS
[1 0 0 1 289.2681 181.21512] CT
N
f-891180347
f
GR
GS
[1 0 0 1 273.77283 235.4207] CT
N
f-891180347
f
GR
GS
[1 0 0 1 239.92973 239.27054] CT
N
f-891180347
f
GR
GS
[1 0 0 1 274.44669 225.87933] CT
N
f-891180347
f
GR
GS
[1 0 0 1 206.49857 297.13159] CT
N
f-891180347
f
GR
GS
[1 0 0 1 306.42422 189.52965] CT
N
f-891180347
f
GR
GS
[1 0 0 1 218.73466 274.28467] CT
N
f-891180347
f
GR
GS
[1 0 0 1 289.84375 232.46396] CT
N
f-891180347
f
GR
GS
[1 0 0 1 190.19138 312.29755] CT
N
f-891180347
f
GR
GS
[1 0 0 1 191.70886 298.1167] CT
N
f-891180347
f
GR
GS
[1 0 0 1 201.63268 287.04733] CT
N
f-891180347
f
GR
GS
[1 0 0 1 185.30206 291.88193] CT
N
f-891180347
f
GR
GS
[1 0 0 1 231.93253 286.91531] CT
N
f-891180347
f
GR
GS
[1 0 0 1 162.92523 313.57248] CT
N
f-891180347
f
GR
GS
[1 0 0 1 245.27258 274.08737] CT
N
f-891180347
f
GR
GS
[1 0 0 1 230.01248 259.20541] CT
N
f-891180347
f
GR
GS
[1 0 0 1 318.59671 189.10919] CT
N
f-891180347
f
GR
GS
[1 0 0 1 264.6044 210.28041] CT
N
f-891180347
f
GR
GS
[1 0 0 1 331.94186 165.73796] CT
N
f-891180347
f
GR
GS
[1 0 0 1 316.69748 130.16217] CT
N
f-891180347
f
GR
GS
[1 0 0 1 287.30725 241.77792] CT
N
f-891180347
f
GR
GS
[1 0 0 1 243.5885 257.18762] CT
N
f-891180347
f
GR
GS
[1 0 0 1 224.97798 272.37115] CT
N
f-891180347
f
GR
GS
[1 0 0 1 234.90654 285.35724] CT
N
f-891180347
f
GR
GS
[1 0 0 1 161.39519 326.24429] CT
N
f-891180347
f
GR
GS
[1 0 0 1 172.54895 308.43866] CT
N
f-891180347
f
GR
GS
[1 0 0 1 195.59894 277.23236] CT
N
f-891180347
f
GR
GS
[1 0 0 1 304.39212 198.12877] CT
N
f-891180347
f
GR
GS
[1 0 0 1 273.98468 196.81178] CT
N
f-891180347
f
GR
GS
[1 0 0 1 252.55583 282.47604] CT
N
f-891180347
f
GR
GS
[1 0 0 1 208.14369 292.35205] CT
N
f-891180347
f
GR
GS
[1 0 0 1 179.15919 317.65808] CT
N
f-891180347
f
GR
GS
[1 0 0 1 164.07318 323.56827] CT
N
f-891180347
f
GR
GS
[1 0 0 1 268.00558 230.72485] CT
N
f-891180347
f
GR
GS
[1 0 0 1 316.91431 161.60374] CT
N
f-891180347
f
GR
GS
[1 0 0 1 266.37036 239.80309] CT
N
f-891180347
f
GR
GS
[1 0 0 1 203.58205 276.36368] CT
N
f-891180347
f
GR
GS
[1 0 0 1 296.84555 182.81732] CT
N
f-891180347
f
GR
GS
[1 0 0 1 282.31137 219.87642] CT
N
f-891180347
f
GR
GS
[1 0 0 1 182.99272 311.47009] CT
N
f-891180347
f
GR
GS
[1 0 0 1 203.03665 291.38495] CT
N
f-891180347
f
GR
GS
[1 0 0 1 194.39711 283.29013] CT
N
f-891180347
f
GR
GS
[1 0 0 1 259.9668 253.18652] CT
N
f-891180347
f
GR
GS
[1 0 0 1 207.47522 278.01016] CT
N
f-891180347
f
GR
GS
[1 0 0 1 159.83369 313.95078] CT
N
f-891180347
f
GR
GS
[1 0 0 1 194.08514 310.41507] CT
N
f-891180347
f
GR
GS
[1 0 0 1 217.88237 283.0582] CT
N
f-891180347
f
GR
GS
[1 0 0 1 223.04707 281.94452] CT
N
f-891180347
f
GR
GS
[1 0 0 1 219.52132 266.41812] CT
N
f-891180347
f
GR
GS
[1 0 0 1 173.00589 310.49924] CT
N
f-891180347
f
GR
GS
[1 0 0 1 382.13791 125.73775] CT
N
f-891180347
f
GR
GS
[1 0 0 1 192.4175 296.14731] CT
N
f-891180347
f
GR
GS
[1 0 0 1 233.5569 274.87027] CT
N
f-891180347
f
GR
GS
[1 0 0 1 200.5862 285.38953] CT
N
f-891180347
f
GR
GS
[1 0 0 1 230.99501 254.92554] CT
N
f-891180347
f
GR
GS
[1 0 0 1 241.88412 255.21291] CT
N
f-891180347
f
GR
GS
[1 0 0 1 187.21141 304.319] CT
N
f-891180347
f
GR
GS
[1 0 0 1 283.64532 227.59889] CT
N
f-891180347
f
GR
GS
[1 0 0 1 244.40254 257.82483] CT
N
f-891180347
f
GR
GS
[1 0 0 1 286.45648 203.47511] CT
N
f-891180347
f
GR
GS
[1 0 0 1 185.11801 306.99435] CT
N
f-891180347
f
GR
GS
[1 0 0 1 278.83282 211.40076] CT
N
f-891180347
f
GR
GS
[1 0 0 1 263.82089 210.24837] CT
N
f-891180347
f
GR
GS
[1 0 0 1 248.48444 248.76852] CT
N
f-891180347
f
GR
GS
[1 0 0 1 240.12215 228.88597] CT
N
f-891180347
f
GR
GS
[1 0 0 1 224.72812 284.60999] CT
N
f-891180347
f
GR
GS
[1 0 0 1 217.98239 272.36484] CT
N
f-891180347
f
GR
GS
[1 0 0 1 190.78473 288.61713] CT
N
f-891180347
f
GR
GS
[1 0 0 1 200.74677 312.27414] CT
N
f-891180347
f
GR
GS
[1 0 0 1 232.80544 280.48703] CT
N
f-891180347
f
GR
GS
[1 0 0 1 227.22719 264.17929] CT
N
f-891180347
f
GR
GS
[1 0 0 1 165.98695 325.849] CT
N
f-891180347
f
GR
GS
[1 0 0 1 205.46622 269.07419] CT
N
f-891180347
f
GR
GS
[1 0 0 1 233.13513 292.59106] CT
N
f-891180347
f
GR
GS
[1 0 0 1 196.49699 301.23062] CT
N
f-891180347
f
GR
GS
[1 0 0 1 186.01367 297.00232] CT
N
f-891180347
f
GR
GS
[1 0 0 1 235.85481 263.60596] CT
N
f-891180347
f
GR
GS
[1 0 0 1 376.11823 110.58873] CT
N
f-891180347
f
GR
GS
[1 0 0 1 375.39398 131.905] CT
N
f-891180347
f
GR
GS
[1 0 0 1 310.53409 191.23892] CT
N
f-891180347
f
GR
GS
[1 0 0 1 294.96469 203.65866] CT
N
f-891180347
f
GR
GS
[1 0 0 1 325.64526 141.57491] CT
N
f-891180347
f
GR
GS
[1 0 0 1 246.56593 262.39563] CT
N
f-891180347
f
GR
GS
[1 0 0 1 190.10136 279.98172] CT
N
f-891180347
f
GR
GS
[1 0 0 1 338.79688 198.62622] CT
N
f-891180347
f
GR
GS
[1 0 0 1 257.1467 226.88351] CT
N
f-891180347
f
GR
GS
[1 0 0 1 307.39728 231.54208] CT
N
f-891180347
f
GR
GS
[1 0 0 1 213.21465 264.38651] CT
N
f-891180347
f
GR
GS
[1 0 0 1 268.60641 227.7084] CT
N
f-891180347
f
GR
GS
[1 0 0 1 177.84282 312.01288] CT
N
f-891180347
f
GR
GS
[1 0 0 1 259.99295 255.96683] CT
N
f-891180347
f
GR
GS
[1 0 0 1 260.02203 239.28514] CT
N
f-891180347
f
GR
GS
[1 0 0 1 206.74506 293.72772] CT
N
f-891180347
f
GR
GS
[1 0 0 1 244.71898 254.60735] CT
N
f-891180347
f
GR
GS
[1 0 0 1 348.10812 166.93253] CT
N
f-891180347
f
GR
GS
[1 0 0 1 248.01378 244.10277] CT
N
f-891180347
f
GR
GS
[1 0 0 1 250.00079 288.89853] CT
N
f-891180347
f
GR
GS
[1 0 0 1 201.71204 271.28873] CT
N
f-891180347
f
GR
GS
[1 0 0 1 239.32558 262.17599] CT
N
f-891180347
f
GR
GS
[1 0 0 1 173.75659 310.37555] CT
N
f-891180347
f
GR
GS
[1 0 0 1 337.04718 160.51378] CT
N
f-891180347
f
GR
GS
[1 0 0 1 322.26859 227.69176] CT
N
f-891180347
f
GR
GS
[1 0 0 1 180.30812 294.62625] CT
N
f-891180347
f
GR
GS
[1 0 0 1 286.23148 222.7108] CT
N
f-891180347
f
GR
GS
[1 0 0 1 190.87444 302.11215] CT
N
f-891180347
f
GR
GS
[1 0 0 1 200.30443 281.55084] CT
N
f-891180347
f
GR
GS
[1 0 0 1 256.9704 245.76419] CT
N
f-891180347
f
GR
GS
[1 0 0 1 171.66342 302.55737] CT
N
f-891180347
f
GR
GS
[1 0 0 1 302.49753 198.2476] CT
N
f-891180347
f
GR
GS
[1 0 0 1 201.06447 303.45221] CT
N
f-891180347
f
GR
GS
[1 0 0 1 328.23712 180.24629] CT
N
f-891180347
f
GR
GS
[1 0 0 1 237.81046 299.6087] CT
N
f-891180347
f
GR
GS
[1 0 0 1 312.91455 143.15521] CT
N
f-891180347
f
GR
GS
[1 0 0 1 259.70255 266.51233] CT
N
f-891180347
f
GR
GS
[1 0 0 1 224.40607 283.60107] CT
N
f-891180347
f
GR
GS
[1 0 0 1 246.6951 247.444] CT
N
f-891180347
f
GR
GS
[1 0 0 1 286.13736 247.15413] CT
N
f-891180347
f
GR
GS
[1 0 0 1 215.75311 286.72797] CT
N
f-891180347
f
GR
GS
[1 0 0 1 180.1176 293.74643] CT
N
f-891180347
f
GR
GS
[1 0 0 1 181.92719 316.28827] CT
N
f-891180347
f
GR
GS
[1 0 0 1 278.02454 243.04948] CT
N
f-891180347
f
GR
GS
[1 0 0 1 184.59801 319.00903] CT
N
f-891180347
f
GR
GS
[1 0 0 1 217.92438 268.71936] CT
N
f-891180347
f
GR
GS
[1 0 0 1 295.85568 181.59811] CT
N
f-891180347
f
GR
GS
[1 0 0 1 274.78299 227.41418] CT
N
f-891180347
f
GR
GS
[1 0 0 1 183.55087 302.53223] CT
N
f-891180347
f
GR
GS
[1 0 0 1 324.43536 182.82742] CT
N
f-891180347
f
GR
GS
[1 0 0 1 251.52858 224.06145] CT
N
f-891180347
f
GR
GS
[1 0 0 1 305.39218 204.20004] CT
N
f-891180347
f
GR
GS
[1 0 0 1 285.12122 189.92943] CT
N
f-891180347
f
GR
GS
[1 0 0 1 412.59845 85.23824] CT
N
f-891180347
f
GR
GS
[1 0 0 1 194.75032 287.80048] CT
N
f-891180347
f
GR
GS
[1 0 0 1 298.7399 260.96017] CT
N
f-891180347
f
GR
GS
[1 0 0 1 191.19743 293.01913] CT
N
f-891180347
f
GR
GS
[1 0 0 1 292.23419 189.19569] CT
N
f-891180347
f
GR
GS
[1 0 0 1 207.90776 281.52692] CT
N
f-891180347
f
GR
GS
[1 0 0 1 209.17595 293.72702] CT
N
f-891180347
f
GR
GS
[1 0 0 1 341.013 117.7119] CT
N
f-891180347
f
GR
GS
[1 0 0 1 265.66913 262.5831] CT
N
f-891180347
f
GR
GS
[1 0 0 1 266.70343 256.82785] CT
N
f-891180347
f
GR
GS
[1 0 0 1 334.27655 175.95239] CT
N
f-891180347
f
GR
GS
[1 0 0 1 204.97356 292.43271] CT
N
f-891180347
f
GR
GS
[1 0 0 1 335.75262 163.90858] CT
N
f-891180347
f
GR
GS
[1 0 0 1 249.98845 223.57025] CT
N
f-891180347
f
GR
GS
[1 0 0 1 279.8764 241.51775] CT
N
f-891180347
f
GR
GS
[1 0 0 1 235.18948 225.30656] CT
N
f-891180347
f
GR
GS
[1 0 0 1 325.43085 163.58707] CT
N
f-891180347
f
GR
GS
[1 0 0 1 365.91476 145.17072] CT
N
f-891180347
f
GR
GS
[1 0 0 1 311.08493 165.77954] CT
N
f-891180347
f
GR
GS
[1 0 0 1 342.22549 162.93817] CT
N
f-891180347
f
GR
GS
[1 0 0 1 252.46387 233.98569] CT
N
f-891180347
f
GR
GS
[1 0 0 1 250.71185 279.30255] CT
N
f-891180347
f
GR
GS
[1 0 0 1 198.67772 284.65741] CT
N
f-891180347
f
GR
GS
[1 0 0 1 315.91187 224.28487] CT
N
f-891180347
f
GR
GS
[1 0 0 1 286.00479 188.12224] CT
N
f-891180347
f
GR
GS
[1 0 0 1 271.01025 232.85352] CT
N
f-891180347
f
GR
GS
[1 0 0 1 282.36255 188.96944] CT
N
f-891180347
f
GR
GS
[1 0 0 1 252.94409 243.92491] CT
N
f-891180347
f
GR
GS
[1 0 0 1 179.74147 315.74637] CT
N
f-891180347
f
GR
GS
[1 0 0 1 206.50978 299.07654] CT
N
f-891180347
f
GR
GS
[1 0 0 1 320.99747 192.45422] CT
N
f-891180347
f
GR
GS
[1 0 0 1 226.74841 293.82556] CT
N
f-891180347
f
GR
GS
[1 0 0 1 290.32727 198.49634] CT
N
f-891180347
f
GR
GS
[1 0 0 1 283.60934 268.25842] CT
N
f-891180347
f
GR
GS
[1 0 0 1 181.22725 301.92429] CT
N
f-891180347
f
GR
GS
[1 0 0 1 329.88431 175.62926] CT
N
f-891180347
f
GR
GS
[1 0 0 1 313.07794 248.74724] CT
N
f-891180347
f
GR
GS
[1 0 0 1 188.2308 294.09546] CT
N
f-891180347
f
GR
GS
[1 0 0 1 172.0388 325.97446] CT
N
f-891180347
f
GR
GS
[1 0 0 1 335.25247 169.62631] CT
N
f-891180347
f
GR
GS
[1 0 0 1 251.93343 237.28433] CT
N
f-891180347
f
GR
GS
[1 0 0 1 268.19958 233.13936] CT
N
f-891180347
f
GR
GS
[1 0 0 1 264.22415 223.7702] CT
N
f-891180347
f
GR
GS
[1 0 0 1 368.84863 126.1952] CT
N
f-891180347
f
GR
GS
[1 0 0 1 160.89893 311.14435] CT
N
f-891180347
f
GR
GS
[1 0 0 1 257.16891 247.9303] CT
N
f-891180347
f
GR
GS
[1 0 0 1 262.10938 258.59109] CT
N
f-891180347
f
GR
GS
[1 0 0 1 196.71628 300.70798] CT
N
f-891180347
f
GR
GS
[1 0 0 1 249.32143 256.20444] CT
N
f-891180347
f
GR
GS
[1 0 0 1 195.60905 300.06351] CT
N
f-891180347
f
GR
GS
[1 0 0 1 188.7157 288.79626] CT
N
f-891180347
f
GR
GS
[1 0 0 1 303.5188 180.75943] CT
N
f-891180347
f
GR
GS
[1 0 0 1 237.5705 278.3992] CT
N
f-891180347
f
GR
GS
[1 0 0 1 180.15846 309.32001] CT
N
f-891180347
f
GR
GS
[1 0 0 1 229.52919 273.51416] CT
N
f-891180347
f
GR
GS
[1 0 0 1 262.71939 254.34413] CT
N
f-891180347
f
GR
GS
[1 0 0 1 204.71414 312.3078] CT
N
f-891180347
f
GR
GS
[1 0 0 1 219.89009 263.41388] CT
N
f-891180347
f
GR
GS
[1 0 0 1 263.3895 245.42355] CT
N
f-891180347
f
GR
GS
[1 0 0 1 230.33119 281.97482] CT
N
f-891180347
f
GR
GS
[1 0 0 1 310.68665 202.65572] CT
N
f-891180347
f
GR
GS
[1 0 0 1 189.50404 297.95047] CT
N
f-891180347
f
GR
GS
[1 0 0 1 248.76917 251.0116] CT
N
f-891180347
f
GR
GS
[1 0 0 1 243.66945 228.05186] CT
N
f-891180347
f
GR
GS
[1 0 0 1 197.98692 285.46814] CT
N
f-891180347
f
GR
GS
[1 0 0 1 276.32318 237.96571] CT
N
f-891180347
f
GR
GS
[1 0 0 1 201.37715 287.82047] CT
N
f-891180347
f
GR
GS
[1 0 0 1 260.63272 243.0302] CT
N
f-891180347
f
GR
GS
[1 0 0 1 279.18237 242.70018] CT
N
f-891180347
f
GR
GS
[1 0 0 1 203.03481 311.27914] CT
N
f-891180347
f
GR
GS
[1 0 0 1 337.17902 173.4039] CT
N
f-891180347
f
GR
GS
[1 0 0 1 237.56392 255.27135] CT
N
f-891180347
f
GR
GS
[1 0 0 1 252.69591 230.07751] CT
N
f-891180347
f
GR
GS
[1 0 0 1 266.36816 286.90274] CT
N
f-891180347
f
GR
GS
[1 0 0 1 197.42897 305.58917] CT
N
f-891180347
f
GR
GS
[1 0 0 1 287.65994 197.36499] CT
N
f-891180347
f
GR
GS
[1 0 0 1 280.66342 240.8958] CT
N
f-891180347
f
GR
GS
[1 0 0 1 205.83995 297.08716] CT
N
f-891180347
f
GR
GS
[1 0 0 1 210.8548 280.07642] CT
N
f-891180347
f
GR
GS
[1 0 0 1 227.9192 279.52512] CT
N
f-891180347
f
GR
GS
[1 0 0 1 235.07437 311.30646] CT
N
f-891180347
f
GR
GS
[1 0 0 1 254.18648 275.85736] CT
N
f-891180347
f
GR
GS
[1 0 0 1 213.44106 291.88998] CT
N
f-891180347
f
GR
GS
[1 0 0 1 281.81311 231.37163] CT
N
f-891180347
f
GR
GS
[1 0 0 1 226.8531 280.51648] CT
N
f-891180347
f
GR
GS
[1 0 0 1 223.78706 278.36639] CT
N
f-891180347
f
GR
GS
[1 0 0 1 185.67827 286.39108] CT
N
f-891180347
f
GR
GS
[1 0 0 1 306.552 201.13423] CT
N
f-891180347
f
GR
GS
[1 0 0 1 221.65878 263.04477] CT
N
f-891180347
f
GR
GS
[1 0 0 1 277.95901 232.02405] CT
N
f-891180347
f
GR
GS
[1 0 0 1 301.95474 172.97356] CT
N
f-891180347
f
GR
GS
[1 0 0 1 205.84402 293.7374] CT
N
f-891180347
f
GR
GS
[1 0 0 1 205.51639 285.40689] CT
N
f-891180347
f
GR
GS
[1 0 0 1 214.79027 283.4241] CT
N
f-891180347
f
GR
GS
[1 0 0 1 279.9079 195.80556] CT
N
f-891180347
f
GR
GS
[1 0 0 1 218.94298 291.81241] CT
N
f-891180347
f
GR
GS
[1 0 0 1 379.06598 122.66013] CT
N
f-891180347
f
GR
GS
[1 0 0 1 289.83762 172.22226] CT
N
f-891180347
f
GR
GS
[1 0 0 1 284.99335 242.4733] CT
N
f-891180347
f
GR
GS
[1 0 0 1 235.55441 236.12981] CT
N
f-891180347
f
GR
GS
[1 0 0 1 256.69083 252.1355] CT
N
f-891180347
f
GR
GS
[1 0 0 1 154.44392 332.19244] CT
N
f-891180347
f
GR
GS
[1 0 0 1 191.36601 299.74249] CT
N
f-891180347
f
GR
GS
[1 0 0 1 170.60063 305.55353] CT
N
f-891180347
f
GR
GS
[1 0 0 1 316.74118 181.63969] CT
N
f-891180347
f
GR
GS
[1 0 0 1 220.4955 276.79514] CT
N
f-891180347
f
GR
GS
[1 0 0 1 272.83957 240.75334] CT
N
f-891180347
f
GR
GS
[1 0 0 1 304.53918 203.17525] CT
N
f-891180347
f
GR
GS
[1 0 0 1 275.53271 198.91341] CT
N
f-891180347
f
GR
GS
[1 0 0 1 332.78561 179.59033] CT
N
f-891180347
f
GR
GS
[1 0 0 1 304.71878 170.1217] CT
N
f-891180347
f
GR
GS
[1 0 0 1 288.44366 216.8322] CT
N
f-891180347
f
GR
GS
[1 0 0 1 243.12567 246.25609] CT
N
f-891180347
f
GR
GS
[1 0 0 1 286.05856 206.83714] CT
N
f-891180347
f
GR
GS
[1 0 0 1 194.39134 303.40381] CT
N
f-891180347
f
GR
GS
[1 0 0 1 230.54492 264.48547] CT
N
f-891180347
f
GR
GS
[1 0 0 1 279.00217 193.40234] CT
N
f-891180347
f
GR
GS
[1 0 0 1 196.79352 302.82211] CT
N
f-891180347
f
GR
GS
[1 0 0 1 221.83502 268.96005] CT
N
f-891180347
f
GR
GS
[1 0 0 1 294.70175 206.5829] CT
N
f-891180347
f
GR
GS
[1 0 0 1 204.2265 285.62527] CT
N
f-891180347
f
GR
GS
[1 0 0 1 234.92412 261.40689] CT
N
f-891180347
f
GR
GS
[1 0 0 1 261.43576 228.54193] CT
N
f-891180347
f
GR
GS
[1 0 0 1 261.93076 247.16075] CT
N
f-891180347
f
GR
GS
[1 0 0 1 201.15872 277.92056] CT
N
f-891180347
f
GR
GS
[1 0 0 1 284.77924 223.26019] CT
N
f-891180347
f
GR
GS
[1 0 0 1 235.18689 242.31294] CT
N
f-891180347
f
GR
GS
[1 0 0 1 276.45355 225.76572] CT
N
f-891180347
f
GR
GS
[1 0 0 1 279.60559 207.96411] CT
N
f-891180347
f
GR
GS
[1 0 0 1 246.86906 269.15842] CT
N
f-891180347
f
GR
GS
[1 0 0 1 196.18977 280.32791] CT
N
f-891180347
f
GR
GS
[1 0 0 1 235.95692 231.17526] CT
N
f-891180347
f
GR
GS
[1 0 0 1 230.44975 300.18823] CT
N
f-891180347
f
GR
GS
[1 0 0 1 280.25375 170.62946] CT
N
f-891180347
f
GR
GS
[1 0 0 1 256.24432 264.90271] CT
N
f-891180347
f
GR
GS
[1 0 0 1 175.16789 311.0798] CT
N
f-891180347
f
GR
GS
[1 0 0 1 316.09149 207.09361] CT
N
f-891180347
f
GR
GS
[1 0 0 1 313.06552 164.89798] CT
N
f-891180347
f
GR
GS
[1 0 0 1 281.62717 221.1412] CT
N
f-891180347
f
GR
GS
[1 0 0 1 157.92014 320.73837] CT
N
f-891180347
f
GR
GS
[1 0 0 1 323.07083 172.54361] CT
N
f-891180347
f
GR
GS
[1 0 0 1 248.32687 236.47749] CT
N
f-891180347
f
GR
GS
[1 0 0 1 224.54793 288.46564] CT
N
f-891180347
f
GR
GS
[1 0 0 1 239.63507 250.01079] CT
N
f-891180347
f
GR
GS
[1 0 0 1 258.68466 245.68033] CT
N
f-891180347
f
GR
GS
[1 0 0 1 235.27409 247.54219] CT
N
f-891180347
f
GR
GS
[1 0 0 1 418.71982 90.43002] CT
N
f-891180347
f
GR
GS
[1 0 0 1 195.31851 287.57996] CT
N
f-891180347
f
GR
GS
[1 0 0 1 340.01309 138.72652] CT
N
f-891180347
f
GR
GS
[1 0 0 1 255.90259 284.27319] CT
N
f-891180347
f
GR
GS
[1 0 0 1 223.16205 287.85208] CT
N
f-891180347
f
GR
GS
[1 0 0 1 248.54054 236.19252] CT
N
f-891180347
f
GR
GS
[1 0 0 1 295.53351 201.32498] CT
N
f-891180347
f
GR
GS
[1 0 0 1 210.74438 274.9151] CT
N
f-891180347
f
GR
GS
[1 0 0 1 301.43735 202.50778] CT
N
f-891180347
f
GR
GS
[1 0 0 1 223.51227 261.76392] CT
N
f-891180347
f
GR
GS
[1 0 0 1 280.36859 216.91193] CT
N
f-891180347
f
GR
GS
[1 0 0 1 288.03067 192.91327] CT
N
f-891180347
f
GR
GS
[1 0 0 1 348.89346 165.52798] CT
N
f-891180347
f
GR
GS
[1 0 0 1 306.31256 183.00256] CT
N
f-891180347
f
GR
GS
[1 0 0 1 285.43991 218.02715] CT
N
f-891180347
f
GR
GS
[1 0 0 1 223.25757 258.20544] CT
N
f-891180347
f
GR
GS
[1 0 0 1 333.83395 147.45303] CT
N
f-891180347
f
GR
GS
[1 0 0 1 300.81906 203.87158] CT
N
f-891180347
f
GR
GS
[1 0 0 1 180.34198 301.92853] CT
N
f-891180347
f
GR
GS
[1 0 0 1 327.81332 157.5013] CT
N
f-891180347
f
GR
GS
[1 0 0 1 194.66873 296.8772] CT
N
f-891180347
f
GR
GS
[1 0 0 1 218.26756 280.17947] CT
N
f-891180347
f
GR
GS
[1 0 0 1 286.59952 189.39351] CT
N
f-891180347
f
GR
GS
[1 0 0 1 162.43794 326.08478] CT
N
f-891180347
f
GR
GS
[1 0 0 1 238.82361 292.38342] CT
N
f-891180347
f
GR
GS
[1 0 0 1 166.84776 325.19247] CT
N
f-891180347
f
GR
GS
[1 0 0 1 176.21532 311.24036] CT
N
f-891180347
f
GR
GS
[1 0 0 1 262.2059 203.37587] CT
N
f-891180347
f
GR
GS
[1 0 0 1 246.03696 259.79846] CT
N
f-891180347
f
GR
GS
[1 0 0 1 170.84407 300.08945] CT
N
f-891180347
f
GR
GS
[1 0 0 1 266.99664 223.91472] CT
N
f-891180347
f
GR
GS
[1 0 0 1 207.88405 273.2034] CT
N
f-891180347
f
GR
GS
[1 0 0 1 267.09412 237.493] CT
N
f-891180347
f
GR
GS
[1 0 0 1 179.77026 288.97729] CT
N
f-891180347
f
GR
GS
[1 0 0 1 260.63571 264.00674] CT
N
f-891180347
f
GR
GS
[1 0 0 1 207.35925 288.88837] CT
N
f-891180347
f
GR
GS
[1 0 0 1 341.98941 169.02672] CT
N
f-891180347
f
GR
GS
[1 0 0 1 209.74312 272.48117] CT
N
f-891180347
f
GR
GS
[1 0 0 1 276.73648 226.21916] CT
N
f-891180347
f
GR
GS
[1 0 0 1 273.38107 225.09505] CT
N
f-891180347
f
GR
GS
[1 0 0 1 177.04408 313.94763] CT
N
f-891180347
f
GR
GS
[1 0 0 1 219.07898 268.70703] CT
N
f-891180347
f
GR
GS
[1 0 0 1 240.31294 252.51523] CT
N
f-891180347
f
GR
GS
[1 0 0 1 234.44733 261.47592] CT
N
f-891180347
f
GR
GS
[1 0 0 1 251.44205 269.46222] CT
N
f-891180347
f
GR
GS
[1 0 0 1 246.78949 247.88831] CT
N
f-891180347
f
GR
GS
[1 0 0 1 321.84933 217.76422] CT
N
f-891180347
f
GR
GS
[1 0 0 1 273.71387 221.74001] CT
N
f-891180347
f
GR
GS
[1 0 0 1 306.71411 196.83295] CT
N
f-891180347
f
GR
GS
[1 0 0 1 260.17517 226.23119] CT
N
f-891180347
f
GR
GS
[1 0 0 1 389.09009 122.63616] CT
N
f-891180347
f
GR
GS
[1 0 0 1 331.59827 148.70284] CT
N
f-891180347
f
GR
GS
[1 0 0 1 288.44357 212.39844] CT
N
f-891180347
f
GR
GS
[1 0 0 1 232.65488 268.48065] CT
N
f-891180347
f
GR
GS
[1 0 0 1 267.79797 237.94785] CT
N
f-891180347
f
GR
GS
[1 0 0 1 360.25003 117.09114] CT
N
f-891180347
f
GR
GS
[1 0 0 1 302.58188 214.47372] CT
N
f-891180347
f
GR
GS
[1 0 0 1 287.77048 232.50949] CT
N
f-891180347
f
GR
GS
[1 0 0 1 254.93529 211.86569] CT
N
f-891180347
f
GR
GS
[1 0 0 1 261.64578 240.05199] CT
N
f-891180347
f
GR
GS
[1 0 0 1 151.02696 333.27203] CT
N
f-891180347
f
GR
GS
[1 0 0 1 271.40384 237.87303] CT
N
f-891180347
f
GR
GS
[1 0 0 1 247.91708 286.23227] CT
N
f-891180347
f
GR
GS
[1 0 0 1 193.9222 295.17453] CT
N
f-891180347
f
GR
GS
[1 0 0 1 190.85109 280.45929] CT
N
f-891180347
f
GR
GS
[1 0 0 1 198.6597 301.8465] CT
N
f-891180347
f
GR
GS
[1 0 0 1 196.21741 275.99228] CT
N
f-891180347
f
GR
GS
[1 0 0 1 314.62848 168.05649] CT
N
f-891180347
f
GR
GS
[1 0 0 1 225.82816 262.69595] CT
N
f-891180347
f
GR
GS
[1 0 0 1 276.01068 266.62122] CT
N
f-891180347
f
GR
GS
[1 0 0 1 325.88397 153.40498] CT
N
f-891180347
f
GR
GS
[1 0 0 1 183.02008 314.88889] CT
N
f-891180347
f
GR
GS
[1 0 0 1 184.1591 285.51288] CT
N
f-891180347
f
GR
GS
[1 0 0 1 239.55399 268.45874] CT
N
f-891180347
f
GR
GS
[1 0 0 1 184.21036 312.15936] CT
N
f-891180347
f
GR
GS
[1 0 0 1 192.17755 295.07932] CT
N
f-891180347
f
GR
GS
[1 0 0 1 237.12453 244.98592] CT
N
f-891180347
f
GR
GS
[1 0 0 1 273.99948 231.90512] CT
N
f-891180347
f
GR
GS
[1 0 0 1 234.16039 240.89702] CT
N
f-891180347
f
GR
GS
[1 0 0 1 302.65414 199.03336] CT
N
f-891180347
f
GR
GS
[1 0 0 1 209.38766 266.48523] CT
N
f-891180347
f
GR
GS
[1 0 0 1 351.11057 161.82246] CT
N
f-891180347
f
GR
GS
[1 0 0 1 267.69205 208.61159] CT
N
f-891180347
f
GR
GS
[1 0 0 1 314.95679 192.82199] CT
N
f-891180347
f
GR
GS
[1 0 0 1 223.99072 259.78662] CT
N
f-891180347
f
GR
GS
[1 0 0 1 415.06909 117.84243] CT
N
f-891180347
f
GR
GS
[1 0 0 1 156.24692 321.07648] CT
N
f-891180347
f
GR
GS
[1 0 0 1 289.04074 256.08615] CT
N
f-891180347
f
GR
GS
[1 0 0 1 230.52615 280.18213] CT
N
f-891180347
f
GR
GS
[1 0 0 1 194.50052 307.77414] CT
N
f-891180347
f
GR
GS
[1 0 0 1 179.97522 310.08887] CT
N
f-891180347
f
GR
GS
[1 0 0 1 244.06433 271.86658] CT
N
f-891180347
f
GR
GS
[1 0 0 1 270.353 213.05203] CT
N
f-891180347
f
GR
GS
[1 0 0 1 231.24197 269.60928] CT
N
f-891180347
f
GR
GS
[1 0 0 1 200.70335 315.04428] CT
N
f-891180347
f
GR
GS
[1 0 0 1 175.83717 314.39197] CT
N
f-891180347
f
GR
GS
[1 0 0 1 251.13104 236.84445] CT
N
f-891180347
f
GR
GS
[1 0 0 1 224.85327 253.45355] CT
N
f-891180347
f
GR
GS
[1 0 0 1 195.99255 297.63937] CT
N
f-891180347
f
GR
GS
[1 0 0 1 324.22867 179.31657] CT
N
f-891180347
f
GR
GS
[1 0 0 1 316.51346 206.9516] CT
N
f-891180347
f
GR
GS
[1 0 0 1 296.98663 192.34302] CT
N
f-891180347
f
GR
GS
[1 0 0 1 392.21396 114.25841] CT
N
f-891180347
f
GR
GS
[1 0 0 1 280.48685 219.55984] CT
N
f-891180347
f
GR
GS
[1 0 0 1 305.69507 171.01923] CT
N
f-891180347
f
GR
GS
[1 0 0 1 357.98746 138.19936] CT
N
f-891180347
f
GR
GS
[1 0 0 1 200.59737 272.87677] CT
N
f-891180347
f
GR
GS
[1 0 0 1 256.14639 257.93362] CT
N
f-891180347
f
GR
GS
[1 0 0 1 198.48869 289.90106] CT
N
f-891180347
f
GR
GS
[1 0 0 1 239.53026 259.70505] CT
N
f-891180347
f
GR
GS
[1 0 0 1 268.99704 221.00047] CT
N
f-891180347
f
GR
GS
[1 0 0 1 333.14584 170.62656] CT
N
f-891180347
f
GR
GS
[1 0 0 1 299.42795 180.41821] CT
N
f-891180347
f
GR
GS
[1 0 0 1 286.56335 219.657] CT
N
f-891180347
f
GR
GS
[1 0 0 1 252.86533 224.61009] CT
N
f-891180347
f
GR
GS
[1 0 0 1 207.7962 288.16257] CT
N
f-891180347
f
GR
GS
[1 0 0 1 361.57129 158.41272] CT
N
f-891180347
f
GR
GS
[1 0 0 1 239.42078 280.16837] CT
N
f-891180347
f
GR
GS
[1 0 0 1 262.69086 283.54291] CT
N
f-891180347
f
GR
GS
[1 0 0 1 219.17491 261.19925] CT
N
f-891180347
f
GR
GS
[1 0 0 1 249.63017 258.3566] CT
N
f-891180347
f
GR
GS
[1 0 0 1 181.22214 298.54028] CT
N
f-891180347
f
GR
GS
[1 0 0 1 280.2468 237.53397] CT
N
f-891180347
f
GR
GS
[1 0 0 1 381.13586 130.11592] CT
N
f-891180347
f
GR
GS
[1 0 0 1 279.99277 218.59462] CT
N
f-891180347
f
GR
GS
[1 0 0 1 235.47075 257.97778] CT
N
f-891180347
f
GR
GS
[1 0 0 1 189.81082 300.9213] CT
N
f-891180347
f
GR
GS
[1 0 0 1 186.43568 315.77313] CT
N
f-891180347
f
GR
GS
[1 0 0 1 329.82553 162.65947] CT
N
f-891180347
f
GR
GS
[1 0 0 1 253.62776 250.43625] CT
N
f-891180347
f
GR
GS
[1 0 0 1 156.11339 324.87183] CT
N
f-891180347
f
GR
GS
[1 0 0 1 184.00578 305.64462] CT
N
f-891180347
f
GR
GS
[1 0 0 1 306.44363 201.87158] CT
N
f-891180347
f
GR
GS
[1 0 0 1 231.4955 296.27289] CT
N
f-891180347
f
GR
GS
[1 0 0 1 218.89156 280.78137] CT
N
f-891180347
f
GR
GS
[1 0 0 1 241.89549 238.62358] CT
N
f-891180347
f
GR
GS
[1 0 0 1 251.58211 244.65248] CT
N
f-891180347
f
GR
GS
[1 0 0 1 273.52982 230.74104] CT
N
f-891180347
f
GR
GS
[1 0 0 1 225.30064 250.74556] CT
N
f-891180347
f
GR
GS
[1 0 0 1 346.59756 177.19725] CT
N
f-891180347
f
GR
GS
[1 0 0 1 261.49423 209.49117] CT
N
f-891180347
f
GR
GS
[1 0 0 1 251.44751 256.01764] CT
N
f-891180347
f
GR
GS
[1 0 0 1 256.96402 227.08043] CT
N
f-891180347
f
GR
GS
[1 0 0 1 247.55804 261.40964] CT
N
f-891180347
f
GR
GS
[1 0 0 1 209.28619 284.18399] CT
N
f-891180347
f
GR
GS
[1 0 0 1 278.25122 223.31693] CT
N
f-891180347
f
GR
GS
[1 0 0 1 299.23648 177.47014] CT
N
f-891180347
f
GR
GS
[1 0 0 1 362.91077 136.19131] CT
N
f-891180347
f
GR
GS
[1 0 0 1 246.444 227.22369] CT
N
f-891180347
f
GR
GS
[1 0 0 1 210.78186 288.32721] CT
N
f-891180347
f
GR
GS
[1 0 0 1 289.97061 211.77345] CT
N
f-891180347
f
GR
GS
[1 0 0 1 310.87628 162.12201] CT
N
f-891180347
f
GR
GS
[1 0 0 1 275.29343 230.18089] CT
N
f-891180347
f
GR
GS
[1 0 0 1 157.21111 324.3172] CT
N
f-891180347
f
GR
GS
[1 0 0 1 248.96732 214.30307] CT
N
f-891180347
f
GR
GS
[1 0 0 1 297.28668 209.17705] CT
N
f-891180347
f
GR
GS
[1 0 0 1 185.65672 306.26709] CT
N
f-891180347
f
GR
GS
[1 0 0 1 315.09518 184.19556] CT
N
f-891180347
f
GR
GS
[1 0 0 1 267.99872 274.46747] CT
N
f-891180347
f
GR
GS
[1 0 0 1 160.89301 330.20892] CT
N
f-891180347
f
GR
GS
[1 0 0 1 237.1024 247.74448] CT
N
f-891180347
f
GR
GS
[1 0 0 1 246.19073 265.34512] CT
N
f-891180347
f
GR
GS
[1 0 0 1 246.94829 263.08087] CT
N
f-891180347
f
GR
GS
[1 0 0 1 191.62363 287.53812] CT
N
f-891180347
f
GR
GS
[1 0 0 1 280.58246 225.23633] CT
N
f-891180347
f
GR
GS
[1 0 0 1 228.94954 259.34015] CT
N
f-891180347
f
GR
GS
[1 0 0 1 361.43546 151.45992] CT
N
f-891180347
f
GR
GS
[1 0 0 1 239.34164 262.15833] CT
N
f-891180347
f
GR
GS
[1 0 0 1 295.78186 273.70071] CT
N
f-891180347
f
GR
GS
[1 0 0 1 352.14871 183.2112] CT
N
f-891180347
f
GR
GS
[1 0 0 1 219.06354 309.6907] CT
N
f-891180347
f
GR
GS
[1 0 0 1 233.56517 271.29819] CT
N
f-891180347
f
GR
GS
[1 0 0 1 203.63771 272.44003] CT
N
f-891180347
f
GR
GS
[1 0 0 1 261.15857 251.75343] CT
N
f-891180347
f
GR
GS
[1 0 0 1 141.31432 339.4769] CT
N
f-891180347
f
GR
GS
[1 0 0 1 176.00833 307.24802] CT
N
f-891180347
f
GR
GS
[1 0 0 1 329.00681 150.68153] CT
N
f-891180347
f
GR
GS
[1 0 0 1 319.18082 168.47971] CT
N
f-891180347
f
GR
GS
[1 0 0 1 261.60156 251.98882] CT
N
f-891180347
f
GR
GS
[1 0 0 1 248.77118 248.98311] CT
N
f-891180347
f
GR
GS
[1 0 0 1 249.48456 224.30278] CT
N
f-891180347
f
GR
GS
[1 0 0 1 317.88889 201.16922] CT
N
f-891180347
f
GR
GS
[1 0 0 1 221.55617 256.09625] CT
N
f-891180347
f
GR
GS
[1 0 0 1 348.61859 157.53427] CT
N
f-891180347
f
GR
GS
[1 0 0 1 206.00546 273.64352] CT
N
f-891180347
f
GR
GS
[1 0 0 1 239.45331 272.91635] CT
N
f-891180347
f
GR
GS
[1 0 0 1 207.76961 272.31076] CT
N
f-891180347
f
GR
GS
[1 0 0 1 189.87483 301.21194] CT
N
f-891180347
f
GR
GS
[1 0 0 1 152.70866 334.79865] CT
N
f-891180347
f
GR
GS
[1 0 0 1 174.7989 317.93585] CT
N
f-891180347
f
GR
GS
[1 0 0 1 231.72864 253.0824] CT
N
f-891180347
f
GR
GS
[1 0 0 1 322.34579 219.29181] CT
N
f-891180347
f
GR
GS
[1 0 0 1 347.66119 156.85899] CT
N
f-891180347
f
GR
GS
[1 0 0 1 234.05298 239.82384] CT
N
f-891180347
f
GR
GS
[1 0 0 1 230.07916 268.55713] CT
N
f-891180347
f
GR
GS
[1 0 0 1 236.88893 280.80838] CT
N
f-891180347
f
GR
GS
[1 0 0 1 158.58261 334.78635] CT
N
f-891180347
f
GR
GS
[1 0 0 1 202.72191 280.6315] CT
N
f-891180347
f
GR
GS
[1 0 0 1 315.36707 200.91251] CT
N
f-891180347
f
GR
GS
[1 0 0 1 286.31879 188.78279] CT
N
f-891180347
f
GR
GS
[1 0 0 1 316.14667 185.96532] CT
N
f-891180347
f
GR
GS
[1 0 0 1 288.72501 188.89116] CT
N
f-891180347
f
GR
GS
[1 0 0 1 296.80515 226.21535] CT
N
f-891180347
f
GR
GS
[1 0 0 1 307.9563 201.9584] CT
N
f-891180347
f
GR
GS
[1 0 0 1 224.99561 296.39203] CT
N
f-891180347
f
GR
GS
[1 0 0 1 205.40536 297.95911] CT
N
f-891180347
f
GR
GS
[1 0 0 1 291.38461 214.2005] CT
N
f-891180347
f
GR
GS
[1 0 0 1 255.64394 288.09073] CT
N
f-891180347
f
GR
GS
[1 0 0 1 193.96028 305.47186] CT
N
f-891180347
f
GR
GS
[1 0 0 1 240.44991 249.60315] CT
N
f-891180347
f
GR
GS
[1 0 0 1 290.34091 199.62299] CT
N
f-891180347
f
GR
GS
[1 0 0 1 270.57343 231.75494] CT
N
f-891180347
f
GR
GS
[1 0 0 1 183.08537 303.22931] CT
N
f-891180347
f
GR
GS
[1 0 0 1 270.07654 202.70163] CT
N
f-891180347
f
GR
GS
[1 0 0 1 248.84409 295.04855] CT
N
f-891180347
f
GR
GS
[1 0 0 1 293.47028 222.97423] CT
N
f-891180347
f
GR
GS
[1 0 0 1 251.03026 251.59315] CT
N
f-891180347
f
GR
GS
[1 0 0 1 308.83105 161.35402] CT
N
f-891180347
f
GR
GS
[1 0 0 1 306.89896 189.16568] CT
N
f-891180347
f
GR
GS
[1 0 0 1 236.30318 265.31409] CT
N
f-891180347
f
GR
GS
[1 0 0 1 334.884 178.71992] CT
N
f-891180347
f
GR
GS
[1 0 0 1 271.96237 275.12415] CT
N
f-891180347
f
GR
GS
[1 0 0 1 257.14914 242.75356] CT
N
f-891180347
f
GR
GS
[1 0 0 1 236.32735 237.46523] CT
N
f-891180347
f
GR
GS
[1 0 0 1 321.56766 180.65111] CT
N
f-891180347
f
GR
GS
[1 0 0 1 222.87926 252.55469] CT
N
f-891180347
f
GR
GS
[1 0 0 1 244.97594 270.50726] CT
N
f-891180347
f
GR
GS
[1 0 0 1 235.17747 258.6416] CT
N
f-891180347
f
GR
GS
[1 0 0 1 255.22923 271.04465] CT
N
f-891180347
f
GR
GS
[1 0 0 1 266.39658 215.56285] CT
N
f-891180347
f
GR
GS
[1 0 0 1 255.10748 248.34407] CT
N
f-891180347
f
GR
GS
[1 0 0 1 192.79668 286.93262] CT
N
f-891180347
f
GR
GS
[1 0 0 1 339.24271 187.99648] CT
N
f-891180347
f
GR
GS
[1 0 0 1 227.4725 283.87744] CT
N
f-891180347
f
GR
GS
[1 0 0 1 192.77585 310.29327] CT
N
f-891180347
f
GR
GS
[1 0 0 1 196.95436 283.96188] CT
N
f-891180347
f
GR
GS
[1 0 0 1 209.1707 292.52338] CT
N
f-891180347
f
GR
GS
[1 0 0 1 204.19513 280.54449] CT
N
f-891180347
f
GR
GS
[1 0 0 1 281.0701 207.67314] CT
N
f-891180347
f
GR
GS
[1 0 0 1 313.61862 191.85416] CT
N
f-891180347
f
GR
GS
[1 0 0 1 302.88412 182.06477] CT
N
f-891180347
f
GR
GS
[1 0 0 1 271.47134 229.30917] CT
N
f-891180347
f
GR
GS
[1 0 0 1 203.13678 296.9046] CT
N
f-891180347
f
GR
GS
[1 0 0 1 402.41544 108.9866] CT
N
f-891180347
f
GR
GS
[1 0 0 1 335.25012 150.19182] CT
N
f-891180347
f
GR
GS
[1 0 0 1 322.4606 180.57515] CT
N
f-891180347
f
GR
GS
[1 0 0 1 197.49274 282.10077] CT
N
f-891180347
f
GR
GS
[1 0 0 1 224.90462 283.11096] CT
N
f-891180347
f
GR
GS
[1 0 0 1 185.45509 308.91614] CT
N
f-891180347
f
GR
GS
[1 0 0 1 182.02519 309.14243] CT
N
f-891180347
f
GR
GS
[1 0 0 1 309.07318 193.86418] CT
N
f-891180347
f
GR
GS
[1 0 0 1 260.89203 228.09576] CT
N
f-891180347
f
GR
GS
[1 0 0 1 263.74911 237.06024] CT
N
f-891180347
f
GR
GS
[1 0 0 1 197.49022 283.43011] CT
N
f-891180347
f
GR
GS
[1 0 0 1 171.00999 323.83392] CT
N
f-891180347
f
GR
GS
[1 0 0 1 270.44452 213.09842] CT
N
f-891180347
f
GR
GS
[1 0 0 1 315.02469 217.55655] CT
N
f-891180347
f
GR
GS
[1 0 0 1 170.46318 303.70941] CT
N
f-891180347
f
GR
GS
[1 0 0 1 311.81943 183.6727] CT
N
f-891180347
f
GR
GS
[1 0 0 1 261.00577 234.62027] CT
N
f-891180347
f
GR
GS
[1 0 0 1 326.66153 176.85344] CT
N
f-891180347
f
GR
GS
[1 0 0 1 201.17477 284.27722] CT
N
f-891180347
f
GR
GS
[1 0 0 1 416.31409 91.58087] CT
N
f-891180347
f
GR
GS
[1 0 0 1 274.79129 205.38499] CT
N
f-891180347
f
GR
GS
[1 0 0 1 208.91295 292.42801] CT
N
f-891180347
f
GR
GS
[1 0 0 1 229.13326 240.42146] CT
N
f-891180347
f
GR
GS
[1 0 0 1 261.23294 280.91238] CT
N
f-891180347
f
GR
GS
[1 0 0 1 232.4008 271.75009] CT
N
f-891180347
f
GR
GS
[1 0 0 1 236.28081 255.65601] CT
N
f-891180347
f
GR
GS
[1 0 0 1 277.75211 253.3304] CT
N
f-891180347
f
GR
GS
[1 0 0 1 222.46184 253.77638] CT
N
f-891180347
f
GR
GS
[1 0 0 1 379.74646 123.16049] CT
N
f-891180347
f
GR
GS
[1 0 0 1 283.49863 199.38348] CT
N
f-891180347
f
GR
GS
[1 0 0 1 262.75906 232.86673] CT
N
f-891180347
f
GR
GS
[1 0 0 1 252.50946 237.05324] CT
N
f-891180347
f
GR
GS
[1 0 0 1 281.33994 221.35832] CT
N
f-891180347
f
GR
GS
[1 0 0 1 198.8728 290.81015] CT
N
f-891180347
f
GR
GS
[1 0 0 1 199.87608 300.87238] CT
N
f-891180347
f
GR
GS
[1 0 0 1 273.8252 219.71187] CT
N
f-891180347
f
GR
GS
[1 0 0 1 241.93509 215.36446] CT
N
f-891180347
f
GR
GS
[1 0 0 1 190.23059 304.68195] CT
N
f-891180347
f
GR
GS
[1 0 0 1 171.94214 313.32092] CT
N
f-891180347
f
GR
GS
[1 0 0 1 192.90927 306.57736] CT
N
f-891180347
f
GR
GS
[1 0 0 1 307.96799 154.54459] CT
N
f-891180347
f
GR
GS
[1 0 0 1 291.72296 208.73488] CT
N
f-891180347
f
GR
GS
[1 0 0 1 157.26686 324.95346] CT
N
f-891180347
f
GR
GS
[1 0 0 1 162.85147 320.77844] CT
N
f-891180347
f
GR
GS
[1 0 0 1 260.94443 237.81078] CT
N
f-891180347
f
GR
GS
[1 0 0 1 294.31744 180.29575] CT
N
f-891180347
f
GR
GS
[1 0 0 1 183.56079 284.50378] CT
N
f-891180347
f
GR
GS
[1 0 0 1 214.95203 292.04251] CT
N
f-891180347
f
GR
GS
[1 0 0 1 165.36888 318.57813] CT
N
f-891180347
f
GR
GS
[1 0 0 1 194.93062 307.2215] CT
N
f-891180347
f
GR
GS
[1 0 0 1 214.94534 285.28775] CT
N
f-891180347
f
GR
GS
[1 0 0 1 210.40471 260.21649] CT
N
f-891180347
f
GR
GS
[1 0 0 1 307.79651 188.08946] CT
N
f-891180347
f
GR
GS
[1 0 0 1 230.42509 286.92496] CT
N
f-891180347
f
GR
GS
[1 0 0 1 232.84135 266.34335] CT
N
f-891180347
f
GR
GS
[1 0 0 1 345.61911 135.81619] CT
N
f-891180347
f
GR
GS
[1 0 0 1 339.29926 152.41573] CT
N
f-891180347
f
GR
GS
[1 0 0 1 186.79575 307.59018] CT
N
f-891180347
f
GR
GS
[1 0 0 1 271.17355 193.56691] CT
N
f-891180347
f
GR
GS
[1 0 0 1 347.76959 160.52562] CT
N
f-891180347
f
GR
GS
[1 0 0 1 278.79678 192.14363] CT
N
f-891180347
f
GR
GS
[1 0 0 1 251.43787 266.24319] CT
N
f-891180347
f
GR
GS
[1 0 0 1 183.2442 299.32303] CT
N
f-891180347
f
GR
GS
[1 0 0 1 224.08356 240.27039] CT
N
f-891180347
f
GR
GS
[1 0 0 1 309.05716 191.4295] CT
N
f-891180347
f
GR
GS
[1 0 0 1 204.74303 274.40012] CT
N
f-891180347
f
GR
GS
[1 0 0 1 158.71689 324.06653] CT
N
f-891180347
f
GR
GS
[1 0 0 1 178.7038 320.98828] CT
N
f-891180347
f
GR
GS
[1 0 0 1 217.65543 288.03833] CT
N
f-891180347
f
GR
GS
[1 0 0 1 219.54964 253.06339] CT
N
f-891180347
f
GR
GS
[1 0 0 1 334.20508 169.81068] CT
N
f-891180347
f
GR
GS
[1 0 0 1 235.88467 249.02853] CT
N
f-891180347
f
GR
GS
[1 0 0 1 316.00598 193.62192] CT
N
f-891180347
f
GR
GS
[1 0 0 1 244.08392 229.229] CT
N
f-891180347
f
GR
GS
[1 0 0 1 212.78616 258.70432] CT
N
f-891180347
f
GR
GS
[1 0 0 1 181.91257 316.57303] CT
N
f-891180347
f
GR
GS
[1 0 0 1 177.92807 318.94266] CT
N
f-891180347
f
GR
GS
[1 0 0 1 195.16135 306.19601] CT
N
f-891180347
f
GR
GS
[1 0 0 1 232.62022 268.69647] CT
N
f-891180347
f
GR
GS
[1 0 0 1 291.6658 186.61137] CT
N
f-891180347
f
GR
GS
[1 0 0 1 272.69009 227.0817] CT
N
f-891180347
f
GR
GS
[1 0 0 1 183.52345 300.06686] CT
N
f-891180347
f
GR
GS
[1 0 0 1 294.63889 211.07355] CT
N
f-891180347
f
GR
GS
[1 0 0 1 196.75717 291.88235] CT
N
f-891180347
f
GR
GS
[1 0 0 1 256.54767 263.95627] CT
N
f-891180347
f
GR
GS
[1 0 0 1 292.3938 193.07057] CT
N
f-891180347
f
GR
GS
[1 0 0 1 273.43234 227.65012] CT
N
f-891180347
f
GR
GS
[1 0 0 1 218.96213 266.43204] CT
N
f-891180347
f
GR
GS
[1 0 0 1 196.21895 303.41992] CT
N
f-891180347
f
GR
GS
[1 0 0 1 162.20772 311.66473] CT
N
f-891180347
f
GR
GS
[1 0 0 1 354.16428 147.27806] CT
N
f-891180347
f
GR
GS
[1 0 0 1 233.45064 264.52454] CT
N
f-891180347
f
GR
GS
[1 0 0 1 285.65024 214.63786] CT
N
f-891180347
f
GR
GS
[1 0 0 1 214.30507 305.02795] CT
N
f-891180347
f
GR
GS
[1 0 0 1 181.6172 314.32736] CT
N
f-891180347
f
GR
GS
[1 0 0 1 288.80026 222.26196] CT
N
f-891180347
f
GR
GS
[1 0 0 1 231.80748 298.5368] CT
N
f-891180347
f
GR
GS
[1 0 0 1 269.8725 222.69379] CT
N
f-891180347
f
GR
GS
[1 0 0 1 224.87386 307.19476] CT
N
f-891180347
f
GR
GS
[1 0 0 1 231.20996 257.02371] CT
N
f-891180347
f
GR
GS
[1 0 0 1 354.0741 166.04671] CT
N
f-891180347
f
GR
GS
[1 0 0 1 261.26376 232.75388] CT
N
f-891180347
f
GR
GS
[1 0 0 1 172.79883 317.1001] CT
N
f-891180347
f
GR
GS
[1 0 0 1 258.72296 257.59167] CT
N
f-891180347
f
GR
GS
[1 0 0 1 246.57324 255.18492] CT
N
f-891180347
f
GR
GS
[1 0 0 1 218.92735 252.29883] CT
N
f-891180347
f
GR
GS
[1 0 0 1 215.28534 269.31473] CT
N
f-891180347
f
GR
GS
[1 0 0 1 218.30824 280.83511] CT
N
f-891180347
f
GR
GS
[1 0 0 1 247.84567 251.0184] CT
N
f-891180347
f
GR
GS
[1 0 0 1 251.47328 234.85378] CT
N
f-891180347
f
GR
GS
[1 0 0 1 300.1001 234.78519] CT
N
f-891180347
f
GR
GS
[1 0 0 1 273.53027 213.19783] CT
N
f-891180347
f
GR
GS
[1 0 0 1 357.36594 191.507] CT
N
f-891180347
f
GR
GS
[1 0 0 1 262.85516 241.76022] CT
N
f-891180347
f
GR
GS
[1 0 0 1 265.39349 261.13214] CT
N
f-891180347
f
GR
GS
[1 0 0 1 190.86082 303.29703] CT
N
f-891180347
f
GR
GS
[1 0 0 1 220.59383 267.26468] CT
N
f-891180347
f
GR
GS
[1 0 0 1 194.92284 321.21173] CT
N
f-891180347
f
GR
GS
[1 0 0 1 313.48724 168.84866] CT
N
f-891180347
f
GR
GS
[1 0 0 1 258.67511 239.87303] CT
N
f-891180347
f
GR
GS
[1 0 0 1 198.70119 275.21619] CT
N
f-891180347
f
GR
GS
[1 0 0 1 268.517 231.99484] CT
N
f-891180347
f
GR
GS
[1 0 0 1 272.66153 227.11797] CT
N
f-891180347
f
GR
GS
[1 0 0 1 246.25845 220.48088] CT
N
f-891180347
f
GR
GS
[1 0 0 1 237.20557 282.20062] CT
N
f-891180347
f
GR
GS
[1 0 0 1 176.77965 312.72131] CT
N
f-891180347
f
GR
GS
[1 0 0 1 178.82043 316.58664] CT
N
f-891180347
f
GR
GS
[1 0 0 1 212.97141 285.40454] CT
N
f-891180347
f
GR
GS
[1 0 0 1 279.55252 208.62965] CT
N
f-891180347
f
GR
GS
[1 0 0 1 276.96237 236.1759] CT
N
f-891180347
f
GR
GS
[1 0 0 1 305.16281 207.54445] CT
N
f-891180347
f
GR
GS
[1 0 0 1 281.69366 227.09546] CT
N
f-891180347
f
GR
GS
[1 0 0 1 358.10803 120.19786] CT
N
f-891180347
f
GR
GS
[1 0 0 1 299.17139 220.04956] CT
N
f-891180347
f
GR
GS
[1 0 0 1 192.07159 287.76877] CT
N
f-891180347
f
GR
GS
[1 0 0 1 216.81175 301.32669] CT
N
f-891180347
f
GR
GS
[1 0 0 1 212.99869 273.98398] CT
N
f-891180347
f
GR
GS
[1 0 0 1 266.1915 234.15996] CT
N
f-891180347
f
GR
GS
[1 0 0 1 184.54901 297.34399] CT
N
f-891180347
f
GR
GS
[1 0 0 1 221.31381 296.02539] CT
N
f-891180347
f
GR
GS
[1 0 0 1 231.56131 257.57996] CT
N
f-891180347
f
GR
GS
[1 0 0 1 227.19725 273.94568] CT
N
f-891180347
f
GR
GS
[1 0 0 1 236.60568 232.55167] CT
N
f-891180347
f
GR
GS
[1 0 0 1 304.30264 219.81659] CT
N
f-891180347
f
GR
GS
[1 0 0 1 293.13666 210.32997] CT
N
f-891180347
f
GR
GS
[1 0 0 1 339.52292 175.56125] CT
N
f-891180347
f
GR
GS
[1 0 0 1 344.99615 178.33417] CT
N
f-891180347
f
GR
GS
[1 0 0 1 256.10059 225.76126] CT
N
f-891180347
f
GR
GS
[1 0 0 1 179.8745 328.72424] CT
N
f-891180347
f
GR
GS
[1 0 0 1 156.29341 323.61459] CT
N
f-891180347
f
GR
GS
[1 0 0 1 299.12689 208.99411] CT
N
f-891180347
f
GR
GS
[1 0 0 1 312.50919 225.05602] CT
N
f-891180347
f
GR
GS
[1 0 0 1 259.41226 249.52893] CT
N
f-891180347
f
GR
GS
[1 0 0 1 221.48112 284.70883] CT
N
f-891180347
f
GR
GS
[1 0 0 1 242.69591 231.89085] CT
N
f-891180347
f
GR
GS
[1 0 0 1 332.92157 171.22218] CT
N
f-891180347
f
GR
GS
[1 0 0 1 208.79422 276.5571] CT
N
f-891180347
f
GR
GS
[1 0 0 1 363.48129 125.10574] CT
N
f-891180347
f
GR
GS
[1 0 0 1 230.84839 265.99414] CT
N
f-891180347
f
GR
GS
[1 0 0 1 250.96913 253.44452] CT
N
f-891180347
f
GR
GS
[1 0 0 1 249.12868 245.7361] CT
N
f-891180347
f
GR
GS
[1 0 0 1 284.39331 199.47415] CT
N
f-891180347
f
GR
GS
[1 0 0 1 251.7581 249.84467] CT
N
f-891180347
f
GR
GS
[1 0 0 1 290.53442 203.16478] CT
N
f-891180347
f
GR
GS
[1 0 0 1 296.47763 246.37831] CT
N
f-891180347
f
GR
GS
[1 0 0 1 184.24152 305.01486] CT
N
f-891180347
f
GR
GS
[1 0 0 1 300.05951 208.01981] CT
N
f-891180347
f
GR
GS
[1 0 0 1 191.45088 291.67337] CT
N
f-891180347
f
GR
GS
[1 0 0 1 184.24727 312.33884] CT
N
f-891180347
f
GR
GS
[1 0 0 1 349.74249 139.38089] CT
N
f-891180347
f
GR
GS
[1 0 0 1 267.7431 244.20531] CT
N
f-891180347
f
GR
GS
[1 0 0 1 249.89638 246.94154] CT
N
f-891180347
f
GR
GS
[1 0 0 1 291.03531 214.7735] CT
N
f-891180347
f
GR
GS
[1 0 0 1 265.22491 240.63705] CT
N
f-891180347
f
GR
GS
[1 0 0 1 262.66852 261.47629] CT
N
f-891180347
f
GR
GS
[1 0 0 1 160.88365 318.18585] CT
N
f-891180347
f
GR
GS
[1 0 0 1 210.31572 304.49612] CT
N
f-891180347
f
GR
GS
[1 0 0 1 176.55566 306.845] CT
N
f-891180347
f
GR
GS
[1 0 0 1 158.38911 313.90359] CT
N
f-891180347
f
GR
GS
[1 0 0 1 241.9975 285.03653] CT
N
f-891180347
f
GR
GS
[1 0 0 1 215.6304 269.80624] CT
N
f-891180347
f
GR
GS
[1 0 0 1 202.47823 277.13654] CT
N
f-891180347
f
GR
GS
[1 0 0 1 246.25677 256.24411] CT
N
f-891180347
f
GR
GS
[1 0 0 1 240.88554 247.63237] CT
N
f-891180347
f
GR
GS
[1 0 0 1 236.69237 262.80945] CT
N
f-891180347
f
GR
GS
[1 0 0 1 296.99597 214.27974] CT
N
f-891180347
f
GR
GS
[1 0 0 1 297.33234 243.95944] CT
N
f-891180347
f
GR
GS
[1 0 0 1 215.53326 257.11945] CT
N
f-891180347
f
GR
GS
[1 0 0 1 248.98698 260.82681] CT
N
f-891180347
f
GR
GS
[1 0 0 1 255.73088 226.29138] CT
N
f-891180347
f
GR
GS
[1 0 0 1 221.67752 280.74069] CT
N
f-891180347
f
GR
GS
[1 0 0 1 215.47771 291.96747] CT
N
f-891180347
f
GR
GS
[1 0 0 1 202.34207 279.05875] CT
N
f-891180347
f
GR
GS
[1 0 0 1 282.75922 233.68274] CT
N
f-891180347
f
GR
GS
[1 0 0 1 252.33141 249.76158] CT
N
f-891180347
f
GR
GS
[1 0 0 1 218.20473 283.09607] CT
N
f-891180347
f
GR
GS
[1 0 0 1 198.34361 268.06732] CT
N
f-891180347
f
GR
GS
[1 0 0 1 181.52438 308.72223] CT
N
f-891180347
f
GR
GS
[1 0 0 1 187.47478 316.62088] CT
N
f-891180347
f
GR
GS
[1 0 0 1 200.01691 303.06543] CT
N
f-891180347
f
GR
GS
[1 0 0 1 374.03677 131.16943] CT
N
f-891180347
f
GR
GS
[1 0 0 1 244.2495 229.59116] CT
N
f-891180347
f
GR
GS
[1 0 0 1 177.75879 309.12271] CT
N
f-891180347
f
GR
GS
[1 0 0 1 182.42511 308.44739] CT
N
f-891180347
f
GR
GS
[1 0 0 1 283.00327 218.14067] CT
N
f-891180347
f
GR
GS
[1 0 0 1 267.68253 206.36571] CT
N
f-891180347
f
GR
GS
[1 0 0 1 290.26526 222.06432] CT
N
f-891180347
f
GR
GS
[1 0 0 1 340.83893 149.78384] CT
N
f-891180347
f
GR
GS
[1 0 0 1 305.42776 201.3134] CT
N
f-891180347
f
GR
GS
[1 0 0 1 225.4928 258.48773] CT
N
f-891180347
f
GR
GS
[1 0 0 1 252.68582 251.526] CT
N
f-891180347
f
GR
GS
[1 0 0 1 221.57799 284.15424] CT
N
f-891180347
f
GR
GS
[1 0 0 1 166.84749 326.96732] CT
N
f-891180347
f
GR
GS
[1 0 0 1 209.38672 264.53781] CT
N
f-891180347
f
GR
GS
[1 0 0 1 416.99976 90.97099] CT
N
f-891180347
f
GR
GS
[1 0 0 1 244.05882 247.50609] CT
N
f-891180347
f
GR
GS
[1 0 0 1 182.68719 313.36996] CT
N
f-891180347
f
GR
GS
[1 0 0 1 233.55916 268.31616] CT
N
f-891180347
f
GR
GS
[1 0 0 1 168.5428 310.6297] CT
N
f-891180347
f
GR
GS
[1 0 0 1 190.34401 315.92047] CT
N
f-891180347
f
GR
GS
[1 0 0 1 182.93651 310.37912] CT
N
f-891180347
f
GR
GS
[1 0 0 1 248.01596 230.27626] CT
N
f-891180347
f
GR
GS
[1 0 0 1 333.77826 162.75677] CT
N
f-891180347
f
GR
GS
[1 0 0 1 228.21066 276.37466] CT
N
f-891180347
f
GR
GS
[1 0 0 1 228.31099 278.39291] CT
N
f-891180347
f
GR
GS
[1 0 0 1 187.39015 304.1337] CT
N
f-891180347
f
GR
GS
[1 0 0 1 265.05753 224.9807] CT
N
f-891180347
f
GR
GS
[1 0 0 1 211.57021 296.80182] CT
N
f-891180347
f
GR
GS
[1 0 0 1 323.10977 156.74071] CT
N
f-891180347
f
GR
GS
[1 0 0 1 254.04535 246.27359] CT
N
f-891180347
f
GR
GS
[1 0 0 1 204.67294 294.26736] CT
N
f-891180347
f
GR
GS
[1 0 0 1 216.99165 306.37244] CT
N
f-891180347
f
GR
GS
[1 0 0 1 189.87733 304.8324] CT
N
f-891180347
f
GR
GS
[1 0 0 1 247.30276 246.12433] CT
N
f-891180347
f
GR
GS
[1 0 0 1 280.47055 210.90018] CT
N
f-891180347
f
GR
GS
[1 0 0 1 293.16452 228.90157] CT
N
f-891180347
f
GR
GS
[1 0 0 1 205.54703 279.61533] CT
N
f-891180347
f
GR
GS
[1 0 0 1 319.10776 196.17442] CT
N
f-891180347
f
GR
GS
[1 0 0 1 221.39722 295.53766] CT
N
f-891180347
f
GR
GS
[1 0 0 1 177.01622 312.86292] CT
N
f-891180347
f
GR
GS
[1 0 0 1 238.54306 257.47696] CT
N
f-891180347
f
GR
GS
[1 0 0 1 212.43712 279.66687] CT
N
f-891180347
f
GR
GS
[1 0 0 1 177.58665 321.20291] CT
N
f-891180347
f
GR
GS
[1 0 0 1 254.50748 238.3773] CT
N
f-891180347
f
GR
GS
[1 0 0 1 267.74722 237.35347] CT
N
f-891180347
f
GR
GS
[1 0 0 1 295.01801 168.30624] CT
N
f-891180347
f
GR
GS
[1 0 0 1 275.82599 246.17134] CT
N
f-891180347
f
GR
GS
[1 0 0 1 216.51701 255.05414] CT
N
f-891180347
f
GR
GS
[1 0 0 1 206.88322 290.67307] CT
N
f-891180347
f
GR
GS
[1 0 0 1 322.49655 204.04399] CT
N
f-891180347
f
GR
GS
[1 0 0 1 245.13715 231.60202] CT
N
f-891180347
f
GR
GS
[1 0 0 1 362.21246 145.94862] CT
N
f-891180347
f
GR
GS
[1 0 0 1 285.31006 208.11424] CT
N
f-891180347
f
GR
GS
[1 0 0 1 428.58121 96.02182] CT
N
f-891180347
f
GR
GS
[1 0 0 1 196.88298 292.17685] CT
N
f-891180347
f
GR
GS
[1 0 0 1 179.41391 316.57907] CT
N
f-891180347
f
GR
GS
[1 0 0 1 266.97137 237.19496] CT
N
f-891180347
f
GR
GS
[1 0 0 1 295.55792 210.15514] CT
N
f-891180347
f
GR
GS
[1 0 0 1 252.71304 244.87654] CT
N
f-891180347
f
GR
GS
[1 0 0 1 265.33127 219.73508] CT
N
f-891180347
f
GR
GS
[1 0 0 1 242.98183 262.82239] CT
N
f-891180347
f
GR
GS
[1 0 0 1 193.93129 287.05496] CT
N
f-891180347
f
GR
GS
[1 0 0 1 183.7114 314.74222] CT
N
f-891180347
f
GR
GS
[1 0 0 1 220.89873 276.13498] CT
N
f-891180347
f
GR
GS
[1 0 0 1 169.42229 305.07266] CT
N
f-891180347
f
GR
GS
[1 0 0 1 254.25211 266.72842] CT
N
f-891180347
f
GR
GS
[1 0 0 1 274.5816 210.95096] CT
N
f-891180347
f
GR
GS
[1 0 0 1 181.17567 306.55817] CT
N
f-891180347
f
GR
GS
[1 0 0 1 236.01201 257.47351] CT
N
f-891180347
f
GR
GS
[1 0 0 1 275.15662 213.31569] CT
N
f-891180347
f
GR
GS
[1 0 0 1 321.88141 181.14714] CT
N
f-891180347
f
GR
GS
[1 0 0 1 260.12695 207.64436] CT
N
f-891180347
f
GR
GS
[1 0 0 1 167.07372 300.94785] CT
N
f-891180347
f
GR
GS
[1 0 0 1 294.43182 256.1189] CT
N
f-891180347
f
GR
GS
[1 0 0 1 149.92285 329.78198] CT
N
f-891180347
f
GR
GS
[1 0 0 1 225.6033 272.56491] CT
N
f-891180347
f
GR
GS
[1 0 0 1 280.69302 198.57178] CT
N
f-891180347
f
GR
GS
[1 0 0 1 196.12125 287.68256] CT
N
f-891180347
f
GR
GS
[1 0 0 1 253.51738 255.64325] CT
N
f-891180347
f
GR
GS
[1 0 0 1 227.32095 258.89517] CT
N
f-891180347
f
GR
GS
[1 0 0 1 194.49019 306.84534] CT
N
f-891180347
f
GR
GS
[1 0 0 1 243.89841 249.38316] CT
N
f-891180347
f
GR
GS
[1 0 0 1 214.88614 285.04398] CT
N
f-891180347
f
GR
GS
[1 0 0 1 299.78473 195.75317] CT
N
f-891180347
f
GR
GS
[1 0 0 1 307.91907 193.37712] CT
N
f-891180347
f
GR
GS
[1 0 0 1 271.44214 195.16855] CT
N
f-891180347
f
GR
GS
[1 0 0 1 267.30212 239.10039] CT
N
f-891180347
f
GR
GS
[1 0 0 1 286.26324 246.58105] CT
N
f-891180347
f
GR
GS
[1 0 0 1 234.6292 229.08282] CT
N
f-891180347
f
GR
GS
[1 0 0 1 177.36697 316.58014] CT
N
f-891180347
f
GR
GS
[1 0 0 1 274.1748 249.64818] CT
N
f-891180347
f
GR
GS
[1 0 0 1 328.73593 179.65431] CT
N
f-891180347
f
GR
GS
[1 0 0 1 215.41006 262.95746] CT
N
f-891180347
f
GR
GS
[1 0 0 1 274.87958 211.14484] CT
N
f-891180347
f
GR
GS
[1 0 0 1 231.5542 269.92429] CT
N
f-891180347
f
GR
GS
[1 0 0 1 311.25845 159.91534] CT
N
f-891180347
f
GR
GS
[1 0 0 1 206.87691 268.77686] CT
N
f-891180347
f
GR
GS
[1 0 0 1 304.13907 251.36618] CT
N
f-891180347
f
GR
GS
[1 0 0 1 255.38974 252.47108] CT
N
f-891180347
f
GR
GS
[1 0 0 1 184.29247 302.98685] CT
N
f-891180347
f
GR
GS
[1 0 0 1 291.34665 209.90154] CT
N
f-891180347
f
GR
GS
[1 0 0 1 198.3886 297.29849] CT
N
f-891180347
f
GR
GS
[1 0 0 1 214.99048 266.40598] CT
N
f-891180347
f
GR
GS
[1 0 0 1 200.62762 287.66675] CT
N
f-891180347
f
GR
GS
[1 0 0 1 275.57248 253.16528] CT
N
f-891180347
f
GR
GS
[1 0 0 1 167.9608 326.96716] CT
N
f-891180347
f
GR
GS
[1 0 0 1 212.34128 284.78494] CT
N
f-891180347
f
GR
GS
[1 0 0 1 319.38815 144.84698] CT
N
f-891180347
f
GR
GS
[1 0 0 1 244.15817 263.66528] CT
N
f-891180347
f
GR
GS
[1 0 0 1 163.20908 311.66492] CT
N
f-891180347
f
GR
GS
[1 0 0 1 231.50491 287.98395] CT
N
f-891180347
f
GR
GS
[1 0 0 1 214.3669 283.80212] CT
N
f-891180347
f
GR
GS
[1 0 0 1 197.66115 282.72226] CT
N
f-891180347
f
GR
GS
[1 0 0 1 346.41727 165.52367] CT
N
f-891180347
f
GR
GS
[1 0 0 1 273.86188 215.96829] CT
N
f-891180347
f
GR
GS
[1 0 0 1 232.02237 288.33109] CT
N
f-891180347
f
GR
GS
[1 0 0 1 269.86115 205.24263] CT
N
f-891180347
f
GR
GS
[1 0 0 1 280.91937 221.51709] CT
N
f-891180347
f
GR
GS
[1 0 0 1 211.21524 270.72809] CT
N
f-891180347
f
GR
GS
[1 0 0 1 277.61066 219.13737] CT
N
f-891180347
f
GR
GS
[1 0 0 1 182.85602 307.18845] CT
N
f-891180347
f
GR
GS
[1 0 0 1 224.96278 294.85294] CT
N
f-891180347
f
GR
GS
[1 0 0 1 245.66455 252.27036] CT
N
f-891180347
f
GR
GS
[1 0 0 1 263.90167 239.32454] CT
N
f-891180347
f
GR
GS
[1 0 0 1 261.51312 215.64977] CT
N
f-891180347
f
GR
GS
[1 0 0 1 315.86768 195.83012] CT
N
f-891180347
f
GR
GS
[1 0 0 1 214.97481 270.21771] CT
N
f-891180347
f
GR
GS
[1 0 0 1 290.47702 221.12161] CT
N
f-891180347
f
GR
GS
[1 0 0 1 292.46783 176.86464] CT
N
f-891180347
f
GR
GS
[1 0 0 1 290.48734 219.23239] CT
N
f-891180347
f
GR
GS
[1 0 0 1 174.57365 322.54117] CT
N
f-891180347
f
GR
GS
[1 0 0 1 198.22916 285.89798] CT
N
f-891180347
f
GR
GS
[1 0 0 1 232.83093 252.12816] CT
N
f-891180347
f
GR
GS
[1 0 0 1 235.83727 268.02924] CT
N
f-891180347
f
GR
GS
[1 0 0 1 268.3544 224.71942] CT
N
f-891180347
f
GR
GS
[1 0 0 1 320.14694 194.23288] CT
N
f-891180347
f
GR
GS
[1 0 0 1 254.92256 248.25476] CT
N
f-891180347
f
GR
GS
[1 0 0 1 245.26134 249.61479] CT
N
f-891180347
f
GR
GS
[1 0 0 1 267.1011 207.79677] CT
N
f-891180347
f
GR
GS
[1 0 0 1 299.43515 210.57085] CT
N
f-891180347
f
GR
GS
[1 0 0 1 219.03348 275.37759] CT
N
f-891180347
f
GR
GS
[1 0 0 1 147.66783 324.85876] CT
N
f-891180347
f
GR
GS
[1 0 0 1 262.48843 255.10365] CT
N
f-891180347
f
GR
GS
[1 0 0 1 270.84882 248.78246] CT
N
f-891180347
f
GR
GS
[1 0 0 1 211.60033 272.18149] CT
N
f-891180347
f
GR
GS
[1 0 0 1 220.89565 299.95993] CT
N
f-891180347
f
GR
GS
[1 0 0 1 175.30759 312.42712] CT
N
f-891180347
f
GR
GS
[1 0 0 1 226.17099 284.22525] CT
N
f-891180347
f
GR
GS
[1 0 0 1 191.81166 291.63382] CT
N
f-891180347
f
GR
GS
[1 0 0 1 365.13177 121.71939] CT
N
f-891180347
f
GR
GS
[1 0 0 1 235.62773 278.37463] CT
N
f-891180347
f
GR
GS
[1 0 0 1 233.38904 275.24646] CT
N
f-891180347
f
GR
GS
[1 0 0 1 223.73227 258.41708] CT
N
f-891180347
f
GR
GS
[1 0 0 1 271.48297 257.78973] CT
N
f-891180347
f
GR
GS
[1 0 0 1 214.26747 267.4801] CT
N
f-891180347
f
GR
GS
[1 0 0 1 160.50508 323.60971] CT
N
f-891180347
f
GR
GS
[1 0 0 1 244.04842 220.36664] CT
N
f-891180347
f
GR
GS
[1 0 0 1 313.76724 209.6851] CT
N
f-891180347
f
GR
GS
[1 0 0 1 301.38525 235.3222] CT
N
f-891180347
f
GR
GS
[1 0 0 1 238.89154 241.45284] CT
N
f-891180347
f
GR
GS
[1 0 0 1 370.25867 140.04388] CT
N
f-891180347
f
GR
GS
[1 0 0 1 215.72615 263.93698] CT
N
f-891180347
f
GR
GS
[1 0 0 1 235.64981 269.66379] CT
N
f-891180347
f
GR
GS
[1 0 0 1 314.29507 168.01942] CT
N
f-891180347
f
GR
GS
[1 0 0 1 264.22583 245.66064] CT
N
f-891180347
f
GR
GS
[1 0 0 1 183.37445 306.12314] CT
N
f-891180347
f
GR
GS
[1 0 0 1 315.0784 206.9894] CT
N
f-891180347
f
GR
GS
[1 0 0 1 300.5162 158.89952] CT
N
f-891180347
f
GR
GS
[1 0 0 1 272.28915 247.96498] CT
N
f-891180347
f
GR
GS
[1 0 0 1 226.15631 303.37622] CT
N
f-891180347
f
GR
GS
[1 0 0 1 229.69511 289.50381] CT
N
f-891180347
f
GR
GS
[1 0 0 1 163.75348 321.14014] CT
N
f-891180347
f
GR
GS
[1 0 0 1 335.39255 174.51949] CT
N
f-891180347
f
GR
GS
[1 0 0 1 292.99771 215.48232] CT
N
f-891180347
f
GR
GS
[1 0 0 1 235.1375 231.94591] CT
N
f-891180347
f
GR
GS
[1 0 0 1 251.01813 281.3924] CT
N
f-891180347
f
GR
GS
[1 0 0 1 167.9381 309.72717] CT
N
f-891180347
f
GR
GS
[1 0 0 1 290.73422 206.24817] CT
N
f-891180347
f
GR
GS
[1 0 0 1 272.04147 203.57195] CT
N
f-891180347
f
GR
GS
[1 0 0 1 291.38672 226.22308] CT
N
f-891180347
f
GR
GS
[1 0 0 1 171.97852 312.54449] CT
N
f-891180347
f
GR
GS
[1 0 0 1 245.4285 263.37561] CT
N
f-891180347
f
GR
GS
[1 0 0 1 240.23332 239.53296] CT
N
f-891180347
f
GR
GS
[1 0 0 1 442.31308 69.89202] CT
N
f-891180347
f
GR
GS
[1 0 0 1 258.65634 207.70572] CT
N
f-891180347
f
GR
GS
[1 0 0 1 270.3576 251.34322] CT
N
f-891180347
f
GR
GS
[1 0 0 1 344.32092 112.9274] CT
N
f-891180347
f
GR
GS
[1 0 0 1 305.94489 265.70255] CT
N
f-891180347
f
GR
GS
[1 0 0 1 326.54761 211.62505] CT
N
f-891180347
f
GR
GS
[1 0 0 1 250.03027 249.55049] CT
N
f-891180347
f
GR
GS
[1 0 0 1 194.26678 284.40222] CT
N
f-891180347
f
GR
GS
[1 0 0 1 206.77951 295.14191] CT
N
f-891180347
f
GR
GS
[1 0 0 1 302.11246 175.15796] CT
N
f-891180347
f
GR
GS
[1 0 0 1 284.45651 241.11201] CT
N
f-891180347
f
GR
GS
[1 0 0 1 278.6611 227.68587] CT
N
f-891180347
f
GR
GS
[1 0 0 1 272.15695 207.86186] CT
N
f-891180347
f
GR
GS
[1 0 0 1 277.37961 235.30986] CT
N
f-891180347
f
GR
GS
[1 0 0 1 164.71854 312.54736] CT
N
f-891180347
f
GR
GS
[1 0 0 1 264.94113 250.32361] CT
N
f-891180347
f
GR
GS
[1 0 0 1 264.70566 208.67924] CT
N
f-891180347
f
GR
GS
[1 0 0 1 167.40767 309.35397] CT
N
f-891180347
f
GR
GS
[1 0 0 1 301.23666 194.22141] CT
N
f-891180347
f
GR
GS
[1 0 0 1 173.34486 291.66928] CT
N
f-891180347
f
GR
GS
[1 0 0 1 192.48146 294.28983] CT
N
f-891180347
f
GR
GS
[1 0 0 1 205.31111 255.16858] CT
N
f-891180347
f
GR
GS
[1 0 0 1 218.82579 302.71298] CT
N
f-891180347
f
GR
GS
[1 0 0 1 167.66763 320.82657] CT
N
f-891180347
f
GR
GS
[1 0 0 1 260.32047 255.02943] CT
N
f-891180347
f
GR
GS
[1 0 0 1 249.0414 259.64734] CT
N
f-891180347
f
GR
GS
[1 0 0 1 255.55927 217.39885] CT
N
f-891180347
f
GR
GS
[1 0 0 1 314.53027 185.75777] CT
N
f-891180347
f
GR
GS
[1 0 0 1 157.34164 328.04239] CT
N
f-891180347
f
GR
GS
[1 0 0 1 177.23619 308.25638] CT
N
f-891180347
f
GR
GS
[1 0 0 1 160.34305 327.86185] CT
N
f-891180347
f
GR
GS
[1 0 0 1 184.18927 292.91339] CT
N
f-891180347
f
GR
GS
[1 0 0 1 247.08865 262.99594] CT
N
f-891180347
f
GR
GS
[1 0 0 1 220.9532 271.06012] CT
N
f-891180347
f
GR
GS
[1 0 0 1 236.3167 265.86826] CT
N
f-891180347
f
GR
GS
[1 0 0 1 188.68364 295.0712] CT
N
f-891180347
f
GR
GS
[1 0 0 1 315.71951 153.72737] CT
N
f-891180347
f
GR
GS
[1 0 0 1 260.10733 245.81367] CT
N
f-891180347
f
GR
GS
[1 0 0 1 297.2608 178.21696] CT
N
f-891180347
f
GR
GS
[1 0 0 1 179.04276 302.76697] CT
N
f-891180347
f
GR
GS
[1 0 0 1 238.12984 299.36649] CT
N
f-891180347
f
GR
GS
[1 0 0 1 277.25879 234.90909] CT
N
f-891180347
f
GR
GS
[1 0 0 1 399.14459 146.80998] CT
N
f-891180347
f
GR
GS
[1 0 0 1 222.42542 295.59637] CT
N
f-891180347
f
GR
GS
[1 0 0 1 199.90392 313.32709] CT
N
f-891180347
f
GR
GS
[1 0 0 1 194.675 292.9574] CT
N
f-891180347
f
GR
GS
[1 0 0 1 199.85878 293.616] CT
N
f-891180347
f
GR
GS
[1 0 0 1 328.73624 167.89604] CT
N
f-891180347
f
GR
GS
[1 0 0 1 252.26416 221.18585] CT
N
f-891180347
f
GR
GS
[1 0 0 1 353.5325 177.24634] CT
N
f-891180347
f
GR
GS
[1 0 0 1 245.6053 238.72026] CT
N
f-891180347
f
GR
GS
[1 0 0 1 202.77658 300.45654] CT
N
f-891180347
f
GR
GS
[1 0 0 1 267.1539 193.80287] CT
N
f-891180347
f
GR
GS
[1 0 0 1 317.38428 187.65599] CT
N
f-891180347
f
GR
GS
[1 0 0 1 307.16275 173.63205] CT
N
f-891180347
f
GR
GS
[1 0 0 1 287.54749 213.93517] CT
N
f-891180347
f
GR
GS
[1 0 0 1 200.58305 296.52524] CT
N
f-891180347
f
GR
GS
[1 0 0 1 284.18851 189.03011] CT
N
f-891180347
f
GR
GS
[1 0 0 1 182.89534 301.06808] CT
N
f-891180347
f
GR
GS
[1 0 0 1 243.19621 284.64407] CT
N
f-891180347
f
GR
GS
[1 0 0 1 280.98721 208.36546] CT
N
f-891180347
f
GR
GS
[1 0 0 1 332.42838 179.06821] CT
N
f-891180347
f
GR
GS
[1 0 0 1 273.11975 197.69795] CT
N
f-891180347
f
GR
GS
[1 0 0 1 298.23862 267.59476] CT
N
f-891180347
f
GR
GS
[1 0 0 1 234.01247 235.70282] CT
N
f-891180347
f
GR
GS
[1 0 0 1 347.49667 159.28799] CT
N
f-891180347
f
GR
GS
[1 0 0 1 298.41541 168.73256] CT
N
f-891180347
f
GR
GS
[1 0 0 1 256.84009 280.03586] CT
N
f-891180347
f
GR
GS
[1 0 0 1 169.75661 314.25262] CT
N
f-891180347
f
GR
GS
[1 0 0 1 159.44511 331.0499] CT
N
f-891180347
f
GR
GS
[1 0 0 1 294.82446 182.41251] CT
N
f-891180347
f
GR
GS
[1 0 0 1 249.77362 255.85735] CT
N
f-891180347
f
GR
GS
[1 0 0 1 244.27626 225.72523] CT
N
f-891180347
f
GR
GS
[1 0 0 1 179.76059 290.767] CT
N
f-891180347
f
GR
GS
[1 0 0 1 223.36424 288.98468] CT
N
f-891180347
f
GR
GS
[1 0 0 1 249.47157 220.81352] CT
N
f-891180347
f
GR
GS
[1 0 0 1 265.12088 201.71501] CT
N
f-891180347
f
GR
GS
[1 0 0 1 370.10098 145.66904] CT
N
f-891180347
f
GR
GS
[1 0 0 1 294.76263 190.88597] CT
N
f-891180347
f
GR
GS
[1 0 0 1 317.23932 185.16324] CT
N
f-891180347
f
GR
GS
[1 0 0 1 175.94084 295.7677] CT
N
f-891180347
f
GR
GS
[1 0 0 1 287.32059 241.74077] CT
N
f-891180347
f
GR
GS
[1 0 0 1 406.92755 104.97948] CT
N
f-891180347
f
GR
GS
[1 0 0 1 228.66107 269.20453] CT
N
f-891180347
f
GR
GS
[1 0 0 1 237.17245 256.73233] CT
N
f-891180347
f
GR
GS
[1 0 0 1 232.58319 241.91479] CT
N
f-891180347
f
GR
GS
[1 0 0 1 199.88295 279.87521] CT
N
f-891180347
f
GR
GS
[1 0 0 1 276.10843 225.28003] CT
N
f-891180347
f
GR
GS
[1 0 0 1 256.34537 228.1042] CT
N
f-891180347
f
GR
GS
[1 0 0 1 276.5274 211.67827] CT
N
f-891180347
f
GR
GS
[1 0 0 1 338.44379 224.56961] CT
N
f-891180347
f
GR
GS
[1 0 0 1 182.67075 299.89667] CT
N
f-891180347
f
GR
GS
[1 0 0 1 263.54449 234.13921] CT
N
f-891180347
f
GR
GS
[1 0 0 1 305.26785 165.19661] CT
N
f-891180347
f
GR
GS
[1 0 0 1 336.61597 172.5639] CT
N
f-891180347
f
GR
GS
[1 0 0 1 286.51941 182.51877] CT
N
f-891180347
f
GR
GS
[1 0 0 1 340.21564 170.30939] CT
N
f-891180347
f
GR
GS
[1 0 0 1 237.42424 238.72522] CT
N
f-891180347
f
GR
GS
[1 0 0 1 260.89349 246.61057] CT
N
f-891180347
f
GR
GS
[1 0 0 1 299.16708 166.06892] CT
N
f-891180347
f
GR
GS
[1 0 0 1 307.46298 230.65053] CT
N
f-891180347
f
GR
GS
[1 0 0 1 195.89703 307.83755] CT
N
f-891180347
f
GR
GS
[1 0 0 1 149.44701 327.05414] CT
N
f-891180347
f
GR
GS
[1 0 0 1 231.94867 270.00519] CT
N
f-891180347
f
GR
GS
[1 0 0 1 254.59456 246.88716] CT
N
f-891180347
f
GR
GS
[1 0 0 1 213.85948 301.89761] CT
N
f-891180347
f
GR
GS
[1 0 0 1 182.17046 313.99091] CT
N
f-891180347
f
GR
GS
[1 0 0 1 272.88037 201.61632] CT
N
f-891180347
f
GR
GS
[1 0 0 1 271.83655 221.09598] CT
N
f-891180347
f
GR
GS
[1 0 0 1 269.46948 237.35033] CT
N
f-891180347
f
GR
GS
[1 0 0 1 163.16876 312.68265] CT
N
f-891180347
f
GR
GS
[1 0 0 1 252.77989 261.39771] CT
N
f-891180347
f
GR
GS
[1 0 0 1 258.35245 227.83417] CT
N
f-891180347
f
GR
GS
[1 0 0 1 255.52342 223.86917] CT
N
f-891180347
f
GR
GS
[1 0 0 1 256.37827 264.20917] CT
N
f-891180347
f
GR
GS
[1 0 0 1 273.86853 219.50342] CT
N
f-891180347
f
GR
GS
[1 0 0 1 326.52542 176.82973] CT
N
f-891180347
f
GR
GS
[1 0 0 1 170.56926 309.63828] CT
N
f-891180347
f
GR
GS
[1 0 0 1 261.92874 251.77026] CT
N
f-891180347
f
GR
GS
[1 0 0 1 189.51996 306.21194] CT
N
f-891180347
f
GR
GS
[1 0 0 1 281.36105 200.19606] CT
N
f-891180347
f
GR
GS
[1 0 0 1 221.62772 256.65738] CT
N
f-891180347
f
GR
GS
[1 0 0 1 338.17969 211.82129] CT
N
f-891180347
f
GR
GS
[1 0 0 1 266.89609 218.62279] CT
N
f-891180347
f
GR
GS
[1 0 0 1 277.80948 224.93243] CT
N
f-891180347
f
GR
GS
[1 0 0 1 214.91862 270.32031] CT
N
f-891180347
f
GR
GS
[1 0 0 1 252.73944 241.8067] CT
N
f-891180347
f
GR
GS
[1 0 0 1 326.18546 164.81755] CT
N
f-891180347
f
GR
GS
[1 0 0 1 240.91832 245.63068] CT
N
f-891180347
f
GR
GS
[1 0 0 1 280.21838 247.1404] CT
N
f-891180347
f
GR
GS
[1 0 0 1 159.3351 329.56717] CT
N
f-891180347
f
GR
GS
[1 0 0 1 204.24461 286.29776] CT
N
f-891180347
f
GR
GS
[1 0 0 1 257.50601 212.31633] CT
N
f-891180347
f
GR
GS
[1 0 0 1 338.49014 162.54259] CT
N
f-891180347
f
GR
GS
[1 0 0 1 201.6973 282.1684] CT
N
f-891180347
f
GR
GS
[1 0 0 1 373.21326 132.42262] CT
N
f-891180347
f
GR
GS
[1 0 0 1 315.78403 202.81044] CT
N
f-891180347
f
GR
GS
[1 0 0 1 236.08363 263.12091] CT
N
f-891180347
f
GR
GS
[1 0 0 1 194.29683 295.4397] CT
N
f-891180347
f
GR
GS
[1 0 0 1 224.30287 278.0838] CT
N
f-891180347
f
GR
GS
[1 0 0 1 275.22803 210.27855] CT
N
f-891180347
f
GR
GS
[1 0 0 1 279.67761 216.14516] CT
N
f-891180347
f
GR
GS
[1 0 0 1 266.44098 239.18958] CT
N
f-891180347
f
GR
GS
[1 0 0 1 274.12112 212.03734] CT
N
f-891180347
f
GR
GS
[1 0 0 1 314.89038 189.41342] CT
N
f-891180347
f
GR
GS
[1 0 0 1 244.01125 239.33885] CT
N
f-891180347
f
GR
GS
[1 0 0 1 247.09218 246.29581] CT
N
f-891180347
f
GR
GS
[1 0 0 1 226.53563 274.84552] CT
N
f-891180347
f
GR
GS
[1 0 0 1 293.23172 176.47803] CT
N
f-891180347
f
GR
GS
[1 0 0 1 189.65552 317.0668] CT
N
f-891180347
f
GR
GS
[1 0 0 1 212.08505 287.09863] CT
N
f-891180347
f
GR
GS
[1 0 0 1 280.36432 229.55078] CT
N
f-891180347
f
GR
GS
[1 0 0 1 336.96439 138.07689] CT
N
f-891180347
f
GR
GS
[1 0 0 1 279.51956 229.92174] CT
N
f-891180347
f
GR
GS
[1 0 0 1 174.08261 297.41516] CT
N
f-891180347
f
GR
GS
[1 0 0 1 322.65027 183.97562] CT
N
f-891180347
f
GR
GS
[1 0 0 1 196.336 285.89377] CT
N
f-891180347
f
GR
GS
[1 0 0 1 166.47449 312.91013] CT
N
f-891180347
f
GR
GS
[1 0 0 1 214.26743 294.33716] CT
N
f-891180347
f
GR
GS
[1 0 0 1 294.41714 196.97575] CT
N
f-891180347
f
GR
GS
[1 0 0 1 245.02634 255.52933] CT
N
f-891180347
f
GR
GS
[1 0 0 1 198.43919 283.53506] CT
N
f-891180347
f
GR
GS
[1 0 0 1 198.05458 282.32626] CT
N
f-891180347
f
GR
GS
[1 0 0 1 288.33508 214.67664] CT
N
f-891180347
f
GR
GS
[1 0 0 1 192.37601 279.96036] CT
N
f-891180347
f
GR
GS
[1 0 0 1 180.79175 301.95151] CT
N
f-891180347
f
GR
GS
[1 0 0 1 234.91505 272.81656] CT
N
f-891180347
f
GR
GS
[1 0 0 1 237.61273 260.19446] CT
N
f-891180347
f
GR
GS
[1 0 0 1 265.67355 203.53604] CT
N
f-891180347
f
GR
GS
[1 0 0 1 228.49567 272.79654] CT
N
f-891180347
f
GR
GS
[1 0 0 1 187.58479 288.45428] CT
N
f-891180347
f
GR
GS
[1 0 0 1 248.05351 257.2294] CT
N
f-891180347
f
GR
GS
[1 0 0 1 213.57022 270.99109] CT
N
f-891180347
f
GR
GS
[1 0 0 1 320.70535 180.52812] CT
N
f-891180347
f
GR
GS
[1 0 0 1 198.27783 287.4209] CT
N
f-891180347
f
GR
GS
[1 0 0 1 179.41922 318.75867] CT
N
f-891180347
f
GR
GS
[1 0 0 1 171.57608 309.17215] CT
N
f-891180347
f
GR
GS
[1 0 0 1 288.71622 210.77011] CT
N
f-891180347
f
GR
GS
[1 0 0 1 232.27869 240.92026] CT
N
f-891180347
f
GR
GS
[1 0 0 1 354.60806 171.93771] CT
N
f-891180347
f
GR
GS
[1 0 0 1 297.20728 178.54962] CT
N
f-891180347
f
GR
GS
[1 0 0 1 305.27429 193.6515] CT
N
f-891180347
f
GR
GS
[1 0 0 1 212.32523 277.72919] CT
N
f-891180347
f
GR
GS
[1 0 0 1 281.20209 224.73102] CT
N
f-891180347
f
GR
GS
[1 0 0 1 211.24773 282.02896] CT
N
f-891180347
f
GR
GS
[1 0 0 1 235.16692 266.21631] CT
N
f-891180347
f
GR
GS
[1 0 0 1 280.18579 232.2587] CT
N
f-891180347
f
GR
GS
[1 0 0 1 375.2034 111.05429] CT
N
f-891180347
f
GR
GS
[1 0 0 1 372.00937 117.82015] CT
N
f-891180347
f
GR
GS
[1 0 0 1 288.00256 189.38809] CT
N
f-891180347
f
GR
GS
[1 0 0 1 218.01085 284.20584] CT
N
f-891180347
f
GR
GS
[1 0 0 1 226.78079 278.00919] CT
N
f-891180347
f
GR
GS
[1 0 0 1 180.27 307.11429] CT
N
f-891180347
f
GR
GS
[1 0 0 1 243.18987 266.2627] CT
N
f-891180347
f
GR
GS
[1 0 0 1 171.12041 315.07898] CT
N
f-891180347
f
GR
GS
[1 0 0 1 366.98856 133.73965] CT
N
f-891180347
f
GR
GS
[1 0 0 1 245.21179 227.90303] CT
N
f-891180347
f
GR
GS
[1 0 0 1 247.13446 271.32474] CT
N
f-891180347
f
GR
GS
[1 0 0 1 185.50104 314.44351] CT
N
f-891180347
f
GR
GS
[1 0 0 1 259.93082 224.25461] CT
N
f-891180347
f
GR
GS
[1 0 0 1 198.07414 293.25574] CT
N
f-891180347
f
GR
GS
[1 0 0 1 284.09637 177.9267] CT
N
f-891180347
f
GR
GS
[1 0 0 1 319.56326 249.11234] CT
N
f-891180347
f
GR
GS
[1 0 0 1 238.25221 284.40305] CT
N
f-891180347
f
GR
GS
[1 0 0 1 243.326 255.78581] CT
N
f-891180347
f
GR
GS
[1 0 0 1 265.90613 203.13904] CT
N
f-891180347
f
GR
GS
[1 0 0 1 326.78574 175.12489] CT
N
f-891180347
f
GR
GS
[1 0 0 1 263.52032 207.646] CT
N
f-891180347
f
GR
GS
[1 0 0 1 253.60089 294.90891] CT
N
f-891180347
f
GR
GS
[1 0 0 1 211.41983 294.51538] CT
N
f-891180347
f
GR
GS
[1 0 0 1 281.88364 216.30656] CT
N
f-891180347
f
GR
GS
[1 0 0 1 251.77556 224.9812] CT
N
f-891180347
f
GR
GS
[1 0 0 1 368.72214 144.0531] CT
N
f-891180347
f
GR
GS
[1 0 0 1 332.86609 145.69931] CT
N
f-891180347
f
GR
GS
[1 0 0 1 340.32019 144.39864] CT
N
f-891180347
f
GR
GS
[1 0 0 1 255.57524 242.29953] CT
N
f-891180347
f
GR
GS
[1 0 0 1 326.73874 179.14143] CT
N
f-891180347
f
GR
GS
[1 0 0 1 295.76328 178.21169] CT
N
f-891180347
f
GR
GS
[1 0 0 1 276.77884 240.85126] CT
N
f-891180347
f
GR
GS
[1 0 0 1 259.21637 235.29733] CT
N
f-891180347
f
GR
GS
[1 0 0 1 261.98019 246.88072] CT
N
f-891180347
f
GR
GS
[1 0 0 1 266.69196 200.73647] CT
N
f-891180347
f
GR
GS
[1 0 0 1 304.98804 201.01682] CT
N
f-891180347
f
GR
GS
[1 0 0 1 369.22568 129.43547] CT
N
f-891180347
f
GR
GS
[1 0 0 1 255.98734 245.1731] CT
N
f-891180347
f
GR
GS
[1 0 0 1 234.46219 287.802] CT
N
f-891180347
f
GR
GS
[1 0 0 1 287.33066 213.46909] CT
N
f-891180347
f
GR
GS
[1 0 0 1 271.0094 213.8125] CT
N
f-891180347
f
GR
GS
[1 0 0 1 310.59756 209.98694] CT
N
f-891180347
f
GR
GS
[1 0 0 1 246.2655 253.92332] CT
N
f-891180347
f
GR
GS
[1 0 0 1 326.76743 178.54292] CT
N
f-891180347
f
GR
GS
[1 0 0 1 331.79126 145.7899] CT
N
f-891180347
f
GR
GS
[1 0 0 1 275.66232 226.92209] CT
N
f-891180347
f
GR
GS
[1 0 0 1 167.49419 320.93524] CT
N
f-891180347
f
GR
GS
[1 0 0 1 426.32208 64.11396] CT
N
f-891180347
f
GR
GS
[1 0 0 1 300.52673 199.60213] CT
N
f-891180347
f
GR
GS
[1 0 0 1 210.70689 249.60295] CT
N
f-891180347
f
GR
GS
[1 0 0 1 291.57053 239.84917] CT
N
f-891180347
f
GR
GS
[1 0 0 1 220.7289 266.80066] CT
N
f-891180347
f
GR
GS
[1 0 0 1 253.29083 227.6069] CT
N
f-891180347
f
GR
GS
[1 0 0 1 202.63376 298.44424] CT
N
f-891180347
f
GR
GS
[1 0 0 1 212.85631 294.62488] CT
N
f-891180347
f
GR
GS
[1 0 0 1 336.09174 149.26372] CT
N
f-891180347
f
GR
GS
[1 0 0 1 208.88148 279.05661] CT
N
f-891180347
f
GR
GS
[1 0 0 1 248.92018 252.23305] CT
N
f-891180347
f
GR
GS
[1 0 0 1 199.12016 277.55627] CT
N
f-891180347
f
GR
GS
[1 0 0 1 287.67798 232.16376] CT
N
f-891180347
f
GR
GS
[1 0 0 1 286.34555 189.84395] CT
N
f-891180347
f
GR
GS
[1 0 0 1 293.49142 236.49489] CT
N
f-891180347
f
GR
GS
[1 0 0 1 169.96829 310.24744] CT
N
f-891180347
f
GR
GS
[1 0 0 1 226.14241 274.60193] CT
N
f-891180347
f
GR
GS
[1 0 0 1 239.14699 250.51384] CT
N
f-891180347
f
GR
GS
[1 0 0 1 179.71094 306.3548] CT
N
f-891180347
f
GR
GS
[1 0 0 1 242.66441 250.21307] CT
N
f-891180347
f
GR
GS
[1 0 0 1 259.82355 217.76552] CT
N
f-891180347
f
GR
GS
[1 0 0 1 368.75739 141.16939] CT
N
f-891180347
f
GR
GS
[1 0 0 1 237.70604 238.15051] CT
N
f-891180347
f
GR
GS
[1 0 0 1 381.20004 137.20984] CT
N
f-891180347
f
GR
GS
[1 0 0 1 262.13287 224.59383] CT
N
f-891180347
f
GR
GS
[1 0 0 1 245.89774 258.36246] CT
N
f-891180347
f
GR
GS
[1 0 0 1 197.79042 294.81421] CT
N
f-891180347
f
GR
GS
[1 0 0 1 227.23032 252.87302] CT
N
f-891180347
f
GR
GS
[1 0 0 1 210.0498 300.74847] CT
N
f-891180347
f
GR
GS
[1 0 0 1 166.10872 320.24637] CT
N
f-891180347
f
GR
GS
[1 0 0 1 217.69571 296.93808] CT
N
f-891180347
f
GR
GS
[1 0 0 1 206.69366 288.01108] CT
N
f-891180347
f
GR
GS
[1 0 0 1 249.51401 233.1219] CT
N
f-891180347
f
GR
GS
[1 0 0 1 371.91116 133.90572] CT
N
f-891180347
f
GR
GS
[1 0 0 1 214.31432 263.30389] CT
N
f-891180347
f
GR
GS
[1 0 0 1 307.82791 190.80482] CT
N
f-891180347
f
GR
GS
[1 0 0 1 233.51109 249.68614] CT
N
f-891180347
f
GR
GS
[1 0 0 1 253.21605 265.31723] CT
N
f-891180347
f
GR
GS
[1 0 0 1 330.23929 142.88179] CT
N
f-891180347
f
GR
GS
[1 0 0 1 263.70721 240.40547] CT
N
f-891180347
f
GR
GS
[1 0 0 1 158.74332 321.20609] CT
N
f-891180347
f
GR
GS
[1 0 0 1 243.40402 258.53214] CT
N
f-891180347
f
GR
GS
[1 0 0 1 299.28094 197.28395] CT
N
f-891180347
f
GR
GS
[1 0 0 1 237.71577 240.25397] CT
N
f-891180347
f
GR
GS
[1 0 0 1 231.14662 285.97882] CT
N
f-891180347
f
GR
GS
[1 0 0 1 161.87927 324.20447] CT
N
f-891180347
f
GR
GS
[1 0 0 1 294.93405 179.57201] CT
N
f-891180347
f
GR
GS
[1 0 0 1 215.34897 270.54544] CT
N
f-891180347
f
GR
GS
[1 0 0 1 183.3521 310.31335] CT
N
f-891180347
f
GR
GS
[1 0 0 1 289.7594 190.79939] CT
N
f-891180347
f
GR
GS
[1 0 0 1 301.92133 189.34145] CT
N
f-891180347
f
GR
GS
[1 0 0 1 224.19829 295.44351] CT
N
f-891180347
f
GR
GS
[1 0 0 1 182.80632 305.76959] CT
N
f-891180347
f
GR
GS
[1 0 0 1 208.29306 255.6512] CT
N
f-891180347
f
GR
GS
[1 0 0 1 200.1964 298.94547] CT
N
f-891180347
f
GR
GS
[1 0 0 1 350.17496 164.6718] CT
N
f-891180347
f
GR
GS
[1 0 0 1 320.20163 186.80783] CT
N
f-891180347
f
GR
GS
[1 0 0 1 206.94427 278.54327] CT
N
f-891180347
f
GR
GS
[1 0 0 1 291.08777 178.69356] CT
N
f-891180347
f
GR
GS
[1 0 0 1 338.1315 152.11478] CT
N
f-891180347
f
GR
GS
[1 0 0 1 217.03914 259.0209] CT
N
f-891180347
f
GR
GS
[1 0 0 1 253.7598 252.61163] CT
N
f-891180347
f
GR
GS
[1 0 0 1 246.05888 232.84612] CT
N
f-891180347
f
GR
GS
[1 0 0 1 362.07748 127.0983] CT
N
f-891180347
f
GR
GS
[1 0 0 1 345.16418 142.79953] CT
N
f-891180347
f
GR
GS
[1 0 0 1 242.32848 263.42548] CT
N
f-891180347
f
GR
GS
[1 0 0 1 250.85596 261.95178] CT
N
f-891180347
f
GR
GS
[1 0 0 1 294.32101 206.76176] CT
N
f-891180347
f
GR
GS
[1 0 0 1 344.04218 145.41953] CT
N
f-891180347
f
GR
GS
[1 0 0 1 195.56665 297.50726] CT
N
f-891180347
f
GR
GS
[1 0 0 1 257.73938 257.41644] CT
N
f-891180347
f
GR
GS
[1 0 0 1 180.44087 325.61185] CT
N
f-891180347
f
GR
GS
[1 0 0 1 280.86014 217.28285] CT
N
f-891180347
f
GR
GS
[1 0 0 1 195.71553 287.73618] CT
N
f-891180347
f
GR
GS
[1 0 0 1 307.57455 201.44768] CT
N
f-891180347
f
GR
GS
[1 0 0 1 182.2572 304.81824] CT
N
f-891180347
f
GR
GS
[1 0 0 1 211.48456 289.36447] CT
N
f-891180347
f
GR
GS
[1 0 0 1 200.49319 289.54605] CT
N
f-891180347
f
GR
GS
[1 0 0 1 255.28914 245.79663] CT
N
f-891180347
f
GR
GS
[1 0 0 1 226.42168 241.17973] CT
N
f-891180347
f
GR
GS
[1 0 0 1 178.8931 307.79297] CT
N
f-891180347
f
GR
GS
[1 0 0 1 171.72978 307.26956] CT
N
f-891180347
f
GR
GS
[1 0 0 1 348.15195 148.43643] CT
N
f-891180347
f
GR
GS
[1 0 0 1 313.89212 216.84874] CT
N
f-891180347
f
GR
GS
[1 0 0 1 201.84436 288.40051] CT
N
f-891180347
f
GR
GS
[1 0 0 1 213.14473 306.07526] CT
N
f-891180347
f
GR
GS
[1 0 0 1 202.91434 262.23126] CT
N
f-891180347
f
GR
GS
[1 0 0 1 274.05432 268.95966] CT
N
f-891180347
f
GR
GS
[1 0 0 1 166.75708 324.12015] CT
N
f-891180347
f
GR
GS
[1 0 0 1 217.92079 251.07167] CT
N
f-891180347
f
GR
GS
[1 0 0 1 334.36563 169.23456] CT
N
f-891180347
f
GR
GS
[1 0 0 1 355.54733 113.26807] CT
N
f-891180347
f
GR
GS
[1 0 0 1 236.62973 257.26361] CT
N
f-891180347
f
GR
GS
[1 0 0 1 206.18773 292.17523] CT
N
f-891180347
f
GR
GS
[1 0 0 1 242.61157 266.48477] CT
N
f-891180347
f
GR
GS
[1 0 0 1 257.1907 242.94696] CT
N
f-891180347
f
GR
GS
[1 0 0 1 175.98149 307.15616] CT
N
f-891180347
f
GR
GS
[1 0 0 1 258.59937 237.31212] CT
N
f-891180347
f
GR
GS
[1 0 0 1 202.53284 278.04184] CT
N
f-891180347
f
GR
GS
[1 0 0 1 223.53618 265.97543] CT
N
f-891180347
f
GR
GS
[1 0 0 1 259.41391 241.15463] CT
N
f-891180347
f
GR
GS
[1 0 0 1 209.82802 284.55063] CT
N
f-891180347
f
GR
GS
1 0 0 RC
1 LJ
2 LW
N
143.51 343.037 M
367.875 139.536 L
S
GR
GS
[1 0 0 1 144.63333 57.45833] CT
/Helvetica 16 F
GS
[1 0 0 1 0 0] CT
0 6 moveto 
1 -1 scale
(Slope: 1.81) t 
GR
GR
GS
[1 0 0 1 145 92] CT
/Helvetica 16 F
GS
[1 0 0 1 0 0] CT
0 0 moveto 
1 -1 scale
(r) t 
GR
GR
GS
[1 0 0 1 151 84] CT
/Helvetica 12.8 F
GS
[1 0 0 1 0 0] CT
0 0 moveto 
1 -1 scale
(2) t 
GR
GR
GS
[1 0 0 1 159 92] CT
/Helvetica 16 F
GS
[1 0 0 1 0 0] CT
0 0 moveto 
1 -1 scale
(: 0.89) t 
GR
GR
%%Trailer
%%Pages: 1
%%EOF
