%!PS-Adobe-3.0 EPSF-3.0
%%Creator: (MATLAB, The Mathworks, Inc. Version 9.5.0.944444 \(R2018b\). Operating System: Mac OS X)
%%Title: ./costs.eps
%%CreationDate: 2020-04-29T15:50:59
%%Pages: (atend)
%%BoundingBox:    61     0   444   416
%%LanguageLevel: 2
%%EndComments
%%BeginProlog
%%BeginResource: procset (Apache XML Graphics Std ProcSet) 1.2 0
%%Version: 1.2 0
%%Copyright: (Copyright 2001-2003,2010 The Apache Software Foundation. License terms: http://www.apache.org/licenses/LICENSE-2.0)
/bd{bind def}bind def
/ld{load def}bd
/GR/grestore ld
/GS/gsave ld
/RM/rmoveto ld
/C/curveto ld
/t/show ld
/L/lineto ld
/ML/setmiterlimit ld
/CT/concat ld
/f/fill ld
/N/newpath ld
/S/stroke ld
/CC/setcmykcolor ld
/A/ashow ld
/cp/closepath ld
/RC/setrgbcolor ld
/LJ/setlinejoin ld
/GC/setgray ld
/LW/setlinewidth ld
/M/moveto ld
/re {4 2 roll M
1 index 0 rlineto
0 exch rlineto
neg 0 rlineto
cp } bd
/_ctm matrix def
/_tm matrix def
/BT { _ctm currentmatrix pop matrix _tm copy pop 0 0 moveto } bd
/ET { _ctm setmatrix } bd
/iTm { _ctm setmatrix _tm concat } bd
/Tm { _tm astore pop iTm 0 0 moveto } bd
/ux 0.0 def
/uy 0.0 def
/F {
  /Tp exch def
  /Tf exch def
  Tf findfont Tp scalefont setfont
  /cf Tf def  /cs Tp def
} bd
/ULS {currentpoint /uy exch def /ux exch def} bd
/ULE {
  /Tcx currentpoint pop def
  gsave
  newpath
  cf findfont cs scalefont dup
  /FontMatrix get 0 get /Ts exch def /FontInfo get dup
  /UnderlinePosition get Ts mul /To exch def
  /UnderlineThickness get Ts mul /Tt exch def
  ux uy To add moveto  Tcx uy To add lineto
  Tt setlinewidth stroke
  grestore
} bd
/OLE {
  /Tcx currentpoint pop def
  gsave
  newpath
  cf findfont cs scalefont dup
  /FontMatrix get 0 get /Ts exch def /FontInfo get dup
  /UnderlinePosition get Ts mul /To exch def
  /UnderlineThickness get Ts mul /Tt exch def
  ux uy To add cs add moveto Tcx uy To add cs add lineto
  Tt setlinewidth stroke
  grestore
} bd
/SOE {
  /Tcx currentpoint pop def
  gsave
  newpath
  cf findfont cs scalefont dup
  /FontMatrix get 0 get /Ts exch def /FontInfo get dup
  /UnderlinePosition get Ts mul /To exch def
  /UnderlineThickness get Ts mul /Tt exch def
  ux uy To add cs 10 mul 26 idiv add moveto Tcx uy To add cs 10 mul 26 idiv add lineto
  Tt setlinewidth stroke
  grestore
} bd
/QT {
/Y22 exch store
/X22 exch store
/Y21 exch store
/X21 exch store
currentpoint
/Y21 load 2 mul add 3 div exch
/X21 load 2 mul add 3 div exch
/X21 load 2 mul /X22 load add 3 div
/Y21 load 2 mul /Y22 load add 3 div
/X22 load /Y22 load curveto
} bd
/SSPD {
dup length /d exch dict def
{
/v exch def
/k exch def
currentpagedevice k known {
/cpdv currentpagedevice k get def
v cpdv ne {
/upd false def
/nullv v type /nulltype eq def
/nullcpdv cpdv type /nulltype eq def
nullv nullcpdv or
{
/upd true def
} {
/sametype v type cpdv type eq def
sametype {
v type /arraytype eq {
/vlen v length def
/cpdvlen cpdv length def
vlen cpdvlen eq {
0 1 vlen 1 sub {
/i exch def
/obj v i get def
/cpdobj cpdv i get def
obj cpdobj ne {
/upd true def
exit
} if
} for
} {
/upd true def
} ifelse
} {
v type /dicttype eq {
v {
/dv exch def
/dk exch def
/cpddv cpdv dk get def
dv cpddv ne {
/upd true def
exit
} if
} forall
} {
/upd true def
} ifelse
} ifelse
} if
} ifelse
upd true eq {
d k v put
} if
} if
} if
} forall
d length 0 gt {
d setpagedevice
} if
} bd
/RE { % /NewFontName [NewEncodingArray] /FontName RE -
  findfont dup length dict begin
  {
    1 index /FID ne
    {def} {pop pop} ifelse
  } forall
  /Encoding exch def
  /FontName 1 index def
  currentdict definefont pop
  end
} bind def
%%EndResource
%%BeginResource: procset (Apache XML Graphics EPS ProcSet) 1.0 0
%%Version: 1.0 0
%%Copyright: (Copyright 2002-2003 The Apache Software Foundation. License terms: http://www.apache.org/licenses/LICENSE-2.0)
/BeginEPSF { %def
/b4_Inc_state save def         % Save state for cleanup
/dict_count countdictstack def % Count objects on dict stack
/op_count count 1 sub def      % Count objects on operand stack
userdict begin                 % Push userdict on dict stack
/showpage { } def              % Redefine showpage, { } = null proc
0 setgray 0 setlinecap         % Prepare graphics state
1 setlinewidth 0 setlinejoin
10 setmiterlimit [ ] 0 setdash newpath
/languagelevel where           % If level not equal to 1 then
{pop languagelevel             % set strokeadjust and
1 ne                           % overprint to their defaults.
{false setstrokeadjust false setoverprint
} if
} if
} bd
/EndEPSF { %def
count op_count sub {pop} repeat            % Clean up stacks
countdictstack dict_count sub {end} repeat
b4_Inc_state restore
} bd
%%EndResource
%FOPBeginFontDict
%%IncludeResource: font Courier-Oblique
%%IncludeResource: font Courier-BoldOblique
%%IncludeResource: font Courier-Bold
%%IncludeResource: font ZapfDingbats
%%IncludeResource: font Symbol
%%IncludeResource: font Helvetica
%%IncludeResource: font Helvetica-Oblique
%%IncludeResource: font Helvetica-Bold
%%IncludeResource: font Helvetica-BoldOblique
%%IncludeResource: font Times-Roman
%%IncludeResource: font Times-Italic
%%IncludeResource: font Times-Bold
%%IncludeResource: font Times-BoldItalic
%%IncludeResource: font Courier
%FOPEndFontDict
%%BeginResource: encoding WinAnsiEncoding
/WinAnsiEncoding [
/.notdef /.notdef /.notdef /.notdef /.notdef
/.notdef /.notdef /.notdef /.notdef /.notdef
/.notdef /.notdef /.notdef /.notdef /.notdef
/.notdef /.notdef /.notdef /.notdef /.notdef
/.notdef /.notdef /.notdef /.notdef /.notdef
/.notdef /.notdef /.notdef /.notdef /.notdef
/.notdef /.notdef /space /exclam /quotedbl
/numbersign /dollar /percent /ampersand /quotesingle
/parenleft /parenright /asterisk /plus /comma
/hyphen /period /slash /zero /one
/two /three /four /five /six
/seven /eight /nine /colon /semicolon
/less /equal /greater /question /at
/A /B /C /D /E
/F /G /H /I /J
/K /L /M /N /O
/P /Q /R /S /T
/U /V /W /X /Y
/Z /bracketleft /backslash /bracketright /asciicircum
/underscore /quoteleft /a /b /c
/d /e /f /g /h
/i /j /k /l /m
/n /o /p /q /r
/s /t /u /v /w
/x /y /z /braceleft /bar
/braceright /asciitilde /bullet /Euro /bullet
/quotesinglbase /florin /quotedblbase /ellipsis /dagger
/daggerdbl /circumflex /perthousand /Scaron /guilsinglleft
/OE /bullet /Zcaron /bullet /bullet
/quoteleft /quoteright /quotedblleft /quotedblright /bullet
/endash /emdash /asciitilde /trademark /scaron
/guilsinglright /oe /bullet /zcaron /Ydieresis
/space /exclamdown /cent /sterling /currency
/yen /brokenbar /section /dieresis /copyright
/ordfeminine /guillemotleft /logicalnot /sfthyphen /registered
/macron /degree /plusminus /twosuperior /threesuperior
/acute /mu /paragraph /middot /cedilla
/onesuperior /ordmasculine /guillemotright /onequarter /onehalf
/threequarters /questiondown /Agrave /Aacute /Acircumflex
/Atilde /Adieresis /Aring /AE /Ccedilla
/Egrave /Eacute /Ecircumflex /Edieresis /Igrave
/Iacute /Icircumflex /Idieresis /Eth /Ntilde
/Ograve /Oacute /Ocircumflex /Otilde /Odieresis
/multiply /Oslash /Ugrave /Uacute /Ucircumflex
/Udieresis /Yacute /Thorn /germandbls /agrave
/aacute /acircumflex /atilde /adieresis /aring
/ae /ccedilla /egrave /eacute /ecircumflex
/edieresis /igrave /iacute /icircumflex /idieresis
/eth /ntilde /ograve /oacute /ocircumflex
/otilde /odieresis /divide /oslash /ugrave
/uacute /ucircumflex /udieresis /yacute /thorn
/ydieresis
] def
%%EndResource
%FOPBeginFontReencode
/Courier-Oblique findfont
dup length dict begin
  {1 index /FID ne {def} {pop pop} ifelse} forall
  /Encoding WinAnsiEncoding def
  currentdict
end
/Courier-Oblique exch definefont pop
/Courier-BoldOblique findfont
dup length dict begin
  {1 index /FID ne {def} {pop pop} ifelse} forall
  /Encoding WinAnsiEncoding def
  currentdict
end
/Courier-BoldOblique exch definefont pop
/Courier-Bold findfont
dup length dict begin
  {1 index /FID ne {def} {pop pop} ifelse} forall
  /Encoding WinAnsiEncoding def
  currentdict
end
/Courier-Bold exch definefont pop
/Helvetica findfont
dup length dict begin
  {1 index /FID ne {def} {pop pop} ifelse} forall
  /Encoding WinAnsiEncoding def
  currentdict
end
/Helvetica exch definefont pop
/Helvetica-Oblique findfont
dup length dict begin
  {1 index /FID ne {def} {pop pop} ifelse} forall
  /Encoding WinAnsiEncoding def
  currentdict
end
/Helvetica-Oblique exch definefont pop
/Helvetica-Bold findfont
dup length dict begin
  {1 index /FID ne {def} {pop pop} ifelse} forall
  /Encoding WinAnsiEncoding def
  currentdict
end
/Helvetica-Bold exch definefont pop
/Helvetica-BoldOblique findfont
dup length dict begin
  {1 index /FID ne {def} {pop pop} ifelse} forall
  /Encoding WinAnsiEncoding def
  currentdict
end
/Helvetica-BoldOblique exch definefont pop
/Times-Roman findfont
dup length dict begin
  {1 index /FID ne {def} {pop pop} ifelse} forall
  /Encoding WinAnsiEncoding def
  currentdict
end
/Times-Roman exch definefont pop
/Times-Italic findfont
dup length dict begin
  {1 index /FID ne {def} {pop pop} ifelse} forall
  /Encoding WinAnsiEncoding def
  currentdict
end
/Times-Italic exch definefont pop
/Times-Bold findfont
dup length dict begin
  {1 index /FID ne {def} {pop pop} ifelse} forall
  /Encoding WinAnsiEncoding def
  currentdict
end
/Times-Bold exch definefont pop
/Times-BoldItalic findfont
dup length dict begin
  {1 index /FID ne {def} {pop pop} ifelse} forall
  /Encoding WinAnsiEncoding def
  currentdict
end
/Times-BoldItalic exch definefont pop
/Courier findfont
dup length dict begin
  {1 index /FID ne {def} {pop pop} ifelse} forall
  /Encoding WinAnsiEncoding def
  currentdict
end
/Courier exch definefont pop
%FOPEndFontReencode
%%EndProlog
%%Page: 1 1
%%PageBoundingBox: 0 0 560 420
%%BeginPageSetup
[1 0 0 -1 0 420] CT
%%EndPageSetup
GS
1 GC
N
0 0 560 420 re
f
GR
GS
1 GC
N
0 0 560 420 re
f
GR
GS
1 GC
N
137.25 343 M
442.75 343 L
442.75 37.5 L
137.25 37.5 L
cp
f
GR
GS
0.896 GC
1 LJ
N
137.25 343 M
137.25 37.5 L
S
GR
GS
0.896 GC
1 LJ
N
232.719 343 M
232.719 37.5 L
S
GR
GS
0.896 GC
1 LJ
N
328.188 343 M
328.188 37.5 L
S
GR
GS
0.896 GC
1 LJ
N
423.656 343 M
423.656 37.5 L
S
GR
GS
0.896 GC
1 LJ
N
442.75 343 M
137.25 343 L
S
GR
GS
0.896 GC
1 LJ
N
442.75 281.9 M
137.25 281.9 L
S
GR
GS
0.896 GC
1 LJ
N
442.75 220.8 M
137.25 220.8 L
S
GR
GS
0.896 GC
1 LJ
N
442.75 159.7 M
137.25 159.7 L
S
GR
GS
0.896 GC
1 LJ
N
442.75 98.6 M
137.25 98.6 L
S
GR
GS
0.896 GC
1 LJ
N
442.75 37.5 M
137.25 37.5 L
S
GR
GS
0.302 GC
2 setlinecap
1 LJ
N
137.25 343 M
442.75 343 L
S
GR
GS
0.302 GC
2 setlinecap
1 LJ
N
137.25 343 M
137.25 349.11 L
S
GR
GS
0.302 GC
2 setlinecap
1 LJ
N
232.719 343 M
232.719 349.11 L
S
GR
GS
0.302 GC
2 setlinecap
1 LJ
N
328.188 343 M
328.188 349.11 L
S
GR
GS
0.302 GC
2 setlinecap
1 LJ
N
423.656 343 M
423.656 349.11 L
S
GR
GS
0.302 GC
2 setlinecap
1 LJ
N
156.344 343 M
156.344 346.055 L
S
GR
GS
0.302 GC
2 setlinecap
1 LJ
N
175.438 343 M
175.438 346.055 L
S
GR
GS
0.302 GC
2 setlinecap
1 LJ
N
194.531 343 M
194.531 346.055 L
S
GR
GS
0.302 GC
2 setlinecap
1 LJ
N
213.625 343 M
213.625 346.055 L
S
GR
GS
0.302 GC
2 setlinecap
1 LJ
N
251.813 343 M
251.813 346.055 L
S
GR
GS
0.302 GC
2 setlinecap
1 LJ
N
270.906 343 M
270.906 346.055 L
S
GR
GS
0.302 GC
2 setlinecap
1 LJ
N
290 343 M
290 346.055 L
S
GR
GS
0.302 GC
2 setlinecap
1 LJ
N
309.094 343 M
309.094 346.055 L
S
GR
GS
0.302 GC
2 setlinecap
1 LJ
N
347.281 343 M
347.281 346.055 L
S
GR
GS
0.302 GC
2 setlinecap
1 LJ
N
366.375 343 M
366.375 346.055 L
S
GR
GS
0.302 GC
2 setlinecap
1 LJ
N
385.469 343 M
385.469 346.055 L
S
GR
GS
0.302 GC
2 setlinecap
1 LJ
N
404.563 343 M
404.563 346.055 L
S
GR
GS
0.302 GC
2 setlinecap
1 LJ
N
442.75 343 M
442.75 346.055 L
S
GR
GS
[1 0 0 1 137.25 356.11002] CT
0.302 GC
/Helvetica 25 F
GS
[1 0 0 1 0 0] CT
-7 24 moveto 
1 -1 scale
(0) t 
GR
GR
GS
[1 0 0 1 232.71875 356.11002] CT
0.302 GC
/Helvetica 25 F
GS
[1 0 0 1 0 0] CT
-21 24 moveto 
1 -1 scale
(100) t 
GR
GR
GS
[1 0 0 1 328.1875 356.11002] CT
0.302 GC
/Helvetica 25 F
GS
[1 0 0 1 0 0] CT
-21 24 moveto 
1 -1 scale
(200) t 
GR
GR
GS
[1 0 0 1 423.65625 356.11002] CT
0.302 GC
/Helvetica 25 F
GS
[1 0 0 1 0 0] CT
-21 24 moveto 
1 -1 scale
(300) t 
GR
GR
GS
[1 0 0 1 290.00015 386.60999] CT
0.302 GC
/Helvetica 27.5 F
GS
[1 0 0 1 0 0] CT
-149.5 27 moveto 
1 -1 scale
(movement duration \(ms\)) t 
GR
GR
GS
0.302 GC
2 setlinecap
1 LJ
N
137.25 343 M
137.25 37.5 L
S
GR
GS
0.302 GC
2 setlinecap
1 LJ
N
137.25 343 M
131.14 343 L
S
GR
GS
0.302 GC
2 setlinecap
1 LJ
N
137.25 281.9 M
131.14 281.9 L
S
GR
GS
0.302 GC
2 setlinecap
1 LJ
N
137.25 220.8 M
131.14 220.8 L
S
GR
GS
0.302 GC
2 setlinecap
1 LJ
N
137.25 159.7 M
131.14 159.7 L
S
GR
GS
0.302 GC
2 setlinecap
1 LJ
N
137.25 98.6 M
131.14 98.6 L
S
GR
GS
0.302 GC
2 setlinecap
1 LJ
N
137.25 37.5 M
131.14 37.5 L
S
GR
GS
0.302 GC
2 setlinecap
1 LJ
N
137.25 327.725 M
134.195 327.725 L
S
GR
GS
0.302 GC
2 setlinecap
1 LJ
N
137.25 312.45 M
134.195 312.45 L
S
GR
GS
0.302 GC
2 setlinecap
1 LJ
N
137.25 297.175 M
134.195 297.175 L
S
GR
GS
0.302 GC
2 setlinecap
1 LJ
N
137.25 266.625 M
134.195 266.625 L
S
GR
GS
0.302 GC
2 setlinecap
1 LJ
N
137.25 251.35 M
134.195 251.35 L
S
GR
GS
0.302 GC
2 setlinecap
1 LJ
N
137.25 236.075 M
134.195 236.075 L
S
GR
GS
0.302 GC
2 setlinecap
1 LJ
N
137.25 205.525 M
134.195 205.525 L
S
GR
GS
0.302 GC
2 setlinecap
1 LJ
N
137.25 190.25 M
134.195 190.25 L
S
GR
GS
0.302 GC
2 setlinecap
1 LJ
N
137.25 174.975 M
134.195 174.975 L
S
GR
GS
0.302 GC
2 setlinecap
1 LJ
N
137.25 144.425 M
134.195 144.425 L
S
GR
GS
0.302 GC
2 setlinecap
1 LJ
N
137.25 129.15 M
134.195 129.15 L
S
GR
GS
0.302 GC
2 setlinecap
1 LJ
N
137.25 113.875 M
134.195 113.875 L
S
GR
GS
0.302 GC
2 setlinecap
1 LJ
N
137.25 83.325 M
134.195 83.325 L
S
GR
GS
0.302 GC
2 setlinecap
1 LJ
N
137.25 68.05 M
134.195 68.05 L
S
GR
GS
0.302 GC
2 setlinecap
1 LJ
N
137.25 52.775 M
134.195 52.775 L
S
GR
GS
[1 0 0 1 124.14 343] CT
0.302 GC
/Helvetica 25 F
GS
[1 0 0 1 0 0] CT
-14 9 moveto 
1 -1 scale
(0) t 
GR
GR
GS
[1 0 0 1 124.14 281.89999] CT
0.302 GC
/Helvetica 25 F
GS
[1 0 0 1 0 0] CT
-35 9 moveto 
1 -1 scale
(0.2) t 
GR
GR
GS
[1 0 0 1 124.14 220.8] CT
0.302 GC
/Helvetica 25 F
GS
[1 0 0 1 0 0] CT
-35 9 moveto 
1 -1 scale
(0.4) t 
GR
GR
GS
[1 0 0 1 124.14 159.7] CT
0.302 GC
/Helvetica 25 F
GS
[1 0 0 1 0 0] CT
-35 9 moveto 
1 -1 scale
(0.6) t 
GR
GR
GS
[1 0 0 1 124.14 98.60001] CT
0.302 GC
/Helvetica 25 F
GS
[1 0 0 1 0 0] CT
-35 9 moveto 
1 -1 scale
(0.8) t 
GR
GR
GS
[1 0 0 1 124.14 37.49998] CT
0.302 GC
/Helvetica 25 F
GS
[1 0 0 1 0 0] CT
-14 9 moveto 
1 -1 scale
(1) t 
GR
GR
GS
[0 -1 1 0 86.14 190.24985] CT
0.302 GC
/Helvetica 27.5 F
GS
[1 0 0 1 0 0] CT
-33.5 -6 moveto 
1 -1 scale
(costs) t 
GR
GR
GS
[1 0 0 1 137 31] CT
0.302 GC
N
3.672 -0.719 M
3.672 -0.922 3.797 -1.078 QT
9 -6.25 L
3.797 -11.453 L
3.672 -11.578 3.672 -11.781 QT
3.672 -11.969 3.82 -12.125 QT
3.969 -12.281 4.172 -12.281 QT
4.344 -12.281 4.547 -12.125 QT
9.734 -6.953 L
14.875 -12.125 L
15.094 -12.281 15.25 -12.281 QT
15.453 -12.281 15.602 -12.133 QT
15.75 -11.984 15.75 -11.781 QT
15.75 -11.578 15.625 -11.453 QT
10.422 -6.25 L
15.625 -1.078 L
15.75 -0.922 15.75 -0.719 QT
15.75 -0.516 15.602 -0.367 QT
15.453 -0.219 15.25 -0.219 QT
15.063 -0.219 14.875 -0.406 QT
9.734 -5.547 L
4.547 -0.406 L
4.375 -0.219 4.172 -0.219 QT
3.969 -0.219 3.82 -0.375 QT
3.672 -0.531 3.672 -0.719 QT
cp
f
GR
GS
[1 0 0 1 157 31] CT
0.302 GC
/Helvetica 25 F
GS
[1 0 0 1 0 0] CT
0 0 moveto 
1 -1 scale
(10) t 
GR
GR
GS
[1 0 0 1 185 19] CT
0.302 GC
/Helvetica 20 F
GS
[1 0 0 1 0 0] CT
0 0 moveto 
1 -1 scale
(-3) t 
GR
GR
GS
0 0.447 0.741 RC
1 LJ
1.5 LW
N
165.891 325.049 M
175.438 340.887 L
184.984 342.646 L
194.531 342.921 L
204.078 342.978 L
213.625 342.993 L
223.172 342.997 L
232.719 342.999 L
242.266 342.999 L
251.813 343 L
261.359 343 L
270.906 343 L
280.453 343 L
290 343 L
299.547 343 L
309.094 343 L
318.641 343 L
328.188 343 L
337.734 343 L
347.281 343 L
356.828 343 L
366.375 343 L
375.922 343 L
385.469 343 L
395.016 343 L
404.563 343 L
414.109 343 L
423.656 343 L
433.203 343 L
442.75 343 L
S
GR
GS
0.851 0.325 0.098 RC
1 LJ
1.5 LW
N
165.891 190.346 M
175.438 282.83 L
184.984 317.019 L
194.531 330.437 L
204.078 336.288 L
213.625 339.103 L
223.172 340.573 L
232.719 341.394 L
242.266 341.88 L
251.813 342.182 L
261.359 342.379 L
270.906 342.511 L
280.453 342.603 L
290 342.669 L
299.547 342.718 L
309.094 342.755 L
318.641 342.784 L
328.188 342.806 L
337.734 342.823 L
347.281 342.838 L
356.828 342.849 L
366.375 342.858 L
375.922 342.866 L
385.469 342.871 L
395.016 342.876 L
404.563 342.881 L
414.109 342.883 L
423.656 342.884 L
433.203 342.885 L
442.75 342.885 L
S
GR
GS
0.929 0.694 0.125 RC
1 LJ
1.5 LW
N
165.891 343 M
175.438 323.29 L
184.984 304.813 L
194.531 287.455 L
204.078 271.118 L
213.625 255.714 L
223.172 241.167 L
232.719 227.405 L
242.266 214.368 L
251.813 202 L
261.359 190.25 L
270.906 179.073 L
280.453 168.429 L
290 158.279 L
299.547 148.591 L
309.094 139.333 L
318.641 130.478 L
328.188 122 L
337.734 113.875 L
347.281 106.082 L
356.828 98.6 L
366.375 91.412 L
375.922 84.5 L
385.469 77.849 L
395.016 71.444 L
404.563 65.273 L
414.109 59.321 L
423.656 53.579 L
433.203 48.034 L
442.75 42.678 L
S
GR
GS
0.494 0.184 0.557 RC
1 LJ
2 LW
N
165.891 142.074 M
175.438 254.537 L
184.984 276.713 L
194.531 274.199 L
204.078 264.116 L
213.625 251.665 L
223.172 238.643 L
232.719 225.728 L
242.266 213.191 L
251.813 201.133 L
261.359 189.585 L
270.906 178.545 L
280.453 167.996 L
290 157.915 L
299.547 148.279 L
309.094 139.06 L
318.641 130.235 L
328.188 121.781 L
337.734 113.675 L
347.281 105.896 L
356.828 98.427 L
366.375 91.249 L
375.922 84.346 L
385.469 77.7 L
395.016 71.302 L
404.563 65.135 L
414.109 59.186 L
423.656 53.445 L
433.203 47.901 L
442.75 42.545 L
S
GR
GS
[1 0 0 1 184.98438 276.71265] CT
0.4 GC
10.0 ML
N
3 0 M
3 -1.657 1.657 -3 0 -3 C
-1.657 -3 -3 -1.657 -3 0 C
-3 1.657 -1.657 3 0 3 C
1.657 3 3 1.657 3 0 C
cp
S
GR
GS
[1 0 0 1 184.98438 72.59082] CT
/Helvetica 18 F
GS
[1 0 0 1 0 0] CT
0 7 moveto 
1 -1 scale
(R = 10 deg) t 
GR
GR
GS
1 GC
N
435 197 M
435 45.5 L
346.5 45.5 L
346.5 197 L
cp
f
GR
GS
[1 0 0 1 384 70] CT
/Helvetica 22.5 F
GS
[1 0 0 1 0 0] CT
0 0 moveto 
1 -1 scale
(J) t 
GR
GR
GS
[1 0 0 1 396 81] CT
/Helvetica 18 F
GS
[1 0 0 1 0 0] CT
0 0 moveto 
1 -1 scale
(A) t 
GR
GR
GS
0 0.447 0.741 RC
1 LJ
1.5 LW
N
350.5 65.75 M
380.5 65.75 L
S
GR
GS
[1 0 0 1 384 107] CT
/Helvetica 22.5 F
GS
[1 0 0 1 0 0] CT
0 0 moveto 
1 -1 scale
(J) t 
GR
GR
GS
[1 0 0 1 396 118] CT
/Helvetica 18 F
GS
[1 0 0 1 0 0] CT
0 0 moveto 
1 -1 scale
(E) t 
GR
GR
GS
0.851 0.325 0.098 RC
1 LJ
1.5 LW
N
350.5 102.75 M
380.5 102.75 L
S
GR
GS
[1 0 0 1 384 144] CT
/Helvetica 22.5 F
GS
[1 0 0 1 0 0] CT
0 0 moveto 
1 -1 scale
(J) t 
GR
GR
GS
[1 0 0 1 396 155] CT
/Helvetica 18 F
GS
[1 0 0 1 0 0] CT
0 0 moveto 
1 -1 scale
(D) t 
GR
GR
GS
0.929 0.694 0.125 RC
1 LJ
1.5 LW
N
350.5 139.75 M
380.5 139.75 L
S
GR
GS
[1 0 0 1 384 181] CT
/Helvetica 22.5 F
GS
[1 0 0 1 0 0] CT
0 0 moveto 
1 -1 scale
(J) t 
GR
GR
GS
[1 0 0 1 396 192] CT
/Helvetica 18 F
GS
[1 0 0 1 0 0] CT
0 0 moveto 
1 -1 scale
(AED) t 
GR
GR
GS
0.494 0.184 0.557 RC
1 LJ
2 LW
N
350.5 176.75 M
380.5 176.75 L
S
GR
GS
0.149 GC
10.0 ML
N
346.5 197 M
346.5 45.5 L
435 45.5 L
435 197 L
cp
S
GR
%%Trailer
%%Pages: 1
%%EOF
