%!PS-Adobe-3.0 EPSF-3.0
%%Creator: (MATLAB, The Mathworks, Inc. Version 9.5.0.944444 \(R2018b\). Operating System: Mac OS X)
%%Title: ./onsetsoffsets.eps
%%CreationDate: 2020-04-23T18:30:32
%%Pages: (atend)
%%BoundingBox:    47     0   463   398
%%LanguageLevel: 2
%%EndComments
%%BeginProlog
%%BeginResource: procset (Apache XML Graphics Std ProcSet) 1.2 0
%%Version: 1.2 0
%%Copyright: (Copyright 2001-2003,2010 The Apache Software Foundation. License terms: http://www.apache.org/licenses/LICENSE-2.0)
/bd{bind def}bind def
/ld{load def}bd
/GR/grestore ld
/GS/gsave ld
/RM/rmoveto ld
/C/curveto ld
/t/show ld
/L/lineto ld
/ML/setmiterlimit ld
/CT/concat ld
/f/fill ld
/N/newpath ld
/S/stroke ld
/CC/setcmykcolor ld
/A/ashow ld
/cp/closepath ld
/RC/setrgbcolor ld
/LJ/setlinejoin ld
/GC/setgray ld
/LW/setlinewidth ld
/M/moveto ld
/re {4 2 roll M
1 index 0 rlineto
0 exch rlineto
neg 0 rlineto
cp } bd
/_ctm matrix def
/_tm matrix def
/BT { _ctm currentmatrix pop matrix _tm copy pop 0 0 moveto } bd
/ET { _ctm setmatrix } bd
/iTm { _ctm setmatrix _tm concat } bd
/Tm { _tm astore pop iTm 0 0 moveto } bd
/ux 0.0 def
/uy 0.0 def
/F {
  /Tp exch def
  /Tf exch def
  Tf findfont Tp scalefont setfont
  /cf Tf def  /cs Tp def
} bd
/ULS {currentpoint /uy exch def /ux exch def} bd
/ULE {
  /Tcx currentpoint pop def
  gsave
  newpath
  cf findfont cs scalefont dup
  /FontMatrix get 0 get /Ts exch def /FontInfo get dup
  /UnderlinePosition get Ts mul /To exch def
  /UnderlineThickness get Ts mul /Tt exch def
  ux uy To add moveto  Tcx uy To add lineto
  Tt setlinewidth stroke
  grestore
} bd
/OLE {
  /Tcx currentpoint pop def
  gsave
  newpath
  cf findfont cs scalefont dup
  /FontMatrix get 0 get /Ts exch def /FontInfo get dup
  /UnderlinePosition get Ts mul /To exch def
  /UnderlineThickness get Ts mul /Tt exch def
  ux uy To add cs add moveto Tcx uy To add cs add lineto
  Tt setlinewidth stroke
  grestore
} bd
/SOE {
  /Tcx currentpoint pop def
  gsave
  newpath
  cf findfont cs scalefont dup
  /FontMatrix get 0 get /Ts exch def /FontInfo get dup
  /UnderlinePosition get Ts mul /To exch def
  /UnderlineThickness get Ts mul /Tt exch def
  ux uy To add cs 10 mul 26 idiv add moveto Tcx uy To add cs 10 mul 26 idiv add lineto
  Tt setlinewidth stroke
  grestore
} bd
/QT {
/Y22 exch store
/X22 exch store
/Y21 exch store
/X21 exch store
currentpoint
/Y21 load 2 mul add 3 div exch
/X21 load 2 mul add 3 div exch
/X21 load 2 mul /X22 load add 3 div
/Y21 load 2 mul /Y22 load add 3 div
/X22 load /Y22 load curveto
} bd
/SSPD {
dup length /d exch dict def
{
/v exch def
/k exch def
currentpagedevice k known {
/cpdv currentpagedevice k get def
v cpdv ne {
/upd false def
/nullv v type /nulltype eq def
/nullcpdv cpdv type /nulltype eq def
nullv nullcpdv or
{
/upd true def
} {
/sametype v type cpdv type eq def
sametype {
v type /arraytype eq {
/vlen v length def
/cpdvlen cpdv length def
vlen cpdvlen eq {
0 1 vlen 1 sub {
/i exch def
/obj v i get def
/cpdobj cpdv i get def
obj cpdobj ne {
/upd true def
exit
} if
} for
} {
/upd true def
} ifelse
} {
v type /dicttype eq {
v {
/dv exch def
/dk exch def
/cpddv cpdv dk get def
dv cpddv ne {
/upd true def
exit
} if
} forall
} {
/upd true def
} ifelse
} ifelse
} if
} ifelse
upd true eq {
d k v put
} if
} if
} if
} forall
d length 0 gt {
d setpagedevice
} if
} bd
/RE { % /NewFontName [NewEncodingArray] /FontName RE -
  findfont dup length dict begin
  {
    1 index /FID ne
    {def} {pop pop} ifelse
  } forall
  /Encoding exch def
  /FontName 1 index def
  currentdict definefont pop
  end
} bind def
%%EndResource
%%BeginResource: procset (Apache XML Graphics EPS ProcSet) 1.0 0
%%Version: 1.0 0
%%Copyright: (Copyright 2002-2003 The Apache Software Foundation. License terms: http://www.apache.org/licenses/LICENSE-2.0)
/BeginEPSF { %def
/b4_Inc_state save def         % Save state for cleanup
/dict_count countdictstack def % Count objects on dict stack
/op_count count 1 sub def      % Count objects on operand stack
userdict begin                 % Push userdict on dict stack
/showpage { } def              % Redefine showpage, { } = null proc
0 setgray 0 setlinecap         % Prepare graphics state
1 setlinewidth 0 setlinejoin
10 setmiterlimit [ ] 0 setdash newpath
/languagelevel where           % If level not equal to 1 then
{pop languagelevel             % set strokeadjust and
1 ne                           % overprint to their defaults.
{false setstrokeadjust false setoverprint
} if
} if
} bd
/EndEPSF { %def
count op_count sub {pop} repeat            % Clean up stacks
countdictstack dict_count sub {end} repeat
b4_Inc_state restore
} bd
%%EndResource
%FOPBeginFontDict
%%IncludeResource: font Courier-Oblique
%%IncludeResource: font Courier-BoldOblique
%%IncludeResource: font Courier-Bold
%%IncludeResource: font ZapfDingbats
%%IncludeResource: font Symbol
%%IncludeResource: font Helvetica
%%IncludeResource: font Helvetica-Oblique
%%IncludeResource: font Helvetica-Bold
%%IncludeResource: font Helvetica-BoldOblique
%%IncludeResource: font Times-Roman
%%IncludeResource: font Times-Italic
%%IncludeResource: font Times-Bold
%%IncludeResource: font Times-BoldItalic
%%IncludeResource: font Courier
%FOPEndFontDict
%%BeginResource: encoding WinAnsiEncoding
/WinAnsiEncoding [
/.notdef /.notdef /.notdef /.notdef /.notdef
/.notdef /.notdef /.notdef /.notdef /.notdef
/.notdef /.notdef /.notdef /.notdef /.notdef
/.notdef /.notdef /.notdef /.notdef /.notdef
/.notdef /.notdef /.notdef /.notdef /.notdef
/.notdef /.notdef /.notdef /.notdef /.notdef
/.notdef /.notdef /space /exclam /quotedbl
/numbersign /dollar /percent /ampersand /quotesingle
/parenleft /parenright /asterisk /plus /comma
/hyphen /period /slash /zero /one
/two /three /four /five /six
/seven /eight /nine /colon /semicolon
/less /equal /greater /question /at
/A /B /C /D /E
/F /G /H /I /J
/K /L /M /N /O
/P /Q /R /S /T
/U /V /W /X /Y
/Z /bracketleft /backslash /bracketright /asciicircum
/underscore /quoteleft /a /b /c
/d /e /f /g /h
/i /j /k /l /m
/n /o /p /q /r
/s /t /u /v /w
/x /y /z /braceleft /bar
/braceright /asciitilde /bullet /Euro /bullet
/quotesinglbase /florin /quotedblbase /ellipsis /dagger
/daggerdbl /circumflex /perthousand /Scaron /guilsinglleft
/OE /bullet /Zcaron /bullet /bullet
/quoteleft /quoteright /quotedblleft /quotedblright /bullet
/endash /emdash /asciitilde /trademark /scaron
/guilsinglright /oe /bullet /zcaron /Ydieresis
/space /exclamdown /cent /sterling /currency
/yen /brokenbar /section /dieresis /copyright
/ordfeminine /guillemotleft /logicalnot /sfthyphen /registered
/macron /degree /plusminus /twosuperior /threesuperior
/acute /mu /paragraph /middot /cedilla
/onesuperior /ordmasculine /guillemotright /onequarter /onehalf
/threequarters /questiondown /Agrave /Aacute /Acircumflex
/Atilde /Adieresis /Aring /AE /Ccedilla
/Egrave /Eacute /Ecircumflex /Edieresis /Igrave
/Iacute /Icircumflex /Idieresis /Eth /Ntilde
/Ograve /Oacute /Ocircumflex /Otilde /Odieresis
/multiply /Oslash /Ugrave /Uacute /Ucircumflex
/Udieresis /Yacute /Thorn /germandbls /agrave
/aacute /acircumflex /atilde /adieresis /aring
/ae /ccedilla /egrave /eacute /ecircumflex
/edieresis /igrave /iacute /icircumflex /idieresis
/eth /ntilde /ograve /oacute /ocircumflex
/otilde /odieresis /divide /oslash /ugrave
/uacute /ucircumflex /udieresis /yacute /thorn
/ydieresis
] def
%%EndResource
%FOPBeginFontReencode
/Courier-Oblique findfont
dup length dict begin
  {1 index /FID ne {def} {pop pop} ifelse} forall
  /Encoding WinAnsiEncoding def
  currentdict
end
/Courier-Oblique exch definefont pop
/Courier-BoldOblique findfont
dup length dict begin
  {1 index /FID ne {def} {pop pop} ifelse} forall
  /Encoding WinAnsiEncoding def
  currentdict
end
/Courier-BoldOblique exch definefont pop
/Courier-Bold findfont
dup length dict begin
  {1 index /FID ne {def} {pop pop} ifelse} forall
  /Encoding WinAnsiEncoding def
  currentdict
end
/Courier-Bold exch definefont pop
/Helvetica findfont
dup length dict begin
  {1 index /FID ne {def} {pop pop} ifelse} forall
  /Encoding WinAnsiEncoding def
  currentdict
end
/Helvetica exch definefont pop
/Helvetica-Oblique findfont
dup length dict begin
  {1 index /FID ne {def} {pop pop} ifelse} forall
  /Encoding WinAnsiEncoding def
  currentdict
end
/Helvetica-Oblique exch definefont pop
/Helvetica-Bold findfont
dup length dict begin
  {1 index /FID ne {def} {pop pop} ifelse} forall
  /Encoding WinAnsiEncoding def
  currentdict
end
/Helvetica-Bold exch definefont pop
/Helvetica-BoldOblique findfont
dup length dict begin
  {1 index /FID ne {def} {pop pop} ifelse} forall
  /Encoding WinAnsiEncoding def
  currentdict
end
/Helvetica-BoldOblique exch definefont pop
/Times-Roman findfont
dup length dict begin
  {1 index /FID ne {def} {pop pop} ifelse} forall
  /Encoding WinAnsiEncoding def
  currentdict
end
/Times-Roman exch definefont pop
/Times-Italic findfont
dup length dict begin
  {1 index /FID ne {def} {pop pop} ifelse} forall
  /Encoding WinAnsiEncoding def
  currentdict
end
/Times-Italic exch definefont pop
/Times-Bold findfont
dup length dict begin
  {1 index /FID ne {def} {pop pop} ifelse} forall
  /Encoding WinAnsiEncoding def
  currentdict
end
/Times-Bold exch definefont pop
/Times-BoldItalic findfont
dup length dict begin
  {1 index /FID ne {def} {pop pop} ifelse} forall
  /Encoding WinAnsiEncoding def
  currentdict
end
/Times-BoldItalic exch definefont pop
/Courier findfont
dup length dict begin
  {1 index /FID ne {def} {pop pop} ifelse} forall
  /Encoding WinAnsiEncoding def
  currentdict
end
/Courier exch definefont pop
%FOPEndFontReencode
%%EndProlog
%%Page: 1 1
%%PageBoundingBox: 0 0 560 420
%%BeginPageSetup
[1 0 0 -1 0 420] CT
%%EndPageSetup
GS
1 GC
N
0 0 560 420 re
f
GR
GS
1 GC
N
0 0 560 420 re
f
GR
GS
1 GC
N
134.25 343 M
445.75 343 L
445.75 31.5 L
134.25 31.5 L
cp
f
GR
GS
0.896 GC
1 LJ
N
134.25 343 M
134.25 31.5 L
S
GR
GS
0.896 GC
1 LJ
N
186.167 343 M
186.167 31.5 L
S
GR
GS
0.896 GC
1 LJ
N
238.083 343 M
238.083 31.5 L
S
GR
GS
0.896 GC
1 LJ
N
290 343 M
290 31.5 L
S
GR
GS
0.896 GC
1 LJ
N
341.917 343 M
341.917 31.5 L
S
GR
GS
0.896 GC
1 LJ
N
393.833 343 M
393.833 31.5 L
S
GR
GS
0.896 GC
1 LJ
N
445.75 343 M
445.75 31.5 L
S
GR
GS
0.896 GC
1 LJ
N
445.75 343 M
134.25 343 L
S
GR
GS
0.896 GC
1 LJ
N
445.75 291.083 M
134.25 291.083 L
S
GR
GS
0.896 GC
1 LJ
N
445.75 239.167 M
134.25 239.167 L
S
GR
GS
0.896 GC
1 LJ
N
445.75 187.25 M
134.25 187.25 L
S
GR
GS
0.896 GC
1 LJ
N
445.75 135.333 M
134.25 135.333 L
S
GR
GS
0.896 GC
1 LJ
N
445.75 83.417 M
134.25 83.417 L
S
GR
GS
0.896 GC
1 LJ
N
445.75 31.5 M
134.25 31.5 L
S
GR
GS
0.302 GC
2 setlinecap
1 LJ
N
134.25 343 M
445.75 343 L
S
GR
GS
0.302 GC
2 setlinecap
1 LJ
N
134.25 343 M
134.25 349.23 L
S
GR
GS
0.302 GC
2 setlinecap
1 LJ
N
186.167 343 M
186.167 349.23 L
S
GR
GS
0.302 GC
2 setlinecap
1 LJ
N
238.083 343 M
238.083 349.23 L
S
GR
GS
0.302 GC
2 setlinecap
1 LJ
N
290 343 M
290 349.23 L
S
GR
GS
0.302 GC
2 setlinecap
1 LJ
N
341.917 343 M
341.917 349.23 L
S
GR
GS
0.302 GC
2 setlinecap
1 LJ
N
393.833 343 M
393.833 349.23 L
S
GR
GS
0.302 GC
2 setlinecap
1 LJ
N
445.75 343 M
445.75 349.23 L
S
GR
GS
0.302 GC
2 setlinecap
1 LJ
N
147.229 343 M
147.229 346.115 L
S
GR
GS
0.302 GC
2 setlinecap
1 LJ
N
160.208 343 M
160.208 346.115 L
S
GR
GS
0.302 GC
2 setlinecap
1 LJ
N
173.188 343 M
173.188 346.115 L
S
GR
GS
0.302 GC
2 setlinecap
1 LJ
N
199.146 343 M
199.146 346.115 L
S
GR
GS
0.302 GC
2 setlinecap
1 LJ
N
212.125 343 M
212.125 346.115 L
S
GR
GS
0.302 GC
2 setlinecap
1 LJ
N
225.104 343 M
225.104 346.115 L
S
GR
GS
0.302 GC
2 setlinecap
1 LJ
N
251.063 343 M
251.063 346.115 L
S
GR
GS
0.302 GC
2 setlinecap
1 LJ
N
264.042 343 M
264.042 346.115 L
S
GR
GS
0.302 GC
2 setlinecap
1 LJ
N
277.021 343 M
277.021 346.115 L
S
GR
GS
0.302 GC
2 setlinecap
1 LJ
N
302.979 343 M
302.979 346.115 L
S
GR
GS
0.302 GC
2 setlinecap
1 LJ
N
315.958 343 M
315.958 346.115 L
S
GR
GS
0.302 GC
2 setlinecap
1 LJ
N
328.938 343 M
328.938 346.115 L
S
GR
GS
0.302 GC
2 setlinecap
1 LJ
N
354.896 343 M
354.896 346.115 L
S
GR
GS
0.302 GC
2 setlinecap
1 LJ
N
367.875 343 M
367.875 346.115 L
S
GR
GS
0.302 GC
2 setlinecap
1 LJ
N
380.854 343 M
380.854 346.115 L
S
GR
GS
0.302 GC
2 setlinecap
1 LJ
N
406.813 343 M
406.813 346.115 L
S
GR
GS
0.302 GC
2 setlinecap
1 LJ
N
419.792 343 M
419.792 346.115 L
S
GR
GS
0.302 GC
2 setlinecap
1 LJ
N
432.771 343 M
432.771 346.115 L
S
GR
GS
[1 0 0 1 134.25 356.23001] CT
0.302 GC
/Helvetica 25 F
GS
[1 0 0 1 0 0] CT
-22.5 24 moveto 
1 -1 scale
(-0.6) t 
GR
GR
GS
[1 0 0 1 186.16667 356.23001] CT
0.302 GC
/Helvetica 25 F
GS
[1 0 0 1 0 0] CT
-22.5 24 moveto 
1 -1 scale
(-0.4) t 
GR
GR
GS
[1 0 0 1 238.08333 356.23001] CT
0.302 GC
/Helvetica 25 F
GS
[1 0 0 1 0 0] CT
-22.5 24 moveto 
1 -1 scale
(-0.2) t 
GR
GR
GS
[1 0 0 1 290 356.23001] CT
0.302 GC
/Helvetica 25 F
GS
[1 0 0 1 0 0] CT
-7 24 moveto 
1 -1 scale
(0) t 
GR
GR
GS
[1 0 0 1 341.91666 356.23001] CT
0.302 GC
/Helvetica 25 F
GS
[1 0 0 1 0 0] CT
-17.5 24 moveto 
1 -1 scale
(0.2) t 
GR
GR
GS
[1 0 0 1 393.83334 356.23001] CT
0.302 GC
/Helvetica 25 F
GS
[1 0 0 1 0 0] CT
-17.5 24 moveto 
1 -1 scale
(0.4) t 
GR
GR
GS
[1 0 0 1 445.75 356.23001] CT
0.302 GC
/Helvetica 25 F
GS
[1 0 0 1 0 0] CT
-17.5 24 moveto 
1 -1 scale
(0.6) t 
GR
GR
GS
[1 0 0 1 290.00015 386.73001] CT
0.302 GC
/Helvetica 27.5 F
GS
[1 0 0 1 0 0] CT
-55 27 moveto 
1 -1 scale
(ry [rad/2]) t 
GR
GR
GS
0.302 GC
2 setlinecap
1 LJ
N
134.25 343 M
134.25 31.5 L
S
GR
GS
0.302 GC
2 setlinecap
1 LJ
N
134.25 343 M
128.02 343 L
S
GR
GS
0.302 GC
2 setlinecap
1 LJ
N
134.25 291.083 M
128.02 291.083 L
S
GR
GS
0.302 GC
2 setlinecap
1 LJ
N
134.25 239.167 M
128.02 239.167 L
S
GR
GS
0.302 GC
2 setlinecap
1 LJ
N
134.25 187.25 M
128.02 187.25 L
S
GR
GS
0.302 GC
2 setlinecap
1 LJ
N
134.25 135.333 M
128.02 135.333 L
S
GR
GS
0.302 GC
2 setlinecap
1 LJ
N
134.25 83.417 M
128.02 83.417 L
S
GR
GS
0.302 GC
2 setlinecap
1 LJ
N
134.25 31.5 M
128.02 31.5 L
S
GR
GS
0.302 GC
2 setlinecap
1 LJ
N
134.25 330.021 M
131.135 330.021 L
S
GR
GS
0.302 GC
2 setlinecap
1 LJ
N
134.25 317.042 M
131.135 317.042 L
S
GR
GS
0.302 GC
2 setlinecap
1 LJ
N
134.25 304.063 M
131.135 304.063 L
S
GR
GS
0.302 GC
2 setlinecap
1 LJ
N
134.25 278.104 M
131.135 278.104 L
S
GR
GS
0.302 GC
2 setlinecap
1 LJ
N
134.25 265.125 M
131.135 265.125 L
S
GR
GS
0.302 GC
2 setlinecap
1 LJ
N
134.25 252.146 M
131.135 252.146 L
S
GR
GS
0.302 GC
2 setlinecap
1 LJ
N
134.25 226.188 M
131.135 226.188 L
S
GR
GS
0.302 GC
2 setlinecap
1 LJ
N
134.25 213.208 M
131.135 213.208 L
S
GR
GS
0.302 GC
2 setlinecap
1 LJ
N
134.25 200.229 M
131.135 200.229 L
S
GR
GS
0.302 GC
2 setlinecap
1 LJ
N
134.25 174.271 M
131.135 174.271 L
S
GR
GS
0.302 GC
2 setlinecap
1 LJ
N
134.25 161.292 M
131.135 161.292 L
S
GR
GS
0.302 GC
2 setlinecap
1 LJ
N
134.25 148.313 M
131.135 148.313 L
S
GR
GS
0.302 GC
2 setlinecap
1 LJ
N
134.25 122.354 M
131.135 122.354 L
S
GR
GS
0.302 GC
2 setlinecap
1 LJ
N
134.25 109.375 M
131.135 109.375 L
S
GR
GS
0.302 GC
2 setlinecap
1 LJ
N
134.25 96.396 M
131.135 96.396 L
S
GR
GS
0.302 GC
2 setlinecap
1 LJ
N
134.25 70.438 M
131.135 70.438 L
S
GR
GS
0.302 GC
2 setlinecap
1 LJ
N
134.25 57.458 M
131.135 57.458 L
S
GR
GS
0.302 GC
2 setlinecap
1 LJ
N
134.25 44.479 M
131.135 44.479 L
S
GR
GS
[1 0 0 1 121.02 343] CT
0.302 GC
/Helvetica 25 F
GS
[1 0 0 1 0 0] CT
-45 9 moveto 
1 -1 scale
(-0.6) t 
GR
GR
GS
[1 0 0 1 121.02 291.08334] CT
0.302 GC
/Helvetica 25 F
GS
[1 0 0 1 0 0] CT
-45 9 moveto 
1 -1 scale
(-0.4) t 
GR
GR
GS
[1 0 0 1 121.02 239.16667] CT
0.302 GC
/Helvetica 25 F
GS
[1 0 0 1 0 0] CT
-45 9 moveto 
1 -1 scale
(-0.2) t 
GR
GR
GS
[1 0 0 1 121.02 187.25] CT
0.302 GC
/Helvetica 25 F
GS
[1 0 0 1 0 0] CT
-14 9 moveto 
1 -1 scale
(0) t 
GR
GR
GS
[1 0 0 1 121.02 135.33333] CT
0.302 GC
/Helvetica 25 F
GS
[1 0 0 1 0 0] CT
-35 9 moveto 
1 -1 scale
(0.2) t 
GR
GR
GS
[1 0 0 1 121.02 83.41666] CT
0.302 GC
/Helvetica 25 F
GS
[1 0 0 1 0 0] CT
-35 9 moveto 
1 -1 scale
(0.4) t 
GR
GR
GS
[1 0 0 1 121.02 31.49999] CT
0.302 GC
/Helvetica 25 F
GS
[1 0 0 1 0 0] CT
-35 9 moveto 
1 -1 scale
(0.6) t 
GR
GR
GS
[0 -1 1 0 73.51999 187.24985] CT
0.302 GC
/Helvetica 27.5 F
GS
[1 0 0 1 0 0] CT
-54.5 -6 moveto 
1 -1 scale
(rz [rad/2]) t 
GR
GR
GS
[1 0 0 1 332.0864 179.14503] CT
1 0 0 RC
N
5 0 M
5 -2.761 2.761 -5 0 -5 C
-2.761 -5 -5 -2.761 -5 0 C
-5 2.761 -2.761 5 0 5 C
2.761 5 5 2.761 5 0 C
cp
f
GR
GS
[1 0 0 1 332.0864 179.14503] CT
1 0 0 RC
10.0 ML
N
5 0 M
5 -2.761 2.761 -5 0 -5 C
-2.761 -5 -5 -2.761 -5 0 C
-5 2.761 -2.761 5 0 5 C
2.761 5 5 2.761 5 0 C
cp
S
GR
GS
[1 0 0 1 207.7113 151.95099] CT
1 0 0 RC
N
/f536683381{5 0 M
5 -2.761 2.761 -5 0 -5 C
-2.761 -5 -5 -2.761 -5 0 C
-5 2.761 -2.761 5 0 5 C
2.761 5 5 2.761 5 0 C
cp}def
f536683381
f
GR
GS
[1 0 0 1 207.7113 151.95099] CT
1 0 0 RC
10.0 ML
N
5 0 M
5 -2.761 2.761 -5 0 -5 C
-2.761 -5 -5 -2.761 -5 0 C
-5 2.761 -2.761 5 0 5 C
2.761 5 5 2.761 5 0 C
cp
S
GR
GS
[1 0 0 1 294.75031 172.72748] CT
1 0 0 RC
N
f536683381
f
GR
GS
[1 0 0 1 294.75031 172.72748] CT
1 0 0 RC
10.0 ML
N
5 0 M
5 -2.761 2.761 -5 0 -5 C
-2.761 -5 -5 -2.761 -5 0 C
-5 2.761 -2.761 5 0 5 C
2.761 5 5 2.761 5 0 C
cp
S
GR
GS
[1 0 0 1 189.20825 209.94643] CT
1 0 0 RC
N
f536683381
f
GR
GS
[1 0 0 1 189.20825 209.94643] CT
1 0 0 RC
10.0 ML
N
5 0 M
5 -2.761 2.761 -5 0 -5 C
-2.761 -5 -5 -2.761 -5 0 C
-5 2.761 -2.761 5 0 5 C
2.761 5 5 2.761 5 0 C
cp
S
GR
GS
[1 0 0 1 274.07968 199.78885] CT
1 0 0 RC
N
f536683381
f
GR
GS
[1 0 0 1 274.07968 199.78885] CT
1 0 0 RC
10.0 ML
N
5 0 M
5 -2.761 2.761 -5 0 -5 C
-2.761 -5 -5 -2.761 -5 0 C
-5 2.761 -2.761 5 0 5 C
2.761 5 5 2.761 5 0 C
cp
S
GR
GS
[1 0 0 1 254.106 263.62128] CT
1 0 0 RC
N
f536683381
f
GR
GS
[1 0 0 1 254.106 263.62128] CT
1 0 0 RC
10.0 ML
N
5 0 M
5 -2.761 2.761 -5 0 -5 C
-2.761 -5 -5 -2.761 -5 0 C
-5 2.761 -2.761 5 0 5 C
2.761 5 5 2.761 5 0 C
cp
S
GR
GS
[1 0 0 1 366.02399 176.87828] CT
1 0 0 RC
N
f536683381
f
GR
GS
[1 0 0 1 366.02399 176.87828] CT
1 0 0 RC
10.0 ML
N
5 0 M
5 -2.761 2.761 -5 0 -5 C
-2.761 -5 -5 -2.761 -5 0 C
-5 2.761 -2.761 5 0 5 C
2.761 5 5 2.761 5 0 C
cp
S
GR
GS
[1 0 0 1 271.05121 189.49706] CT
1 0 0 RC
N
f536683381
f
GR
GS
[1 0 0 1 271.05121 189.49706] CT
1 0 0 RC
10.0 ML
N
5 0 M
5 -2.761 2.761 -5 0 -5 C
-2.761 -5 -5 -2.761 -5 0 C
-5 2.761 -2.761 5 0 5 C
2.761 5 5 2.761 5 0 C
cp
S
GR
GS
[1 0 0 1 344.89029 184.31932] CT
1 0 0 RC
N
f536683381
f
GR
GS
[1 0 0 1 344.89029 184.31932] CT
1 0 0 RC
10.0 ML
N
5 0 M
5 -2.761 2.761 -5 0 -5 C
-2.761 -5 -5 -2.761 -5 0 C
-5 2.761 -2.761 5 0 5 C
2.761 5 5 2.761 5 0 C
cp
S
GR
GS
[1 0 0 1 230.86395 175.65906] CT
1 0 0 RC
N
f536683381
f
GR
GS
[1 0 0 1 230.86395 175.65906] CT
1 0 0 RC
10.0 ML
N
5 0 M
5 -2.761 2.761 -5 0 -5 C
-2.761 -5 -5 -2.761 -5 0 C
-5 2.761 -2.761 5 0 5 C
2.761 5 5 2.761 5 0 C
cp
S
GR
GS
[1 0 0 1 246.62517 105.76664] CT
1 0 0 RC
N
f536683381
f
GR
GS
[1 0 0 1 246.62517 105.76664] CT
1 0 0 RC
10.0 ML
N
5 0 M
5 -2.761 2.761 -5 0 -5 C
-2.761 -5 -5 -2.761 -5 0 C
-5 2.761 -2.761 5 0 5 C
2.761 5 5 2.761 5 0 C
cp
S
GR
GS
[1 0 0 1 218.64732 175.1373] CT
1 0 0 RC
N
f536683381
f
GR
GS
[1 0 0 1 218.64732 175.1373] CT
1 0 0 RC
10.0 ML
N
5 0 M
5 -2.761 2.761 -5 0 -5 C
-2.761 -5 -5 -2.761 -5 0 C
-5 2.761 -2.761 5 0 5 C
2.761 5 5 2.761 5 0 C
cp
S
GR
GS
[1 0 0 1 292.99615 173.77806] CT
1 0 0 RC
N
f536683381
f
GR
GS
[1 0 0 1 292.99615 173.77806] CT
1 0 0 RC
10.0 ML
N
5 0 M
5 -2.761 2.761 -5 0 -5 C
-2.761 -5 -5 -2.761 -5 0 C
-5 2.761 -2.761 5 0 5 C
2.761 5 5 2.761 5 0 C
cp
S
GR
GS
[1 0 0 1 184.66414 145.81821] CT
1 0 0 RC
N
f536683381
f
GR
GS
[1 0 0 1 184.66414 145.81821] CT
1 0 0 RC
10.0 ML
N
5 0 M
5 -2.761 2.761 -5 0 -5 C
-2.761 -5 -5 -2.761 -5 0 C
-5 2.761 -2.761 5 0 5 C
2.761 5 5 2.761 5 0 C
cp
S
GR
GS
[1 0 0 1 273.17511 155.01054] CT
1 0 0 RC
N
f536683381
f
GR
GS
[1 0 0 1 273.17511 155.01054] CT
1 0 0 RC
10.0 ML
N
5 0 M
5 -2.761 2.761 -5 0 -5 C
-2.761 -5 -5 -2.761 -5 0 C
-5 2.761 -2.761 5 0 5 C
2.761 5 5 2.761 5 0 C
cp
S
GR
GS
[1 0 0 1 235.55664 163.68837] CT
1 0 0 RC
N
f536683381
f
GR
GS
[1 0 0 1 235.55664 163.68837] CT
1 0 0 RC
10.0 ML
N
5 0 M
5 -2.761 2.761 -5 0 -5 C
-2.761 -5 -5 -2.761 -5 0 C
-5 2.761 -2.761 5 0 5 C
2.761 5 5 2.761 5 0 C
cp
S
GR
GS
[1 0 0 1 355.72644 181.82761] CT
1 0 0 RC
N
f536683381
f
GR
GS
[1 0 0 1 355.72644 181.82761] CT
1 0 0 RC
10.0 ML
N
5 0 M
5 -2.761 2.761 -5 0 -5 C
-2.761 -5 -5 -2.761 -5 0 C
-5 2.761 -2.761 5 0 5 C
2.761 5 5 2.761 5 0 C
cp
S
GR
GS
[1 0 0 1 253.42648 199.18454] CT
1 0 0 RC
N
f536683381
f
GR
GS
[1 0 0 1 253.42648 199.18454] CT
1 0 0 RC
10.0 ML
N
5 0 M
5 -2.761 2.761 -5 0 -5 C
-2.761 -5 -5 -2.761 -5 0 C
-5 2.761 -2.761 5 0 5 C
2.761 5 5 2.761 5 0 C
cp
S
GR
GS
[1 0 0 1 241.00468 175.74374] CT
1 0 0 RC
N
f536683381
f
GR
GS
[1 0 0 1 241.00468 175.74374] CT
1 0 0 RC
10.0 ML
N
5 0 M
5 -2.761 2.761 -5 0 -5 C
-2.761 -5 -5 -2.761 -5 0 C
-5 2.761 -2.761 5 0 5 C
2.761 5 5 2.761 5 0 C
cp
S
GR
GS
[1 0 0 1 174.68587 217.19716] CT
1 0 0 RC
N
f536683381
f
GR
GS
[1 0 0 1 174.68587 217.19716] CT
1 0 0 RC
10.0 ML
N
5 0 M
5 -2.761 2.761 -5 0 -5 C
-2.761 -5 -5 -2.761 -5 0 C
-5 2.761 -2.761 5 0 5 C
2.761 5 5 2.761 5 0 C
cp
S
GR
GS
[1 0 0 1 254.53583 194.2562] CT
1 0 0 RC
N
f536683381
f
GR
GS
[1 0 0 1 254.53583 194.2562] CT
1 0 0 RC
10.0 ML
N
5 0 M
5 -2.761 2.761 -5 0 -5 C
-2.761 -5 -5 -2.761 -5 0 C
-5 2.761 -2.761 5 0 5 C
2.761 5 5 2.761 5 0 C
cp
S
GR
GS
[1 0 0 1 171.34865 117.68056] CT
1 0 0 RC
N
f536683381
f
GR
GS
[1 0 0 1 171.34865 117.68056] CT
1 0 0 RC
10.0 ML
N
5 0 M
5 -2.761 2.761 -5 0 -5 C
-2.761 -5 -5 -2.761 -5 0 C
-5 2.761 -2.761 5 0 5 C
2.761 5 5 2.761 5 0 C
cp
S
GR
GS
[1 0 0 1 236.50671 145.52917] CT
1 0 0 RC
N
f536683381
f
GR
GS
[1 0 0 1 236.50671 145.52917] CT
1 0 0 RC
10.0 ML
N
5 0 M
5 -2.761 2.761 -5 0 -5 C
-2.761 -5 -5 -2.761 -5 0 C
-5 2.761 -2.761 5 0 5 C
2.761 5 5 2.761 5 0 C
cp
S
GR
GS
[1 0 0 1 188.83215 152.47733] CT
1 0 0 RC
N
f536683381
f
GR
GS
[1 0 0 1 188.83215 152.47733] CT
1 0 0 RC
10.0 ML
N
5 0 M
5 -2.761 2.761 -5 0 -5 C
-2.761 -5 -5 -2.761 -5 0 C
-5 2.761 -2.761 5 0 5 C
2.761 5 5 2.761 5 0 C
cp
S
GR
GS
[1 0 0 1 274.13727 189.70383] CT
1 0 0 RC
N
f536683381
f
GR
GS
[1 0 0 1 274.13727 189.70383] CT
1 0 0 RC
10.0 ML
N
5 0 M
5 -2.761 2.761 -5 0 -5 C
-2.761 -5 -5 -2.761 -5 0 C
-5 2.761 -2.761 5 0 5 C
2.761 5 5 2.761 5 0 C
cp
S
GR
GS
[1 0 0 1 290.5881 189.517] CT
1 0 0 RC
N
f536683381
f
GR
GS
[1 0 0 1 290.5881 189.517] CT
1 0 0 RC
10.0 ML
N
5 0 M
5 -2.761 2.761 -5 0 -5 C
-2.761 -5 -5 -2.761 -5 0 C
-5 2.761 -2.761 5 0 5 C
2.761 5 5 2.761 5 0 C
cp
S
GR
GS
[1 0 0 1 226.42862 145.9725] CT
1 0 0 RC
N
f536683381
f
GR
GS
[1 0 0 1 226.42862 145.9725] CT
1 0 0 RC
10.0 ML
N
5 0 M
5 -2.761 2.761 -5 0 -5 C
-2.761 -5 -5 -2.761 -5 0 C
-5 2.761 -2.761 5 0 5 C
2.761 5 5 2.761 5 0 C
cp
S
GR
GS
[1 0 0 1 308.87402 183.90894] CT
1 0 0 RC
N
f536683381
f
GR
GS
[1 0 0 1 308.87402 183.90894] CT
1 0 0 RC
10.0 ML
N
5 0 M
5 -2.761 2.761 -5 0 -5 C
-2.761 -5 -5 -2.761 -5 0 C
-5 2.761 -2.761 5 0 5 C
2.761 5 5 2.761 5 0 C
cp
S
GR
GS
[1 0 0 1 288.40598 250.83118] CT
1 0 0 RC
N
f536683381
f
GR
GS
[1 0 0 1 288.40598 250.83118] CT
1 0 0 RC
10.0 ML
N
5 0 M
5 -2.761 2.761 -5 0 -5 C
-2.761 -5 -5 -2.761 -5 0 C
-5 2.761 -2.761 5 0 5 C
2.761 5 5 2.761 5 0 C
cp
S
GR
GS
[1 0 0 1 263.07819 217.94908] CT
1 0 0 RC
N
f536683381
f
GR
GS
[1 0 0 1 263.07819 217.94908] CT
1 0 0 RC
10.0 ML
N
5 0 M
5 -2.761 2.761 -5 0 -5 C
-2.761 -5 -5 -2.761 -5 0 C
-5 2.761 -2.761 5 0 5 C
2.761 5 5 2.761 5 0 C
cp
S
GR
GS
[1 0 0 1 313.5542 204.83844] CT
1 0 0 RC
N
f536683381
f
GR
GS
[1 0 0 1 313.5542 204.83844] CT
1 0 0 RC
10.0 ML
N
5 0 M
5 -2.761 2.761 -5 0 -5 C
-2.761 -5 -5 -2.761 -5 0 C
-5 2.761 -2.761 5 0 5 C
2.761 5 5 2.761 5 0 C
cp
S
GR
GS
[1 0 0 1 191.52914 173.19745] CT
1 0 0 RC
N
f536683381
f
GR
GS
[1 0 0 1 191.52914 173.19745] CT
1 0 0 RC
10.0 ML
N
5 0 M
5 -2.761 2.761 -5 0 -5 C
-2.761 -5 -5 -2.761 -5 0 C
-5 2.761 -2.761 5 0 5 C
2.761 5 5 2.761 5 0 C
cp
S
GR
GS
[1 0 0 1 321.25827 151.39267] CT
1 0 0 RC
N
f536683381
f
GR
GS
[1 0 0 1 321.25827 151.39267] CT
1 0 0 RC
10.0 ML
N
5 0 M
5 -2.761 2.761 -5 0 -5 C
-2.761 -5 -5 -2.761 -5 0 C
-5 2.761 -2.761 5 0 5 C
2.761 5 5 2.761 5 0 C
cp
S
GR
GS
[1 0 0 1 227.28377 185.54552] CT
1 0 0 RC
N
f536683381
f
GR
GS
[1 0 0 1 227.28377 185.54552] CT
1 0 0 RC
10.0 ML
N
5 0 M
5 -2.761 2.761 -5 0 -5 C
-2.761 -5 -5 -2.761 -5 0 C
-5 2.761 -2.761 5 0 5 C
2.761 5 5 2.761 5 0 C
cp
S
GR
GS
[1 0 0 1 273.77466 179.20407] CT
1 0 0 RC
N
f536683381
f
GR
GS
[1 0 0 1 273.77466 179.20407] CT
1 0 0 RC
10.0 ML
N
5 0 M
5 -2.761 2.761 -5 0 -5 C
-2.761 -5 -5 -2.761 -5 0 C
-5 2.761 -2.761 5 0 5 C
2.761 5 5 2.761 5 0 C
cp
S
GR
GS
[1 0 0 1 251.00208 199.05388] CT
1 0 0 RC
N
f536683381
f
GR
GS
[1 0 0 1 251.00208 199.05388] CT
1 0 0 RC
10.0 ML
N
5 0 M
5 -2.761 2.761 -5 0 -5 C
-2.761 -5 -5 -2.761 -5 0 C
-5 2.761 -2.761 5 0 5 C
2.761 5 5 2.761 5 0 C
cp
S
GR
GS
[1 0 0 1 324.67264 170.81477] CT
1 0 0 RC
N
f536683381
f
GR
GS
[1 0 0 1 324.67264 170.81477] CT
1 0 0 RC
10.0 ML
N
5 0 M
5 -2.761 2.761 -5 0 -5 C
-2.761 -5 -5 -2.761 -5 0 C
-5 2.761 -2.761 5 0 5 C
2.761 5 5 2.761 5 0 C
cp
S
GR
GS
[1 0 0 1 270.03378 212.09291] CT
1 0 0 RC
N
f536683381
f
GR
GS
[1 0 0 1 270.03378 212.09291] CT
1 0 0 RC
10.0 ML
N
5 0 M
5 -2.761 2.761 -5 0 -5 C
-2.761 -5 -5 -2.761 -5 0 C
-5 2.761 -2.761 5 0 5 C
2.761 5 5 2.761 5 0 C
cp
S
GR
GS
[1 0 0 1 249.29948 179.23561] CT
1 0 0 RC
N
f536683381
f
GR
GS
[1 0 0 1 249.29948 179.23561] CT
1 0 0 RC
10.0 ML
N
5 0 M
5 -2.761 2.761 -5 0 -5 C
-2.761 -5 -5 -2.761 -5 0 C
-5 2.761 -2.761 5 0 5 C
2.761 5 5 2.761 5 0 C
cp
S
GR
GS
[1 0 0 1 340.24231 218.22243] CT
1 0 0 RC
N
f536683381
f
GR
GS
[1 0 0 1 340.24231 218.22243] CT
1 0 0 RC
10.0 ML
N
5 0 M
5 -2.761 2.761 -5 0 -5 C
-2.761 -5 -5 -2.761 -5 0 C
-5 2.761 -2.761 5 0 5 C
2.761 5 5 2.761 5 0 C
cp
S
GR
GS
[1 0 0 1 198.48094 173.88821] CT
1 0 0 RC
N
f536683381
f
GR
GS
[1 0 0 1 198.48094 173.88821] CT
1 0 0 RC
10.0 ML
N
5 0 M
5 -2.761 2.761 -5 0 -5 C
-2.761 -5 -5 -2.761 -5 0 C
-5 2.761 -2.761 5 0 5 C
2.761 5 5 2.761 5 0 C
cp
S
GR
GS
[1 0 0 1 314.90512 145.00868] CT
1 0 0 RC
N
f536683381
f
GR
GS
[1 0 0 1 314.90512 145.00868] CT
1 0 0 RC
10.0 ML
N
5 0 M
5 -2.761 2.761 -5 0 -5 C
-2.761 -5 -5 -2.761 -5 0 C
-5 2.761 -2.761 5 0 5 C
2.761 5 5 2.761 5 0 C
cp
S
GR
GS
[1 0 0 1 278.25217 204.65367] CT
1 0 0 RC
N
f536683381
f
GR
GS
[1 0 0 1 278.25217 204.65367] CT
1 0 0 RC
10.0 ML
N
5 0 M
5 -2.761 2.761 -5 0 -5 C
-2.761 -5 -5 -2.761 -5 0 C
-5 2.761 -2.761 5 0 5 C
2.761 5 5 2.761 5 0 C
cp
S
GR
GS
[1 0 0 1 280.97 218.9968] CT
1 0 0 RC
N
f536683381
f
GR
GS
[1 0 0 1 280.97 218.9968] CT
1 0 0 RC
10.0 ML
N
5 0 M
5 -2.761 2.761 -5 0 -5 C
-2.761 -5 -5 -2.761 -5 0 C
-5 2.761 -2.761 5 0 5 C
2.761 5 5 2.761 5 0 C
cp
S
GR
GS
[1 0 0 1 282.65689 175.03877] CT
1 0 0 RC
N
f536683381
f
GR
GS
[1 0 0 1 282.65689 175.03877] CT
1 0 0 RC
10.0 ML
N
5 0 M
5 -2.761 2.761 -5 0 -5 C
-2.761 -5 -5 -2.761 -5 0 C
-5 2.761 -2.761 5 0 5 C
2.761 5 5 2.761 5 0 C
cp
S
GR
GS
[1 0 0 1 285.75006 251.70572] CT
1 0 0 RC
N
f536683381
f
GR
GS
[1 0 0 1 285.75006 251.70572] CT
1 0 0 RC
10.0 ML
N
5 0 M
5 -2.761 2.761 -5 0 -5 C
-2.761 -5 -5 -2.761 -5 0 C
-5 2.761 -2.761 5 0 5 C
2.761 5 5 2.761 5 0 C
cp
S
GR
GS
[1 0 0 1 326.66919 212.33727] CT
1 0 0 RC
N
f536683381
f
GR
GS
[1 0 0 1 326.66919 212.33727] CT
1 0 0 RC
10.0 ML
N
5 0 M
5 -2.761 2.761 -5 0 -5 C
-2.761 -5 -5 -2.761 -5 0 C
-5 2.761 -2.761 5 0 5 C
2.761 5 5 2.761 5 0 C
cp
S
GR
GS
[1 0 0 1 221.57207 275.15714] CT
1 0 0 RC
N
f536683381
f
GR
GS
[1 0 0 1 221.57207 275.15714] CT
1 0 0 RC
10.0 ML
N
5 0 M
5 -2.761 2.761 -5 0 -5 C
-2.761 -5 -5 -2.761 -5 0 C
-5 2.761 -2.761 5 0 5 C
2.761 5 5 2.761 5 0 C
cp
S
GR
GS
[1 0 0 1 300.07516 251.58038] CT
1 0 0 RC
N
f536683381
f
GR
GS
[1 0 0 1 300.07516 251.58038] CT
1 0 0 RC
10.0 ML
N
5 0 M
5 -2.761 2.761 -5 0 -5 C
-2.761 -5 -5 -2.761 -5 0 C
-5 2.761 -2.761 5 0 5 C
2.761 5 5 2.761 5 0 C
cp
S
GR
GS
[1 0 0 1 279.96793 228.43768] CT
1 0 0 RC
N
f536683381
f
GR
GS
[1 0 0 1 279.96793 228.43768] CT
1 0 0 RC
10.0 ML
N
5 0 M
5 -2.761 2.761 -5 0 -5 C
-2.761 -5 -5 -2.761 -5 0 C
-5 2.761 -2.761 5 0 5 C
2.761 5 5 2.761 5 0 C
cp
S
GR
GS
[1 0 0 1 225.8474 220.78758] CT
1 0 0 RC
N
f536683381
f
GR
GS
[1 0 0 1 225.8474 220.78758] CT
1 0 0 RC
10.0 ML
N
5 0 M
5 -2.761 2.761 -5 0 -5 C
-2.761 -5 -5 -2.761 -5 0 C
-5 2.761 -2.761 5 0 5 C
2.761 5 5 2.761 5 0 C
cp
S
GR
GS
[1 0 0 1 351.12241 214.69843] CT
1 0 0 RC
N
f536683381
f
GR
GS
[1 0 0 1 351.12241 214.69843] CT
1 0 0 RC
10.0 ML
N
5 0 M
5 -2.761 2.761 -5 0 -5 C
-2.761 -5 -5 -2.761 -5 0 C
-5 2.761 -2.761 5 0 5 C
2.761 5 5 2.761 5 0 C
cp
S
GR
GS
[1 0 0 1 236.12517 226.71912] CT
1 0 0 RC
N
f536683381
f
GR
GS
[1 0 0 1 236.12517 226.71912] CT
1 0 0 RC
10.0 ML
N
5 0 M
5 -2.761 2.761 -5 0 -5 C
-2.761 -5 -5 -2.761 -5 0 C
-5 2.761 -2.761 5 0 5 C
2.761 5 5 2.761 5 0 C
cp
S
GR
GS
[1 0 0 1 340.72455 191.92209] CT
1 0 0 RC
N
f536683381
f
GR
GS
[1 0 0 1 340.72455 191.92209] CT
1 0 0 RC
10.0 ML
N
5 0 M
5 -2.761 2.761 -5 0 -5 C
-2.761 -5 -5 -2.761 -5 0 C
-5 2.761 -2.761 5 0 5 C
2.761 5 5 2.761 5 0 C
cp
S
GR
GS
[1 0 0 1 239.46608 174.63635] CT
1 0 0 RC
N
f536683381
f
GR
GS
[1 0 0 1 239.46608 174.63635] CT
1 0 0 RC
10.0 ML
N
5 0 M
5 -2.761 2.761 -5 0 -5 C
-2.761 -5 -5 -2.761 -5 0 C
-5 2.761 -2.761 5 0 5 C
2.761 5 5 2.761 5 0 C
cp
S
GR
GS
[1 0 0 1 349.84412 152.72885] CT
1 0 0 RC
N
f536683381
f
GR
GS
[1 0 0 1 349.84412 152.72885] CT
1 0 0 RC
10.0 ML
N
5 0 M
5 -2.761 2.761 -5 0 -5 C
-2.761 -5 -5 -2.761 -5 0 C
-5 2.761 -2.761 5 0 5 C
2.761 5 5 2.761 5 0 C
cp
S
GR
GS
[1 0 0 1 205.95531 181.52399] CT
1 0 0 RC
N
f536683381
f
GR
GS
[1 0 0 1 205.95531 181.52399] CT
1 0 0 RC
10.0 ML
N
5 0 M
5 -2.761 2.761 -5 0 -5 C
-2.761 -5 -5 -2.761 -5 0 C
-5 2.761 -2.761 5 0 5 C
2.761 5 5 2.761 5 0 C
cp
S
GR
GS
[1 0 0 1 326.12979 170.68857] CT
1 0 0 RC
N
f536683381
f
GR
GS
[1 0 0 1 326.12979 170.68857] CT
1 0 0 RC
10.0 ML
N
5 0 M
5 -2.761 2.761 -5 0 -5 C
-2.761 -5 -5 -2.761 -5 0 C
-5 2.761 -2.761 5 0 5 C
2.761 5 5 2.761 5 0 C
cp
S
GR
GS
[1 0 0 1 287.54138 102.58232] CT
1 0 0 RC
N
f536683381
f
GR
GS
[1 0 0 1 287.54138 102.58232] CT
1 0 0 RC
10.0 ML
N
5 0 M
5 -2.761 2.761 -5 0 -5 C
-2.761 -5 -5 -2.761 -5 0 C
-5 2.761 -2.761 5 0 5 C
2.761 5 5 2.761 5 0 C
cp
S
GR
GS
[1 0 0 1 336.94733 163.1911] CT
1 0 0 RC
N
f536683381
f
GR
GS
[1 0 0 1 336.94733 163.1911] CT
1 0 0 RC
10.0 ML
N
5 0 M
5 -2.761 2.761 -5 0 -5 C
-2.761 -5 -5 -2.761 -5 0 C
-5 2.761 -2.761 5 0 5 C
2.761 5 5 2.761 5 0 C
cp
S
GR
GS
[1 0 0 1 243.72368 179.3838] CT
1 0 0 RC
N
f536683381
f
GR
GS
[1 0 0 1 243.72368 179.3838] CT
1 0 0 RC
10.0 ML
N
5 0 M
5 -2.761 2.761 -5 0 -5 C
-2.761 -5 -5 -2.761 -5 0 C
-5 2.761 -2.761 5 0 5 C
2.761 5 5 2.761 5 0 C
cp
S
GR
GS
[1 0 0 1 311.60666 181.88771] CT
1 0 0 RC
N
f536683381
f
GR
GS
[1 0 0 1 311.60666 181.88771] CT
1 0 0 RC
10.0 ML
N
5 0 M
5 -2.761 2.761 -5 0 -5 C
-2.761 -5 -5 -2.761 -5 0 C
-5 2.761 -2.761 5 0 5 C
2.761 5 5 2.761 5 0 C
cp
S
GR
GS
[1 0 0 1 321.32111 208.82088] CT
1 0 0 RC
N
f536683381
f
GR
GS
[1 0 0 1 321.32111 208.82088] CT
1 0 0 RC
10.0 ML
N
5 0 M
5 -2.761 2.761 -5 0 -5 C
-2.761 -5 -5 -2.761 -5 0 C
-5 2.761 -2.761 5 0 5 C
2.761 5 5 2.761 5 0 C
cp
S
GR
GS
[1 0 0 1 268.60696 205.12691] CT
1 0 0 RC
N
f536683381
f
GR
GS
[1 0 0 1 268.60696 205.12691] CT
1 0 0 RC
10.0 ML
N
5 0 M
5 -2.761 2.761 -5 0 -5 C
-2.761 -5 -5 -2.761 -5 0 C
-5 2.761 -2.761 5 0 5 C
2.761 5 5 2.761 5 0 C
cp
S
GR
GS
[1 0 0 1 327.41321 158.85463] CT
1 0 0 RC
N
f536683381
f
GR
GS
[1 0 0 1 327.41321 158.85463] CT
1 0 0 RC
10.0 ML
N
5 0 M
5 -2.761 2.761 -5 0 -5 C
-2.761 -5 -5 -2.761 -5 0 C
-5 2.761 -2.761 5 0 5 C
2.761 5 5 2.761 5 0 C
cp
S
GR
GS
[1 0 0 1 250.47627 175.81874] CT
1 0 0 RC
N
f536683381
f
GR
GS
[1 0 0 1 250.47627 175.81874] CT
1 0 0 RC
10.0 ML
N
5 0 M
5 -2.761 2.761 -5 0 -5 C
-2.761 -5 -5 -2.761 -5 0 C
-5 2.761 -2.761 5 0 5 C
2.761 5 5 2.761 5 0 C
cp
S
GR
GS
[1 0 0 1 358.60034 156.12912] CT
1 0 0 RC
N
f536683381
f
GR
GS
[1 0 0 1 358.60034 156.12912] CT
1 0 0 RC
10.0 ML
N
5 0 M
5 -2.761 2.761 -5 0 -5 C
-2.761 -5 -5 -2.761 -5 0 C
-5 2.761 -2.761 5 0 5 C
2.761 5 5 2.761 5 0 C
cp
S
GR
GS
[1 0 0 1 232.97365 56.4428] CT
1 0 0 RC
N
f536683381
f
GR
GS
[1 0 0 1 232.97365 56.4428] CT
1 0 0 RC
10.0 ML
N
5 0 M
5 -2.761 2.761 -5 0 -5 C
-2.761 -5 -5 -2.761 -5 0 C
-5 2.761 -2.761 5 0 5 C
2.761 5 5 2.761 5 0 C
cp
S
GR
GS
[1 0 0 1 296.03226 59.07659] CT
1 0 0 RC
N
f536683381
f
GR
GS
[1 0 0 1 296.03226 59.07659] CT
1 0 0 RC
10.0 ML
N
5 0 M
5 -2.761 2.761 -5 0 -5 C
-2.761 -5 -5 -2.761 -5 0 C
-5 2.761 -2.761 5 0 5 C
2.761 5 5 2.761 5 0 C
cp
S
GR
GS
[1 0 0 1 268.11792 89.78097] CT
1 0 0 RC
N
f536683381
f
GR
GS
[1 0 0 1 268.11792 89.78097] CT
1 0 0 RC
10.0 ML
N
5 0 M
5 -2.761 2.761 -5 0 -5 C
-2.761 -5 -5 -2.761 -5 0 C
-5 2.761 -2.761 5 0 5 C
2.761 5 5 2.761 5 0 C
cp
S
GR
GS
[1 0 0 1 283.65482 126.681] CT
1 0 0 RC
N
f536683381
f
GR
GS
[1 0 0 1 283.65482 126.681] CT
1 0 0 RC
10.0 ML
N
5 0 M
5 -2.761 2.761 -5 0 -5 C
-2.761 -5 -5 -2.761 -5 0 C
-5 2.761 -2.761 5 0 5 C
2.761 5 5 2.761 5 0 C
cp
S
GR
GS
[1 0 0 1 339.94217 168.81204] CT
1 0 0 RC
N
f536683381
f
GR
GS
[1 0 0 1 339.94217 168.81204] CT
1 0 0 RC
10.0 ML
N
5 0 M
5 -2.761 2.761 -5 0 -5 C
-2.761 -5 -5 -2.761 -5 0 C
-5 2.761 -2.761 5 0 5 C
2.761 5 5 2.761 5 0 C
cp
S
GR
GS
[1 0 0 1 258.28799 186.7572] CT
1 0 0 RC
N
f536683381
f
GR
GS
[1 0 0 1 258.28799 186.7572] CT
1 0 0 RC
10.0 ML
N
5 0 M
5 -2.761 2.761 -5 0 -5 C
-2.761 -5 -5 -2.761 -5 0 C
-5 2.761 -2.761 5 0 5 C
2.761 5 5 2.761 5 0 C
cp
S
GR
GS
[1 0 0 1 301.84323 232.8587] CT
1 0 0 RC
N
f536683381
f
GR
GS
[1 0 0 1 301.84323 232.8587] CT
1 0 0 RC
10.0 ML
N
5 0 M
5 -2.761 2.761 -5 0 -5 C
-2.761 -5 -5 -2.761 -5 0 C
-5 2.761 -2.761 5 0 5 C
2.761 5 5 2.761 5 0 C
cp
S
GR
GS
[1 0 0 1 262.42844 204.35989] CT
1 0 0 RC
N
f536683381
f
GR
GS
[1 0 0 1 262.42844 204.35989] CT
1 0 0 RC
10.0 ML
N
5 0 M
5 -2.761 2.761 -5 0 -5 C
-2.761 -5 -5 -2.761 -5 0 C
-5 2.761 -2.761 5 0 5 C
2.761 5 5 2.761 5 0 C
cp
S
GR
GS
[1 0 0 1 351.01324 183.42552] CT
1 0 0 RC
N
f536683381
f
GR
GS
[1 0 0 1 351.01324 183.42552] CT
1 0 0 RC
10.0 ML
N
5 0 M
5 -2.761 2.761 -5 0 -5 C
-2.761 -5 -5 -2.761 -5 0 C
-5 2.761 -2.761 5 0 5 C
2.761 5 5 2.761 5 0 C
cp
S
GR
GS
[1 0 0 1 237.80379 157.28172] CT
1 0 0 RC
N
f536683381
f
GR
GS
[1 0 0 1 237.80379 157.28172] CT
1 0 0 RC
10.0 ML
N
5 0 M
5 -2.761 2.761 -5 0 -5 C
-2.761 -5 -5 -2.761 -5 0 C
-5 2.761 -2.761 5 0 5 C
2.761 5 5 2.761 5 0 C
cp
S
GR
GS
[1 0 0 1 255.67661 174.12141] CT
1 0 0 RC
N
f536683381
f
GR
GS
[1 0 0 1 255.67661 174.12141] CT
1 0 0 RC
10.0 ML
N
5 0 M
5 -2.761 2.761 -5 0 -5 C
-2.761 -5 -5 -2.761 -5 0 C
-5 2.761 -2.761 5 0 5 C
2.761 5 5 2.761 5 0 C
cp
S
GR
GS
[1 0 0 1 249.18942 214.87875] CT
1 0 0 RC
N
f536683381
f
GR
GS
[1 0 0 1 249.18942 214.87875] CT
1 0 0 RC
10.0 ML
N
5 0 M
5 -2.761 2.761 -5 0 -5 C
-2.761 -5 -5 -2.761 -5 0 C
-5 2.761 -2.761 5 0 5 C
2.761 5 5 2.761 5 0 C
cp
S
GR
GS
[1 0 0 1 294.52734 186.63034] CT
1 0 0 RC
N
f536683381
f
GR
GS
[1 0 0 1 294.52734 186.63034] CT
1 0 0 RC
10.0 ML
N
5 0 M
5 -2.761 2.761 -5 0 -5 C
-2.761 -5 -5 -2.761 -5 0 C
-5 2.761 -2.761 5 0 5 C
2.761 5 5 2.761 5 0 C
cp
S
GR
GS
[1 0 0 1 212.16287 164.56062] CT
1 0 0 RC
N
f536683381
f
GR
GS
[1 0 0 1 212.16287 164.56062] CT
1 0 0 RC
10.0 ML
N
5 0 M
5 -2.761 2.761 -5 0 -5 C
-2.761 -5 -5 -2.761 -5 0 C
-5 2.761 -2.761 5 0 5 C
2.761 5 5 2.761 5 0 C
cp
S
GR
GS
[1 0 0 1 331.42822 190.06863] CT
1 0 0 RC
N
f536683381
f
GR
GS
[1 0 0 1 331.42822 190.06863] CT
1 0 0 RC
10.0 ML
N
5 0 M
5 -2.761 2.761 -5 0 -5 C
-2.761 -5 -5 -2.761 -5 0 C
-5 2.761 -2.761 5 0 5 C
2.761 5 5 2.761 5 0 C
cp
S
GR
GS
[1 0 0 1 214.78841 197.81839] CT
1 0 0 RC
N
f536683381
f
GR
GS
[1 0 0 1 214.78841 197.81839] CT
1 0 0 RC
10.0 ML
N
5 0 M
5 -2.761 2.761 -5 0 -5 C
-2.761 -5 -5 -2.761 -5 0 C
-5 2.761 -2.761 5 0 5 C
2.761 5 5 2.761 5 0 C
cp
S
GR
GS
[1 0 0 1 321.11664 185.83981] CT
1 0 0 RC
N
f536683381
f
GR
GS
[1 0 0 1 321.11664 185.83981] CT
1 0 0 RC
10.0 ML
N
5 0 M
5 -2.761 2.761 -5 0 -5 C
-2.761 -5 -5 -2.761 -5 0 C
-5 2.761 -2.761 5 0 5 C
2.761 5 5 2.761 5 0 C
cp
S
GR
GS
[1 0 0 1 210.14862 191.68512] CT
1 0 0 RC
N
f536683381
f
GR
GS
[1 0 0 1 210.14862 191.68512] CT
1 0 0 RC
10.0 ML
N
5 0 M
5 -2.761 2.761 -5 0 -5 C
-2.761 -5 -5 -2.761 -5 0 C
-5 2.761 -2.761 5 0 5 C
2.761 5 5 2.761 5 0 C
cp
S
GR
GS
[1 0 0 1 309.05853 189.88986] CT
1 0 0 RC
N
f536683381
f
GR
GS
[1 0 0 1 309.05853 189.88986] CT
1 0 0 RC
10.0 ML
N
5 0 M
5 -2.761 2.761 -5 0 -5 C
-2.761 -5 -5 -2.761 -5 0 C
-5 2.761 -2.761 5 0 5 C
2.761 5 5 2.761 5 0 C
cp
S
GR
GS
[1 0 0 1 198.57292 174.71336] CT
1 0 0 RC
N
f536683381
f
GR
GS
[1 0 0 1 198.57292 174.71336] CT
1 0 0 RC
10.0 ML
N
5 0 M
5 -2.761 2.761 -5 0 -5 C
-2.761 -5 -5 -2.761 -5 0 C
-5 2.761 -2.761 5 0 5 C
2.761 5 5 2.761 5 0 C
cp
S
GR
GS
[1 0 0 1 287.50186 171.63045] CT
1 0 0 RC
N
f536683381
f
GR
GS
[1 0 0 1 287.50186 171.63045] CT
1 0 0 RC
10.0 ML
N
5 0 M
5 -2.761 2.761 -5 0 -5 C
-2.761 -5 -5 -2.761 -5 0 C
-5 2.761 -2.761 5 0 5 C
2.761 5 5 2.761 5 0 C
cp
S
GR
GS
[1 0 0 1 228.47685 204.59026] CT
1 0 0 RC
N
f536683381
f
GR
GS
[1 0 0 1 228.47685 204.59026] CT
1 0 0 RC
10.0 ML
N
5 0 M
5 -2.761 2.761 -5 0 -5 C
-2.761 -5 -5 -2.761 -5 0 C
-5 2.761 -2.761 5 0 5 C
2.761 5 5 2.761 5 0 C
cp
S
GR
GS
[1 0 0 1 280.12982 245.6169] CT
1 0 0 RC
N
f536683381
f
GR
GS
[1 0 0 1 280.12982 245.6169] CT
1 0 0 RC
10.0 ML
N
5 0 M
5 -2.761 2.761 -5 0 -5 C
-2.761 -5 -5 -2.761 -5 0 C
-5 2.761 -2.761 5 0 5 C
2.761 5 5 2.761 5 0 C
cp
S
GR
GS
[1 0 0 1 293.75998 222.77835] CT
1 0 0 RC
N
f536683381
f
GR
GS
[1 0 0 1 293.75998 222.77835] CT
1 0 0 RC
10.0 ML
N
5 0 M
5 -2.761 2.761 -5 0 -5 C
-2.761 -5 -5 -2.761 -5 0 C
-5 2.761 -2.761 5 0 5 C
2.761 5 5 2.761 5 0 C
cp
S
GR
GS
[1 0 0 1 194.06728 209.6485] CT
1 0 0 RC
N
f536683381
f
GR
GS
[1 0 0 1 194.06728 209.6485] CT
1 0 0 RC
10.0 ML
N
5 0 M
5 -2.761 2.761 -5 0 -5 C
-2.761 -5 -5 -2.761 -5 0 C
-5 2.761 -2.761 5 0 5 C
2.761 5 5 2.761 5 0 C
cp
S
GR
GS
[1 0 0 1 308.46045 201.68864] CT
1 0 0 RC
N
f536683381
f
GR
GS
[1 0 0 1 308.46045 201.68864] CT
1 0 0 RC
10.0 ML
N
5 0 M
5 -2.761 2.761 -5 0 -5 C
-2.761 -5 -5 -2.761 -5 0 C
-5 2.761 -2.761 5 0 5 C
2.761 5 5 2.761 5 0 C
cp
S
GR
GS
[1 0 0 1 345.47745 217.89662] CT
1 0 0 RC
N
f536683381
f
GR
GS
[1 0 0 1 345.47745 217.89662] CT
1 0 0 RC
10.0 ML
N
5 0 M
5 -2.761 2.761 -5 0 -5 C
-2.761 -5 -5 -2.761 -5 0 C
-5 2.761 -2.761 5 0 5 C
2.761 5 5 2.761 5 0 C
cp
S
GR
GS
[1 0 0 1 240.00107 227.3618] CT
1 0 0 RC
N
f536683381
f
GR
GS
[1 0 0 1 240.00107 227.3618] CT
1 0 0 RC
10.0 ML
N
5 0 M
5 -2.761 2.761 -5 0 -5 C
-2.761 -5 -5 -2.761 -5 0 C
-5 2.761 -2.761 5 0 5 C
2.761 5 5 2.761 5 0 C
cp
S
GR
GS
[1 0 0 1 359.16296 203.63687] CT
1 0 0 RC
N
f536683381
f
GR
GS
[1 0 0 1 359.16296 203.63687] CT
1 0 0 RC
10.0 ML
N
5 0 M
5 -2.761 2.761 -5 0 -5 C
-2.761 -5 -5 -2.761 -5 0 C
-5 2.761 -2.761 5 0 5 C
2.761 5 5 2.761 5 0 C
cp
S
GR
GS
[1 0 0 1 241.07738 258.89478] CT
1 0 0 RC
N
f536683381
f
GR
GS
[1 0 0 1 241.07738 258.89478] CT
1 0 0 RC
10.0 ML
N
5 0 M
5 -2.761 2.761 -5 0 -5 C
-2.761 -5 -5 -2.761 -5 0 C
-5 2.761 -2.761 5 0 5 C
2.761 5 5 2.761 5 0 C
cp
S
GR
GS
[1 0 0 1 313.58649 219.09222] CT
1 0 0 RC
N
f536683381
f
GR
GS
[1 0 0 1 313.58649 219.09222] CT
1 0 0 RC
10.0 ML
N
5 0 M
5 -2.761 2.761 -5 0 -5 C
-2.761 -5 -5 -2.761 -5 0 C
-5 2.761 -2.761 5 0 5 C
2.761 5 5 2.761 5 0 C
cp
S
GR
GS
[1 0 0 1 207.57925 199.69232] CT
1 0 0 RC
N
f536683381
f
GR
GS
[1 0 0 1 207.57925 199.69232] CT
1 0 0 RC
10.0 ML
N
5 0 M
5 -2.761 2.761 -5 0 -5 C
-2.761 -5 -5 -2.761 -5 0 C
-5 2.761 -2.761 5 0 5 C
2.761 5 5 2.761 5 0 C
cp
S
GR
GS
[1 0 0 1 322.24734 140.0031] CT
1 0 0 RC
N
f536683381
f
GR
GS
[1 0 0 1 322.24734 140.0031] CT
1 0 0 RC
10.0 ML
N
5 0 M
5 -2.761 2.761 -5 0 -5 C
-2.761 -5 -5 -2.761 -5 0 C
-5 2.761 -2.761 5 0 5 C
2.761 5 5 2.761 5 0 C
cp
S
GR
GS
[1 0 0 1 306.31635 174.27328] CT
1 0 0 RC
N
f536683381
f
GR
GS
[1 0 0 1 306.31635 174.27328] CT
1 0 0 RC
10.0 ML
N
5 0 M
5 -2.761 2.761 -5 0 -5 C
-2.761 -5 -5 -2.761 -5 0 C
-5 2.761 -2.761 5 0 5 C
2.761 5 5 2.761 5 0 C
cp
S
GR
GS
[1 0 0 1 300.31793 188.41682] CT
1 0 0 RC
N
f536683381
f
GR
GS
[1 0 0 1 300.31793 188.41682] CT
1 0 0 RC
10.0 ML
N
5 0 M
5 -2.761 2.761 -5 0 -5 C
-2.761 -5 -5 -2.761 -5 0 C
-5 2.761 -2.761 5 0 5 C
2.761 5 5 2.761 5 0 C
cp
S
GR
GS
[1 0 0 1 275.22992 215.03772] CT
1 0 0 RC
N
f536683381
f
GR
GS
[1 0 0 1 275.22992 215.03772] CT
1 0 0 RC
10.0 ML
N
5 0 M
5 -2.761 2.761 -5 0 -5 C
-2.761 -5 -5 -2.761 -5 0 C
-5 2.761 -2.761 5 0 5 C
2.761 5 5 2.761 5 0 C
cp
S
GR
GS
[1 0 0 1 337.1261 171.17076] CT
1 0 0 RC
N
f536683381
f
GR
GS
[1 0 0 1 337.1261 171.17076] CT
1 0 0 RC
10.0 ML
N
5 0 M
5 -2.761 2.761 -5 0 -5 C
-2.761 -5 -5 -2.761 -5 0 C
-5 2.761 -2.761 5 0 5 C
2.761 5 5 2.761 5 0 C
cp
S
GR
GS
[1 0 0 1 272.35675 120.17729] CT
1 0 0 RC
N
f536683381
f
GR
GS
[1 0 0 1 272.35675 120.17729] CT
1 0 0 RC
10.0 ML
N
5 0 M
5 -2.761 2.761 -5 0 -5 C
-2.761 -5 -5 -2.761 -5 0 C
-5 2.761 -2.761 5 0 5 C
2.761 5 5 2.761 5 0 C
cp
S
GR
GS
[1 0 0 1 325.065 136.80197] CT
1 0 0 RC
N
f536683381
f
GR
GS
[1 0 0 1 325.065 136.80197] CT
1 0 0 RC
10.0 ML
N
5 0 M
5 -2.761 2.761 -5 0 -5 C
-2.761 -5 -5 -2.761 -5 0 C
-5 2.761 -2.761 5 0 5 C
2.761 5 5 2.761 5 0 C
cp
S
GR
GS
[1 0 0 1 243.41859 180.74985] CT
1 0 0 RC
N
f536683381
f
GR
GS
[1 0 0 1 243.41859 180.74985] CT
1 0 0 RC
10.0 ML
N
5 0 M
5 -2.761 2.761 -5 0 -5 C
-2.761 -5 -5 -2.761 -5 0 C
-5 2.761 -2.761 5 0 5 C
2.761 5 5 2.761 5 0 C
cp
S
GR
GS
[1 0 0 1 348.45541 147.09158] CT
1 0 0 RC
N
f536683381
f
GR
GS
[1 0 0 1 348.45541 147.09158] CT
1 0 0 RC
10.0 ML
N
5 0 M
5 -2.761 2.761 -5 0 -5 C
-2.761 -5 -5 -2.761 -5 0 C
-5 2.761 -2.761 5 0 5 C
2.761 5 5 2.761 5 0 C
cp
S
GR
GS
[1 0 0 1 318.62961 207.14049] CT
1 0 0 RC
N
f536683381
f
GR
GS
[1 0 0 1 318.62961 207.14049] CT
1 0 0 RC
10.0 ML
N
5 0 M
5 -2.761 2.761 -5 0 -5 C
-2.761 -5 -5 -2.761 -5 0 C
-5 2.761 -2.761 5 0 5 C
2.761 5 5 2.761 5 0 C
cp
S
GR
GS
[1 0 0 1 276.30545 182.46648] CT
1 0 0 RC
N
f536683381
f
GR
GS
[1 0 0 1 276.30545 182.46648] CT
1 0 0 RC
10.0 ML
N
5 0 M
5 -2.761 2.761 -5 0 -5 C
-2.761 -5 -5 -2.761 -5 0 C
-5 2.761 -2.761 5 0 5 C
2.761 5 5 2.761 5 0 C
cp
S
GR
GS
[1 0 0 1 331.11935 237.13028] CT
1 0 0 RC
N
f536683381
f
GR
GS
[1 0 0 1 331.11935 237.13028] CT
1 0 0 RC
10.0 ML
N
5 0 M
5 -2.761 2.761 -5 0 -5 C
-2.761 -5 -5 -2.761 -5 0 C
-5 2.761 -2.761 5 0 5 C
2.761 5 5 2.761 5 0 C
cp
S
GR
GS
[1 0 0 1 378.10129 279.47134] CT
1 0 0 RC
N
f536683381
f
GR
GS
[1 0 0 1 378.10129 279.47134] CT
1 0 0 RC
10.0 ML
N
5 0 M
5 -2.761 2.761 -5 0 -5 C
-2.761 -5 -5 -2.761 -5 0 C
-5 2.761 -2.761 5 0 5 C
2.761 5 5 2.761 5 0 C
cp
S
GR
GS
[1 0 0 1 344.17892 273.00394] CT
1 0 0 RC
N
f536683381
f
GR
GS
[1 0 0 1 344.17892 273.00394] CT
1 0 0 RC
10.0 ML
N
5 0 M
5 -2.761 2.761 -5 0 -5 C
-2.761 -5 -5 -2.761 -5 0 C
-5 2.761 -2.761 5 0 5 C
2.761 5 5 2.761 5 0 C
cp
S
GR
GS
[1 0 0 1 317.69745 246.58859] CT
1 0 0 RC
N
f536683381
f
GR
GS
[1 0 0 1 317.69745 246.58859] CT
1 0 0 RC
10.0 ML
N
5 0 M
5 -2.761 2.761 -5 0 -5 C
-2.761 -5 -5 -2.761 -5 0 C
-5 2.761 -2.761 5 0 5 C
2.761 5 5 2.761 5 0 C
cp
S
GR
GS
[1 0 0 1 307.70007 197.86343] CT
1 0 0 RC
N
f536683381
f
GR
GS
[1 0 0 1 307.70007 197.86343] CT
1 0 0 RC
10.0 ML
N
5 0 M
5 -2.761 2.761 -5 0 -5 C
-2.761 -5 -5 -2.761 -5 0 C
-5 2.761 -2.761 5 0 5 C
2.761 5 5 2.761 5 0 C
cp
S
GR
GS
[1 0 0 1 287.75571 184.49632] CT
1 0 0 RC
N
f536683381
f
GR
GS
[1 0 0 1 287.75571 184.49632] CT
1 0 0 RC
10.0 ML
N
5 0 M
5 -2.761 2.761 -5 0 -5 C
-2.761 -5 -5 -2.761 -5 0 C
-5 2.761 -2.761 5 0 5 C
2.761 5 5 2.761 5 0 C
cp
S
GR
GS
[1 0 0 1 283.78708 133.02631] CT
1 0 0 RC
N
f536683381
f
GR
GS
[1 0 0 1 283.78708 133.02631] CT
1 0 0 RC
10.0 ML
N
5 0 M
5 -2.761 2.761 -5 0 -5 C
-2.761 -5 -5 -2.761 -5 0 C
-5 2.761 -2.761 5 0 5 C
2.761 5 5 2.761 5 0 C
cp
S
GR
GS
[1 0 0 1 323.70715 169.5605] CT
1 0 0 RC
N
f536683381
f
GR
GS
[1 0 0 1 323.70715 169.5605] CT
1 0 0 RC
10.0 ML
N
5 0 M
5 -2.761 2.761 -5 0 -5 C
-2.761 -5 -5 -2.761 -5 0 C
-5 2.761 -2.761 5 0 5 C
2.761 5 5 2.761 5 0 C
cp
S
GR
GS
[1 0 0 1 232.09221 117.6075] CT
1 0 0 RC
N
f536683381
f
GR
GS
[1 0 0 1 232.09221 117.6075] CT
1 0 0 RC
10.0 ML
N
5 0 M
5 -2.761 2.761 -5 0 -5 C
-2.761 -5 -5 -2.761 -5 0 C
-5 2.761 -2.761 5 0 5 C
2.761 5 5 2.761 5 0 C
cp
S
GR
GS
[1 0 0 1 306.72556 142.82051] CT
1 0 0 RC
N
f536683381
f
GR
GS
[1 0 0 1 306.72556 142.82051] CT
1 0 0 RC
10.0 ML
N
5 0 M
5 -2.761 2.761 -5 0 -5 C
-2.761 -5 -5 -2.761 -5 0 C
-5 2.761 -2.761 5 0 5 C
2.761 5 5 2.761 5 0 C
cp
S
GR
GS
[1 0 0 1 223.20424 188.08261] CT
1 0 0 RC
N
f536683381
f
GR
GS
[1 0 0 1 223.20424 188.08261] CT
1 0 0 RC
10.0 ML
N
5 0 M
5 -2.761 2.761 -5 0 -5 C
-2.761 -5 -5 -2.761 -5 0 C
-5 2.761 -2.761 5 0 5 C
2.761 5 5 2.761 5 0 C
cp
S
GR
GS
[1 0 0 1 332.68372 167.8306] CT
1 0 0 RC
N
f536683381
f
GR
GS
[1 0 0 1 332.68372 167.8306] CT
1 0 0 RC
10.0 ML
N
5 0 M
5 -2.761 2.761 -5 0 -5 C
-2.761 -5 -5 -2.761 -5 0 C
-5 2.761 -2.761 5 0 5 C
2.761 5 5 2.761 5 0 C
cp
S
GR
GS
[1 0 0 1 289.89819 215.84018] CT
1 0 0 RC
N
f536683381
f
GR
GS
[1 0 0 1 289.89819 215.84018] CT
1 0 0 RC
10.0 ML
N
5 0 M
5 -2.761 2.761 -5 0 -5 C
-2.761 -5 -5 -2.761 -5 0 C
-5 2.761 -2.761 5 0 5 C
2.761 5 5 2.761 5 0 C
cp
S
GR
GS
[1 0 0 1 331.49539 173.83727] CT
1 0 0 RC
N
f536683381
f
GR
GS
[1 0 0 1 331.49539 173.83727] CT
1 0 0 RC
10.0 ML
N
5 0 M
5 -2.761 2.761 -5 0 -5 C
-2.761 -5 -5 -2.761 -5 0 C
-5 2.761 -2.761 5 0 5 C
2.761 5 5 2.761 5 0 C
cp
S
GR
GS
[1 0 0 1 230.85699 135.50266] CT
1 0 0 RC
N
f536683381
f
GR
GS
[1 0 0 1 230.85699 135.50266] CT
1 0 0 RC
10.0 ML
N
5 0 M
5 -2.761 2.761 -5 0 -5 C
-2.761 -5 -5 -2.761 -5 0 C
-5 2.761 -2.761 5 0 5 C
2.761 5 5 2.761 5 0 C
cp
S
GR
GS
[1 0 0 1 343.46216 213.97041] CT
1 0 0 RC
N
f536683381
f
GR
GS
[1 0 0 1 343.46216 213.97041] CT
1 0 0 RC
10.0 ML
N
5 0 M
5 -2.761 2.761 -5 0 -5 C
-2.761 -5 -5 -2.761 -5 0 C
-5 2.761 -2.761 5 0 5 C
2.761 5 5 2.761 5 0 C
cp
S
GR
GS
[1 0 0 1 233.4131 227.88733] CT
1 0 0 RC
N
f536683381
f
GR
GS
[1 0 0 1 233.4131 227.88733] CT
1 0 0 RC
10.0 ML
N
5 0 M
5 -2.761 2.761 -5 0 -5 C
-2.761 -5 -5 -2.761 -5 0 C
-5 2.761 -2.761 5 0 5 C
2.761 5 5 2.761 5 0 C
cp
S
GR
GS
[1 0 0 1 300.37796 200.04446] CT
1 0 0 RC
N
f536683381
f
GR
GS
[1 0 0 1 300.37796 200.04446] CT
1 0 0 RC
10.0 ML
N
5 0 M
5 -2.761 2.761 -5 0 -5 C
-2.761 -5 -5 -2.761 -5 0 C
-5 2.761 -2.761 5 0 5 C
2.761 5 5 2.761 5 0 C
cp
S
GR
GS
[1 0 0 1 327.2847 161.20691] CT
1 0 0 RC
N
f536683381
f
GR
GS
[1 0 0 1 327.2847 161.20691] CT
1 0 0 RC
10.0 ML
N
5 0 M
5 -2.761 2.761 -5 0 -5 C
-2.761 -5 -5 -2.761 -5 0 C
-5 2.761 -2.761 5 0 5 C
2.761 5 5 2.761 5 0 C
cp
S
GR
GS
[1 0 0 1 244.19823 174.08627] CT
1 0 0 RC
N
f536683381
f
GR
GS
[1 0 0 1 244.19823 174.08627] CT
1 0 0 RC
10.0 ML
N
5 0 M
5 -2.761 2.761 -5 0 -5 C
-2.761 -5 -5 -2.761 -5 0 C
-5 2.761 -2.761 5 0 5 C
2.761 5 5 2.761 5 0 C
cp
S
GR
GS
[1 0 0 1 343.65424 158.46608] CT
1 0 0 RC
N
f536683381
f
GR
GS
[1 0 0 1 343.65424 158.46608] CT
1 0 0 RC
10.0 ML
N
5 0 M
5 -2.761 2.761 -5 0 -5 C
-2.761 -5 -5 -2.761 -5 0 C
-5 2.761 -2.761 5 0 5 C
2.761 5 5 2.761 5 0 C
cp
S
GR
GS
[1 0 0 1 259.0556 175.79561] CT
1 0 0 RC
N
f536683381
f
GR
GS
[1 0 0 1 259.0556 175.79561] CT
1 0 0 RC
10.0 ML
N
5 0 M
5 -2.761 2.761 -5 0 -5 C
-2.761 -5 -5 -2.761 -5 0 C
-5 2.761 -2.761 5 0 5 C
2.761 5 5 2.761 5 0 C
cp
S
GR
GS
[1 0 0 1 332.59048 187.74908] CT
1 0 0 RC
N
f536683381
f
GR
GS
[1 0 0 1 332.59048 187.74908] CT
1 0 0 RC
10.0 ML
N
5 0 M
5 -2.761 2.761 -5 0 -5 C
-2.761 -5 -5 -2.761 -5 0 C
-5 2.761 -2.761 5 0 5 C
2.761 5 5 2.761 5 0 C
cp
S
GR
GS
[1 0 0 1 240.05086 198.76761] CT
1 0 0 RC
N
f536683381
f
GR
GS
[1 0 0 1 240.05086 198.76761] CT
1 0 0 RC
10.0 ML
N
5 0 M
5 -2.761 2.761 -5 0 -5 C
-2.761 -5 -5 -2.761 -5 0 C
-5 2.761 -2.761 5 0 5 C
2.761 5 5 2.761 5 0 C
cp
S
GR
GS
[1 0 0 1 319.8439 189.63858] CT
1 0 0 RC
N
f536683381
f
GR
GS
[1 0 0 1 319.8439 189.63858] CT
1 0 0 RC
10.0 ML
N
5 0 M
5 -2.761 2.761 -5 0 -5 C
-2.761 -5 -5 -2.761 -5 0 C
-5 2.761 -2.761 5 0 5 C
2.761 5 5 2.761 5 0 C
cp
S
GR
GS
[1 0 0 1 377.78085 236.48152] CT
1 0 0 RC
N
f536683381
f
GR
GS
[1 0 0 1 377.78085 236.48152] CT
1 0 0 RC
10.0 ML
N
5 0 M
5 -2.761 2.761 -5 0 -5 C
-2.761 -5 -5 -2.761 -5 0 C
-5 2.761 -2.761 5 0 5 C
2.761 5 5 2.761 5 0 C
cp
S
GR
GS
[1 0 0 1 286.35791 226.68846] CT
1 0 0 RC
N
f536683381
f
GR
GS
[1 0 0 1 286.35791 226.68846] CT
1 0 0 RC
10.0 ML
N
5 0 M
5 -2.761 2.761 -5 0 -5 C
-2.761 -5 -5 -2.761 -5 0 C
-5 2.761 -2.761 5 0 5 C
2.761 5 5 2.761 5 0 C
cp
S
GR
GS
[1 0 0 1 337.28979 217.34627] CT
1 0 0 RC
N
f536683381
f
GR
GS
[1 0 0 1 337.28979 217.34627] CT
1 0 0 RC
10.0 ML
N
5 0 M
5 -2.761 2.761 -5 0 -5 C
-2.761 -5 -5 -2.761 -5 0 C
-5 2.761 -2.761 5 0 5 C
2.761 5 5 2.761 5 0 C
cp
S
GR
GS
[1 0 0 1 257.64484 195.28703] CT
1 0 0 RC
N
f536683381
f
GR
GS
[1 0 0 1 257.64484 195.28703] CT
1 0 0 RC
10.0 ML
N
5 0 M
5 -2.761 2.761 -5 0 -5 C
-2.761 -5 -5 -2.761 -5 0 C
-5 2.761 -2.761 5 0 5 C
2.761 5 5 2.761 5 0 C
cp
S
GR
GS
[1 0 0 1 291.17883 199.69656] CT
1 0 0 RC
N
f536683381
f
GR
GS
[1 0 0 1 291.17883 199.69656] CT
1 0 0 RC
10.0 ML
N
5 0 M
5 -2.761 2.761 -5 0 -5 C
-2.761 -5 -5 -2.761 -5 0 C
-5 2.761 -2.761 5 0 5 C
2.761 5 5 2.761 5 0 C
cp
S
GR
GS
[1 0 0 1 192.28357 182.43675] CT
1 0 0 RC
N
f536683381
f
GR
GS
[1 0 0 1 192.28357 182.43675] CT
1 0 0 RC
10.0 ML
N
5 0 M
5 -2.761 2.761 -5 0 -5 C
-2.761 -5 -5 -2.761 -5 0 C
-5 2.761 -2.761 5 0 5 C
2.761 5 5 2.761 5 0 C
cp
S
GR
GS
[1 0 0 1 288.33975 169.12201] CT
1 0 0 RC
N
f536683381
f
GR
GS
[1 0 0 1 288.33975 169.12201] CT
1 0 0 RC
10.0 ML
N
5 0 M
5 -2.761 2.761 -5 0 -5 C
-2.761 -5 -5 -2.761 -5 0 C
-5 2.761 -2.761 5 0 5 C
2.761 5 5 2.761 5 0 C
cp
S
GR
GS
[1 0 0 1 201.51619 214.8925] CT
1 0 0 RC
N
f536683381
f
GR
GS
[1 0 0 1 201.51619 214.8925] CT
1 0 0 RC
10.0 ML
N
5 0 M
5 -2.761 2.761 -5 0 -5 C
-2.761 -5 -5 -2.761 -5 0 C
-5 2.761 -2.761 5 0 5 C
2.761 5 5 2.761 5 0 C
cp
S
GR
GS
[1 0 0 1 300.78061 164.69322] CT
1 0 0 RC
N
f536683381
f
GR
GS
[1 0 0 1 300.78061 164.69322] CT
1 0 0 RC
10.0 ML
N
5 0 M
5 -2.761 2.761 -5 0 -5 C
-2.761 -5 -5 -2.761 -5 0 C
-5 2.761 -2.761 5 0 5 C
2.761 5 5 2.761 5 0 C
cp
S
GR
GS
[1 0 0 1 237.29443 190.78883] CT
1 0 0 RC
N
f536683381
f
GR
GS
[1 0 0 1 237.29443 190.78883] CT
1 0 0 RC
10.0 ML
N
5 0 M
5 -2.761 2.761 -5 0 -5 C
-2.761 -5 -5 -2.761 -5 0 C
-5 2.761 -2.761 5 0 5 C
2.761 5 5 2.761 5 0 C
cp
S
GR
GS
[1 0 0 1 308.44794 204.50708] CT
1 0 0 RC
N
f536683381
f
GR
GS
[1 0 0 1 308.44794 204.50708] CT
1 0 0 RC
10.0 ML
N
5 0 M
5 -2.761 2.761 -5 0 -5 C
-2.761 -5 -5 -2.761 -5 0 C
-5 2.761 -2.761 5 0 5 C
2.761 5 5 2.761 5 0 C
cp
S
GR
GS
[1 0 0 1 339.38364 209.44144] CT
1 0 0 RC
N
f536683381
f
GR
GS
[1 0 0 1 339.38364 209.44144] CT
1 0 0 RC
10.0 ML
N
5 0 M
5 -2.761 2.761 -5 0 -5 C
-2.761 -5 -5 -2.761 -5 0 C
-5 2.761 -2.761 5 0 5 C
2.761 5 5 2.761 5 0 C
cp
S
GR
GS
[1 0 0 1 222.02007 207.63977] CT
1 0 0 RC
N
f536683381
f
GR
GS
[1 0 0 1 222.02007 207.63977] CT
1 0 0 RC
10.0 ML
N
5 0 M
5 -2.761 2.761 -5 0 -5 C
-2.761 -5 -5 -2.761 -5 0 C
-5 2.761 -2.761 5 0 5 C
2.761 5 5 2.761 5 0 C
cp
S
GR
GS
[1 0 0 1 343.13638 171.78499] CT
1 0 0 RC
N
f536683381
f
GR
GS
[1 0 0 1 343.13638 171.78499] CT
1 0 0 RC
10.0 ML
N
5 0 M
5 -2.761 2.761 -5 0 -5 C
-2.761 -5 -5 -2.761 -5 0 C
-5 2.761 -2.761 5 0 5 C
2.761 5 5 2.761 5 0 C
cp
S
GR
GS
[1 0 0 1 231.0013 125.49108] CT
1 0 0 RC
N
f536683381
f
GR
GS
[1 0 0 1 231.0013 125.49108] CT
1 0 0 RC
10.0 ML
N
5 0 M
5 -2.761 2.761 -5 0 -5 C
-2.761 -5 -5 -2.761 -5 0 C
-5 2.761 -2.761 5 0 5 C
2.761 5 5 2.761 5 0 C
cp
S
GR
GS
[1 0 0 1 290.06543 187.18457] CT
N
2.167 0 M
2.167 1.197 1.197 2.167 0 2.167 C
-1.197 2.167 -2.167 1.197 -2.167 0 C
-2.167 -1.197 -1.197 -2.167 0 -2.167 C
1.197 -2.167 2.167 -1.197 2.167 0 C
cp
f
GR
GS
[1 0 0 1 332.0864 179.14503] CT
N
/f101484798{2.167 0 M
2.167 1.197 1.197 2.167 0 2.167 C
-1.197 2.167 -2.167 1.197 -2.167 0 C
-2.167 -1.197 -1.197 -2.167 0 -2.167 C
1.197 -2.167 2.167 -1.197 2.167 0 C
cp}def
f101484798
f
GR
GS
[1 0 0 1 207.7113 151.95099] CT
N
f101484798
f
GR
GS
[1 0 0 1 294.75031 172.72748] CT
N
f101484798
f
GR
GS
[1 0 0 1 189.20825 209.94643] CT
N
f101484798
f
GR
GS
[1 0 0 1 274.07968 199.78885] CT
N
f101484798
f
GR
GS
[1 0 0 1 254.106 263.62128] CT
N
f101484798
f
GR
GS
[1 0 0 1 366.02399 176.87828] CT
N
f101484798
f
GR
GS
[1 0 0 1 271.05121 189.49706] CT
N
f101484798
f
GR
GS
[1 0 0 1 344.89029 184.31932] CT
N
f101484798
f
GR
GS
[1 0 0 1 230.86395 175.65906] CT
N
f101484798
f
GR
GS
[1 0 0 1 246.62517 105.76664] CT
N
f101484798
f
GR
GS
[1 0 0 1 218.64732 175.1373] CT
N
f101484798
f
GR
GS
[1 0 0 1 292.99615 173.77806] CT
N
f101484798
f
GR
GS
[1 0 0 1 184.66414 145.81821] CT
N
f101484798
f
GR
GS
[1 0 0 1 273.17511 155.01054] CT
N
f101484798
f
GR
GS
[1 0 0 1 235.55664 163.68837] CT
N
f101484798
f
GR
GS
[1 0 0 1 355.72644 181.82761] CT
N
f101484798
f
GR
GS
[1 0 0 1 253.42648 199.18454] CT
N
f101484798
f
GR
GS
[1 0 0 1 241.00468 175.74374] CT
N
f101484798
f
GR
GS
[1 0 0 1 174.68587 217.19716] CT
N
f101484798
f
GR
GS
[1 0 0 1 254.53583 194.2562] CT
N
f101484798
f
GR
GS
[1 0 0 1 171.34865 117.68056] CT
N
f101484798
f
GR
GS
[1 0 0 1 236.50671 145.52917] CT
N
f101484798
f
GR
GS
[1 0 0 1 188.83215 152.47733] CT
N
f101484798
f
GR
GS
[1 0 0 1 274.13727 189.70383] CT
N
f101484798
f
GR
GS
[1 0 0 1 290.5881 189.517] CT
N
f101484798
f
GR
GS
[1 0 0 1 226.42862 145.9725] CT
N
f101484798
f
GR
GS
[1 0 0 1 308.87402 183.90894] CT
N
f101484798
f
GR
GS
[1 0 0 1 288.40598 250.83118] CT
N
f101484798
f
GR
GS
[1 0 0 1 263.07819 217.94908] CT
N
f101484798
f
GR
GS
[1 0 0 1 313.5542 204.83844] CT
N
f101484798
f
GR
GS
[1 0 0 1 191.52914 173.19745] CT
N
f101484798
f
GR
GS
[1 0 0 1 321.25827 151.39267] CT
N
f101484798
f
GR
GS
[1 0 0 1 227.28377 185.54552] CT
N
f101484798
f
GR
GS
[1 0 0 1 273.77466 179.20407] CT
N
f101484798
f
GR
GS
[1 0 0 1 251.00208 199.05388] CT
N
f101484798
f
GR
GS
[1 0 0 1 324.67264 170.81477] CT
N
f101484798
f
GR
GS
[1 0 0 1 270.03378 212.09291] CT
N
f101484798
f
GR
GS
[1 0 0 1 249.29948 179.23561] CT
N
f101484798
f
GR
GS
[1 0 0 1 340.24231 218.22243] CT
N
f101484798
f
GR
GS
[1 0 0 1 198.48094 173.88821] CT
N
f101484798
f
GR
GS
[1 0 0 1 314.90512 145.00868] CT
N
f101484798
f
GR
GS
[1 0 0 1 278.25217 204.65367] CT
N
f101484798
f
GR
GS
[1 0 0 1 280.97 218.9968] CT
N
f101484798
f
GR
GS
[1 0 0 1 282.65689 175.03877] CT
N
f101484798
f
GR
GS
[1 0 0 1 285.75006 251.70572] CT
N
f101484798
f
GR
GS
[1 0 0 1 326.66919 212.33727] CT
N
f101484798
f
GR
GS
[1 0 0 1 221.57207 275.15714] CT
N
f101484798
f
GR
GS
[1 0 0 1 300.07516 251.58038] CT
N
f101484798
f
GR
GS
[1 0 0 1 279.96793 228.43768] CT
N
f101484798
f
GR
GS
[1 0 0 1 225.8474 220.78758] CT
N
f101484798
f
GR
GS
[1 0 0 1 351.12241 214.69843] CT
N
f101484798
f
GR
GS
[1 0 0 1 236.12517 226.71912] CT
N
f101484798
f
GR
GS
[1 0 0 1 340.72455 191.92209] CT
N
f101484798
f
GR
GS
[1 0 0 1 239.46608 174.63635] CT
N
f101484798
f
GR
GS
[1 0 0 1 349.84412 152.72885] CT
N
f101484798
f
GR
GS
[1 0 0 1 205.95531 181.52399] CT
N
f101484798
f
GR
GS
[1 0 0 1 326.12979 170.68857] CT
N
f101484798
f
GR
GS
[1 0 0 1 287.54138 102.58232] CT
N
f101484798
f
GR
GS
[1 0 0 1 336.94733 163.1911] CT
N
f101484798
f
GR
GS
[1 0 0 1 243.72368 179.3838] CT
N
f101484798
f
GR
GS
[1 0 0 1 311.60666 181.88771] CT
N
f101484798
f
GR
GS
[1 0 0 1 321.32111 208.82088] CT
N
f101484798
f
GR
GS
[1 0 0 1 268.60696 205.12691] CT
N
f101484798
f
GR
GS
[1 0 0 1 327.41321 158.85463] CT
N
f101484798
f
GR
GS
[1 0 0 1 250.47627 175.81874] CT
N
f101484798
f
GR
GS
[1 0 0 1 358.60034 156.12912] CT
N
f101484798
f
GR
GS
[1 0 0 1 232.97365 56.4428] CT
N
f101484798
f
GR
GS
[1 0 0 1 296.03226 59.07659] CT
N
f101484798
f
GR
GS
[1 0 0 1 268.11792 89.78097] CT
N
f101484798
f
GR
GS
[1 0 0 1 283.65482 126.681] CT
N
f101484798
f
GR
GS
[1 0 0 1 339.94217 168.81204] CT
N
f101484798
f
GR
GS
[1 0 0 1 258.28799 186.7572] CT
N
f101484798
f
GR
GS
[1 0 0 1 301.84323 232.8587] CT
N
f101484798
f
GR
GS
[1 0 0 1 262.42844 204.35989] CT
N
f101484798
f
GR
GS
[1 0 0 1 351.01324 183.42552] CT
N
f101484798
f
GR
GS
[1 0 0 1 237.80379 157.28172] CT
N
f101484798
f
GR
GS
[1 0 0 1 255.67661 174.12141] CT
N
f101484798
f
GR
GS
[1 0 0 1 249.18942 214.87875] CT
N
f101484798
f
GR
GS
[1 0 0 1 294.52734 186.63034] CT
N
f101484798
f
GR
GS
[1 0 0 1 212.16287 164.56062] CT
N
f101484798
f
GR
GS
[1 0 0 1 331.42822 190.06863] CT
N
f101484798
f
GR
GS
[1 0 0 1 214.78841 197.81839] CT
N
f101484798
f
GR
GS
[1 0 0 1 321.11664 185.83981] CT
N
f101484798
f
GR
GS
[1 0 0 1 210.14862 191.68512] CT
N
f101484798
f
GR
GS
[1 0 0 1 309.05853 189.88986] CT
N
f101484798
f
GR
GS
[1 0 0 1 198.57292 174.71336] CT
N
f101484798
f
GR
GS
[1 0 0 1 287.50186 171.63045] CT
N
f101484798
f
GR
GS
[1 0 0 1 228.47685 204.59026] CT
N
f101484798
f
GR
GS
[1 0 0 1 280.12982 245.6169] CT
N
f101484798
f
GR
GS
[1 0 0 1 293.75998 222.77835] CT
N
f101484798
f
GR
GS
[1 0 0 1 194.06728 209.6485] CT
N
f101484798
f
GR
GS
[1 0 0 1 308.46045 201.68864] CT
N
f101484798
f
GR
GS
[1 0 0 1 345.47745 217.89662] CT
N
f101484798
f
GR
GS
[1 0 0 1 240.00107 227.3618] CT
N
f101484798
f
GR
GS
[1 0 0 1 359.16296 203.63687] CT
N
f101484798
f
GR
GS
[1 0 0 1 241.07738 258.89478] CT
N
f101484798
f
GR
GS
[1 0 0 1 313.58649 219.09222] CT
N
f101484798
f
GR
GS
[1 0 0 1 207.57925 199.69232] CT
N
f101484798
f
GR
GS
[1 0 0 1 322.24734 140.0031] CT
N
f101484798
f
GR
GS
[1 0 0 1 306.31635 174.27328] CT
N
f101484798
f
GR
GS
[1 0 0 1 300.31793 188.41682] CT
N
f101484798
f
GR
GS
[1 0 0 1 275.22992 215.03772] CT
N
f101484798
f
GR
GS
[1 0 0 1 337.1261 171.17076] CT
N
f101484798
f
GR
GS
[1 0 0 1 272.35675 120.17729] CT
N
f101484798
f
GR
GS
[1 0 0 1 325.065 136.80197] CT
N
f101484798
f
GR
GS
[1 0 0 1 243.41859 180.74985] CT
N
f101484798
f
GR
GS
[1 0 0 1 348.45541 147.09158] CT
N
f101484798
f
GR
GS
[1 0 0 1 318.62961 207.14049] CT
N
f101484798
f
GR
GS
[1 0 0 1 276.30545 182.46648] CT
N
f101484798
f
GR
GS
[1 0 0 1 331.11935 237.13028] CT
N
f101484798
f
GR
GS
[1 0 0 1 378.10129 279.47134] CT
N
f101484798
f
GR
GS
[1 0 0 1 344.17892 273.00394] CT
N
f101484798
f
GR
GS
[1 0 0 1 317.69745 246.58859] CT
N
f101484798
f
GR
GS
[1 0 0 1 307.70007 197.86343] CT
N
f101484798
f
GR
GS
[1 0 0 1 287.75571 184.49632] CT
N
f101484798
f
GR
GS
[1 0 0 1 283.78708 133.02631] CT
N
f101484798
f
GR
GS
[1 0 0 1 323.70715 169.5605] CT
N
f101484798
f
GR
GS
[1 0 0 1 232.09221 117.6075] CT
N
f101484798
f
GR
GS
[1 0 0 1 306.72556 142.82051] CT
N
f101484798
f
GR
GS
[1 0 0 1 223.20424 188.08261] CT
N
f101484798
f
GR
GS
[1 0 0 1 332.68372 167.8306] CT
N
f101484798
f
GR
GS
[1 0 0 1 289.89819 215.84018] CT
N
f101484798
f
GR
GS
[1 0 0 1 331.49539 173.83727] CT
N
f101484798
f
GR
GS
[1 0 0 1 230.85699 135.50266] CT
N
f101484798
f
GR
GS
[1 0 0 1 343.46216 213.97041] CT
N
f101484798
f
GR
GS
[1 0 0 1 233.4131 227.88733] CT
N
f101484798
f
GR
GS
[1 0 0 1 300.37796 200.04446] CT
N
f101484798
f
GR
GS
[1 0 0 1 327.2847 161.20691] CT
N
f101484798
f
GR
GS
[1 0 0 1 244.19823 174.08627] CT
N
f101484798
f
GR
GS
[1 0 0 1 343.65424 158.46608] CT
N
f101484798
f
GR
GS
[1 0 0 1 259.0556 175.79561] CT
N
f101484798
f
GR
GS
[1 0 0 1 332.59048 187.74908] CT
N
f101484798
f
GR
GS
[1 0 0 1 240.05086 198.76761] CT
N
f101484798
f
GR
GS
[1 0 0 1 319.8439 189.63858] CT
N
f101484798
f
GR
GS
[1 0 0 1 377.78085 236.48152] CT
N
f101484798
f
GR
GS
[1 0 0 1 286.35791 226.68846] CT
N
f101484798
f
GR
GS
[1 0 0 1 337.28979 217.34627] CT
N
f101484798
f
GR
GS
[1 0 0 1 257.64484 195.28703] CT
N
f101484798
f
GR
GS
[1 0 0 1 291.17883 199.69656] CT
N
f101484798
f
GR
GS
[1 0 0 1 192.28357 182.43675] CT
N
f101484798
f
GR
GS
[1 0 0 1 288.33975 169.12201] CT
N
f101484798
f
GR
GS
[1 0 0 1 201.51619 214.8925] CT
N
f101484798
f
GR
GS
[1 0 0 1 300.78061 164.69322] CT
N
f101484798
f
GR
GS
[1 0 0 1 237.29443 190.78883] CT
N
f101484798
f
GR
GS
[1 0 0 1 308.44794 204.50708] CT
N
f101484798
f
GR
GS
[1 0 0 1 339.38364 209.44144] CT
N
f101484798
f
GR
GS
[1 0 0 1 222.02007 207.63977] CT
N
f101484798
f
GR
GS
[1 0 0 1 343.13638 171.78499] CT
N
f101484798
f
GR
GS
1 LJ
0.5 LW
N
290.065 187.185 M
332.086 179.145 L
207.711 151.951 L
294.75 172.727 L
189.208 209.946 L
274.08 199.789 L
254.106 263.621 L
366.024 176.878 L
271.051 189.497 L
344.89 184.319 L
230.864 175.659 L
246.625 105.767 L
218.647 175.137 L
292.996 173.778 L
184.664 145.818 L
273.175 155.011 L
235.557 163.688 L
355.726 181.828 L
253.426 199.185 L
241.005 175.744 L
174.686 217.197 L
254.536 194.256 L
171.349 117.681 L
236.507 145.529 L
188.832 152.477 L
274.137 189.704 L
290.588 189.517 L
226.429 145.973 L
308.874 183.909 L
288.406 250.831 L
263.078 217.949 L
313.554 204.838 L
191.529 173.197 L
321.258 151.393 L
227.284 185.546 L
273.775 179.204 L
251.002 199.054 L
324.673 170.815 L
270.034 212.093 L
249.299 179.236 L
340.242 218.222 L
198.481 173.888 L
314.905 145.009 L
278.252 204.654 L
280.97 218.997 L
282.657 175.039 L
285.75 251.706 L
326.669 212.337 L
221.572 275.157 L
300.075 251.58 L
279.968 228.438 L
225.847 220.788 L
351.122 214.698 L
236.125 226.719 L
340.725 191.922 L
239.466 174.636 L
349.844 152.729 L
205.955 181.524 L
326.13 170.689 L
287.541 102.582 L
336.947 163.191 L
243.724 179.384 L
311.607 181.888 L
321.321 208.821 L
268.607 205.127 L
327.413 158.855 L
250.476 175.819 L
358.6 156.129 L
232.974 56.443 L
296.032 59.077 L
268.118 89.781 L
283.655 126.681 L
339.942 168.812 L
258.288 186.757 L
301.843 232.859 L
262.428 204.36 L
351.013 183.426 L
237.804 157.282 L
255.677 174.121 L
249.189 214.879 L
294.527 186.63 L
212.163 164.561 L
331.428 190.069 L
214.788 197.818 L
321.117 185.84 L
210.149 191.685 L
309.059 189.89 L
198.573 174.713 L
287.502 171.63 L
228.477 204.59 L
280.13 245.617 L
293.76 222.778 L
194.067 209.648 L
308.46 201.689 L
345.477 217.897 L
240.001 227.362 L
359.163 203.637 L
241.077 258.895 L
313.586 219.092 L
207.579 199.692 L
322.247 140.003 L
306.316 174.273 L
300.318 188.417 L
275.23 215.038 L
337.126 171.171 L
272.357 120.177 L
325.065 136.802 L
243.419 180.75 L
348.455 147.092 L
318.63 207.14 L
276.305 182.466 L
331.119 237.13 L
378.101 279.471 L
344.179 273.004 L
317.697 246.589 L
307.7 197.863 L
287.756 184.496 L
283.787 133.026 L
323.707 169.561 L
232.092 117.607 L
306.726 142.821 L
223.204 188.083 L
332.684 167.831 L
289.898 215.84 L
331.495 173.837 L
230.857 135.503 L
343.462 213.97 L
233.413 227.887 L
300.378 200.044 L
327.285 161.207 L
244.198 174.086 L
343.654 158.466 L
259.056 175.796 L
332.59 187.749 L
240.051 198.768 L
319.844 189.639 L
377.781 236.482 L
286.358 226.688 L
337.29 217.346 L
257.645 195.287 L
291.179 199.697 L
192.284 182.437 L
288.34 169.122 L
201.516 214.893 L
300.781 164.693 L
237.294 190.789 L
308.448 204.507 L
339.384 209.441 L
222.02 207.64 L
343.136 171.785 L
S
GR
GS
1 LJ
0.5 LW
N
332.086 179.145 M
207.711 151.951 L
294.75 172.727 L
189.208 209.946 L
274.08 199.789 L
254.106 263.621 L
366.024 176.878 L
271.051 189.497 L
344.89 184.319 L
230.864 175.659 L
246.625 105.767 L
218.647 175.137 L
292.996 173.778 L
184.664 145.818 L
273.175 155.011 L
235.557 163.688 L
355.726 181.828 L
253.426 199.185 L
241.005 175.744 L
174.686 217.197 L
254.536 194.256 L
171.349 117.681 L
236.507 145.529 L
188.832 152.477 L
274.137 189.704 L
290.588 189.517 L
226.429 145.973 L
308.874 183.909 L
288.406 250.831 L
263.078 217.949 L
313.554 204.838 L
191.529 173.197 L
321.258 151.393 L
227.284 185.546 L
273.775 179.204 L
251.002 199.054 L
324.673 170.815 L
270.034 212.093 L
249.299 179.236 L
340.242 218.222 L
198.481 173.888 L
314.905 145.009 L
278.252 204.654 L
280.97 218.997 L
282.657 175.039 L
285.75 251.706 L
326.669 212.337 L
221.572 275.157 L
300.075 251.58 L
279.968 228.438 L
225.847 220.788 L
351.122 214.698 L
236.125 226.719 L
340.725 191.922 L
239.466 174.636 L
349.844 152.729 L
205.955 181.524 L
326.13 170.689 L
287.541 102.582 L
336.947 163.191 L
243.724 179.384 L
311.607 181.888 L
321.321 208.821 L
268.607 205.127 L
327.413 158.855 L
250.476 175.819 L
358.6 156.129 L
232.974 56.443 L
296.032 59.077 L
268.118 89.781 L
283.655 126.681 L
339.942 168.812 L
258.288 186.757 L
301.843 232.859 L
262.428 204.36 L
351.013 183.426 L
237.804 157.282 L
255.677 174.121 L
249.189 214.879 L
294.527 186.63 L
212.163 164.561 L
331.428 190.069 L
214.788 197.818 L
321.117 185.84 L
210.149 191.685 L
309.059 189.89 L
198.573 174.713 L
287.502 171.63 L
228.477 204.59 L
280.13 245.617 L
293.76 222.778 L
194.067 209.648 L
308.46 201.689 L
345.477 217.897 L
240.001 227.362 L
359.163 203.637 L
241.077 258.895 L
313.586 219.092 L
207.579 199.692 L
322.247 140.003 L
306.316 174.273 L
300.318 188.417 L
275.23 215.038 L
337.126 171.171 L
272.357 120.177 L
325.065 136.802 L
243.419 180.75 L
348.455 147.092 L
318.63 207.14 L
276.305 182.466 L
331.119 237.13 L
378.101 279.471 L
344.179 273.004 L
317.697 246.589 L
307.7 197.863 L
287.756 184.496 L
283.787 133.026 L
323.707 169.561 L
232.092 117.607 L
306.726 142.821 L
223.204 188.083 L
332.684 167.831 L
289.898 215.84 L
331.495 173.837 L
230.857 135.503 L
343.462 213.97 L
233.413 227.887 L
300.378 200.044 L
327.285 161.207 L
244.198 174.086 L
343.654 158.466 L
259.056 175.796 L
332.59 187.749 L
240.051 198.768 L
319.844 189.639 L
377.781 236.482 L
286.358 226.688 L
337.29 217.346 L
257.645 195.287 L
291.179 199.697 L
192.284 182.437 L
288.34 169.122 L
201.516 214.893 L
300.781 164.693 L
237.294 190.789 L
308.448 204.507 L
339.384 209.441 L
222.02 207.64 L
343.136 171.785 L
231.001 125.491 L
S
GR
GS
[1 0 0 1 393.83334 317.04166] CT
N
f101484798
f
GR
GS
[1 0 0 1 393.83334 330.02084] CT
1 0 0 RC
N
f536683381
f
GR
GS
[1 0 0 1 393.83334 330.02084] CT
1 0 0 RC
10.0 ML
N
5 0 M
5 -2.761 2.761 -5 0 -5 C
-2.761 -5 -5 -2.761 -5 0 C
-5 2.761 -2.761 5 0 5 C
2.761 5 5 2.761 5 0 C
cp
S
GR
GS
[1 0 0 1 406.8125 317.04166] CT
/Helvetica 10 F
GS
[1 0 0 1 0 0] CT
0 3.5 moveto 
1 -1 scale
(ONSET) t 
GR
GR
GS
[1 0 0 1 406.8125 330.02084] CT
/Helvetica 10 F
GS
[1 0 0 1 0 0] CT
0 3.5 moveto 
1 -1 scale
(OFFSET) t 
GR
GR
%%Trailer
%%Pages: 1
%%EOF
