%!PS-Adobe-3.0 EPSF-3.0
%%Creator: (MATLAB, The Mathworks, Inc. Version 9.5.0.944444 \(R2018b\). Operating System: Mac OS X)
%%Title: ./pitchLP.eps
%%CreationDate: 2020-04-29T17:13:12
%%Pages: (atend)
%%BoundingBox:    53     0   447   397
%%LanguageLevel: 2
%%EndComments
%%BeginProlog
%%BeginResource: procset (Apache XML Graphics Std ProcSet) 1.2 0
%%Version: 1.2 0
%%Copyright: (Copyright 2001-2003,2010 The Apache Software Foundation. License terms: http://www.apache.org/licenses/LICENSE-2.0)
/bd{bind def}bind def
/ld{load def}bd
/GR/grestore ld
/GS/gsave ld
/RM/rmoveto ld
/C/curveto ld
/t/show ld
/L/lineto ld
/ML/setmiterlimit ld
/CT/concat ld
/f/fill ld
/N/newpath ld
/S/stroke ld
/CC/setcmykcolor ld
/A/ashow ld
/cp/closepath ld
/RC/setrgbcolor ld
/LJ/setlinejoin ld
/GC/setgray ld
/LW/setlinewidth ld
/M/moveto ld
/re {4 2 roll M
1 index 0 rlineto
0 exch rlineto
neg 0 rlineto
cp } bd
/_ctm matrix def
/_tm matrix def
/BT { _ctm currentmatrix pop matrix _tm copy pop 0 0 moveto } bd
/ET { _ctm setmatrix } bd
/iTm { _ctm setmatrix _tm concat } bd
/Tm { _tm astore pop iTm 0 0 moveto } bd
/ux 0.0 def
/uy 0.0 def
/F {
  /Tp exch def
  /Tf exch def
  Tf findfont Tp scalefont setfont
  /cf Tf def  /cs Tp def
} bd
/ULS {currentpoint /uy exch def /ux exch def} bd
/ULE {
  /Tcx currentpoint pop def
  gsave
  newpath
  cf findfont cs scalefont dup
  /FontMatrix get 0 get /Ts exch def /FontInfo get dup
  /UnderlinePosition get Ts mul /To exch def
  /UnderlineThickness get Ts mul /Tt exch def
  ux uy To add moveto  Tcx uy To add lineto
  Tt setlinewidth stroke
  grestore
} bd
/OLE {
  /Tcx currentpoint pop def
  gsave
  newpath
  cf findfont cs scalefont dup
  /FontMatrix get 0 get /Ts exch def /FontInfo get dup
  /UnderlinePosition get Ts mul /To exch def
  /UnderlineThickness get Ts mul /Tt exch def
  ux uy To add cs add moveto Tcx uy To add cs add lineto
  Tt setlinewidth stroke
  grestore
} bd
/SOE {
  /Tcx currentpoint pop def
  gsave
  newpath
  cf findfont cs scalefont dup
  /FontMatrix get 0 get /Ts exch def /FontInfo get dup
  /UnderlinePosition get Ts mul /To exch def
  /UnderlineThickness get Ts mul /Tt exch def
  ux uy To add cs 10 mul 26 idiv add moveto Tcx uy To add cs 10 mul 26 idiv add lineto
  Tt setlinewidth stroke
  grestore
} bd
/QT {
/Y22 exch store
/X22 exch store
/Y21 exch store
/X21 exch store
currentpoint
/Y21 load 2 mul add 3 div exch
/X21 load 2 mul add 3 div exch
/X21 load 2 mul /X22 load add 3 div
/Y21 load 2 mul /Y22 load add 3 div
/X22 load /Y22 load curveto
} bd
/SSPD {
dup length /d exch dict def
{
/v exch def
/k exch def
currentpagedevice k known {
/cpdv currentpagedevice k get def
v cpdv ne {
/upd false def
/nullv v type /nulltype eq def
/nullcpdv cpdv type /nulltype eq def
nullv nullcpdv or
{
/upd true def
} {
/sametype v type cpdv type eq def
sametype {
v type /arraytype eq {
/vlen v length def
/cpdvlen cpdv length def
vlen cpdvlen eq {
0 1 vlen 1 sub {
/i exch def
/obj v i get def
/cpdobj cpdv i get def
obj cpdobj ne {
/upd true def
exit
} if
} for
} {
/upd true def
} ifelse
} {
v type /dicttype eq {
v {
/dv exch def
/dk exch def
/cpddv cpdv dk get def
dv cpddv ne {
/upd true def
exit
} if
} forall
} {
/upd true def
} ifelse
} ifelse
} if
} ifelse
upd true eq {
d k v put
} if
} if
} if
} forall
d length 0 gt {
d setpagedevice
} if
} bd
/RE { % /NewFontName [NewEncodingArray] /FontName RE -
  findfont dup length dict begin
  {
    1 index /FID ne
    {def} {pop pop} ifelse
  } forall
  /Encoding exch def
  /FontName 1 index def
  currentdict definefont pop
  end
} bind def
%%EndResource
%%BeginResource: procset (Apache XML Graphics EPS ProcSet) 1.0 0
%%Version: 1.0 0
%%Copyright: (Copyright 2002-2003 The Apache Software Foundation. License terms: http://www.apache.org/licenses/LICENSE-2.0)
/BeginEPSF { %def
/b4_Inc_state save def         % Save state for cleanup
/dict_count countdictstack def % Count objects on dict stack
/op_count count 1 sub def      % Count objects on operand stack
userdict begin                 % Push userdict on dict stack
/showpage { } def              % Redefine showpage, { } = null proc
0 setgray 0 setlinecap         % Prepare graphics state
1 setlinewidth 0 setlinejoin
10 setmiterlimit [ ] 0 setdash newpath
/languagelevel where           % If level not equal to 1 then
{pop languagelevel             % set strokeadjust and
1 ne                           % overprint to their defaults.
{false setstrokeadjust false setoverprint
} if
} if
} bd
/EndEPSF { %def
count op_count sub {pop} repeat            % Clean up stacks
countdictstack dict_count sub {end} repeat
b4_Inc_state restore
} bd
%%EndResource
%FOPBeginFontDict
%%IncludeResource: font Courier-Oblique
%%IncludeResource: font Courier-BoldOblique
%%IncludeResource: font Courier-Bold
%%IncludeResource: font ZapfDingbats
%%IncludeResource: font Symbol
%%IncludeResource: font Helvetica
%%IncludeResource: font Helvetica-Oblique
%%IncludeResource: font Helvetica-Bold
%%IncludeResource: font Helvetica-BoldOblique
%%IncludeResource: font Times-Roman
%%IncludeResource: font Times-Italic
%%IncludeResource: font Times-Bold
%%IncludeResource: font Times-BoldItalic
%%IncludeResource: font Courier
%FOPEndFontDict
%%BeginResource: encoding WinAnsiEncoding
/WinAnsiEncoding [
/.notdef /.notdef /.notdef /.notdef /.notdef
/.notdef /.notdef /.notdef /.notdef /.notdef
/.notdef /.notdef /.notdef /.notdef /.notdef
/.notdef /.notdef /.notdef /.notdef /.notdef
/.notdef /.notdef /.notdef /.notdef /.notdef
/.notdef /.notdef /.notdef /.notdef /.notdef
/.notdef /.notdef /space /exclam /quotedbl
/numbersign /dollar /percent /ampersand /quotesingle
/parenleft /parenright /asterisk /plus /comma
/hyphen /period /slash /zero /one
/two /three /four /five /six
/seven /eight /nine /colon /semicolon
/less /equal /greater /question /at
/A /B /C /D /E
/F /G /H /I /J
/K /L /M /N /O
/P /Q /R /S /T
/U /V /W /X /Y
/Z /bracketleft /backslash /bracketright /asciicircum
/underscore /quoteleft /a /b /c
/d /e /f /g /h
/i /j /k /l /m
/n /o /p /q /r
/s /t /u /v /w
/x /y /z /braceleft /bar
/braceright /asciitilde /bullet /Euro /bullet
/quotesinglbase /florin /quotedblbase /ellipsis /dagger
/daggerdbl /circumflex /perthousand /Scaron /guilsinglleft
/OE /bullet /Zcaron /bullet /bullet
/quoteleft /quoteright /quotedblleft /quotedblright /bullet
/endash /emdash /asciitilde /trademark /scaron
/guilsinglright /oe /bullet /zcaron /Ydieresis
/space /exclamdown /cent /sterling /currency
/yen /brokenbar /section /dieresis /copyright
/ordfeminine /guillemotleft /logicalnot /sfthyphen /registered
/macron /degree /plusminus /twosuperior /threesuperior
/acute /mu /paragraph /middot /cedilla
/onesuperior /ordmasculine /guillemotright /onequarter /onehalf
/threequarters /questiondown /Agrave /Aacute /Acircumflex
/Atilde /Adieresis /Aring /AE /Ccedilla
/Egrave /Eacute /Ecircumflex /Edieresis /Igrave
/Iacute /Icircumflex /Idieresis /Eth /Ntilde
/Ograve /Oacute /Ocircumflex /Otilde /Odieresis
/multiply /Oslash /Ugrave /Uacute /Ucircumflex
/Udieresis /Yacute /Thorn /germandbls /agrave
/aacute /acircumflex /atilde /adieresis /aring
/ae /ccedilla /egrave /eacute /ecircumflex
/edieresis /igrave /iacute /icircumflex /idieresis
/eth /ntilde /ograve /oacute /ocircumflex
/otilde /odieresis /divide /oslash /ugrave
/uacute /ucircumflex /udieresis /yacute /thorn
/ydieresis
] def
%%EndResource
%FOPBeginFontReencode
/Courier-Oblique findfont
dup length dict begin
  {1 index /FID ne {def} {pop pop} ifelse} forall
  /Encoding WinAnsiEncoding def
  currentdict
end
/Courier-Oblique exch definefont pop
/Courier-BoldOblique findfont
dup length dict begin
  {1 index /FID ne {def} {pop pop} ifelse} forall
  /Encoding WinAnsiEncoding def
  currentdict
end
/Courier-BoldOblique exch definefont pop
/Courier-Bold findfont
dup length dict begin
  {1 index /FID ne {def} {pop pop} ifelse} forall
  /Encoding WinAnsiEncoding def
  currentdict
end
/Courier-Bold exch definefont pop
/Helvetica findfont
dup length dict begin
  {1 index /FID ne {def} {pop pop} ifelse} forall
  /Encoding WinAnsiEncoding def
  currentdict
end
/Helvetica exch definefont pop
/Helvetica-Oblique findfont
dup length dict begin
  {1 index /FID ne {def} {pop pop} ifelse} forall
  /Encoding WinAnsiEncoding def
  currentdict
end
/Helvetica-Oblique exch definefont pop
/Helvetica-Bold findfont
dup length dict begin
  {1 index /FID ne {def} {pop pop} ifelse} forall
  /Encoding WinAnsiEncoding def
  currentdict
end
/Helvetica-Bold exch definefont pop
/Helvetica-BoldOblique findfont
dup length dict begin
  {1 index /FID ne {def} {pop pop} ifelse} forall
  /Encoding WinAnsiEncoding def
  currentdict
end
/Helvetica-BoldOblique exch definefont pop
/Times-Roman findfont
dup length dict begin
  {1 index /FID ne {def} {pop pop} ifelse} forall
  /Encoding WinAnsiEncoding def
  currentdict
end
/Times-Roman exch definefont pop
/Times-Italic findfont
dup length dict begin
  {1 index /FID ne {def} {pop pop} ifelse} forall
  /Encoding WinAnsiEncoding def
  currentdict
end
/Times-Italic exch definefont pop
/Times-Bold findfont
dup length dict begin
  {1 index /FID ne {def} {pop pop} ifelse} forall
  /Encoding WinAnsiEncoding def
  currentdict
end
/Times-Bold exch definefont pop
/Times-BoldItalic findfont
dup length dict begin
  {1 index /FID ne {def} {pop pop} ifelse} forall
  /Encoding WinAnsiEncoding def
  currentdict
end
/Times-BoldItalic exch definefont pop
/Courier findfont
dup length dict begin
  {1 index /FID ne {def} {pop pop} ifelse} forall
  /Encoding WinAnsiEncoding def
  currentdict
end
/Courier exch definefont pop
%FOPEndFontReencode
%%EndProlog
%%Page: 1 1
%%PageBoundingBox: 0 0 560 420
%%BeginPageSetup
[1 0 0 -1 0 420] CT
%%EndPageSetup
GS
1 GC
N
0 0 560 420 re
f
GR
GS
1 GC
N
0 0 560 420 re
f
GR
GS
1 GC
N
134.25 343 M
445.75 343 L
445.75 31.5 L
134.25 31.5 L
cp
f
GR
GS
0.896 GC
1 LJ
N
165.4 343 M
165.4 31.5 L
S
GR
GS
0.896 GC
1 LJ
N
227.7 343 M
227.7 31.5 L
S
GR
GS
0.896 GC
1 LJ
N
290 343 M
290 31.5 L
S
GR
GS
0.896 GC
1 LJ
N
352.3 343 M
352.3 31.5 L
S
GR
GS
0.896 GC
1 LJ
N
414.6 343 M
414.6 31.5 L
S
GR
GS
0.896 GC
1 LJ
N
445.75 343 M
134.25 343 L
S
GR
GS
0.896 GC
1 LJ
N
445.75 265.125 M
134.25 265.125 L
S
GR
GS
0.896 GC
1 LJ
N
445.75 187.25 M
134.25 187.25 L
S
GR
GS
0.896 GC
1 LJ
N
445.75 109.375 M
134.25 109.375 L
S
GR
GS
0.896 GC
1 LJ
N
445.75 31.5 M
134.25 31.5 L
S
GR
GS
0.302 GC
2 setlinecap
1 LJ
N
134.25 343 M
445.75 343 L
S
GR
GS
0.302 GC
2 setlinecap
1 LJ
N
165.4 343 M
165.4 349.23 L
S
GR
GS
0.302 GC
2 setlinecap
1 LJ
N
227.7 343 M
227.7 349.23 L
S
GR
GS
0.302 GC
2 setlinecap
1 LJ
N
290 343 M
290 349.23 L
S
GR
GS
0.302 GC
2 setlinecap
1 LJ
N
352.3 343 M
352.3 349.23 L
S
GR
GS
0.302 GC
2 setlinecap
1 LJ
N
414.6 343 M
414.6 349.23 L
S
GR
GS
0.302 GC
2 setlinecap
1 LJ
N
134.25 343 M
134.25 346.115 L
S
GR
GS
0.302 GC
2 setlinecap
1 LJ
N
142.038 343 M
142.038 346.115 L
S
GR
GS
0.302 GC
2 setlinecap
1 LJ
N
149.825 343 M
149.825 346.115 L
S
GR
GS
0.302 GC
2 setlinecap
1 LJ
N
157.613 343 M
157.613 346.115 L
S
GR
GS
0.302 GC
2 setlinecap
1 LJ
N
173.188 343 M
173.188 346.115 L
S
GR
GS
0.302 GC
2 setlinecap
1 LJ
N
180.975 343 M
180.975 346.115 L
S
GR
GS
0.302 GC
2 setlinecap
1 LJ
N
188.762 343 M
188.762 346.115 L
S
GR
GS
0.302 GC
2 setlinecap
1 LJ
N
196.55 343 M
196.55 346.115 L
S
GR
GS
0.302 GC
2 setlinecap
1 LJ
N
204.337 343 M
204.337 346.115 L
S
GR
GS
0.302 GC
2 setlinecap
1 LJ
N
212.125 343 M
212.125 346.115 L
S
GR
GS
0.302 GC
2 setlinecap
1 LJ
N
219.913 343 M
219.913 346.115 L
S
GR
GS
0.302 GC
2 setlinecap
1 LJ
N
235.488 343 M
235.488 346.115 L
S
GR
GS
0.302 GC
2 setlinecap
1 LJ
N
243.275 343 M
243.275 346.115 L
S
GR
GS
0.302 GC
2 setlinecap
1 LJ
N
251.063 343 M
251.063 346.115 L
S
GR
GS
0.302 GC
2 setlinecap
1 LJ
N
258.85 343 M
258.85 346.115 L
S
GR
GS
0.302 GC
2 setlinecap
1 LJ
N
266.638 343 M
266.638 346.115 L
S
GR
GS
0.302 GC
2 setlinecap
1 LJ
N
274.425 343 M
274.425 346.115 L
S
GR
GS
0.302 GC
2 setlinecap
1 LJ
N
282.212 343 M
282.212 346.115 L
S
GR
GS
0.302 GC
2 setlinecap
1 LJ
N
297.788 343 M
297.788 346.115 L
S
GR
GS
0.302 GC
2 setlinecap
1 LJ
N
305.575 343 M
305.575 346.115 L
S
GR
GS
0.302 GC
2 setlinecap
1 LJ
N
313.362 343 M
313.362 346.115 L
S
GR
GS
0.302 GC
2 setlinecap
1 LJ
N
321.15 343 M
321.15 346.115 L
S
GR
GS
0.302 GC
2 setlinecap
1 LJ
N
328.938 343 M
328.938 346.115 L
S
GR
GS
0.302 GC
2 setlinecap
1 LJ
N
336.725 343 M
336.725 346.115 L
S
GR
GS
0.302 GC
2 setlinecap
1 LJ
N
344.513 343 M
344.513 346.115 L
S
GR
GS
0.302 GC
2 setlinecap
1 LJ
N
360.087 343 M
360.087 346.115 L
S
GR
GS
0.302 GC
2 setlinecap
1 LJ
N
367.875 343 M
367.875 346.115 L
S
GR
GS
0.302 GC
2 setlinecap
1 LJ
N
375.663 343 M
375.663 346.115 L
S
GR
GS
0.302 GC
2 setlinecap
1 LJ
N
383.45 343 M
383.45 346.115 L
S
GR
GS
0.302 GC
2 setlinecap
1 LJ
N
391.237 343 M
391.237 346.115 L
S
GR
GS
0.302 GC
2 setlinecap
1 LJ
N
399.025 343 M
399.025 346.115 L
S
GR
GS
0.302 GC
2 setlinecap
1 LJ
N
406.813 343 M
406.813 346.115 L
S
GR
GS
0.302 GC
2 setlinecap
1 LJ
N
422.388 343 M
422.388 346.115 L
S
GR
GS
0.302 GC
2 setlinecap
1 LJ
N
430.175 343 M
430.175 346.115 L
S
GR
GS
0.302 GC
2 setlinecap
1 LJ
N
437.962 343 M
437.962 346.115 L
S
GR
GS
0.302 GC
2 setlinecap
1 LJ
N
445.75 343 M
445.75 346.115 L
S
GR
GS
[1 0 0 1 165.39999 356.22998] CT
0.302 GC
/Helvetica 25 F
GS
[1 0 0 1 0 0] CT
-12 24 moveto 
1 -1 scale
(-8) t 
GR
GR
GS
[1 0 0 1 227.7 356.22998] CT
0.302 GC
/Helvetica 25 F
GS
[1 0 0 1 0 0] CT
-12 24 moveto 
1 -1 scale
(-4) t 
GR
GR
GS
[1 0 0 1 290 356.22998] CT
0.302 GC
/Helvetica 25 F
GS
[1 0 0 1 0 0] CT
-7 24 moveto 
1 -1 scale
(0) t 
GR
GR
GS
[1 0 0 1 352.29999 356.22998] CT
0.302 GC
/Helvetica 25 F
GS
[1 0 0 1 0 0] CT
-7 24 moveto 
1 -1 scale
(4) t 
GR
GR
GS
[1 0 0 1 414.60001 356.22998] CT
0.302 GC
/Helvetica 25 F
GS
[1 0 0 1 0 0] CT
-7 24 moveto 
1 -1 scale
(8) t 
GR
GR
GS
[1 0 0 1 233 414] CT
0.302 GC
N
1.516 0 M
1.281 0 1.281 -0.219 QT
1.297 -0.25 1.305 -0.266 QT
1.313 -0.281 1.313 -0.313 QT
10.953 -19.75 L
11.078 -20.047 11.453 -20.047 QT
11.844 -20.047 L
12.219 -20.047 12.344 -19.75 QT
21.984 -0.313 L
22 -0.281 22.008 -0.266 QT
22.016 -0.25 22.016 -0.219 QT
22.016 0 21.781 0 QT
1.516 0 L
cp
3.359 -2.25 M
18.109 -2.25 L
10.75 -17.109 L
3.359 -2.25 L
cp
f
GR
GS
[1 0 0 1 256 414] CT
0.302 GC
/Helvetica 27.5 F
GS
[1 0 0 1 0 0] CT
0 0 moveto 
1 -1 scale
( z \(mm\)) t 
GR
GR
GS
0.302 GC
2 setlinecap
1 LJ
N
134.25 343 M
134.25 31.5 L
S
GR
GS
0.302 GC
2 setlinecap
1 LJ
N
134.25 343 M
128.02 343 L
S
GR
GS
0.302 GC
2 setlinecap
1 LJ
N
134.25 265.125 M
128.02 265.125 L
S
GR
GS
0.302 GC
2 setlinecap
1 LJ
N
134.25 187.25 M
128.02 187.25 L
S
GR
GS
0.302 GC
2 setlinecap
1 LJ
N
134.25 109.375 M
128.02 109.375 L
S
GR
GS
0.302 GC
2 setlinecap
1 LJ
N
134.25 31.5 M
128.02 31.5 L
S
GR
GS
0.302 GC
2 setlinecap
1 LJ
N
134.25 327.425 M
131.135 327.425 L
S
GR
GS
0.302 GC
2 setlinecap
1 LJ
N
134.25 311.85 M
131.135 311.85 L
S
GR
GS
0.302 GC
2 setlinecap
1 LJ
N
134.25 296.275 M
131.135 296.275 L
S
GR
GS
0.302 GC
2 setlinecap
1 LJ
N
134.25 280.7 M
131.135 280.7 L
S
GR
GS
0.302 GC
2 setlinecap
1 LJ
N
134.25 249.55 M
131.135 249.55 L
S
GR
GS
0.302 GC
2 setlinecap
1 LJ
N
134.25 233.975 M
131.135 233.975 L
S
GR
GS
0.302 GC
2 setlinecap
1 LJ
N
134.25 218.4 M
131.135 218.4 L
S
GR
GS
0.302 GC
2 setlinecap
1 LJ
N
134.25 202.825 M
131.135 202.825 L
S
GR
GS
0.302 GC
2 setlinecap
1 LJ
N
134.25 171.675 M
131.135 171.675 L
S
GR
GS
0.302 GC
2 setlinecap
1 LJ
N
134.25 156.1 M
131.135 156.1 L
S
GR
GS
0.302 GC
2 setlinecap
1 LJ
N
134.25 140.525 M
131.135 140.525 L
S
GR
GS
0.302 GC
2 setlinecap
1 LJ
N
134.25 124.95 M
131.135 124.95 L
S
GR
GS
0.302 GC
2 setlinecap
1 LJ
N
134.25 93.8 M
131.135 93.8 L
S
GR
GS
0.302 GC
2 setlinecap
1 LJ
N
134.25 78.225 M
131.135 78.225 L
S
GR
GS
0.302 GC
2 setlinecap
1 LJ
N
134.25 62.65 M
131.135 62.65 L
S
GR
GS
0.302 GC
2 setlinecap
1 LJ
N
134.25 47.075 M
131.135 47.075 L
S
GR
GS
[1 0 0 1 121.02 343] CT
0.302 GC
/Helvetica 25 F
GS
[1 0 0 1 0 0] CT
-38 9 moveto 
1 -1 scale
(-15) t 
GR
GR
GS
[1 0 0 1 121.02 265.125] CT
0.302 GC
/Helvetica 25 F
GS
[1 0 0 1 0 0] CT
-38 9 moveto 
1 -1 scale
(-10) t 
GR
GR
GS
[1 0 0 1 121.02 187.25] CT
0.302 GC
/Helvetica 25 F
GS
[1 0 0 1 0 0] CT
-24 9 moveto 
1 -1 scale
(-5) t 
GR
GR
GS
[1 0 0 1 121.02 109.375] CT
0.302 GC
/Helvetica 25 F
GS
[1 0 0 1 0 0] CT
-14 9 moveto 
1 -1 scale
(0) t 
GR
GR
GS
[1 0 0 1 121.02 31.5] CT
0.302 GC
/Helvetica 25 F
GS
[1 0 0 1 0 0] CT
-14 9 moveto 
1 -1 scale
(5) t 
GR
GR
GS
[0 -1 1 0 80.02 187.24985] CT
0.302 GC
/Helvetica 27.5 F
GS
[1 0 0 1 0 0] CT
-123.5 -6 moveto 
1 -1 scale
(Pitch angle LP \(deg\)) t 
GR
GR
GS
1 LJ
2 LW
N
165.4 60.098 M
196.55 80.714 L
227.7 103.11 L
258.85 131.769 L
290 164.965 L
321.15 205.163 L
352.3 250.285 L
383.45 294.126 L
414.6 336.681 L
S
GR
GS
[1 0 0 1 165.39999 60.09751] CT
1 0 0 RC
N
5 0 M
5 -2.761 2.761 -5 0 -5 C
-2.761 -5 -5 -2.761 -5 0 C
-5 2.761 -2.761 5 0 5 C
2.761 5 5 2.761 5 0 C
cp
f
GR
GS
[1 0 0 1 165.39999 60.09751] CT
10.0 ML
2 LW
N
5 0 M
5 -2.761 2.761 -5 0 -5 C
-2.761 -5 -5 -2.761 -5 0 C
-5 2.761 -2.761 5 0 5 C
2.761 5 5 2.761 5 0 C
cp
S
GR
GS
[1 0 0 1 196.55 80.71396] CT
1 0 0 RC
N
/f536683381{5 0 M
5 -2.761 2.761 -5 0 -5 C
-2.761 -5 -5 -2.761 -5 0 C
-5 2.761 -2.761 5 0 5 C
2.761 5 5 2.761 5 0 C
cp}def
f536683381
f
GR
GS
[1 0 0 1 196.55 80.71396] CT
10.0 ML
2 LW
N
5 0 M
5 -2.761 2.761 -5 0 -5 C
-2.761 -5 -5 -2.761 -5 0 C
-5 2.761 -2.761 5 0 5 C
2.761 5 5 2.761 5 0 C
cp
S
GR
GS
[1 0 0 1 227.7 103.10963] CT
1 0 0 RC
N
f536683381
f
GR
GS
[1 0 0 1 227.7 103.10963] CT
10.0 ML
2 LW
N
5 0 M
5 -2.761 2.761 -5 0 -5 C
-2.761 -5 -5 -2.761 -5 0 C
-5 2.761 -2.761 5 0 5 C
2.761 5 5 2.761 5 0 C
cp
S
GR
GS
[1 0 0 1 258.85001 131.76944] CT
1 0 0 RC
N
f536683381
f
GR
GS
[1 0 0 1 258.85001 131.76944] CT
10.0 ML
2 LW
N
5 0 M
5 -2.761 2.761 -5 0 -5 C
-2.761 -5 -5 -2.761 -5 0 C
-5 2.761 -2.761 5 0 5 C
2.761 5 5 2.761 5 0 C
cp
S
GR
GS
[1 0 0 1 290 164.96461] CT
1 0 0 RC
N
f536683381
f
GR
GS
[1 0 0 1 290 164.96461] CT
10.0 ML
2 LW
N
5 0 M
5 -2.761 2.761 -5 0 -5 C
-2.761 -5 -5 -2.761 -5 0 C
-5 2.761 -2.761 5 0 5 C
2.761 5 5 2.761 5 0 C
cp
S
GR
GS
[1 0 0 1 321.14999 205.16336] CT
1 0 0 RC
N
f536683381
f
GR
GS
[1 0 0 1 321.14999 205.16336] CT
10.0 ML
2 LW
N
5 0 M
5 -2.761 2.761 -5 0 -5 C
-2.761 -5 -5 -2.761 -5 0 C
-5 2.761 -2.761 5 0 5 C
2.761 5 5 2.761 5 0 C
cp
S
GR
GS
[1 0 0 1 352.29999 250.28531] CT
1 0 0 RC
N
f536683381
f
GR
GS
[1 0 0 1 352.29999 250.28531] CT
10.0 ML
2 LW
N
5 0 M
5 -2.761 2.761 -5 0 -5 C
-2.761 -5 -5 -2.761 -5 0 C
-5 2.761 -2.761 5 0 5 C
2.761 5 5 2.761 5 0 C
cp
S
GR
GS
[1 0 0 1 383.45001 294.1261] CT
1 0 0 RC
N
f536683381
f
GR
GS
[1 0 0 1 383.45001 294.1261] CT
10.0 ML
2 LW
N
5 0 M
5 -2.761 2.761 -5 0 -5 C
-2.761 -5 -5 -2.761 -5 0 C
-5 2.761 -2.761 5 0 5 C
2.761 5 5 2.761 5 0 C
cp
S
GR
GS
[1 0 0 1 414.60001 336.68054] CT
1 0 0 RC
N
f536683381
f
GR
GS
[1 0 0 1 414.60001 336.68054] CT
10.0 ML
2 LW
N
5 0 M
5 -2.761 2.761 -5 0 -5 C
-2.761 -5 -5 -2.761 -5 0 C
-5 2.761 -2.761 5 0 5 C
2.761 5 5 2.761 5 0 C
cp
S
GR
%%Trailer
%%Pages: 1
%%EOF
