%!PS-Adobe-3.0 EPSF-3.0
%%Creator: (MATLAB, The Mathworks, Inc. Version 9.5.0.944444 \(R2018b\). Operating System: Mac OS X)
%%Title: ./stretchingA.eps
%%CreationDate: 2020-05-04T11:09:35
%%Pages: (atend)
%%BoundingBox:    49     0   447   398
%%LanguageLevel: 2
%%EndComments
%%BeginProlog
%%BeginResource: procset (Apache XML Graphics Std ProcSet) 1.2 0
%%Version: 1.2 0
%%Copyright: (Copyright 2001-2003,2010 The Apache Software Foundation. License terms: http://www.apache.org/licenses/LICENSE-2.0)
/bd{bind def}bind def
/ld{load def}bd
/GR/grestore ld
/GS/gsave ld
/RM/rmoveto ld
/C/curveto ld
/t/show ld
/L/lineto ld
/ML/setmiterlimit ld
/CT/concat ld
/f/fill ld
/N/newpath ld
/S/stroke ld
/CC/setcmykcolor ld
/A/ashow ld
/cp/closepath ld
/RC/setrgbcolor ld
/LJ/setlinejoin ld
/GC/setgray ld
/LW/setlinewidth ld
/M/moveto ld
/re {4 2 roll M
1 index 0 rlineto
0 exch rlineto
neg 0 rlineto
cp } bd
/_ctm matrix def
/_tm matrix def
/BT { _ctm currentmatrix pop matrix _tm copy pop 0 0 moveto } bd
/ET { _ctm setmatrix } bd
/iTm { _ctm setmatrix _tm concat } bd
/Tm { _tm astore pop iTm 0 0 moveto } bd
/ux 0.0 def
/uy 0.0 def
/F {
  /Tp exch def
  /Tf exch def
  Tf findfont Tp scalefont setfont
  /cf Tf def  /cs Tp def
} bd
/ULS {currentpoint /uy exch def /ux exch def} bd
/ULE {
  /Tcx currentpoint pop def
  gsave
  newpath
  cf findfont cs scalefont dup
  /FontMatrix get 0 get /Ts exch def /FontInfo get dup
  /UnderlinePosition get Ts mul /To exch def
  /UnderlineThickness get Ts mul /Tt exch def
  ux uy To add moveto  Tcx uy To add lineto
  Tt setlinewidth stroke
  grestore
} bd
/OLE {
  /Tcx currentpoint pop def
  gsave
  newpath
  cf findfont cs scalefont dup
  /FontMatrix get 0 get /Ts exch def /FontInfo get dup
  /UnderlinePosition get Ts mul /To exch def
  /UnderlineThickness get Ts mul /Tt exch def
  ux uy To add cs add moveto Tcx uy To add cs add lineto
  Tt setlinewidth stroke
  grestore
} bd
/SOE {
  /Tcx currentpoint pop def
  gsave
  newpath
  cf findfont cs scalefont dup
  /FontMatrix get 0 get /Ts exch def /FontInfo get dup
  /UnderlinePosition get Ts mul /To exch def
  /UnderlineThickness get Ts mul /Tt exch def
  ux uy To add cs 10 mul 26 idiv add moveto Tcx uy To add cs 10 mul 26 idiv add lineto
  Tt setlinewidth stroke
  grestore
} bd
/QT {
/Y22 exch store
/X22 exch store
/Y21 exch store
/X21 exch store
currentpoint
/Y21 load 2 mul add 3 div exch
/X21 load 2 mul add 3 div exch
/X21 load 2 mul /X22 load add 3 div
/Y21 load 2 mul /Y22 load add 3 div
/X22 load /Y22 load curveto
} bd
/SSPD {
dup length /d exch dict def
{
/v exch def
/k exch def
currentpagedevice k known {
/cpdv currentpagedevice k get def
v cpdv ne {
/upd false def
/nullv v type /nulltype eq def
/nullcpdv cpdv type /nulltype eq def
nullv nullcpdv or
{
/upd true def
} {
/sametype v type cpdv type eq def
sametype {
v type /arraytype eq {
/vlen v length def
/cpdvlen cpdv length def
vlen cpdvlen eq {
0 1 vlen 1 sub {
/i exch def
/obj v i get def
/cpdobj cpdv i get def
obj cpdobj ne {
/upd true def
exit
} if
} for
} {
/upd true def
} ifelse
} {
v type /dicttype eq {
v {
/dv exch def
/dk exch def
/cpddv cpdv dk get def
dv cpddv ne {
/upd true def
exit
} if
} forall
} {
/upd true def
} ifelse
} ifelse
} if
} ifelse
upd true eq {
d k v put
} if
} if
} if
} forall
d length 0 gt {
d setpagedevice
} if
} bd
/RE { % /NewFontName [NewEncodingArray] /FontName RE -
  findfont dup length dict begin
  {
    1 index /FID ne
    {def} {pop pop} ifelse
  } forall
  /Encoding exch def
  /FontName 1 index def
  currentdict definefont pop
  end
} bind def
%%EndResource
%%BeginResource: procset (Apache XML Graphics EPS ProcSet) 1.0 0
%%Version: 1.0 0
%%Copyright: (Copyright 2002-2003 The Apache Software Foundation. License terms: http://www.apache.org/licenses/LICENSE-2.0)
/BeginEPSF { %def
/b4_Inc_state save def         % Save state for cleanup
/dict_count countdictstack def % Count objects on dict stack
/op_count count 1 sub def      % Count objects on operand stack
userdict begin                 % Push userdict on dict stack
/showpage { } def              % Redefine showpage, { } = null proc
0 setgray 0 setlinecap         % Prepare graphics state
1 setlinewidth 0 setlinejoin
10 setmiterlimit [ ] 0 setdash newpath
/languagelevel where           % If level not equal to 1 then
{pop languagelevel             % set strokeadjust and
1 ne                           % overprint to their defaults.
{false setstrokeadjust false setoverprint
} if
} if
} bd
/EndEPSF { %def
count op_count sub {pop} repeat            % Clean up stacks
countdictstack dict_count sub {end} repeat
b4_Inc_state restore
} bd
%%EndResource
%FOPBeginFontDict
%%IncludeResource: font Courier-Oblique
%%IncludeResource: font Courier-BoldOblique
%%IncludeResource: font Courier-Bold
%%IncludeResource: font ZapfDingbats
%%IncludeResource: font Symbol
%%IncludeResource: font Helvetica
%%IncludeResource: font Helvetica-Oblique
%%IncludeResource: font Helvetica-Bold
%%IncludeResource: font Helvetica-BoldOblique
%%IncludeResource: font Times-Roman
%%IncludeResource: font Times-Italic
%%IncludeResource: font Times-Bold
%%IncludeResource: font Times-BoldItalic
%%IncludeResource: font Courier
%FOPEndFontDict
%%BeginResource: encoding WinAnsiEncoding
/WinAnsiEncoding [
/.notdef /.notdef /.notdef /.notdef /.notdef
/.notdef /.notdef /.notdef /.notdef /.notdef
/.notdef /.notdef /.notdef /.notdef /.notdef
/.notdef /.notdef /.notdef /.notdef /.notdef
/.notdef /.notdef /.notdef /.notdef /.notdef
/.notdef /.notdef /.notdef /.notdef /.notdef
/.notdef /.notdef /space /exclam /quotedbl
/numbersign /dollar /percent /ampersand /quotesingle
/parenleft /parenright /asterisk /plus /comma
/hyphen /period /slash /zero /one
/two /three /four /five /six
/seven /eight /nine /colon /semicolon
/less /equal /greater /question /at
/A /B /C /D /E
/F /G /H /I /J
/K /L /M /N /O
/P /Q /R /S /T
/U /V /W /X /Y
/Z /bracketleft /backslash /bracketright /asciicircum
/underscore /quoteleft /a /b /c
/d /e /f /g /h
/i /j /k /l /m
/n /o /p /q /r
/s /t /u /v /w
/x /y /z /braceleft /bar
/braceright /asciitilde /bullet /Euro /bullet
/quotesinglbase /florin /quotedblbase /ellipsis /dagger
/daggerdbl /circumflex /perthousand /Scaron /guilsinglleft
/OE /bullet /Zcaron /bullet /bullet
/quoteleft /quoteright /quotedblleft /quotedblright /bullet
/endash /emdash /asciitilde /trademark /scaron
/guilsinglright /oe /bullet /zcaron /Ydieresis
/space /exclamdown /cent /sterling /currency
/yen /brokenbar /section /dieresis /copyright
/ordfeminine /guillemotleft /logicalnot /sfthyphen /registered
/macron /degree /plusminus /twosuperior /threesuperior
/acute /mu /paragraph /middot /cedilla
/onesuperior /ordmasculine /guillemotright /onequarter /onehalf
/threequarters /questiondown /Agrave /Aacute /Acircumflex
/Atilde /Adieresis /Aring /AE /Ccedilla
/Egrave /Eacute /Ecircumflex /Edieresis /Igrave
/Iacute /Icircumflex /Idieresis /Eth /Ntilde
/Ograve /Oacute /Ocircumflex /Otilde /Odieresis
/multiply /Oslash /Ugrave /Uacute /Ucircumflex
/Udieresis /Yacute /Thorn /germandbls /agrave
/aacute /acircumflex /atilde /adieresis /aring
/ae /ccedilla /egrave /eacute /ecircumflex
/edieresis /igrave /iacute /icircumflex /idieresis
/eth /ntilde /ograve /oacute /ocircumflex
/otilde /odieresis /divide /oslash /ugrave
/uacute /ucircumflex /udieresis /yacute /thorn
/ydieresis
] def
%%EndResource
%FOPBeginFontReencode
/Courier-Oblique findfont
dup length dict begin
  {1 index /FID ne {def} {pop pop} ifelse} forall
  /Encoding WinAnsiEncoding def
  currentdict
end
/Courier-Oblique exch definefont pop
/Courier-BoldOblique findfont
dup length dict begin
  {1 index /FID ne {def} {pop pop} ifelse} forall
  /Encoding WinAnsiEncoding def
  currentdict
end
/Courier-BoldOblique exch definefont pop
/Courier-Bold findfont
dup length dict begin
  {1 index /FID ne {def} {pop pop} ifelse} forall
  /Encoding WinAnsiEncoding def
  currentdict
end
/Courier-Bold exch definefont pop
/Helvetica findfont
dup length dict begin
  {1 index /FID ne {def} {pop pop} ifelse} forall
  /Encoding WinAnsiEncoding def
  currentdict
end
/Helvetica exch definefont pop
/Helvetica-Oblique findfont
dup length dict begin
  {1 index /FID ne {def} {pop pop} ifelse} forall
  /Encoding WinAnsiEncoding def
  currentdict
end
/Helvetica-Oblique exch definefont pop
/Helvetica-Bold findfont
dup length dict begin
  {1 index /FID ne {def} {pop pop} ifelse} forall
  /Encoding WinAnsiEncoding def
  currentdict
end
/Helvetica-Bold exch definefont pop
/Helvetica-BoldOblique findfont
dup length dict begin
  {1 index /FID ne {def} {pop pop} ifelse} forall
  /Encoding WinAnsiEncoding def
  currentdict
end
/Helvetica-BoldOblique exch definefont pop
/Times-Roman findfont
dup length dict begin
  {1 index /FID ne {def} {pop pop} ifelse} forall
  /Encoding WinAnsiEncoding def
  currentdict
end
/Times-Roman exch definefont pop
/Times-Italic findfont
dup length dict begin
  {1 index /FID ne {def} {pop pop} ifelse} forall
  /Encoding WinAnsiEncoding def
  currentdict
end
/Times-Italic exch definefont pop
/Times-Bold findfont
dup length dict begin
  {1 index /FID ne {def} {pop pop} ifelse} forall
  /Encoding WinAnsiEncoding def
  currentdict
end
/Times-Bold exch definefont pop
/Times-BoldItalic findfont
dup length dict begin
  {1 index /FID ne {def} {pop pop} ifelse} forall
  /Encoding WinAnsiEncoding def
  currentdict
end
/Times-BoldItalic exch definefont pop
/Courier findfont
dup length dict begin
  {1 index /FID ne {def} {pop pop} ifelse} forall
  /Encoding WinAnsiEncoding def
  currentdict
end
/Courier exch definefont pop
%FOPEndFontReencode
%%EndProlog
%%Page: 1 1
%%PageBoundingBox: 0 0 560 420
%%BeginPageSetup
[1 0 0 -1 0 420] CT
%%EndPageSetup
GS
1 GC
N
0 0 560 420 re
f
GR
GS
1 GC
N
0 0 560 420 re
f
GR
GS
1 GC
N
134.25 343 M
445.75 343 L
445.75 31.5 L
134.25 31.5 L
cp
f
GR
GS
0.896 GC
1 LJ
N
134.25 343 M
134.25 31.5 L
S
GR
GS
0.896 GC
1 LJ
N
264.042 343 M
264.042 31.5 L
S
GR
GS
0.896 GC
1 LJ
N
393.833 343 M
393.833 31.5 L
S
GR
GS
0.896 GC
1 LJ
N
445.75 343 M
134.25 343 L
S
GR
GS
0.896 GC
1 LJ
N
445.75 291.083 M
134.25 291.083 L
S
GR
GS
0.896 GC
1 LJ
N
445.75 239.167 M
134.25 239.167 L
S
GR
GS
0.896 GC
1 LJ
N
445.75 187.25 M
134.25 187.25 L
S
GR
GS
0.896 GC
1 LJ
N
445.75 135.333 M
134.25 135.333 L
S
GR
GS
0.896 GC
1 LJ
N
445.75 83.417 M
134.25 83.417 L
S
GR
GS
0.896 GC
1 LJ
N
445.75 31.5 M
134.25 31.5 L
S
GR
GS
0.302 GC
2 setlinecap
1 LJ
N
134.25 343 M
445.75 343 L
S
GR
GS
0.302 GC
2 setlinecap
1 LJ
N
134.25 343 M
134.25 349.23 L
S
GR
GS
0.302 GC
2 setlinecap
1 LJ
N
264.042 343 M
264.042 349.23 L
S
GR
GS
0.302 GC
2 setlinecap
1 LJ
N
393.833 343 M
393.833 349.23 L
S
GR
GS
0.302 GC
2 setlinecap
1 LJ
N
160.208 343 M
160.208 346.115 L
S
GR
GS
0.302 GC
2 setlinecap
1 LJ
N
186.167 343 M
186.167 346.115 L
S
GR
GS
0.302 GC
2 setlinecap
1 LJ
N
212.125 343 M
212.125 346.115 L
S
GR
GS
0.302 GC
2 setlinecap
1 LJ
N
238.083 343 M
238.083 346.115 L
S
GR
GS
0.302 GC
2 setlinecap
1 LJ
N
290 343 M
290 346.115 L
S
GR
GS
0.302 GC
2 setlinecap
1 LJ
N
315.958 343 M
315.958 346.115 L
S
GR
GS
0.302 GC
2 setlinecap
1 LJ
N
341.917 343 M
341.917 346.115 L
S
GR
GS
0.302 GC
2 setlinecap
1 LJ
N
367.875 343 M
367.875 346.115 L
S
GR
GS
0.302 GC
2 setlinecap
1 LJ
N
419.792 343 M
419.792 346.115 L
S
GR
GS
0.302 GC
2 setlinecap
1 LJ
N
445.75 343 M
445.75 346.115 L
S
GR
GS
[1 0 0 1 134.25 356.23001] CT
0.302 GC
/Helvetica 25 F
GS
[1 0 0 1 0 0] CT
-7 24 moveto 
1 -1 scale
(0) t 
GR
GR
GS
[1 0 0 1 264.04166 356.23001] CT
0.302 GC
/Helvetica 25 F
GS
[1 0 0 1 0 0] CT
-17.5 24 moveto 
1 -1 scale
(0.1) t 
GR
GR
GS
[1 0 0 1 393.83334 356.23001] CT
0.302 GC
/Helvetica 25 F
GS
[1 0 0 1 0 0] CT
-17.5 24 moveto 
1 -1 scale
(0.2) t 
GR
GR
GS
[1 0 0 1 290.00015 386.73001] CT
0.302 GC
/Helvetica 27.5 F
GS
[1 0 0 1 0 0] CT
-44.5 27 moveto 
1 -1 scale
(time \(s\)) t 
GR
GR
GS
0.302 GC
2 setlinecap
1 LJ
N
134.25 343 M
134.25 31.5 L
S
GR
GS
0.302 GC
2 setlinecap
1 LJ
N
134.25 343 M
128.02 343 L
S
GR
GS
0.302 GC
2 setlinecap
1 LJ
N
134.25 291.083 M
128.02 291.083 L
S
GR
GS
0.302 GC
2 setlinecap
1 LJ
N
134.25 239.167 M
128.02 239.167 L
S
GR
GS
0.302 GC
2 setlinecap
1 LJ
N
134.25 187.25 M
128.02 187.25 L
S
GR
GS
0.302 GC
2 setlinecap
1 LJ
N
134.25 135.333 M
128.02 135.333 L
S
GR
GS
0.302 GC
2 setlinecap
1 LJ
N
134.25 83.417 M
128.02 83.417 L
S
GR
GS
0.302 GC
2 setlinecap
1 LJ
N
134.25 31.5 M
128.02 31.5 L
S
GR
GS
0.302 GC
2 setlinecap
1 LJ
N
134.25 332.617 M
131.135 332.617 L
S
GR
GS
0.302 GC
2 setlinecap
1 LJ
N
134.25 322.233 M
131.135 322.233 L
S
GR
GS
0.302 GC
2 setlinecap
1 LJ
N
134.25 311.85 M
131.135 311.85 L
S
GR
GS
0.302 GC
2 setlinecap
1 LJ
N
134.25 301.467 M
131.135 301.467 L
S
GR
GS
0.302 GC
2 setlinecap
1 LJ
N
134.25 280.7 M
131.135 280.7 L
S
GR
GS
0.302 GC
2 setlinecap
1 LJ
N
134.25 270.317 M
131.135 270.317 L
S
GR
GS
0.302 GC
2 setlinecap
1 LJ
N
134.25 259.933 M
131.135 259.933 L
S
GR
GS
0.302 GC
2 setlinecap
1 LJ
N
134.25 249.55 M
131.135 249.55 L
S
GR
GS
0.302 GC
2 setlinecap
1 LJ
N
134.25 228.783 M
131.135 228.783 L
S
GR
GS
0.302 GC
2 setlinecap
1 LJ
N
134.25 218.4 M
131.135 218.4 L
S
GR
GS
0.302 GC
2 setlinecap
1 LJ
N
134.25 208.017 M
131.135 208.017 L
S
GR
GS
0.302 GC
2 setlinecap
1 LJ
N
134.25 197.633 M
131.135 197.633 L
S
GR
GS
0.302 GC
2 setlinecap
1 LJ
N
134.25 176.867 M
131.135 176.867 L
S
GR
GS
0.302 GC
2 setlinecap
1 LJ
N
134.25 166.483 M
131.135 166.483 L
S
GR
GS
0.302 GC
2 setlinecap
1 LJ
N
134.25 156.1 M
131.135 156.1 L
S
GR
GS
0.302 GC
2 setlinecap
1 LJ
N
134.25 145.717 M
131.135 145.717 L
S
GR
GS
0.302 GC
2 setlinecap
1 LJ
N
134.25 124.95 M
131.135 124.95 L
S
GR
GS
0.302 GC
2 setlinecap
1 LJ
N
134.25 114.567 M
131.135 114.567 L
S
GR
GS
0.302 GC
2 setlinecap
1 LJ
N
134.25 104.183 M
131.135 104.183 L
S
GR
GS
0.302 GC
2 setlinecap
1 LJ
N
134.25 93.8 M
131.135 93.8 L
S
GR
GS
0.302 GC
2 setlinecap
1 LJ
N
134.25 73.033 M
131.135 73.033 L
S
GR
GS
0.302 GC
2 setlinecap
1 LJ
N
134.25 62.65 M
131.135 62.65 L
S
GR
GS
0.302 GC
2 setlinecap
1 LJ
N
134.25 52.267 M
131.135 52.267 L
S
GR
GS
0.302 GC
2 setlinecap
1 LJ
N
134.25 41.883 M
131.135 41.883 L
S
GR
GS
[1 0 0 1 121.02 343] CT
0.302 GC
/Helvetica 25 F
GS
[1 0 0 1 0 0] CT
-38 9 moveto 
1 -1 scale
(-50) t 
GR
GR
GS
[1 0 0 1 121.02 291.08334] CT
0.302 GC
/Helvetica 25 F
GS
[1 0 0 1 0 0] CT
-14 9 moveto 
1 -1 scale
(0) t 
GR
GR
GS
[1 0 0 1 121.02 239.16667] CT
0.302 GC
/Helvetica 25 F
GS
[1 0 0 1 0 0] CT
-28 9 moveto 
1 -1 scale
(50) t 
GR
GR
GS
[1 0 0 1 121.02 187.25] CT
0.302 GC
/Helvetica 25 F
GS
[1 0 0 1 0 0] CT
-42 9 moveto 
1 -1 scale
(100) t 
GR
GR
GS
[1 0 0 1 121.02 135.33333] CT
0.302 GC
/Helvetica 25 F
GS
[1 0 0 1 0 0] CT
-42 9 moveto 
1 -1 scale
(150) t 
GR
GR
GS
[1 0 0 1 121.02 83.41666] CT
0.302 GC
/Helvetica 25 F
GS
[1 0 0 1 0 0] CT
-42 9 moveto 
1 -1 scale
(200) t 
GR
GR
GS
[1 0 0 1 121.02 31.5] CT
0.302 GC
/Helvetica 25 F
GS
[1 0 0 1 0 0] CT
-42 9 moveto 
1 -1 scale
(250) t 
GR
GR
GS
[0 -1 1 0 76.02 187.24985] CT
0.302 GC
/Helvetica 27.5 F
GS
[1 0 0 1 0 0] CT
-157 -6 moveto 
1 -1 scale
(horizontal velocity \(deg/s\)) t 
GR
GR
GS
1 LJ
2 LW
N
134.25 291.083 M
147.229 151.735 L
160.208 46.81 L
173.188 40.405 L
186.167 162.807 L
199.146 293.566 L
212.125 310.793 L
225.104 305.435 L
238.083 299.478 L
251.063 296.187 L
264.042 293.808 L
277.021 292.386 L
290 291.089 L
302.979 290.518 L
315.958 290.219 L
328.938 290.13 L
341.917 290.188 L
354.896 290.31 L
367.875 290.499 L
380.854 290.649 L
393.833 290.847 L
406.813 291.003 L
419.792 291.142 L
432.771 291.259 L
445.75 291.356 L
S
GR
GS
1 0 1 RC
1 LJ
1.5 LW
N
134.25 291.083 M
147.229 166.042 L
160.208 64.237 L
173.188 63.944 L
186.167 167.173 L
199.146 277.934 L
212.125 295.011 L
225.104 291.736 L
238.083 289.538 L
251.063 288.626 L
264.042 288.079 L
277.021 288.108 L
290 288.331 L
302.979 288.718 L
315.958 289.15 L
328.938 289.591 L
341.917 290.021 L
354.896 290.342 L
367.875 290.57 L
380.854 290.822 L
393.833 290.967 L
406.813 291.073 L
419.792 291.145 L
432.771 291.189 L
445.75 291.211 L
S
GR
GS
0 0 1 RC
1 LJ
1.5 LW
N
134.25 291.083 M
147.229 221.422 L
160.208 147.98 L
173.188 114.281 L
186.167 133.945 L
199.146 202.832 L
212.125 273.533 L
225.104 278.348 L
238.083 277.426 L
251.063 277.732 L
264.042 278.789 L
277.021 280.517 L
290 282.133 L
302.979 284.21 L
315.958 285.956 L
328.938 287.597 L
341.917 288.679 L
354.896 289.802 L
367.875 290.662 L
380.854 291.312 L
393.833 291.759 L
406.813 292.052 L
419.792 292.213 L
432.771 292.279 L
445.75 292.274 L
S
GR
GS
0 1 0 RC
1 LJ
1.5 LW
N
134.25 291.083 M
147.229 266.454 L
160.208 227.218 L
173.188 189.212 L
186.167 171.08 L
199.146 174.116 L
212.125 193.907 L
225.104 224.102 L
238.083 253.145 L
251.063 260.91 L
264.042 263.544 L
277.021 266.514 L
290 270.402 L
302.979 274.522 L
315.958 278.364 L
328.938 281.952 L
341.917 284.976 L
354.896 287.558 L
367.875 289.555 L
380.854 291.116 L
393.833 292.207 L
406.813 292.959 L
419.792 293.395 L
432.771 293.608 L
445.75 293.643 L
S
GR
GS
1 0 0 RC
1 LJ
1.5 LW
N
134.25 291.083 M
147.229 285.103 L
160.208 262 L
173.188 238.83 L
186.167 216.206 L
199.146 202.603 L
212.125 197.776 L
225.104 202.598 L
238.083 214.411 L
251.063 228.515 L
264.042 240.033 L
277.021 248.054 L
290 253.997 L
302.979 259.89 L
315.958 267.202 L
328.938 272.817 L
341.917 278.898 L
354.896 282.846 L
367.875 287.06 L
380.854 289.657 L
393.833 291.885 L
406.813 293.476 L
419.792 294.268 L
432.771 294.885 L
445.75 295.137 L
S
GR
GS
0 1 1 RC
1 LJ
1.5 LW
N
134.25 291.083 M
147.229 289.685 L
160.208 274.72 L
173.188 254.256 L
186.167 236.176 L
199.146 220.293 L
212.125 210.662 L
225.104 206.935 L
238.083 207.323 L
251.063 212.191 L
264.042 219.145 L
277.021 227.016 L
290 236.905 L
302.979 244.595 L
315.958 254.202 L
328.938 263.308 L
341.917 270.763 L
354.896 277.954 L
367.875 283.413 L
380.854 287.955 L
393.833 291.336 L
406.813 293.698 L
419.792 295.325 L
432.771 296.285 L
445.75 296.629 L
S
GR
GS
1 1 0 RC
1 LJ
1.5 LW
N
134.25 291.083 M
147.229 293.648 L
160.208 284.95 L
173.188 270.223 L
186.167 255.957 L
199.146 241.725 L
212.125 230.65 L
225.104 222.012 L
238.083 216.634 L
251.063 213.912 L
264.042 212.653 L
277.021 213.446 L
290 216.913 L
302.979 222.216 L
315.958 232.387 L
328.938 243.856 L
341.917 254.726 L
354.896 264.855 L
367.875 273.405 L
380.854 280.731 L
393.833 286.423 L
406.813 290.894 L
419.792 294.022 L
432.771 296.176 L
445.75 297.402 L
S
GR
GS
1 GC
N
437.5 302 M
437.5 39.5 L
339 39.5 L
339 302 L
cp
f
GR
GS
[1 0 0 1 376 64] CT
/Helvetica 22.5 F
GS
[1 0 0 1 0 0] CT
0 0 moveto 
1 -1 scale
(v) t 
GR
GR
GS
[1 0 0 1 388 75] CT
/Helvetica 18 F
GS
[1 0 0 1 0 0] CT
0 0 moveto 
1 -1 scale
(z) t 
GR
GR
GS
[1 0 0 1 397 64] CT
/Helvetica 22.5 F
GS
[1 0 0 1 0 0] CT
0 0 moveto 
1 -1 scale
(\(0\)) t 
GR
GR
GS
1 LJ
2 LW
N
343 59.75 M
373 59.75 L
S
GR
GS
[1 0 0 1 376 101] CT
/Helvetica 22.5 F
GS
[1 0 0 1 0 0] CT
0 0 moveto 
1 -1 scale
(v) t 
GR
GR
GS
[1 0 0 1 388 112] CT
/Helvetica 18 F
GS
[1 0 0 1 0 0] CT
0 0 moveto 
1 -1 scale
(z) t 
GR
GR
GS
[1 0 0 1 397 101] CT
/Helvetica 22.5 F
GS
[1 0 0 1 0 0] CT
0 0 moveto 
1 -1 scale
(\(5\)) t 
GR
GR
GS
1 0 1 RC
1 LJ
1.5 LW
N
343 96.75 M
373 96.75 L
S
GR
GS
[1 0 0 1 376 138] CT
/Helvetica 22.5 F
GS
[1 0 0 1 0 0] CT
0 0 moveto 
1 -1 scale
(v) t 
GR
GR
GS
[1 0 0 1 388 149] CT
/Helvetica 18 F
GS
[1 0 0 1 0 0] CT
0 0 moveto 
1 -1 scale
(z) t 
GR
GR
GS
[1 0 0 1 397 138] CT
/Helvetica 22.5 F
GS
[1 0 0 1 0 0] CT
0 0 moveto 
1 -1 scale
(\(10\)) t 
GR
GR
GS
0 0 1 RC
1 LJ
1.5 LW
N
343 133.75 M
373 133.75 L
S
GR
GS
[1 0 0 1 376 175] CT
/Helvetica 22.5 F
GS
[1 0 0 1 0 0] CT
0 0 moveto 
1 -1 scale
(v) t 
GR
GR
GS
[1 0 0 1 388 186] CT
/Helvetica 18 F
GS
[1 0 0 1 0 0] CT
0 0 moveto 
1 -1 scale
(z) t 
GR
GR
GS
[1 0 0 1 397 175] CT
/Helvetica 22.5 F
GS
[1 0 0 1 0 0] CT
0 0 moveto 
1 -1 scale
(\(15\)) t 
GR
GR
GS
0 1 0 RC
1 LJ
1.5 LW
N
343 170.75 M
373 170.75 L
S
GR
GS
[1 0 0 1 376 212] CT
/Helvetica 22.5 F
GS
[1 0 0 1 0 0] CT
0 0 moveto 
1 -1 scale
(v) t 
GR
GR
GS
[1 0 0 1 388 223] CT
/Helvetica 18 F
GS
[1 0 0 1 0 0] CT
0 0 moveto 
1 -1 scale
(z) t 
GR
GR
GS
[1 0 0 1 397 212] CT
/Helvetica 22.5 F
GS
[1 0 0 1 0 0] CT
0 0 moveto 
1 -1 scale
(\(20\)) t 
GR
GR
GS
1 0 0 RC
1 LJ
1.5 LW
N
343 207.75 M
373 207.75 L
S
GR
GS
[1 0 0 1 376 249] CT
/Helvetica 22.5 F
GS
[1 0 0 1 0 0] CT
0 0 moveto 
1 -1 scale
(v) t 
GR
GR
GS
[1 0 0 1 388 260] CT
/Helvetica 18 F
GS
[1 0 0 1 0 0] CT
0 0 moveto 
1 -1 scale
(z) t 
GR
GR
GS
[1 0 0 1 397 249] CT
/Helvetica 22.5 F
GS
[1 0 0 1 0 0] CT
0 0 moveto 
1 -1 scale
(\(25\)) t 
GR
GR
GS
0 1 1 RC
1 LJ
1.5 LW
N
343 244.75 M
373 244.75 L
S
GR
GS
[1 0 0 1 376 286] CT
/Helvetica 22.5 F
GS
[1 0 0 1 0 0] CT
0 0 moveto 
1 -1 scale
(v) t 
GR
GR
GS
[1 0 0 1 388 297] CT
/Helvetica 18 F
GS
[1 0 0 1 0 0] CT
0 0 moveto 
1 -1 scale
(z) t 
GR
GR
GS
[1 0 0 1 397 286] CT
/Helvetica 22.5 F
GS
[1 0 0 1 0 0] CT
0 0 moveto 
1 -1 scale
(\(30\)) t 
GR
GR
GS
1 1 0 RC
1 LJ
1.5 LW
N
343 281.75 M
373 281.75 L
S
GR
GS
0.149 GC
10.0 ML
N
339 302 M
339 39.5 L
437.5 39.5 L
437.5 302 L
cp
S
GR
%%Trailer
%%Pages: 1
%%EOF
