%!PS-Adobe-3.0 EPSF-3.0
%%Creator: (MATLAB, The Mathworks, Inc. Version 9.5.0.944444 \(R2018b\). Operating System: Mac OS X)
%%Title: ./stretchingdz0_A.eps
%%CreationDate: 2020-05-07T16:13:52
%%Pages: (atend)
%%BoundingBox:    49     0   447   398
%%LanguageLevel: 2
%%EndComments
%%BeginProlog
%%BeginResource: procset (Apache XML Graphics Std ProcSet) 1.2 0
%%Version: 1.2 0
%%Copyright: (Copyright 2001-2003,2010 The Apache Software Foundation. License terms: http://www.apache.org/licenses/LICENSE-2.0)
/bd{bind def}bind def
/ld{load def}bd
/GR/grestore ld
/GS/gsave ld
/RM/rmoveto ld
/C/curveto ld
/t/show ld
/L/lineto ld
/ML/setmiterlimit ld
/CT/concat ld
/f/fill ld
/N/newpath ld
/S/stroke ld
/CC/setcmykcolor ld
/A/ashow ld
/cp/closepath ld
/RC/setrgbcolor ld
/LJ/setlinejoin ld
/GC/setgray ld
/LW/setlinewidth ld
/M/moveto ld
/re {4 2 roll M
1 index 0 rlineto
0 exch rlineto
neg 0 rlineto
cp } bd
/_ctm matrix def
/_tm matrix def
/BT { _ctm currentmatrix pop matrix _tm copy pop 0 0 moveto } bd
/ET { _ctm setmatrix } bd
/iTm { _ctm setmatrix _tm concat } bd
/Tm { _tm astore pop iTm 0 0 moveto } bd
/ux 0.0 def
/uy 0.0 def
/F {
  /Tp exch def
  /Tf exch def
  Tf findfont Tp scalefont setfont
  /cf Tf def  /cs Tp def
} bd
/ULS {currentpoint /uy exch def /ux exch def} bd
/ULE {
  /Tcx currentpoint pop def
  gsave
  newpath
  cf findfont cs scalefont dup
  /FontMatrix get 0 get /Ts exch def /FontInfo get dup
  /UnderlinePosition get Ts mul /To exch def
  /UnderlineThickness get Ts mul /Tt exch def
  ux uy To add moveto  Tcx uy To add lineto
  Tt setlinewidth stroke
  grestore
} bd
/OLE {
  /Tcx currentpoint pop def
  gsave
  newpath
  cf findfont cs scalefont dup
  /FontMatrix get 0 get /Ts exch def /FontInfo get dup
  /UnderlinePosition get Ts mul /To exch def
  /UnderlineThickness get Ts mul /Tt exch def
  ux uy To add cs add moveto Tcx uy To add cs add lineto
  Tt setlinewidth stroke
  grestore
} bd
/SOE {
  /Tcx currentpoint pop def
  gsave
  newpath
  cf findfont cs scalefont dup
  /FontMatrix get 0 get /Ts exch def /FontInfo get dup
  /UnderlinePosition get Ts mul /To exch def
  /UnderlineThickness get Ts mul /Tt exch def
  ux uy To add cs 10 mul 26 idiv add moveto Tcx uy To add cs 10 mul 26 idiv add lineto
  Tt setlinewidth stroke
  grestore
} bd
/QT {
/Y22 exch store
/X22 exch store
/Y21 exch store
/X21 exch store
currentpoint
/Y21 load 2 mul add 3 div exch
/X21 load 2 mul add 3 div exch
/X21 load 2 mul /X22 load add 3 div
/Y21 load 2 mul /Y22 load add 3 div
/X22 load /Y22 load curveto
} bd
/SSPD {
dup length /d exch dict def
{
/v exch def
/k exch def
currentpagedevice k known {
/cpdv currentpagedevice k get def
v cpdv ne {
/upd false def
/nullv v type /nulltype eq def
/nullcpdv cpdv type /nulltype eq def
nullv nullcpdv or
{
/upd true def
} {
/sametype v type cpdv type eq def
sametype {
v type /arraytype eq {
/vlen v length def
/cpdvlen cpdv length def
vlen cpdvlen eq {
0 1 vlen 1 sub {
/i exch def
/obj v i get def
/cpdobj cpdv i get def
obj cpdobj ne {
/upd true def
exit
} if
} for
} {
/upd true def
} ifelse
} {
v type /dicttype eq {
v {
/dv exch def
/dk exch def
/cpddv cpdv dk get def
dv cpddv ne {
/upd true def
exit
} if
} forall
} {
/upd true def
} ifelse
} ifelse
} if
} ifelse
upd true eq {
d k v put
} if
} if
} if
} forall
d length 0 gt {
d setpagedevice
} if
} bd
/RE { % /NewFontName [NewEncodingArray] /FontName RE -
  findfont dup length dict begin
  {
    1 index /FID ne
    {def} {pop pop} ifelse
  } forall
  /Encoding exch def
  /FontName 1 index def
  currentdict definefont pop
  end
} bind def
%%EndResource
%%BeginResource: procset (Apache XML Graphics EPS ProcSet) 1.0 0
%%Version: 1.0 0
%%Copyright: (Copyright 2002-2003 The Apache Software Foundation. License terms: http://www.apache.org/licenses/LICENSE-2.0)
/BeginEPSF { %def
/b4_Inc_state save def         % Save state for cleanup
/dict_count countdictstack def % Count objects on dict stack
/op_count count 1 sub def      % Count objects on operand stack
userdict begin                 % Push userdict on dict stack
/showpage { } def              % Redefine showpage, { } = null proc
0 setgray 0 setlinecap         % Prepare graphics state
1 setlinewidth 0 setlinejoin
10 setmiterlimit [ ] 0 setdash newpath
/languagelevel where           % If level not equal to 1 then
{pop languagelevel             % set strokeadjust and
1 ne                           % overprint to their defaults.
{false setstrokeadjust false setoverprint
} if
} if
} bd
/EndEPSF { %def
count op_count sub {pop} repeat            % Clean up stacks
countdictstack dict_count sub {end} repeat
b4_Inc_state restore
} bd
%%EndResource
%FOPBeginFontDict
%%IncludeResource: font Courier-Oblique
%%IncludeResource: font Courier-BoldOblique
%%IncludeResource: font Courier-Bold
%%IncludeResource: font ZapfDingbats
%%IncludeResource: font Symbol
%%IncludeResource: font Helvetica
%%IncludeResource: font Helvetica-Oblique
%%IncludeResource: font Helvetica-Bold
%%IncludeResource: font Helvetica-BoldOblique
%%IncludeResource: font Times-Roman
%%IncludeResource: font Times-Italic
%%IncludeResource: font Times-Bold
%%IncludeResource: font Times-BoldItalic
%%IncludeResource: font Courier
%FOPEndFontDict
%%BeginResource: encoding WinAnsiEncoding
/WinAnsiEncoding [
/.notdef /.notdef /.notdef /.notdef /.notdef
/.notdef /.notdef /.notdef /.notdef /.notdef
/.notdef /.notdef /.notdef /.notdef /.notdef
/.notdef /.notdef /.notdef /.notdef /.notdef
/.notdef /.notdef /.notdef /.notdef /.notdef
/.notdef /.notdef /.notdef /.notdef /.notdef
/.notdef /.notdef /space /exclam /quotedbl
/numbersign /dollar /percent /ampersand /quotesingle
/parenleft /parenright /asterisk /plus /comma
/hyphen /period /slash /zero /one
/two /three /four /five /six
/seven /eight /nine /colon /semicolon
/less /equal /greater /question /at
/A /B /C /D /E
/F /G /H /I /J
/K /L /M /N /O
/P /Q /R /S /T
/U /V /W /X /Y
/Z /bracketleft /backslash /bracketright /asciicircum
/underscore /quoteleft /a /b /c
/d /e /f /g /h
/i /j /k /l /m
/n /o /p /q /r
/s /t /u /v /w
/x /y /z /braceleft /bar
/braceright /asciitilde /bullet /Euro /bullet
/quotesinglbase /florin /quotedblbase /ellipsis /dagger
/daggerdbl /circumflex /perthousand /Scaron /guilsinglleft
/OE /bullet /Zcaron /bullet /bullet
/quoteleft /quoteright /quotedblleft /quotedblright /bullet
/endash /emdash /asciitilde /trademark /scaron
/guilsinglright /oe /bullet /zcaron /Ydieresis
/space /exclamdown /cent /sterling /currency
/yen /brokenbar /section /dieresis /copyright
/ordfeminine /guillemotleft /logicalnot /sfthyphen /registered
/macron /degree /plusminus /twosuperior /threesuperior
/acute /mu /paragraph /middot /cedilla
/onesuperior /ordmasculine /guillemotright /onequarter /onehalf
/threequarters /questiondown /Agrave /Aacute /Acircumflex
/Atilde /Adieresis /Aring /AE /Ccedilla
/Egrave /Eacute /Ecircumflex /Edieresis /Igrave
/Iacute /Icircumflex /Idieresis /Eth /Ntilde
/Ograve /Oacute /Ocircumflex /Otilde /Odieresis
/multiply /Oslash /Ugrave /Uacute /Ucircumflex
/Udieresis /Yacute /Thorn /germandbls /agrave
/aacute /acircumflex /atilde /adieresis /aring
/ae /ccedilla /egrave /eacute /ecircumflex
/edieresis /igrave /iacute /icircumflex /idieresis
/eth /ntilde /ograve /oacute /ocircumflex
/otilde /odieresis /divide /oslash /ugrave
/uacute /ucircumflex /udieresis /yacute /thorn
/ydieresis
] def
%%EndResource
%FOPBeginFontReencode
/Courier-Oblique findfont
dup length dict begin
  {1 index /FID ne {def} {pop pop} ifelse} forall
  /Encoding WinAnsiEncoding def
  currentdict
end
/Courier-Oblique exch definefont pop
/Courier-BoldOblique findfont
dup length dict begin
  {1 index /FID ne {def} {pop pop} ifelse} forall
  /Encoding WinAnsiEncoding def
  currentdict
end
/Courier-BoldOblique exch definefont pop
/Courier-Bold findfont
dup length dict begin
  {1 index /FID ne {def} {pop pop} ifelse} forall
  /Encoding WinAnsiEncoding def
  currentdict
end
/Courier-Bold exch definefont pop
/Helvetica findfont
dup length dict begin
  {1 index /FID ne {def} {pop pop} ifelse} forall
  /Encoding WinAnsiEncoding def
  currentdict
end
/Helvetica exch definefont pop
/Helvetica-Oblique findfont
dup length dict begin
  {1 index /FID ne {def} {pop pop} ifelse} forall
  /Encoding WinAnsiEncoding def
  currentdict
end
/Helvetica-Oblique exch definefont pop
/Helvetica-Bold findfont
dup length dict begin
  {1 index /FID ne {def} {pop pop} ifelse} forall
  /Encoding WinAnsiEncoding def
  currentdict
end
/Helvetica-Bold exch definefont pop
/Helvetica-BoldOblique findfont
dup length dict begin
  {1 index /FID ne {def} {pop pop} ifelse} forall
  /Encoding WinAnsiEncoding def
  currentdict
end
/Helvetica-BoldOblique exch definefont pop
/Times-Roman findfont
dup length dict begin
  {1 index /FID ne {def} {pop pop} ifelse} forall
  /Encoding WinAnsiEncoding def
  currentdict
end
/Times-Roman exch definefont pop
/Times-Italic findfont
dup length dict begin
  {1 index /FID ne {def} {pop pop} ifelse} forall
  /Encoding WinAnsiEncoding def
  currentdict
end
/Times-Italic exch definefont pop
/Times-Bold findfont
dup length dict begin
  {1 index /FID ne {def} {pop pop} ifelse} forall
  /Encoding WinAnsiEncoding def
  currentdict
end
/Times-Bold exch definefont pop
/Times-BoldItalic findfont
dup length dict begin
  {1 index /FID ne {def} {pop pop} ifelse} forall
  /Encoding WinAnsiEncoding def
  currentdict
end
/Times-BoldItalic exch definefont pop
/Courier findfont
dup length dict begin
  {1 index /FID ne {def} {pop pop} ifelse} forall
  /Encoding WinAnsiEncoding def
  currentdict
end
/Courier exch definefont pop
%FOPEndFontReencode
%%EndProlog
%%Page: 1 1
%%PageBoundingBox: 0 0 560 420
%%BeginPageSetup
[1 0 0 -1 0 420] CT
%%EndPageSetup
GS
1 GC
N
0 0 560 420 re
f
GR
GS
1 GC
N
0 0 560 420 re
f
GR
GS
1 GC
N
134.25 343 M
445.75 343 L
445.75 31.5 L
134.25 31.5 L
cp
f
GR
GS
0.896 GC
1 LJ
N
134.25 343 M
134.25 31.5 L
S
GR
GS
0.896 GC
1 LJ
N
264.042 343 M
264.042 31.5 L
S
GR
GS
0.896 GC
1 LJ
N
393.833 343 M
393.833 31.5 L
S
GR
GS
0.896 GC
1 LJ
N
445.75 343 M
134.25 343 L
S
GR
GS
0.896 GC
1 LJ
N
445.75 291.083 M
134.25 291.083 L
S
GR
GS
0.896 GC
1 LJ
N
445.75 239.167 M
134.25 239.167 L
S
GR
GS
0.896 GC
1 LJ
N
445.75 187.25 M
134.25 187.25 L
S
GR
GS
0.896 GC
1 LJ
N
445.75 135.333 M
134.25 135.333 L
S
GR
GS
0.896 GC
1 LJ
N
445.75 83.417 M
134.25 83.417 L
S
GR
GS
0.896 GC
1 LJ
N
445.75 31.5 M
134.25 31.5 L
S
GR
GS
0.302 GC
2 setlinecap
1 LJ
N
134.25 343 M
445.75 343 L
S
GR
GS
0.302 GC
2 setlinecap
1 LJ
N
134.25 343 M
134.25 349.23 L
S
GR
GS
0.302 GC
2 setlinecap
1 LJ
N
264.042 343 M
264.042 349.23 L
S
GR
GS
0.302 GC
2 setlinecap
1 LJ
N
393.833 343 M
393.833 349.23 L
S
GR
GS
0.302 GC
2 setlinecap
1 LJ
N
160.208 343 M
160.208 346.115 L
S
GR
GS
0.302 GC
2 setlinecap
1 LJ
N
186.167 343 M
186.167 346.115 L
S
GR
GS
0.302 GC
2 setlinecap
1 LJ
N
212.125 343 M
212.125 346.115 L
S
GR
GS
0.302 GC
2 setlinecap
1 LJ
N
238.083 343 M
238.083 346.115 L
S
GR
GS
0.302 GC
2 setlinecap
1 LJ
N
290 343 M
290 346.115 L
S
GR
GS
0.302 GC
2 setlinecap
1 LJ
N
315.958 343 M
315.958 346.115 L
S
GR
GS
0.302 GC
2 setlinecap
1 LJ
N
341.917 343 M
341.917 346.115 L
S
GR
GS
0.302 GC
2 setlinecap
1 LJ
N
367.875 343 M
367.875 346.115 L
S
GR
GS
0.302 GC
2 setlinecap
1 LJ
N
419.792 343 M
419.792 346.115 L
S
GR
GS
0.302 GC
2 setlinecap
1 LJ
N
445.75 343 M
445.75 346.115 L
S
GR
GS
[1 0 0 1 134.25 356.23001] CT
0.302 GC
/Helvetica 25 F
GS
[1 0 0 1 0 0] CT
-7 24 moveto 
1 -1 scale
(0) t 
GR
GR
GS
[1 0 0 1 264.04166 356.23001] CT
0.302 GC
/Helvetica 25 F
GS
[1 0 0 1 0 0] CT
-17.5 24 moveto 
1 -1 scale
(0.1) t 
GR
GR
GS
[1 0 0 1 393.83334 356.23001] CT
0.302 GC
/Helvetica 25 F
GS
[1 0 0 1 0 0] CT
-17.5 24 moveto 
1 -1 scale
(0.2) t 
GR
GR
GS
[1 0 0 1 290.00015 386.73001] CT
0.302 GC
/Helvetica 27.5 F
GS
[1 0 0 1 0 0] CT
-44.5 27 moveto 
1 -1 scale
(time \(s\)) t 
GR
GR
GS
0.302 GC
2 setlinecap
1 LJ
N
134.25 343 M
134.25 31.5 L
S
GR
GS
0.302 GC
2 setlinecap
1 LJ
N
134.25 343 M
128.02 343 L
S
GR
GS
0.302 GC
2 setlinecap
1 LJ
N
134.25 291.083 M
128.02 291.083 L
S
GR
GS
0.302 GC
2 setlinecap
1 LJ
N
134.25 239.167 M
128.02 239.167 L
S
GR
GS
0.302 GC
2 setlinecap
1 LJ
N
134.25 187.25 M
128.02 187.25 L
S
GR
GS
0.302 GC
2 setlinecap
1 LJ
N
134.25 135.333 M
128.02 135.333 L
S
GR
GS
0.302 GC
2 setlinecap
1 LJ
N
134.25 83.417 M
128.02 83.417 L
S
GR
GS
0.302 GC
2 setlinecap
1 LJ
N
134.25 31.5 M
128.02 31.5 L
S
GR
GS
0.302 GC
2 setlinecap
1 LJ
N
134.25 332.617 M
131.135 332.617 L
S
GR
GS
0.302 GC
2 setlinecap
1 LJ
N
134.25 322.233 M
131.135 322.233 L
S
GR
GS
0.302 GC
2 setlinecap
1 LJ
N
134.25 311.85 M
131.135 311.85 L
S
GR
GS
0.302 GC
2 setlinecap
1 LJ
N
134.25 301.467 M
131.135 301.467 L
S
GR
GS
0.302 GC
2 setlinecap
1 LJ
N
134.25 280.7 M
131.135 280.7 L
S
GR
GS
0.302 GC
2 setlinecap
1 LJ
N
134.25 270.317 M
131.135 270.317 L
S
GR
GS
0.302 GC
2 setlinecap
1 LJ
N
134.25 259.933 M
131.135 259.933 L
S
GR
GS
0.302 GC
2 setlinecap
1 LJ
N
134.25 249.55 M
131.135 249.55 L
S
GR
GS
0.302 GC
2 setlinecap
1 LJ
N
134.25 228.783 M
131.135 228.783 L
S
GR
GS
0.302 GC
2 setlinecap
1 LJ
N
134.25 218.4 M
131.135 218.4 L
S
GR
GS
0.302 GC
2 setlinecap
1 LJ
N
134.25 208.017 M
131.135 208.017 L
S
GR
GS
0.302 GC
2 setlinecap
1 LJ
N
134.25 197.633 M
131.135 197.633 L
S
GR
GS
0.302 GC
2 setlinecap
1 LJ
N
134.25 176.867 M
131.135 176.867 L
S
GR
GS
0.302 GC
2 setlinecap
1 LJ
N
134.25 166.483 M
131.135 166.483 L
S
GR
GS
0.302 GC
2 setlinecap
1 LJ
N
134.25 156.1 M
131.135 156.1 L
S
GR
GS
0.302 GC
2 setlinecap
1 LJ
N
134.25 145.717 M
131.135 145.717 L
S
GR
GS
0.302 GC
2 setlinecap
1 LJ
N
134.25 124.95 M
131.135 124.95 L
S
GR
GS
0.302 GC
2 setlinecap
1 LJ
N
134.25 114.567 M
131.135 114.567 L
S
GR
GS
0.302 GC
2 setlinecap
1 LJ
N
134.25 104.183 M
131.135 104.183 L
S
GR
GS
0.302 GC
2 setlinecap
1 LJ
N
134.25 93.8 M
131.135 93.8 L
S
GR
GS
0.302 GC
2 setlinecap
1 LJ
N
134.25 73.033 M
131.135 73.033 L
S
GR
GS
0.302 GC
2 setlinecap
1 LJ
N
134.25 62.65 M
131.135 62.65 L
S
GR
GS
0.302 GC
2 setlinecap
1 LJ
N
134.25 52.267 M
131.135 52.267 L
S
GR
GS
0.302 GC
2 setlinecap
1 LJ
N
134.25 41.883 M
131.135 41.883 L
S
GR
GS
[1 0 0 1 121.02 343] CT
0.302 GC
/Helvetica 25 F
GS
[1 0 0 1 0 0] CT
-38 9 moveto 
1 -1 scale
(-50) t 
GR
GR
GS
[1 0 0 1 121.02 291.08334] CT
0.302 GC
/Helvetica 25 F
GS
[1 0 0 1 0 0] CT
-14 9 moveto 
1 -1 scale
(0) t 
GR
GR
GS
[1 0 0 1 121.02 239.16667] CT
0.302 GC
/Helvetica 25 F
GS
[1 0 0 1 0 0] CT
-28 9 moveto 
1 -1 scale
(50) t 
GR
GR
GS
[1 0 0 1 121.02 187.25] CT
0.302 GC
/Helvetica 25 F
GS
[1 0 0 1 0 0] CT
-42 9 moveto 
1 -1 scale
(100) t 
GR
GR
GS
[1 0 0 1 121.02 135.33333] CT
0.302 GC
/Helvetica 25 F
GS
[1 0 0 1 0 0] CT
-42 9 moveto 
1 -1 scale
(150) t 
GR
GR
GS
[1 0 0 1 121.02 83.41666] CT
0.302 GC
/Helvetica 25 F
GS
[1 0 0 1 0 0] CT
-42 9 moveto 
1 -1 scale
(200) t 
GR
GR
GS
[1 0 0 1 121.02 31.5] CT
0.302 GC
/Helvetica 25 F
GS
[1 0 0 1 0 0] CT
-42 9 moveto 
1 -1 scale
(250) t 
GR
GR
GS
[0 -1 1 0 76.02 187.24985] CT
0.302 GC
/Helvetica 27.5 F
GS
[1 0 0 1 0 0] CT
-157 -6 moveto 
1 -1 scale
(horizontal velocity \(deg/s\)) t 
GR
GR
GS
1 LJ
2 LW
N
134.25 291.083 M
147.229 152.998 L
160.208 38.278 L
173.188 42.808 L
186.167 163.137 L
199.146 294.023 L
212.125 311.175 L
225.104 305.798 L
238.083 299.802 L
251.063 296.528 L
264.042 294.313 L
277.021 292.332 L
290 291.298 L
302.979 290.622 L
315.958 290.266 L
328.938 290.144 L
341.917 290.183 L
354.896 290.285 L
367.875 290.47 L
380.854 290.63 L
393.833 290.818 L
406.813 290.977 L
419.792 291.122 L
432.771 291.236 L
445.75 291.333 L
S
GR
GS
1 0 1 RC
1 LJ
1.5 LW
N
134.25 291.083 M
147.229 164.532 L
160.208 61.322 L
173.188 61.302 L
186.167 169.118 L
199.146 286.123 L
212.125 298.318 L
225.104 294.679 L
238.083 291.82 L
251.063 290.455 L
264.042 289.498 L
277.021 289.131 L
290 289.088 L
302.979 289.237 L
315.958 289.475 L
328.938 289.79 L
341.917 290.04 L
354.896 290.358 L
367.875 290.589 L
380.854 290.77 L
393.833 290.898 L
406.813 291.023 L
419.792 291.093 L
432.771 291.145 L
445.75 291.177 L
S
GR
GS
0 0 1 RC
1 LJ
1.5 LW
N
134.25 291.083 M
147.229 217.566 L
160.208 140.581 L
173.188 107.155 L
186.167 130.417 L
199.146 204.131 L
212.125 281.242 L
225.104 286.442 L
238.083 284.449 L
251.063 283.658 L
264.042 283.662 L
277.021 284.342 L
290 285.311 L
302.979 286.256 L
315.958 287.693 L
328.938 288.582 L
341.917 289.718 L
354.896 290.4 L
367.875 291.202 L
380.854 291.6 L
393.833 291.999 L
406.813 292.203 L
419.792 292.336 L
432.771 292.385 L
445.75 292.374 L
S
GR
GS
0 1 0 RC
1 LJ
1.5 LW
N
134.25 291.083 M
147.229 262.503 L
160.208 218.803 L
173.188 178.748 L
186.167 161.989 L
199.146 169.379 L
212.125 195.227 L
225.104 240.164 L
238.083 271.624 L
251.063 274.396 L
264.042 275.319 L
277.021 276.74 L
290 279.28 L
302.979 281.66 L
315.958 284.107 L
328.938 286.117 L
341.917 288.169 L
354.896 289.898 L
367.875 291.192 L
380.854 292.3 L
393.833 292.994 L
406.813 293.419 L
419.792 293.708 L
432.771 293.814 L
445.75 293.784 L
S
GR
GS
1 0 0 RC
1 LJ
1.5 LW
N
134.25 291.083 M
147.229 282.19 L
160.208 254.173 L
173.188 225.847 L
186.167 205.546 L
199.146 193.587 L
212.125 193.567 L
225.104 204.257 L
238.083 220.757 L
251.063 241.411 L
264.042 260.233 L
277.021 264.802 L
290 268.668 L
302.979 272.483 L
315.958 277.243 L
328.938 280.921 L
341.917 284.957 L
354.896 287.447 L
367.875 290.226 L
380.854 292.134 L
393.833 293.64 L
406.813 294.627 L
419.792 295.157 L
432.771 295.392 L
445.75 295.46 L
S
GR
GS
0 1 1 RC
1 LJ
1.5 LW
N
134.25 291.083 M
147.229 289.182 L
160.208 272.916 L
173.188 253.418 L
186.167 233.017 L
199.146 219.307 L
212.125 211.048 L
225.104 209.151 L
238.083 212.679 L
251.063 221.034 L
264.042 231.49 L
277.021 243.245 L
290 251.671 L
302.979 260.105 L
315.958 265.77 L
328.938 272.767 L
341.917 277.943 L
354.896 282.575 L
367.875 286.914 L
380.854 290.569 L
393.833 292.655 L
406.813 294.678 L
419.792 296.218 L
432.771 296.842 L
445.75 297.179 L
S
GR
GS
1 1 0 RC
1 LJ
1.5 LW
N
134.25 291.083 M
147.229 291.376 L
160.208 279.621 L
173.188 262.242 L
186.167 244.641 L
199.146 231.171 L
212.125 221.945 L
225.104 217.182 L
238.083 216.776 L
251.063 219.503 L
264.042 225.378 L
277.021 230.232 L
290 238.139 L
302.979 245.102 L
315.958 253.276 L
328.938 261.644 L
341.917 269.527 L
354.896 276.714 L
367.875 282.812 L
380.854 287.944 L
393.833 291.953 L
406.813 295.023 L
419.792 297.146 L
432.771 298.522 L
445.75 299.232 L
S
GR
GS
1 GC
N
437.5 302 M
437.5 39.5 L
339 39.5 L
339 302 L
cp
f
GR
GS
[1 0 0 1 376 64] CT
/Helvetica 22.5 F
GS
[1 0 0 1 0 0] CT
0 0 moveto 
1 -1 scale
(v) t 
GR
GR
GS
[1 0 0 1 388 75] CT
/Helvetica 18 F
GS
[1 0 0 1 0 0] CT
0 0 moveto 
1 -1 scale
(z) t 
GR
GR
GS
[1 0 0 1 397 64] CT
/Helvetica 22.5 F
GS
[1 0 0 1 0 0] CT
0 0 moveto 
1 -1 scale
(\(0\)) t 
GR
GR
GS
1 LJ
2 LW
N
343 59.75 M
373 59.75 L
S
GR
GS
[1 0 0 1 376 101] CT
/Helvetica 22.5 F
GS
[1 0 0 1 0 0] CT
0 0 moveto 
1 -1 scale
(v) t 
GR
GR
GS
[1 0 0 1 388 112] CT
/Helvetica 18 F
GS
[1 0 0 1 0 0] CT
0 0 moveto 
1 -1 scale
(z) t 
GR
GR
GS
[1 0 0 1 397 101] CT
/Helvetica 22.5 F
GS
[1 0 0 1 0 0] CT
0 0 moveto 
1 -1 scale
(\(5\)) t 
GR
GR
GS
1 0 1 RC
1 LJ
1.5 LW
N
343 96.75 M
373 96.75 L
S
GR
GS
[1 0 0 1 376 138] CT
/Helvetica 22.5 F
GS
[1 0 0 1 0 0] CT
0 0 moveto 
1 -1 scale
(v) t 
GR
GR
GS
[1 0 0 1 388 149] CT
/Helvetica 18 F
GS
[1 0 0 1 0 0] CT
0 0 moveto 
1 -1 scale
(z) t 
GR
GR
GS
[1 0 0 1 397 138] CT
/Helvetica 22.5 F
GS
[1 0 0 1 0 0] CT
0 0 moveto 
1 -1 scale
(\(10\)) t 
GR
GR
GS
0 0 1 RC
1 LJ
1.5 LW
N
343 133.75 M
373 133.75 L
S
GR
GS
[1 0 0 1 376 175] CT
/Helvetica 22.5 F
GS
[1 0 0 1 0 0] CT
0 0 moveto 
1 -1 scale
(v) t 
GR
GR
GS
[1 0 0 1 388 186] CT
/Helvetica 18 F
GS
[1 0 0 1 0 0] CT
0 0 moveto 
1 -1 scale
(z) t 
GR
GR
GS
[1 0 0 1 397 175] CT
/Helvetica 22.5 F
GS
[1 0 0 1 0 0] CT
0 0 moveto 
1 -1 scale
(\(15\)) t 
GR
GR
GS
0 1 0 RC
1 LJ
1.5 LW
N
343 170.75 M
373 170.75 L
S
GR
GS
[1 0 0 1 376 212] CT
/Helvetica 22.5 F
GS
[1 0 0 1 0 0] CT
0 0 moveto 
1 -1 scale
(v) t 
GR
GR
GS
[1 0 0 1 388 223] CT
/Helvetica 18 F
GS
[1 0 0 1 0 0] CT
0 0 moveto 
1 -1 scale
(z) t 
GR
GR
GS
[1 0 0 1 397 212] CT
/Helvetica 22.5 F
GS
[1 0 0 1 0 0] CT
0 0 moveto 
1 -1 scale
(\(20\)) t 
GR
GR
GS
1 0 0 RC
1 LJ
1.5 LW
N
343 207.75 M
373 207.75 L
S
GR
GS
[1 0 0 1 376 249] CT
/Helvetica 22.5 F
GS
[1 0 0 1 0 0] CT
0 0 moveto 
1 -1 scale
(v) t 
GR
GR
GS
[1 0 0 1 388 260] CT
/Helvetica 18 F
GS
[1 0 0 1 0 0] CT
0 0 moveto 
1 -1 scale
(z) t 
GR
GR
GS
[1 0 0 1 397 249] CT
/Helvetica 22.5 F
GS
[1 0 0 1 0 0] CT
0 0 moveto 
1 -1 scale
(\(25\)) t 
GR
GR
GS
0 1 1 RC
1 LJ
1.5 LW
N
343 244.75 M
373 244.75 L
S
GR
GS
[1 0 0 1 376 286] CT
/Helvetica 22.5 F
GS
[1 0 0 1 0 0] CT
0 0 moveto 
1 -1 scale
(v) t 
GR
GR
GS
[1 0 0 1 388 297] CT
/Helvetica 18 F
GS
[1 0 0 1 0 0] CT
0 0 moveto 
1 -1 scale
(z) t 
GR
GR
GS
[1 0 0 1 397 286] CT
/Helvetica 22.5 F
GS
[1 0 0 1 0 0] CT
0 0 moveto 
1 -1 scale
(\(30\)) t 
GR
GR
GS
1 1 0 RC
1 LJ
1.5 LW
N
343 281.75 M
373 281.75 L
S
GR
GS
0.149 GC
10.0 ML
N
339 302 M
339 39.5 L
437.5 39.5 L
437.5 302 L
cp
S
GR
%%Trailer
%%Pages: 1
%%EOF
