%!PS-Adobe-3.0 EPSF-3.0
%%Creator: (MATLAB, The Mathworks, Inc. Version 9.5.0.944444 \(R2018b\). Operating System: Mac OS X)
%%Title: ./stretchingAE_A.eps
%%CreationDate: 2020-05-07T16:27:59
%%Pages: (atend)
%%BoundingBox:    53     0   447   393
%%LanguageLevel: 2
%%EndComments
%%BeginProlog
%%BeginResource: procset (Apache XML Graphics Std ProcSet) 1.2 0
%%Version: 1.2 0
%%Copyright: (Copyright 2001-2003,2010 The Apache Software Foundation. License terms: http://www.apache.org/licenses/LICENSE-2.0)
/bd{bind def}bind def
/ld{load def}bd
/GR/grestore ld
/GS/gsave ld
/RM/rmoveto ld
/C/curveto ld
/t/show ld
/L/lineto ld
/ML/setmiterlimit ld
/CT/concat ld
/f/fill ld
/N/newpath ld
/S/stroke ld
/CC/setcmykcolor ld
/A/ashow ld
/cp/closepath ld
/RC/setrgbcolor ld
/LJ/setlinejoin ld
/GC/setgray ld
/LW/setlinewidth ld
/M/moveto ld
/re {4 2 roll M
1 index 0 rlineto
0 exch rlineto
neg 0 rlineto
cp } bd
/_ctm matrix def
/_tm matrix def
/BT { _ctm currentmatrix pop matrix _tm copy pop 0 0 moveto } bd
/ET { _ctm setmatrix } bd
/iTm { _ctm setmatrix _tm concat } bd
/Tm { _tm astore pop iTm 0 0 moveto } bd
/ux 0.0 def
/uy 0.0 def
/F {
  /Tp exch def
  /Tf exch def
  Tf findfont Tp scalefont setfont
  /cf Tf def  /cs Tp def
} bd
/ULS {currentpoint /uy exch def /ux exch def} bd
/ULE {
  /Tcx currentpoint pop def
  gsave
  newpath
  cf findfont cs scalefont dup
  /FontMatrix get 0 get /Ts exch def /FontInfo get dup
  /UnderlinePosition get Ts mul /To exch def
  /UnderlineThickness get Ts mul /Tt exch def
  ux uy To add moveto  Tcx uy To add lineto
  Tt setlinewidth stroke
  grestore
} bd
/OLE {
  /Tcx currentpoint pop def
  gsave
  newpath
  cf findfont cs scalefont dup
  /FontMatrix get 0 get /Ts exch def /FontInfo get dup
  /UnderlinePosition get Ts mul /To exch def
  /UnderlineThickness get Ts mul /Tt exch def
  ux uy To add cs add moveto Tcx uy To add cs add lineto
  Tt setlinewidth stroke
  grestore
} bd
/SOE {
  /Tcx currentpoint pop def
  gsave
  newpath
  cf findfont cs scalefont dup
  /FontMatrix get 0 get /Ts exch def /FontInfo get dup
  /UnderlinePosition get Ts mul /To exch def
  /UnderlineThickness get Ts mul /Tt exch def
  ux uy To add cs 10 mul 26 idiv add moveto Tcx uy To add cs 10 mul 26 idiv add lineto
  Tt setlinewidth stroke
  grestore
} bd
/QT {
/Y22 exch store
/X22 exch store
/Y21 exch store
/X21 exch store
currentpoint
/Y21 load 2 mul add 3 div exch
/X21 load 2 mul add 3 div exch
/X21 load 2 mul /X22 load add 3 div
/Y21 load 2 mul /Y22 load add 3 div
/X22 load /Y22 load curveto
} bd
/SSPD {
dup length /d exch dict def
{
/v exch def
/k exch def
currentpagedevice k known {
/cpdv currentpagedevice k get def
v cpdv ne {
/upd false def
/nullv v type /nulltype eq def
/nullcpdv cpdv type /nulltype eq def
nullv nullcpdv or
{
/upd true def
} {
/sametype v type cpdv type eq def
sametype {
v type /arraytype eq {
/vlen v length def
/cpdvlen cpdv length def
vlen cpdvlen eq {
0 1 vlen 1 sub {
/i exch def
/obj v i get def
/cpdobj cpdv i get def
obj cpdobj ne {
/upd true def
exit
} if
} for
} {
/upd true def
} ifelse
} {
v type /dicttype eq {
v {
/dv exch def
/dk exch def
/cpddv cpdv dk get def
dv cpddv ne {
/upd true def
exit
} if
} forall
} {
/upd true def
} ifelse
} ifelse
} if
} ifelse
upd true eq {
d k v put
} if
} if
} if
} forall
d length 0 gt {
d setpagedevice
} if
} bd
/RE { % /NewFontName [NewEncodingArray] /FontName RE -
  findfont dup length dict begin
  {
    1 index /FID ne
    {def} {pop pop} ifelse
  } forall
  /Encoding exch def
  /FontName 1 index def
  currentdict definefont pop
  end
} bind def
%%EndResource
%%BeginResource: procset (Apache XML Graphics EPS ProcSet) 1.0 0
%%Version: 1.0 0
%%Copyright: (Copyright 2002-2003 The Apache Software Foundation. License terms: http://www.apache.org/licenses/LICENSE-2.0)
/BeginEPSF { %def
/b4_Inc_state save def         % Save state for cleanup
/dict_count countdictstack def % Count objects on dict stack
/op_count count 1 sub def      % Count objects on operand stack
userdict begin                 % Push userdict on dict stack
/showpage { } def              % Redefine showpage, { } = null proc
0 setgray 0 setlinecap         % Prepare graphics state
1 setlinewidth 0 setlinejoin
10 setmiterlimit [ ] 0 setdash newpath
/languagelevel where           % If level not equal to 1 then
{pop languagelevel             % set strokeadjust and
1 ne                           % overprint to their defaults.
{false setstrokeadjust false setoverprint
} if
} if
} bd
/EndEPSF { %def
count op_count sub {pop} repeat            % Clean up stacks
countdictstack dict_count sub {end} repeat
b4_Inc_state restore
} bd
%%EndResource
%FOPBeginFontDict
%%IncludeResource: font Courier-Oblique
%%IncludeResource: font Courier-BoldOblique
%%IncludeResource: font Courier-Bold
%%IncludeResource: font ZapfDingbats
%%IncludeResource: font Symbol
%%IncludeResource: font Helvetica
%%IncludeResource: font Helvetica-Oblique
%%IncludeResource: font Helvetica-Bold
%%IncludeResource: font Helvetica-BoldOblique
%%IncludeResource: font Times-Roman
%%IncludeResource: font Times-Italic
%%IncludeResource: font Times-Bold
%%IncludeResource: font Times-BoldItalic
%%IncludeResource: font Courier
%FOPEndFontDict
%%BeginResource: encoding WinAnsiEncoding
/WinAnsiEncoding [
/.notdef /.notdef /.notdef /.notdef /.notdef
/.notdef /.notdef /.notdef /.notdef /.notdef
/.notdef /.notdef /.notdef /.notdef /.notdef
/.notdef /.notdef /.notdef /.notdef /.notdef
/.notdef /.notdef /.notdef /.notdef /.notdef
/.notdef /.notdef /.notdef /.notdef /.notdef
/.notdef /.notdef /space /exclam /quotedbl
/numbersign /dollar /percent /ampersand /quotesingle
/parenleft /parenright /asterisk /plus /comma
/hyphen /period /slash /zero /one
/two /three /four /five /six
/seven /eight /nine /colon /semicolon
/less /equal /greater /question /at
/A /B /C /D /E
/F /G /H /I /J
/K /L /M /N /O
/P /Q /R /S /T
/U /V /W /X /Y
/Z /bracketleft /backslash /bracketright /asciicircum
/underscore /quoteleft /a /b /c
/d /e /f /g /h
/i /j /k /l /m
/n /o /p /q /r
/s /t /u /v /w
/x /y /z /braceleft /bar
/braceright /asciitilde /bullet /Euro /bullet
/quotesinglbase /florin /quotedblbase /ellipsis /dagger
/daggerdbl /circumflex /perthousand /Scaron /guilsinglleft
/OE /bullet /Zcaron /bullet /bullet
/quoteleft /quoteright /quotedblleft /quotedblright /bullet
/endash /emdash /asciitilde /trademark /scaron
/guilsinglright /oe /bullet /zcaron /Ydieresis
/space /exclamdown /cent /sterling /currency
/yen /brokenbar /section /dieresis /copyright
/ordfeminine /guillemotleft /logicalnot /sfthyphen /registered
/macron /degree /plusminus /twosuperior /threesuperior
/acute /mu /paragraph /middot /cedilla
/onesuperior /ordmasculine /guillemotright /onequarter /onehalf
/threequarters /questiondown /Agrave /Aacute /Acircumflex
/Atilde /Adieresis /Aring /AE /Ccedilla
/Egrave /Eacute /Ecircumflex /Edieresis /Igrave
/Iacute /Icircumflex /Idieresis /Eth /Ntilde
/Ograve /Oacute /Ocircumflex /Otilde /Odieresis
/multiply /Oslash /Ugrave /Uacute /Ucircumflex
/Udieresis /Yacute /Thorn /germandbls /agrave
/aacute /acircumflex /atilde /adieresis /aring
/ae /ccedilla /egrave /eacute /ecircumflex
/edieresis /igrave /iacute /icircumflex /idieresis
/eth /ntilde /ograve /oacute /ocircumflex
/otilde /odieresis /divide /oslash /ugrave
/uacute /ucircumflex /udieresis /yacute /thorn
/ydieresis
] def
%%EndResource
%FOPBeginFontReencode
/Courier-Oblique findfont
dup length dict begin
  {1 index /FID ne {def} {pop pop} ifelse} forall
  /Encoding WinAnsiEncoding def
  currentdict
end
/Courier-Oblique exch definefont pop
/Courier-BoldOblique findfont
dup length dict begin
  {1 index /FID ne {def} {pop pop} ifelse} forall
  /Encoding WinAnsiEncoding def
  currentdict
end
/Courier-BoldOblique exch definefont pop
/Courier-Bold findfont
dup length dict begin
  {1 index /FID ne {def} {pop pop} ifelse} forall
  /Encoding WinAnsiEncoding def
  currentdict
end
/Courier-Bold exch definefont pop
/Helvetica findfont
dup length dict begin
  {1 index /FID ne {def} {pop pop} ifelse} forall
  /Encoding WinAnsiEncoding def
  currentdict
end
/Helvetica exch definefont pop
/Helvetica-Oblique findfont
dup length dict begin
  {1 index /FID ne {def} {pop pop} ifelse} forall
  /Encoding WinAnsiEncoding def
  currentdict
end
/Helvetica-Oblique exch definefont pop
/Helvetica-Bold findfont
dup length dict begin
  {1 index /FID ne {def} {pop pop} ifelse} forall
  /Encoding WinAnsiEncoding def
  currentdict
end
/Helvetica-Bold exch definefont pop
/Helvetica-BoldOblique findfont
dup length dict begin
  {1 index /FID ne {def} {pop pop} ifelse} forall
  /Encoding WinAnsiEncoding def
  currentdict
end
/Helvetica-BoldOblique exch definefont pop
/Times-Roman findfont
dup length dict begin
  {1 index /FID ne {def} {pop pop} ifelse} forall
  /Encoding WinAnsiEncoding def
  currentdict
end
/Times-Roman exch definefont pop
/Times-Italic findfont
dup length dict begin
  {1 index /FID ne {def} {pop pop} ifelse} forall
  /Encoding WinAnsiEncoding def
  currentdict
end
/Times-Italic exch definefont pop
/Times-Bold findfont
dup length dict begin
  {1 index /FID ne {def} {pop pop} ifelse} forall
  /Encoding WinAnsiEncoding def
  currentdict
end
/Times-Bold exch definefont pop
/Times-BoldItalic findfont
dup length dict begin
  {1 index /FID ne {def} {pop pop} ifelse} forall
  /Encoding WinAnsiEncoding def
  currentdict
end
/Times-BoldItalic exch definefont pop
/Courier findfont
dup length dict begin
  {1 index /FID ne {def} {pop pop} ifelse} forall
  /Encoding WinAnsiEncoding def
  currentdict
end
/Courier exch definefont pop
%FOPEndFontReencode
%%EndProlog
%%Page: 1 1
%%PageBoundingBox: 0 0 560 420
%%BeginPageSetup
[1 0 0 -1 0 420] CT
%%EndPageSetup
GS
1 GC
N
0 0 560 420 re
f
GR
GS
1 GC
N
0 0 560 420 re
f
GR
GS
1 GC
N
134.25 343 M
445.75 343 L
445.75 31.5 L
134.25 31.5 L
cp
f
GR
GS
0.896 GC
1 LJ
N
134.25 343 M
134.25 31.5 L
S
GR
GS
0.896 GC
1 LJ
N
264.042 343 M
264.042 31.5 L
S
GR
GS
0.896 GC
1 LJ
N
393.833 343 M
393.833 31.5 L
S
GR
GS
0.896 GC
1 LJ
N
445.75 343 M
134.25 343 L
S
GR
GS
0.896 GC
1 LJ
N
445.75 266.191 M
134.25 266.191 L
S
GR
GS
0.896 GC
1 LJ
N
445.75 189.382 M
134.25 189.382 L
S
GR
GS
0.896 GC
1 LJ
N
445.75 112.573 M
134.25 112.573 L
S
GR
GS
0.896 GC
1 LJ
N
445.75 35.764 M
134.25 35.764 L
S
GR
GS
0.302 GC
2 setlinecap
1 LJ
N
134.25 343 M
445.75 343 L
S
GR
GS
0.302 GC
2 setlinecap
1 LJ
N
134.25 343 M
134.25 349.23 L
S
GR
GS
0.302 GC
2 setlinecap
1 LJ
N
264.042 343 M
264.042 349.23 L
S
GR
GS
0.302 GC
2 setlinecap
1 LJ
N
393.833 343 M
393.833 349.23 L
S
GR
GS
0.302 GC
2 setlinecap
1 LJ
N
160.208 343 M
160.208 346.115 L
S
GR
GS
0.302 GC
2 setlinecap
1 LJ
N
186.167 343 M
186.167 346.115 L
S
GR
GS
0.302 GC
2 setlinecap
1 LJ
N
212.125 343 M
212.125 346.115 L
S
GR
GS
0.302 GC
2 setlinecap
1 LJ
N
238.083 343 M
238.083 346.115 L
S
GR
GS
0.302 GC
2 setlinecap
1 LJ
N
290 343 M
290 346.115 L
S
GR
GS
0.302 GC
2 setlinecap
1 LJ
N
315.958 343 M
315.958 346.115 L
S
GR
GS
0.302 GC
2 setlinecap
1 LJ
N
341.917 343 M
341.917 346.115 L
S
GR
GS
0.302 GC
2 setlinecap
1 LJ
N
367.875 343 M
367.875 346.115 L
S
GR
GS
0.302 GC
2 setlinecap
1 LJ
N
419.792 343 M
419.792 346.115 L
S
GR
GS
0.302 GC
2 setlinecap
1 LJ
N
445.75 343 M
445.75 346.115 L
S
GR
GS
[1 0 0 1 134.25 356.23001] CT
0.302 GC
/Helvetica 25 F
GS
[1 0 0 1 0 0] CT
-7 24 moveto 
1 -1 scale
(0) t 
GR
GR
GS
[1 0 0 1 264.04166 356.23001] CT
0.302 GC
/Helvetica 25 F
GS
[1 0 0 1 0 0] CT
-17.5 24 moveto 
1 -1 scale
(0.1) t 
GR
GR
GS
[1 0 0 1 393.83334 356.23001] CT
0.302 GC
/Helvetica 25 F
GS
[1 0 0 1 0 0] CT
-17.5 24 moveto 
1 -1 scale
(0.2) t 
GR
GR
GS
[1 0 0 1 290.00015 386.73001] CT
0.302 GC
/Helvetica 27.5 F
GS
[1 0 0 1 0 0] CT
-44.5 27 moveto 
1 -1 scale
(time \(s\)) t 
GR
GR
GS
0.302 GC
2 setlinecap
1 LJ
N
134.25 343 M
134.25 31.5 L
S
GR
GS
0.302 GC
2 setlinecap
1 LJ
N
134.25 343 M
128.02 343 L
S
GR
GS
0.302 GC
2 setlinecap
1 LJ
N
134.25 266.191 M
128.02 266.191 L
S
GR
GS
0.302 GC
2 setlinecap
1 LJ
N
134.25 189.382 M
128.02 189.382 L
S
GR
GS
0.302 GC
2 setlinecap
1 LJ
N
134.25 112.573 M
128.02 112.573 L
S
GR
GS
0.302 GC
2 setlinecap
1 LJ
N
134.25 35.764 M
128.02 35.764 L
S
GR
GS
0.302 GC
2 setlinecap
1 LJ
N
134.25 323.798 M
131.135 323.798 L
S
GR
GS
0.302 GC
2 setlinecap
1 LJ
N
134.25 304.596 M
131.135 304.596 L
S
GR
GS
0.302 GC
2 setlinecap
1 LJ
N
134.25 285.393 M
131.135 285.393 L
S
GR
GS
0.302 GC
2 setlinecap
1 LJ
N
134.25 246.989 M
131.135 246.989 L
S
GR
GS
0.302 GC
2 setlinecap
1 LJ
N
134.25 227.787 M
131.135 227.787 L
S
GR
GS
0.302 GC
2 setlinecap
1 LJ
N
134.25 208.584 M
131.135 208.584 L
S
GR
GS
0.302 GC
2 setlinecap
1 LJ
N
134.25 170.18 M
131.135 170.18 L
S
GR
GS
0.302 GC
2 setlinecap
1 LJ
N
134.25 150.978 M
131.135 150.978 L
S
GR
GS
0.302 GC
2 setlinecap
1 LJ
N
134.25 131.775 M
131.135 131.775 L
S
GR
GS
0.302 GC
2 setlinecap
1 LJ
N
134.25 93.371 M
131.135 93.371 L
S
GR
GS
0.302 GC
2 setlinecap
1 LJ
N
134.25 74.169 M
131.135 74.169 L
S
GR
GS
0.302 GC
2 setlinecap
1 LJ
N
134.25 54.966 M
131.135 54.966 L
S
GR
GS
[1 0 0 1 121.02 343] CT
0.302 GC
/Helvetica 25 F
GS
[1 0 0 1 0 0] CT
-38 9 moveto 
1 -1 scale
(-20) t 
GR
GR
GS
[1 0 0 1 121.02 266.19104] CT
0.302 GC
/Helvetica 25 F
GS
[1 0 0 1 0 0] CT
-14 9 moveto 
1 -1 scale
(0) t 
GR
GR
GS
[1 0 0 1 121.02 189.38206] CT
0.302 GC
/Helvetica 25 F
GS
[1 0 0 1 0 0] CT
-28 9 moveto 
1 -1 scale
(20) t 
GR
GR
GS
[1 0 0 1 121.02 112.57309] CT
0.302 GC
/Helvetica 25 F
GS
[1 0 0 1 0 0] CT
-28 9 moveto 
1 -1 scale
(40) t 
GR
GR
GS
[1 0 0 1 121.02 35.76411] CT
0.302 GC
/Helvetica 25 F
GS
[1 0 0 1 0 0] CT
-28 9 moveto 
1 -1 scale
(60) t 
GR
GR
GS
[0 -1 1 0 80.02 187.24985] CT
0.302 GC
/Helvetica 27.5 F
GS
[1 0 0 1 0 0] CT
-157 -6 moveto 
1 -1 scale
(horizontal velocity \(deg/s\)) t 
GR
GR
GS
1 LJ
2 LW
N
134.25 266.191 M
147.229 302.755 L
160.208 316.36 L
173.188 304.831 L
186.167 278.566 L
199.146 240.856 L
212.125 204.484 L
225.104 167.672 L
238.083 132.35 L
251.063 99.977 L
264.042 71.564 L
277.021 50.709 L
290 37.845 L
302.979 31.5 L
315.958 33.298 L
328.938 44.366 L
341.917 66.379 L
354.896 97.31 L
367.875 127.854 L
380.854 172.404 L
393.833 210.534 L
406.813 245.796 L
419.792 269.646 L
432.771 267.194 L
445.75 264.704 L
S
GR
GS
1 0 1 RC
1 LJ
1.5 LW
N
134.25 266.191 M
147.229 301.697 L
160.208 311.554 L
173.188 295.165 L
186.167 264.679 L
199.146 229.649 L
212.125 193.411 L
225.104 153.773 L
238.083 120.501 L
251.063 93.242 L
264.042 71.441 L
277.021 53.677 L
290 43.262 L
302.979 40.492 L
315.958 45.744 L
328.938 57.647 L
341.917 77.048 L
354.896 106.249 L
367.875 140.811 L
380.854 172.238 L
393.833 204.474 L
406.813 233.81 L
419.792 257.622 L
432.771 258.23 L
445.75 259.073 L
S
GR
GS
0 0 1 RC
1 LJ
1.5 LW
N
134.25 266.191 M
147.229 301.063 L
160.208 308.479 L
173.188 290.32 L
186.167 258.84 L
199.146 223.647 L
212.125 187.015 L
225.104 148.121 L
238.083 116.283 L
251.063 90.633 L
264.042 70.394 L
277.021 54.896 L
290 46.593 L
302.979 45.463 L
315.958 51.222 L
328.938 64.419 L
341.917 82.326 L
354.896 105.735 L
367.875 137.818 L
380.854 165.978 L
393.833 194.419 L
406.813 219.316 L
419.792 237.99 L
432.771 247.328 L
445.75 252.004 L
S
GR
GS
0 1 0 RC
1 LJ
1.5 LW
N
134.25 266.191 M
147.229 299.281 L
160.208 303.379 L
173.188 281.152 L
186.167 249.408 L
199.146 211.869 L
212.125 171.385 L
225.104 137.409 L
238.083 107.708 L
251.063 86.082 L
264.042 67.005 L
277.021 55.311 L
290 50.485 L
302.979 52.179 L
315.958 59.462 L
328.938 70.934 L
341.917 91.517 L
354.896 109.632 L
367.875 138.745 L
380.854 157.856 L
393.833 183.213 L
406.813 203.364 L
419.792 219.876 L
432.771 231.923 L
445.75 241.654 L
S
GR
GS
1 0 0 RC
1 LJ
1.5 LW
N
134.25 266.191 M
147.229 297.272 L
160.208 297.958 L
173.188 273.77 L
186.167 239.304 L
199.146 196.773 L
212.125 159.438 L
225.104 125.127 L
238.083 98.638 L
251.063 78.166 L
264.042 62.917 L
277.021 54.901 L
290 53.446 L
302.979 56.952 L
315.958 66.061 L
328.938 80.746 L
341.917 94.706 L
354.896 116.216 L
367.875 134.572 L
380.854 153.356 L
393.833 170.966 L
406.813 187.281 L
419.792 199.963 L
432.771 216.713 L
445.75 230.971 L
S
GR
GS
0 1 1 RC
1 LJ
1.5 LW
N
134.25 266.191 M
147.229 295.783 L
160.208 294.37 L
173.188 267.295 L
186.167 228.908 L
199.146 190.205 L
212.125 152.367 L
225.104 120.312 L
238.083 91.714 L
251.063 72.817 L
264.042 60.142 L
277.021 54.392 L
290 54.211 L
302.979 58.44 L
315.958 68.248 L
328.938 82.48 L
341.917 93.812 L
354.896 113.357 L
367.875 128.221 L
380.854 142.397 L
393.833 155.932 L
406.813 166.554 L
419.792 180.824 L
432.771 201.717 L
445.75 224.691 L
S
GR
GS
1 1 0 RC
1 LJ
1.5 LW
N
134.25 266.191 M
147.229 294.575 L
160.208 288.628 L
173.188 261.183 L
186.167 219.49 L
199.146 178.068 L
212.125 139.121 L
225.104 107.056 L
238.083 83.722 L
251.063 65.748 L
264.042 55.552 L
277.021 52.348 L
290 54.767 L
302.979 60.76 L
315.958 73.528 L
328.938 85.017 L
341.917 101.183 L
354.896 113.327 L
367.875 126.665 L
380.854 132.318 L
393.833 142.215 L
406.813 150.023 L
419.792 162.77 L
432.771 188.403 L
445.75 216.501 L
S
GR
GS
1 GC
N
437.5 302 M
437.5 39.5 L
339 39.5 L
339 302 L
cp
f
GR
GS
[1 0 0 1 376 64] CT
/Helvetica 22.5 F
GS
[1 0 0 1 0 0] CT
0 0 moveto 
1 -1 scale
(v) t 
GR
GR
GS
[1 0 0 1 388 75] CT
/Helvetica 18 F
GS
[1 0 0 1 0 0] CT
0 0 moveto 
1 -1 scale
(z) t 
GR
GR
GS
[1 0 0 1 397 64] CT
/Helvetica 22.5 F
GS
[1 0 0 1 0 0] CT
0 0 moveto 
1 -1 scale
(\(0\)) t 
GR
GR
GS
1 LJ
2 LW
N
343 59.75 M
373 59.75 L
S
GR
GS
[1 0 0 1 376 101] CT
/Helvetica 22.5 F
GS
[1 0 0 1 0 0] CT
0 0 moveto 
1 -1 scale
(v) t 
GR
GR
GS
[1 0 0 1 388 112] CT
/Helvetica 18 F
GS
[1 0 0 1 0 0] CT
0 0 moveto 
1 -1 scale
(z) t 
GR
GR
GS
[1 0 0 1 397 101] CT
/Helvetica 22.5 F
GS
[1 0 0 1 0 0] CT
0 0 moveto 
1 -1 scale
(\(5\)) t 
GR
GR
GS
1 0 1 RC
1 LJ
1.5 LW
N
343 96.75 M
373 96.75 L
S
GR
GS
[1 0 0 1 376 138] CT
/Helvetica 22.5 F
GS
[1 0 0 1 0 0] CT
0 0 moveto 
1 -1 scale
(v) t 
GR
GR
GS
[1 0 0 1 388 149] CT
/Helvetica 18 F
GS
[1 0 0 1 0 0] CT
0 0 moveto 
1 -1 scale
(z) t 
GR
GR
GS
[1 0 0 1 397 138] CT
/Helvetica 22.5 F
GS
[1 0 0 1 0 0] CT
0 0 moveto 
1 -1 scale
(\(10\)) t 
GR
GR
GS
0 0 1 RC
1 LJ
1.5 LW
N
343 133.75 M
373 133.75 L
S
GR
GS
[1 0 0 1 376 175] CT
/Helvetica 22.5 F
GS
[1 0 0 1 0 0] CT
0 0 moveto 
1 -1 scale
(v) t 
GR
GR
GS
[1 0 0 1 388 186] CT
/Helvetica 18 F
GS
[1 0 0 1 0 0] CT
0 0 moveto 
1 -1 scale
(z) t 
GR
GR
GS
[1 0 0 1 397 175] CT
/Helvetica 22.5 F
GS
[1 0 0 1 0 0] CT
0 0 moveto 
1 -1 scale
(\(15\)) t 
GR
GR
GS
0 1 0 RC
1 LJ
1.5 LW
N
343 170.75 M
373 170.75 L
S
GR
GS
[1 0 0 1 376 212] CT
/Helvetica 22.5 F
GS
[1 0 0 1 0 0] CT
0 0 moveto 
1 -1 scale
(v) t 
GR
GR
GS
[1 0 0 1 388 223] CT
/Helvetica 18 F
GS
[1 0 0 1 0 0] CT
0 0 moveto 
1 -1 scale
(z) t 
GR
GR
GS
[1 0 0 1 397 212] CT
/Helvetica 22.5 F
GS
[1 0 0 1 0 0] CT
0 0 moveto 
1 -1 scale
(\(20\)) t 
GR
GR
GS
1 0 0 RC
1 LJ
1.5 LW
N
343 207.75 M
373 207.75 L
S
GR
GS
[1 0 0 1 376 249] CT
/Helvetica 22.5 F
GS
[1 0 0 1 0 0] CT
0 0 moveto 
1 -1 scale
(v) t 
GR
GR
GS
[1 0 0 1 388 260] CT
/Helvetica 18 F
GS
[1 0 0 1 0 0] CT
0 0 moveto 
1 -1 scale
(z) t 
GR
GR
GS
[1 0 0 1 397 249] CT
/Helvetica 22.5 F
GS
[1 0 0 1 0 0] CT
0 0 moveto 
1 -1 scale
(\(25\)) t 
GR
GR
GS
0 1 1 RC
1 LJ
1.5 LW
N
343 244.75 M
373 244.75 L
S
GR
GS
[1 0 0 1 376 286] CT
/Helvetica 22.5 F
GS
[1 0 0 1 0 0] CT
0 0 moveto 
1 -1 scale
(v) t 
GR
GR
GS
[1 0 0 1 388 297] CT
/Helvetica 18 F
GS
[1 0 0 1 0 0] CT
0 0 moveto 
1 -1 scale
(z) t 
GR
GR
GS
[1 0 0 1 397 286] CT
/Helvetica 22.5 F
GS
[1 0 0 1 0 0] CT
0 0 moveto 
1 -1 scale
(\(30\)) t 
GR
GR
GS
1 1 0 RC
1 LJ
1.5 LW
N
343 281.75 M
373 281.75 L
S
GR
GS
0.149 GC
10.0 ML
N
339 302 M
339 39.5 L
437.5 39.5 L
437.5 302 L
cp
S
GR
%%Trailer
%%Pages: 1
%%EOF
