%!PS-Adobe-3.0 EPSF-3.0
%%Creator: (MATLAB, The Mathworks, Inc. Version 9.5.0.944444 \(R2018b\). Operating System: Mac OS X)
%%Title: ./stretchingAD_A.eps
%%CreationDate: 2020-05-08T18:22:11
%%Pages: (atend)
%%BoundingBox:    40     0   447   398
%%LanguageLevel: 2
%%EndComments
%%BeginProlog
%%BeginResource: procset (Apache XML Graphics Std ProcSet) 1.2 0
%%Version: 1.2 0
%%Copyright: (Copyright 2001-2003,2010 The Apache Software Foundation. License terms: http://www.apache.org/licenses/LICENSE-2.0)
/bd{bind def}bind def
/ld{load def}bd
/GR/grestore ld
/GS/gsave ld
/RM/rmoveto ld
/C/curveto ld
/t/show ld
/L/lineto ld
/ML/setmiterlimit ld
/CT/concat ld
/f/fill ld
/N/newpath ld
/S/stroke ld
/CC/setcmykcolor ld
/A/ashow ld
/cp/closepath ld
/RC/setrgbcolor ld
/LJ/setlinejoin ld
/GC/setgray ld
/LW/setlinewidth ld
/M/moveto ld
/re {4 2 roll M
1 index 0 rlineto
0 exch rlineto
neg 0 rlineto
cp } bd
/_ctm matrix def
/_tm matrix def
/BT { _ctm currentmatrix pop matrix _tm copy pop 0 0 moveto } bd
/ET { _ctm setmatrix } bd
/iTm { _ctm setmatrix _tm concat } bd
/Tm { _tm astore pop iTm 0 0 moveto } bd
/ux 0.0 def
/uy 0.0 def
/F {
  /Tp exch def
  /Tf exch def
  Tf findfont Tp scalefont setfont
  /cf Tf def  /cs Tp def
} bd
/ULS {currentpoint /uy exch def /ux exch def} bd
/ULE {
  /Tcx currentpoint pop def
  gsave
  newpath
  cf findfont cs scalefont dup
  /FontMatrix get 0 get /Ts exch def /FontInfo get dup
  /UnderlinePosition get Ts mul /To exch def
  /UnderlineThickness get Ts mul /Tt exch def
  ux uy To add moveto  Tcx uy To add lineto
  Tt setlinewidth stroke
  grestore
} bd
/OLE {
  /Tcx currentpoint pop def
  gsave
  newpath
  cf findfont cs scalefont dup
  /FontMatrix get 0 get /Ts exch def /FontInfo get dup
  /UnderlinePosition get Ts mul /To exch def
  /UnderlineThickness get Ts mul /Tt exch def
  ux uy To add cs add moveto Tcx uy To add cs add lineto
  Tt setlinewidth stroke
  grestore
} bd
/SOE {
  /Tcx currentpoint pop def
  gsave
  newpath
  cf findfont cs scalefont dup
  /FontMatrix get 0 get /Ts exch def /FontInfo get dup
  /UnderlinePosition get Ts mul /To exch def
  /UnderlineThickness get Ts mul /Tt exch def
  ux uy To add cs 10 mul 26 idiv add moveto Tcx uy To add cs 10 mul 26 idiv add lineto
  Tt setlinewidth stroke
  grestore
} bd
/QT {
/Y22 exch store
/X22 exch store
/Y21 exch store
/X21 exch store
currentpoint
/Y21 load 2 mul add 3 div exch
/X21 load 2 mul add 3 div exch
/X21 load 2 mul /X22 load add 3 div
/Y21 load 2 mul /Y22 load add 3 div
/X22 load /Y22 load curveto
} bd
/SSPD {
dup length /d exch dict def
{
/v exch def
/k exch def
currentpagedevice k known {
/cpdv currentpagedevice k get def
v cpdv ne {
/upd false def
/nullv v type /nulltype eq def
/nullcpdv cpdv type /nulltype eq def
nullv nullcpdv or
{
/upd true def
} {
/sametype v type cpdv type eq def
sametype {
v type /arraytype eq {
/vlen v length def
/cpdvlen cpdv length def
vlen cpdvlen eq {
0 1 vlen 1 sub {
/i exch def
/obj v i get def
/cpdobj cpdv i get def
obj cpdobj ne {
/upd true def
exit
} if
} for
} {
/upd true def
} ifelse
} {
v type /dicttype eq {
v {
/dv exch def
/dk exch def
/cpddv cpdv dk get def
dv cpddv ne {
/upd true def
exit
} if
} forall
} {
/upd true def
} ifelse
} ifelse
} if
} ifelse
upd true eq {
d k v put
} if
} if
} if
} forall
d length 0 gt {
d setpagedevice
} if
} bd
/RE { % /NewFontName [NewEncodingArray] /FontName RE -
  findfont dup length dict begin
  {
    1 index /FID ne
    {def} {pop pop} ifelse
  } forall
  /Encoding exch def
  /FontName 1 index def
  currentdict definefont pop
  end
} bind def
%%EndResource
%%BeginResource: procset (Apache XML Graphics EPS ProcSet) 1.0 0
%%Version: 1.0 0
%%Copyright: (Copyright 2002-2003 The Apache Software Foundation. License terms: http://www.apache.org/licenses/LICENSE-2.0)
/BeginEPSF { %def
/b4_Inc_state save def         % Save state for cleanup
/dict_count countdictstack def % Count objects on dict stack
/op_count count 1 sub def      % Count objects on operand stack
userdict begin                 % Push userdict on dict stack
/showpage { } def              % Redefine showpage, { } = null proc
0 setgray 0 setlinecap         % Prepare graphics state
1 setlinewidth 0 setlinejoin
10 setmiterlimit [ ] 0 setdash newpath
/languagelevel where           % If level not equal to 1 then
{pop languagelevel             % set strokeadjust and
1 ne                           % overprint to their defaults.
{false setstrokeadjust false setoverprint
} if
} if
} bd
/EndEPSF { %def
count op_count sub {pop} repeat            % Clean up stacks
countdictstack dict_count sub {end} repeat
b4_Inc_state restore
} bd
%%EndResource
%FOPBeginFontDict
%%IncludeResource: font Courier-Oblique
%%IncludeResource: font Courier-BoldOblique
%%IncludeResource: font Courier-Bold
%%IncludeResource: font ZapfDingbats
%%IncludeResource: font Symbol
%%IncludeResource: font Helvetica
%%IncludeResource: font Helvetica-Oblique
%%IncludeResource: font Helvetica-Bold
%%IncludeResource: font Helvetica-BoldOblique
%%IncludeResource: font Times-Roman
%%IncludeResource: font Times-Italic
%%IncludeResource: font Times-Bold
%%IncludeResource: font Times-BoldItalic
%%IncludeResource: font Courier
%FOPEndFontDict
%%BeginResource: encoding WinAnsiEncoding
/WinAnsiEncoding [
/.notdef /.notdef /.notdef /.notdef /.notdef
/.notdef /.notdef /.notdef /.notdef /.notdef
/.notdef /.notdef /.notdef /.notdef /.notdef
/.notdef /.notdef /.notdef /.notdef /.notdef
/.notdef /.notdef /.notdef /.notdef /.notdef
/.notdef /.notdef /.notdef /.notdef /.notdef
/.notdef /.notdef /space /exclam /quotedbl
/numbersign /dollar /percent /ampersand /quotesingle
/parenleft /parenright /asterisk /plus /comma
/hyphen /period /slash /zero /one
/two /three /four /five /six
/seven /eight /nine /colon /semicolon
/less /equal /greater /question /at
/A /B /C /D /E
/F /G /H /I /J
/K /L /M /N /O
/P /Q /R /S /T
/U /V /W /X /Y
/Z /bracketleft /backslash /bracketright /asciicircum
/underscore /quoteleft /a /b /c
/d /e /f /g /h
/i /j /k /l /m
/n /o /p /q /r
/s /t /u /v /w
/x /y /z /braceleft /bar
/braceright /asciitilde /bullet /Euro /bullet
/quotesinglbase /florin /quotedblbase /ellipsis /dagger
/daggerdbl /circumflex /perthousand /Scaron /guilsinglleft
/OE /bullet /Zcaron /bullet /bullet
/quoteleft /quoteright /quotedblleft /quotedblright /bullet
/endash /emdash /asciitilde /trademark /scaron
/guilsinglright /oe /bullet /zcaron /Ydieresis
/space /exclamdown /cent /sterling /currency
/yen /brokenbar /section /dieresis /copyright
/ordfeminine /guillemotleft /logicalnot /sfthyphen /registered
/macron /degree /plusminus /twosuperior /threesuperior
/acute /mu /paragraph /middot /cedilla
/onesuperior /ordmasculine /guillemotright /onequarter /onehalf
/threequarters /questiondown /Agrave /Aacute /Acircumflex
/Atilde /Adieresis /Aring /AE /Ccedilla
/Egrave /Eacute /Ecircumflex /Edieresis /Igrave
/Iacute /Icircumflex /Idieresis /Eth /Ntilde
/Ograve /Oacute /Ocircumflex /Otilde /Odieresis
/multiply /Oslash /Ugrave /Uacute /Ucircumflex
/Udieresis /Yacute /Thorn /germandbls /agrave
/aacute /acircumflex /atilde /adieresis /aring
/ae /ccedilla /egrave /eacute /ecircumflex
/edieresis /igrave /iacute /icircumflex /idieresis
/eth /ntilde /ograve /oacute /ocircumflex
/otilde /odieresis /divide /oslash /ugrave
/uacute /ucircumflex /udieresis /yacute /thorn
/ydieresis
] def
%%EndResource
%FOPBeginFontReencode
/Courier-Oblique findfont
dup length dict begin
  {1 index /FID ne {def} {pop pop} ifelse} forall
  /Encoding WinAnsiEncoding def
  currentdict
end
/Courier-Oblique exch definefont pop
/Courier-BoldOblique findfont
dup length dict begin
  {1 index /FID ne {def} {pop pop} ifelse} forall
  /Encoding WinAnsiEncoding def
  currentdict
end
/Courier-BoldOblique exch definefont pop
/Courier-Bold findfont
dup length dict begin
  {1 index /FID ne {def} {pop pop} ifelse} forall
  /Encoding WinAnsiEncoding def
  currentdict
end
/Courier-Bold exch definefont pop
/Helvetica findfont
dup length dict begin
  {1 index /FID ne {def} {pop pop} ifelse} forall
  /Encoding WinAnsiEncoding def
  currentdict
end
/Helvetica exch definefont pop
/Helvetica-Oblique findfont
dup length dict begin
  {1 index /FID ne {def} {pop pop} ifelse} forall
  /Encoding WinAnsiEncoding def
  currentdict
end
/Helvetica-Oblique exch definefont pop
/Helvetica-Bold findfont
dup length dict begin
  {1 index /FID ne {def} {pop pop} ifelse} forall
  /Encoding WinAnsiEncoding def
  currentdict
end
/Helvetica-Bold exch definefont pop
/Helvetica-BoldOblique findfont
dup length dict begin
  {1 index /FID ne {def} {pop pop} ifelse} forall
  /Encoding WinAnsiEncoding def
  currentdict
end
/Helvetica-BoldOblique exch definefont pop
/Times-Roman findfont
dup length dict begin
  {1 index /FID ne {def} {pop pop} ifelse} forall
  /Encoding WinAnsiEncoding def
  currentdict
end
/Times-Roman exch definefont pop
/Times-Italic findfont
dup length dict begin
  {1 index /FID ne {def} {pop pop} ifelse} forall
  /Encoding WinAnsiEncoding def
  currentdict
end
/Times-Italic exch definefont pop
/Times-Bold findfont
dup length dict begin
  {1 index /FID ne {def} {pop pop} ifelse} forall
  /Encoding WinAnsiEncoding def
  currentdict
end
/Times-Bold exch definefont pop
/Times-BoldItalic findfont
dup length dict begin
  {1 index /FID ne {def} {pop pop} ifelse} forall
  /Encoding WinAnsiEncoding def
  currentdict
end
/Times-BoldItalic exch definefont pop
/Courier findfont
dup length dict begin
  {1 index /FID ne {def} {pop pop} ifelse} forall
  /Encoding WinAnsiEncoding def
  currentdict
end
/Courier exch definefont pop
%FOPEndFontReencode
%%EndProlog
%%Page: 1 1
%%PageBoundingBox: 0 0 560 420
%%BeginPageSetup
[1 0 0 -1 0 420] CT
%%EndPageSetup
GS
1 GC
N
0 0 560 420 re
f
GR
GS
1 GC
N
0 0 560 420 re
f
GR
GS
1 GC
N
134.25 343 M
445.75 343 L
445.75 31.5 L
134.25 31.5 L
cp
f
GR
GS
0.896 GC
1 LJ
N
134.25 343 M
134.25 31.5 L
S
GR
GS
0.896 GC
1 LJ
N
264.042 343 M
264.042 31.5 L
S
GR
GS
0.896 GC
1 LJ
N
393.833 343 M
393.833 31.5 L
S
GR
GS
0.896 GC
1 LJ
N
445.75 343 M
134.25 343 L
S
GR
GS
0.896 GC
1 LJ
N
445.75 280.7 M
134.25 280.7 L
S
GR
GS
0.896 GC
1 LJ
N
445.75 218.4 M
134.25 218.4 L
S
GR
GS
0.896 GC
1 LJ
N
445.75 156.1 M
134.25 156.1 L
S
GR
GS
0.896 GC
1 LJ
N
445.75 93.8 M
134.25 93.8 L
S
GR
GS
0.896 GC
1 LJ
N
445.75 31.5 M
134.25 31.5 L
S
GR
GS
0.302 GC
2 setlinecap
1 LJ
N
134.25 343 M
445.75 343 L
S
GR
GS
0.302 GC
2 setlinecap
1 LJ
N
134.25 343 M
134.25 349.23 L
S
GR
GS
0.302 GC
2 setlinecap
1 LJ
N
264.042 343 M
264.042 349.23 L
S
GR
GS
0.302 GC
2 setlinecap
1 LJ
N
393.833 343 M
393.833 349.23 L
S
GR
GS
0.302 GC
2 setlinecap
1 LJ
N
160.208 343 M
160.208 346.115 L
S
GR
GS
0.302 GC
2 setlinecap
1 LJ
N
186.167 343 M
186.167 346.115 L
S
GR
GS
0.302 GC
2 setlinecap
1 LJ
N
212.125 343 M
212.125 346.115 L
S
GR
GS
0.302 GC
2 setlinecap
1 LJ
N
238.083 343 M
238.083 346.115 L
S
GR
GS
0.302 GC
2 setlinecap
1 LJ
N
290 343 M
290 346.115 L
S
GR
GS
0.302 GC
2 setlinecap
1 LJ
N
315.958 343 M
315.958 346.115 L
S
GR
GS
0.302 GC
2 setlinecap
1 LJ
N
341.917 343 M
341.917 346.115 L
S
GR
GS
0.302 GC
2 setlinecap
1 LJ
N
367.875 343 M
367.875 346.115 L
S
GR
GS
0.302 GC
2 setlinecap
1 LJ
N
419.792 343 M
419.792 346.115 L
S
GR
GS
0.302 GC
2 setlinecap
1 LJ
N
445.75 343 M
445.75 346.115 L
S
GR
GS
[1 0 0 1 134.25 356.23001] CT
0.302 GC
/Helvetica 25 F
GS
[1 0 0 1 0 0] CT
-7 24 moveto 
1 -1 scale
(0) t 
GR
GR
GS
[1 0 0 1 264.04166 356.23001] CT
0.302 GC
/Helvetica 25 F
GS
[1 0 0 1 0 0] CT
-17.5 24 moveto 
1 -1 scale
(0.1) t 
GR
GR
GS
[1 0 0 1 393.83334 356.23001] CT
0.302 GC
/Helvetica 25 F
GS
[1 0 0 1 0 0] CT
-17.5 24 moveto 
1 -1 scale
(0.2) t 
GR
GR
GS
[1 0 0 1 290.00015 386.73001] CT
0.302 GC
/Helvetica 27.5 F
GS
[1 0 0 1 0 0] CT
-44.5 27 moveto 
1 -1 scale
(time \(s\)) t 
GR
GR
GS
0.302 GC
2 setlinecap
1 LJ
N
134.25 343 M
134.25 31.5 L
S
GR
GS
0.302 GC
2 setlinecap
1 LJ
N
134.25 343 M
128.02 343 L
S
GR
GS
0.302 GC
2 setlinecap
1 LJ
N
134.25 280.7 M
128.02 280.7 L
S
GR
GS
0.302 GC
2 setlinecap
1 LJ
N
134.25 218.4 M
128.02 218.4 L
S
GR
GS
0.302 GC
2 setlinecap
1 LJ
N
134.25 156.1 M
128.02 156.1 L
S
GR
GS
0.302 GC
2 setlinecap
1 LJ
N
134.25 93.8 M
128.02 93.8 L
S
GR
GS
0.302 GC
2 setlinecap
1 LJ
N
134.25 31.5 M
128.02 31.5 L
S
GR
GS
0.302 GC
2 setlinecap
1 LJ
N
134.25 327.425 M
131.135 327.425 L
S
GR
GS
0.302 GC
2 setlinecap
1 LJ
N
134.25 311.85 M
131.135 311.85 L
S
GR
GS
0.302 GC
2 setlinecap
1 LJ
N
134.25 296.275 M
131.135 296.275 L
S
GR
GS
0.302 GC
2 setlinecap
1 LJ
N
134.25 265.125 M
131.135 265.125 L
S
GR
GS
0.302 GC
2 setlinecap
1 LJ
N
134.25 249.55 M
131.135 249.55 L
S
GR
GS
0.302 GC
2 setlinecap
1 LJ
N
134.25 233.975 M
131.135 233.975 L
S
GR
GS
0.302 GC
2 setlinecap
1 LJ
N
134.25 202.825 M
131.135 202.825 L
S
GR
GS
0.302 GC
2 setlinecap
1 LJ
N
134.25 187.25 M
131.135 187.25 L
S
GR
GS
0.302 GC
2 setlinecap
1 LJ
N
134.25 171.675 M
131.135 171.675 L
S
GR
GS
0.302 GC
2 setlinecap
1 LJ
N
134.25 140.525 M
131.135 140.525 L
S
GR
GS
0.302 GC
2 setlinecap
1 LJ
N
134.25 124.95 M
131.135 124.95 L
S
GR
GS
0.302 GC
2 setlinecap
1 LJ
N
134.25 109.375 M
131.135 109.375 L
S
GR
GS
0.302 GC
2 setlinecap
1 LJ
N
134.25 78.225 M
131.135 78.225 L
S
GR
GS
0.302 GC
2 setlinecap
1 LJ
N
134.25 62.65 M
131.135 62.65 L
S
GR
GS
0.302 GC
2 setlinecap
1 LJ
N
134.25 47.075 M
131.135 47.075 L
S
GR
GS
[1 0 0 1 121.02 343] CT
0.302 GC
/Helvetica 25 F
GS
[1 0 0 1 0 0] CT
-52 9 moveto 
1 -1 scale
(-400) t 
GR
GR
GS
[1 0 0 1 121.02 280.70001] CT
0.302 GC
/Helvetica 25 F
GS
[1 0 0 1 0 0] CT
-52 9 moveto 
1 -1 scale
(-200) t 
GR
GR
GS
[1 0 0 1 121.02 218.39999] CT
0.302 GC
/Helvetica 25 F
GS
[1 0 0 1 0 0] CT
-14 9 moveto 
1 -1 scale
(0) t 
GR
GR
GS
[1 0 0 1 121.02 156.10001] CT
0.302 GC
/Helvetica 25 F
GS
[1 0 0 1 0 0] CT
-42 9 moveto 
1 -1 scale
(200) t 
GR
GR
GS
[1 0 0 1 121.02 93.8] CT
0.302 GC
/Helvetica 25 F
GS
[1 0 0 1 0 0] CT
-42 9 moveto 
1 -1 scale
(400) t 
GR
GR
GS
[1 0 0 1 121.02 31.5] CT
0.302 GC
/Helvetica 25 F
GS
[1 0 0 1 0 0] CT
-42 9 moveto 
1 -1 scale
(600) t 
GR
GR
GS
[0 -1 1 0 66.52 187.24985] CT
0.302 GC
/Helvetica 27.5 F
GS
[1 0 0 1 0 0] CT
-157 -6 moveto 
1 -1 scale
(horizontal velocity \(deg/s\)) t 
GR
GR
GS
1 LJ
2 LW
N
134.25 218.4 M
147.229 211.873 L
160.208 204.14 L
173.188 197.265 L
186.167 192.004 L
199.146 188.015 L
212.125 185.748 L
225.104 186.916 L
238.083 192.233 L
251.063 204.217 L
264.042 222.647 L
277.021 222.927 L
290 221.244 L
302.979 220.219 L
315.958 219.23 L
328.938 218.521 L
341.917 218.19 L
354.896 218.005 L
367.875 217.948 L
380.854 217.948 L
393.833 217.988 L
406.813 218.059 L
419.792 218.139 L
432.771 218.211 L
445.75 218.282 L
S
GR
GS
1 0 1 RC
1 LJ
1.5 LW
N
134.25 218.4 M
147.229 195.089 L
160.208 182.778 L
173.188 178.528 L
186.167 180.323 L
199.146 186.49 L
212.125 194.414 L
225.104 202.99 L
238.083 213.389 L
251.063 219.433 L
264.042 221.402 L
277.021 221.215 L
290 220.758 L
302.979 220.204 L
315.958 219.696 L
328.938 219.31 L
341.917 219.039 L
354.896 218.781 L
367.875 218.583 L
380.854 218.448 L
393.833 218.356 L
406.813 218.303 L
419.792 218.276 L
432.771 218.269 L
445.75 218.275 L
S
GR
GS
0 0 1 RC
1 LJ
1.5 LW
N
134.25 218.4 M
147.229 171.706 L
160.208 150.119 L
173.188 149.181 L
186.167 160.654 L
199.146 179.899 L
212.125 207.461 L
225.104 228.746 L
238.083 242.371 L
251.063 241.932 L
264.042 217.768 L
277.021 219.828 L
290 221.832 L
302.979 222.661 L
315.958 222.807 L
328.938 222.517 L
341.917 222.054 L
354.896 221.465 L
367.875 220.812 L
380.854 220.363 L
393.833 219.832 L
406.813 219.32 L
419.792 218.988 L
432.771 218.788 L
445.75 218.565 L
S
GR
GS
0 1 0 RC
1 LJ
1.5 LW
N
134.25 218.4 M
147.229 153.856 L
160.208 128.071 L
173.188 129.141 L
186.167 147.241 L
199.146 181.819 L
212.125 214.827 L
225.104 244.13 L
238.083 261.121 L
251.063 255.649 L
264.042 213.157 L
277.021 216.912 L
290 221.03 L
302.979 224.123 L
315.958 225.242 L
328.938 225.535 L
341.917 225.187 L
354.896 224.382 L
367.875 223.461 L
380.854 222.576 L
393.833 221.884 L
406.813 220.998 L
419.792 220.226 L
432.771 219.692 L
445.75 219.199 L
S
GR
GS
1 0 0 RC
1 LJ
1.5 LW
N
134.25 218.4 M
147.229 140.456 L
160.208 106.439 L
173.188 109.226 L
186.167 134.701 L
199.146 178.526 L
212.125 221.18 L
225.104 258.68 L
238.083 278.809 L
251.063 268.728 L
264.042 208.403 L
277.021 213.357 L
290 220.224 L
302.979 225.576 L
315.958 227.794 L
328.938 228.613 L
341.917 228.565 L
354.896 227.889 L
367.875 226.586 L
380.854 225.466 L
393.833 224.088 L
406.813 223.05 L
419.792 221.976 L
432.771 221.022 L
445.75 220.436 L
S
GR
GS
0 1 1 RC
1 LJ
1.5 LW
N
134.25 218.4 M
147.229 125.415 L
160.208 85.634 L
173.188 91.013 L
186.167 126.295 L
199.146 172.076 L
212.125 226.826 L
225.104 273.169 L
238.083 295.849 L
251.063 277.901 L
264.042 204.329 L
277.021 209.061 L
290 218.515 L
302.979 225.406 L
315.958 229.495 L
328.938 230.968 L
341.917 231.493 L
354.896 231.071 L
367.875 229.853 L
380.854 228.624 L
393.833 226.974 L
406.813 225.424 L
419.792 224.233 L
432.771 222.798 L
445.75 221.918 L
S
GR
GS
1 1 0 RC
1 LJ
1.5 LW
N
134.25 218.4 M
147.229 119.833 L
160.208 69.519 L
173.188 73.594 L
186.167 114.066 L
199.146 170.658 L
212.125 230.884 L
225.104 285.489 L
238.083 311.417 L
251.063 288.839 L
264.042 199.299 L
277.021 203.403 L
290 215.643 L
302.979 224.563 L
315.958 229.514 L
328.938 232.715 L
341.917 233.633 L
354.896 233.517 L
367.875 232.612 L
380.854 231.3 L
393.833 229.401 L
406.813 227.778 L
419.792 226.361 L
432.771 224.627 L
445.75 223.484 L
S
GR
GS
1 GC
N
437.5 302 M
437.5 39.5 L
339 39.5 L
339 302 L
cp
f
GR
GS
[1 0 0 1 376 64] CT
/Helvetica 22.5 F
GS
[1 0 0 1 0 0] CT
0 0 moveto 
1 -1 scale
(v) t 
GR
GR
GS
[1 0 0 1 388 75] CT
/Helvetica 18 F
GS
[1 0 0 1 0 0] CT
0 0 moveto 
1 -1 scale
(z) t 
GR
GR
GS
[1 0 0 1 397 64] CT
/Helvetica 22.5 F
GS
[1 0 0 1 0 0] CT
0 0 moveto 
1 -1 scale
(\(0\)) t 
GR
GR
GS
1 LJ
2 LW
N
343 59.75 M
373 59.75 L
S
GR
GS
[1 0 0 1 376 101] CT
/Helvetica 22.5 F
GS
[1 0 0 1 0 0] CT
0 0 moveto 
1 -1 scale
(v) t 
GR
GR
GS
[1 0 0 1 388 112] CT
/Helvetica 18 F
GS
[1 0 0 1 0 0] CT
0 0 moveto 
1 -1 scale
(z) t 
GR
GR
GS
[1 0 0 1 397 101] CT
/Helvetica 22.5 F
GS
[1 0 0 1 0 0] CT
0 0 moveto 
1 -1 scale
(\(5\)) t 
GR
GR
GS
1 0 1 RC
1 LJ
1.5 LW
N
343 96.75 M
373 96.75 L
S
GR
GS
[1 0 0 1 376 138] CT
/Helvetica 22.5 F
GS
[1 0 0 1 0 0] CT
0 0 moveto 
1 -1 scale
(v) t 
GR
GR
GS
[1 0 0 1 388 149] CT
/Helvetica 18 F
GS
[1 0 0 1 0 0] CT
0 0 moveto 
1 -1 scale
(z) t 
GR
GR
GS
[1 0 0 1 397 138] CT
/Helvetica 22.5 F
GS
[1 0 0 1 0 0] CT
0 0 moveto 
1 -1 scale
(\(10\)) t 
GR
GR
GS
0 0 1 RC
1 LJ
1.5 LW
N
343 133.75 M
373 133.75 L
S
GR
GS
[1 0 0 1 376 175] CT
/Helvetica 22.5 F
GS
[1 0 0 1 0 0] CT
0 0 moveto 
1 -1 scale
(v) t 
GR
GR
GS
[1 0 0 1 388 186] CT
/Helvetica 18 F
GS
[1 0 0 1 0 0] CT
0 0 moveto 
1 -1 scale
(z) t 
GR
GR
GS
[1 0 0 1 397 175] CT
/Helvetica 22.5 F
GS
[1 0 0 1 0 0] CT
0 0 moveto 
1 -1 scale
(\(15\)) t 
GR
GR
GS
0 1 0 RC
1 LJ
1.5 LW
N
343 170.75 M
373 170.75 L
S
GR
GS
[1 0 0 1 376 212] CT
/Helvetica 22.5 F
GS
[1 0 0 1 0 0] CT
0 0 moveto 
1 -1 scale
(v) t 
GR
GR
GS
[1 0 0 1 388 223] CT
/Helvetica 18 F
GS
[1 0 0 1 0 0] CT
0 0 moveto 
1 -1 scale
(z) t 
GR
GR
GS
[1 0 0 1 397 212] CT
/Helvetica 22.5 F
GS
[1 0 0 1 0 0] CT
0 0 moveto 
1 -1 scale
(\(20\)) t 
GR
GR
GS
1 0 0 RC
1 LJ
1.5 LW
N
343 207.75 M
373 207.75 L
S
GR
GS
[1 0 0 1 376 249] CT
/Helvetica 22.5 F
GS
[1 0 0 1 0 0] CT
0 0 moveto 
1 -1 scale
(v) t 
GR
GR
GS
[1 0 0 1 388 260] CT
/Helvetica 18 F
GS
[1 0 0 1 0 0] CT
0 0 moveto 
1 -1 scale
(z) t 
GR
GR
GS
[1 0 0 1 397 249] CT
/Helvetica 22.5 F
GS
[1 0 0 1 0 0] CT
0 0 moveto 
1 -1 scale
(\(25\)) t 
GR
GR
GS
0 1 1 RC
1 LJ
1.5 LW
N
343 244.75 M
373 244.75 L
S
GR
GS
[1 0 0 1 376 286] CT
/Helvetica 22.5 F
GS
[1 0 0 1 0 0] CT
0 0 moveto 
1 -1 scale
(v) t 
GR
GR
GS
[1 0 0 1 388 297] CT
/Helvetica 18 F
GS
[1 0 0 1 0 0] CT
0 0 moveto 
1 -1 scale
(z) t 
GR
GR
GS
[1 0 0 1 397 286] CT
/Helvetica 22.5 F
GS
[1 0 0 1 0 0] CT
0 0 moveto 
1 -1 scale
(\(30\)) t 
GR
GR
GS
1 1 0 RC
1 LJ
1.5 LW
N
343 281.75 M
373 281.75 L
S
GR
GS
0.149 GC
10.0 ML
N
339 302 M
339 39.5 L
437.5 39.5 L
437.5 302 L
cp
S
GR
%%Trailer
%%Pages: 1
%%EOF
