%!PS-Adobe-3.0 EPSF-3.0
%%Creator: (MATLAB, The Mathworks, Inc. Version 9.5.0.944444 \(R2018b\). Operating System: Mac OS X)
%%Title: ./stretchingAE_B.eps
%%CreationDate: 2020-05-07T16:28:00
%%Pages: (atend)
%%BoundingBox:    40     0   447   392
%%LanguageLevel: 2
%%EndComments
%%BeginProlog
%%BeginResource: procset (Apache XML Graphics Std ProcSet) 1.2 0
%%Version: 1.2 0
%%Copyright: (Copyright 2001-2003,2010 The Apache Software Foundation. License terms: http://www.apache.org/licenses/LICENSE-2.0)
/bd{bind def}bind def
/ld{load def}bd
/GR/grestore ld
/GS/gsave ld
/RM/rmoveto ld
/C/curveto ld
/t/show ld
/L/lineto ld
/ML/setmiterlimit ld
/CT/concat ld
/f/fill ld
/N/newpath ld
/S/stroke ld
/CC/setcmykcolor ld
/A/ashow ld
/cp/closepath ld
/RC/setrgbcolor ld
/LJ/setlinejoin ld
/GC/setgray ld
/LW/setlinewidth ld
/M/moveto ld
/re {4 2 roll M
1 index 0 rlineto
0 exch rlineto
neg 0 rlineto
cp } bd
/_ctm matrix def
/_tm matrix def
/BT { _ctm currentmatrix pop matrix _tm copy pop 0 0 moveto } bd
/ET { _ctm setmatrix } bd
/iTm { _ctm setmatrix _tm concat } bd
/Tm { _tm astore pop iTm 0 0 moveto } bd
/ux 0.0 def
/uy 0.0 def
/F {
  /Tp exch def
  /Tf exch def
  Tf findfont Tp scalefont setfont
  /cf Tf def  /cs Tp def
} bd
/ULS {currentpoint /uy exch def /ux exch def} bd
/ULE {
  /Tcx currentpoint pop def
  gsave
  newpath
  cf findfont cs scalefont dup
  /FontMatrix get 0 get /Ts exch def /FontInfo get dup
  /UnderlinePosition get Ts mul /To exch def
  /UnderlineThickness get Ts mul /Tt exch def
  ux uy To add moveto  Tcx uy To add lineto
  Tt setlinewidth stroke
  grestore
} bd
/OLE {
  /Tcx currentpoint pop def
  gsave
  newpath
  cf findfont cs scalefont dup
  /FontMatrix get 0 get /Ts exch def /FontInfo get dup
  /UnderlinePosition get Ts mul /To exch def
  /UnderlineThickness get Ts mul /Tt exch def
  ux uy To add cs add moveto Tcx uy To add cs add lineto
  Tt setlinewidth stroke
  grestore
} bd
/SOE {
  /Tcx currentpoint pop def
  gsave
  newpath
  cf findfont cs scalefont dup
  /FontMatrix get 0 get /Ts exch def /FontInfo get dup
  /UnderlinePosition get Ts mul /To exch def
  /UnderlineThickness get Ts mul /Tt exch def
  ux uy To add cs 10 mul 26 idiv add moveto Tcx uy To add cs 10 mul 26 idiv add lineto
  Tt setlinewidth stroke
  grestore
} bd
/QT {
/Y22 exch store
/X22 exch store
/Y21 exch store
/X21 exch store
currentpoint
/Y21 load 2 mul add 3 div exch
/X21 load 2 mul add 3 div exch
/X21 load 2 mul /X22 load add 3 div
/Y21 load 2 mul /Y22 load add 3 div
/X22 load /Y22 load curveto
} bd
/SSPD {
dup length /d exch dict def
{
/v exch def
/k exch def
currentpagedevice k known {
/cpdv currentpagedevice k get def
v cpdv ne {
/upd false def
/nullv v type /nulltype eq def
/nullcpdv cpdv type /nulltype eq def
nullv nullcpdv or
{
/upd true def
} {
/sametype v type cpdv type eq def
sametype {
v type /arraytype eq {
/vlen v length def
/cpdvlen cpdv length def
vlen cpdvlen eq {
0 1 vlen 1 sub {
/i exch def
/obj v i get def
/cpdobj cpdv i get def
obj cpdobj ne {
/upd true def
exit
} if
} for
} {
/upd true def
} ifelse
} {
v type /dicttype eq {
v {
/dv exch def
/dk exch def
/cpddv cpdv dk get def
dv cpddv ne {
/upd true def
exit
} if
} forall
} {
/upd true def
} ifelse
} ifelse
} if
} ifelse
upd true eq {
d k v put
} if
} if
} if
} forall
d length 0 gt {
d setpagedevice
} if
} bd
/RE { % /NewFontName [NewEncodingArray] /FontName RE -
  findfont dup length dict begin
  {
    1 index /FID ne
    {def} {pop pop} ifelse
  } forall
  /Encoding exch def
  /FontName 1 index def
  currentdict definefont pop
  end
} bind def
%%EndResource
%%BeginResource: procset (Apache XML Graphics EPS ProcSet) 1.0 0
%%Version: 1.0 0
%%Copyright: (Copyright 2002-2003 The Apache Software Foundation. License terms: http://www.apache.org/licenses/LICENSE-2.0)
/BeginEPSF { %def
/b4_Inc_state save def         % Save state for cleanup
/dict_count countdictstack def % Count objects on dict stack
/op_count count 1 sub def      % Count objects on operand stack
userdict begin                 % Push userdict on dict stack
/showpage { } def              % Redefine showpage, { } = null proc
0 setgray 0 setlinecap         % Prepare graphics state
1 setlinewidth 0 setlinejoin
10 setmiterlimit [ ] 0 setdash newpath
/languagelevel where           % If level not equal to 1 then
{pop languagelevel             % set strokeadjust and
1 ne                           % overprint to their defaults.
{false setstrokeadjust false setoverprint
} if
} if
} bd
/EndEPSF { %def
count op_count sub {pop} repeat            % Clean up stacks
countdictstack dict_count sub {end} repeat
b4_Inc_state restore
} bd
%%EndResource
%FOPBeginFontDict
%%IncludeResource: font Courier-Oblique
%%IncludeResource: font Courier-BoldOblique
%%IncludeResource: font Courier-Bold
%%IncludeResource: font ZapfDingbats
%%IncludeResource: font Symbol
%%IncludeResource: font Helvetica
%%IncludeResource: font Helvetica-Oblique
%%IncludeResource: font Helvetica-Bold
%%IncludeResource: font Helvetica-BoldOblique
%%IncludeResource: font Times-Roman
%%IncludeResource: font Times-Italic
%%IncludeResource: font Times-Bold
%%IncludeResource: font Times-BoldItalic
%%IncludeResource: font Courier
%FOPEndFontDict
%%BeginResource: encoding WinAnsiEncoding
/WinAnsiEncoding [
/.notdef /.notdef /.notdef /.notdef /.notdef
/.notdef /.notdef /.notdef /.notdef /.notdef
/.notdef /.notdef /.notdef /.notdef /.notdef
/.notdef /.notdef /.notdef /.notdef /.notdef
/.notdef /.notdef /.notdef /.notdef /.notdef
/.notdef /.notdef /.notdef /.notdef /.notdef
/.notdef /.notdef /space /exclam /quotedbl
/numbersign /dollar /percent /ampersand /quotesingle
/parenleft /parenright /asterisk /plus /comma
/hyphen /period /slash /zero /one
/two /three /four /five /six
/seven /eight /nine /colon /semicolon
/less /equal /greater /question /at
/A /B /C /D /E
/F /G /H /I /J
/K /L /M /N /O
/P /Q /R /S /T
/U /V /W /X /Y
/Z /bracketleft /backslash /bracketright /asciicircum
/underscore /quoteleft /a /b /c
/d /e /f /g /h
/i /j /k /l /m
/n /o /p /q /r
/s /t /u /v /w
/x /y /z /braceleft /bar
/braceright /asciitilde /bullet /Euro /bullet
/quotesinglbase /florin /quotedblbase /ellipsis /dagger
/daggerdbl /circumflex /perthousand /Scaron /guilsinglleft
/OE /bullet /Zcaron /bullet /bullet
/quoteleft /quoteright /quotedblleft /quotedblright /bullet
/endash /emdash /asciitilde /trademark /scaron
/guilsinglright /oe /bullet /zcaron /Ydieresis
/space /exclamdown /cent /sterling /currency
/yen /brokenbar /section /dieresis /copyright
/ordfeminine /guillemotleft /logicalnot /sfthyphen /registered
/macron /degree /plusminus /twosuperior /threesuperior
/acute /mu /paragraph /middot /cedilla
/onesuperior /ordmasculine /guillemotright /onequarter /onehalf
/threequarters /questiondown /Agrave /Aacute /Acircumflex
/Atilde /Adieresis /Aring /AE /Ccedilla
/Egrave /Eacute /Ecircumflex /Edieresis /Igrave
/Iacute /Icircumflex /Idieresis /Eth /Ntilde
/Ograve /Oacute /Ocircumflex /Otilde /Odieresis
/multiply /Oslash /Ugrave /Uacute /Ucircumflex
/Udieresis /Yacute /Thorn /germandbls /agrave
/aacute /acircumflex /atilde /adieresis /aring
/ae /ccedilla /egrave /eacute /ecircumflex
/edieresis /igrave /iacute /icircumflex /idieresis
/eth /ntilde /ograve /oacute /ocircumflex
/otilde /odieresis /divide /oslash /ugrave
/uacute /ucircumflex /udieresis /yacute /thorn
/ydieresis
] def
%%EndResource
%FOPBeginFontReencode
/Courier-Oblique findfont
dup length dict begin
  {1 index /FID ne {def} {pop pop} ifelse} forall
  /Encoding WinAnsiEncoding def
  currentdict
end
/Courier-Oblique exch definefont pop
/Courier-BoldOblique findfont
dup length dict begin
  {1 index /FID ne {def} {pop pop} ifelse} forall
  /Encoding WinAnsiEncoding def
  currentdict
end
/Courier-BoldOblique exch definefont pop
/Courier-Bold findfont
dup length dict begin
  {1 index /FID ne {def} {pop pop} ifelse} forall
  /Encoding WinAnsiEncoding def
  currentdict
end
/Courier-Bold exch definefont pop
/Helvetica findfont
dup length dict begin
  {1 index /FID ne {def} {pop pop} ifelse} forall
  /Encoding WinAnsiEncoding def
  currentdict
end
/Helvetica exch definefont pop
/Helvetica-Oblique findfont
dup length dict begin
  {1 index /FID ne {def} {pop pop} ifelse} forall
  /Encoding WinAnsiEncoding def
  currentdict
end
/Helvetica-Oblique exch definefont pop
/Helvetica-Bold findfont
dup length dict begin
  {1 index /FID ne {def} {pop pop} ifelse} forall
  /Encoding WinAnsiEncoding def
  currentdict
end
/Helvetica-Bold exch definefont pop
/Helvetica-BoldOblique findfont
dup length dict begin
  {1 index /FID ne {def} {pop pop} ifelse} forall
  /Encoding WinAnsiEncoding def
  currentdict
end
/Helvetica-BoldOblique exch definefont pop
/Times-Roman findfont
dup length dict begin
  {1 index /FID ne {def} {pop pop} ifelse} forall
  /Encoding WinAnsiEncoding def
  currentdict
end
/Times-Roman exch definefont pop
/Times-Italic findfont
dup length dict begin
  {1 index /FID ne {def} {pop pop} ifelse} forall
  /Encoding WinAnsiEncoding def
  currentdict
end
/Times-Italic exch definefont pop
/Times-Bold findfont
dup length dict begin
  {1 index /FID ne {def} {pop pop} ifelse} forall
  /Encoding WinAnsiEncoding def
  currentdict
end
/Times-Bold exch definefont pop
/Times-BoldItalic findfont
dup length dict begin
  {1 index /FID ne {def} {pop pop} ifelse} forall
  /Encoding WinAnsiEncoding def
  currentdict
end
/Times-BoldItalic exch definefont pop
/Courier findfont
dup length dict begin
  {1 index /FID ne {def} {pop pop} ifelse} forall
  /Encoding WinAnsiEncoding def
  currentdict
end
/Courier exch definefont pop
%FOPEndFontReencode
%%EndProlog
%%Page: 1 1
%%PageBoundingBox: 0 0 560 420
%%BeginPageSetup
[1 0 0 -1 0 420] CT
%%EndPageSetup
GS
1 GC
N
0 0 560 420 re
f
GR
GS
1 GC
N
0 0 560 420 re
f
GR
GS
1 GC
N
134.25 343 M
445.75 343 L
445.75 31.5 L
134.25 31.5 L
cp
f
GR
GS
0.896 GC
1 LJ
N
134.25 343 M
134.25 31.5 L
S
GR
GS
0.896 GC
1 LJ
N
258.85 343 M
258.85 31.5 L
S
GR
GS
0.896 GC
1 LJ
N
383.45 343 M
383.45 31.5 L
S
GR
GS
0.896 GC
1 LJ
N
445.75 343 M
134.25 343 L
S
GR
GS
0.896 GC
1 LJ
N
445.75 254 M
134.25 254 L
S
GR
GS
0.896 GC
1 LJ
N
445.75 165 M
134.25 165 L
S
GR
GS
0.896 GC
1 LJ
N
445.75 76 M
134.25 76 L
S
GR
GS
0.302 GC
2 setlinecap
1 LJ
N
134.25 343 M
445.75 343 L
S
GR
GS
0.302 GC
2 setlinecap
1 LJ
N
134.25 343 M
134.25 349.23 L
S
GR
GS
0.302 GC
2 setlinecap
1 LJ
N
258.85 343 M
258.85 349.23 L
S
GR
GS
0.302 GC
2 setlinecap
1 LJ
N
383.45 343 M
383.45 349.23 L
S
GR
GS
0.302 GC
2 setlinecap
1 LJ
N
159.17 343 M
159.17 346.115 L
S
GR
GS
0.302 GC
2 setlinecap
1 LJ
N
184.09 343 M
184.09 346.115 L
S
GR
GS
0.302 GC
2 setlinecap
1 LJ
N
209.01 343 M
209.01 346.115 L
S
GR
GS
0.302 GC
2 setlinecap
1 LJ
N
233.93 343 M
233.93 346.115 L
S
GR
GS
0.302 GC
2 setlinecap
1 LJ
N
283.77 343 M
283.77 346.115 L
S
GR
GS
0.302 GC
2 setlinecap
1 LJ
N
308.69 343 M
308.69 346.115 L
S
GR
GS
0.302 GC
2 setlinecap
1 LJ
N
333.61 343 M
333.61 346.115 L
S
GR
GS
0.302 GC
2 setlinecap
1 LJ
N
358.53 343 M
358.53 346.115 L
S
GR
GS
0.302 GC
2 setlinecap
1 LJ
N
408.37 343 M
408.37 346.115 L
S
GR
GS
0.302 GC
2 setlinecap
1 LJ
N
433.29 343 M
433.29 346.115 L
S
GR
GS
[1 0 0 1 134.25 356.23001] CT
0.302 GC
/Helvetica 25 F
GS
[1 0 0 1 0 0] CT
-7 24 moveto 
1 -1 scale
(0) t 
GR
GR
GS
[1 0 0 1 258.85001 356.23001] CT
0.302 GC
/Helvetica 25 F
GS
[1 0 0 1 0 0] CT
-17.5 24 moveto 
1 -1 scale
(0.1) t 
GR
GR
GS
[1 0 0 1 383.45001 356.23001] CT
0.302 GC
/Helvetica 25 F
GS
[1 0 0 1 0 0] CT
-17.5 24 moveto 
1 -1 scale
(0.2) t 
GR
GR
GS
[1 0 0 1 290.00015 386.72998] CT
0.302 GC
/Helvetica 27.5 F
GS
[1 0 0 1 0 0] CT
-44.5 27 moveto 
1 -1 scale
(time \(s\)) t 
GR
GR
GS
0.302 GC
2 setlinecap
1 LJ
N
134.25 343 M
134.25 31.5 L
S
GR
GS
0.302 GC
2 setlinecap
1 LJ
N
134.25 343 M
128.02 343 L
S
GR
GS
0.302 GC
2 setlinecap
1 LJ
N
134.25 254 M
128.02 254 L
S
GR
GS
0.302 GC
2 setlinecap
1 LJ
N
134.25 165 M
128.02 165 L
S
GR
GS
0.302 GC
2 setlinecap
1 LJ
N
134.25 76 M
128.02 76 L
S
GR
GS
0.302 GC
2 setlinecap
1 LJ
N
134.25 320.75 M
131.135 320.75 L
S
GR
GS
0.302 GC
2 setlinecap
1 LJ
N
134.25 298.5 M
131.135 298.5 L
S
GR
GS
0.302 GC
2 setlinecap
1 LJ
N
134.25 276.25 M
131.135 276.25 L
S
GR
GS
0.302 GC
2 setlinecap
1 LJ
N
134.25 231.75 M
131.135 231.75 L
S
GR
GS
0.302 GC
2 setlinecap
1 LJ
N
134.25 209.5 M
131.135 209.5 L
S
GR
GS
0.302 GC
2 setlinecap
1 LJ
N
134.25 187.25 M
131.135 187.25 L
S
GR
GS
0.302 GC
2 setlinecap
1 LJ
N
134.25 142.75 M
131.135 142.75 L
S
GR
GS
0.302 GC
2 setlinecap
1 LJ
N
134.25 120.5 M
131.135 120.5 L
S
GR
GS
0.302 GC
2 setlinecap
1 LJ
N
134.25 98.25 M
131.135 98.25 L
S
GR
GS
0.302 GC
2 setlinecap
1 LJ
N
134.25 53.75 M
131.135 53.75 L
S
GR
GS
0.302 GC
2 setlinecap
1 LJ
N
134.25 31.5 M
131.135 31.5 L
S
GR
GS
[1 0 0 1 121.02 343] CT
0.302 GC
/Helvetica 25 F
GS
[1 0 0 1 0 0] CT
-52 9 moveto 
1 -1 scale
(-400) t 
GR
GR
GS
[1 0 0 1 121.02 254] CT
0.302 GC
/Helvetica 25 F
GS
[1 0 0 1 0 0] CT
-52 9 moveto 
1 -1 scale
(-200) t 
GR
GR
GS
[1 0 0 1 121.02 165] CT
0.302 GC
/Helvetica 25 F
GS
[1 0 0 1 0 0] CT
-14 9 moveto 
1 -1 scale
(0) t 
GR
GR
GS
[1 0 0 1 121.02 76] CT
0.302 GC
/Helvetica 25 F
GS
[1 0 0 1 0 0] CT
-42 9 moveto 
1 -1 scale
(200) t 
GR
GR
GS
[0 -1 1 0 66.52 187.24985] CT
0.302 GC
/Helvetica 27.5 F
GS
[1 0 0 1 0 0] CT
-167 -6 moveto 
1 -1 scale
(component velocity \(deg/s\)) t 
GR
GR
GS
1 LJ
2 LW
N
134.25 165 M
135.496 165.523 L
136.742 166.025 L
137.988 166.507 L
139.234 166.967 L
140.48 167.405 L
141.726 167.82 L
142.972 168.212 L
144.218 168.579 L
145.464 168.921 L
146.71 169.237 L
147.956 169.526 L
149.202 169.788 L
150.448 170.022 L
151.694 170.228 L
152.94 170.403 L
154.186 170.549 L
155.432 170.663 L
156.678 170.746 L
157.924 170.796 L
159.17 170.813 L
160.416 170.797 L
161.662 170.749 L
162.908 170.671 L
164.154 170.566 L
165.4 170.435 L
166.646 170.281 L
167.892 170.106 L
169.138 169.913 L
170.384 169.702 L
171.63 169.477 L
172.876 169.239 L
174.122 168.988 L
175.368 168.724 L
176.614 168.445 L
177.86 168.151 L
179.106 167.841 L
180.352 167.515 L
181.598 167.172 L
182.844 166.812 L
184.09 166.434 L
185.336 166.037 L
186.582 165.625 L
187.828 165.199 L
189.074 164.762 L
190.32 164.317 L
191.566 163.867 L
192.812 163.414 L
194.058 162.961 L
195.304 162.51 L
196.55 162.064 L
197.796 161.626 L
199.042 161.195 L
200.288 160.769 L
201.534 160.347 L
202.78 159.929 L
204.026 159.513 L
205.272 159.099 L
206.518 158.684 L
207.764 158.268 L
209.01 157.85 L
210.256 157.429 L
211.502 157.005 L
212.748 156.579 L
213.994 156.151 L
215.24 155.722 L
216.486 155.293 L
217.732 154.864 L
218.978 154.436 L
220.224 154.009 L
221.47 153.584 L
222.716 153.162 L
223.962 152.742 L
225.208 152.325 L
226.454 151.911 L
227.7 151.5 L
228.946 151.092 L
230.192 150.687 L
231.438 150.285 L
232.684 149.886 L
233.93 149.492 L
235.176 149.1 L
236.422 148.713 L
237.668 148.329 L
238.914 147.948 L
240.16 147.571 L
241.406 147.198 L
242.652 146.828 L
243.898 146.462 L
245.144 146.1 L
246.39 145.74 L
247.636 145.385 L
248.882 145.034 L
250.128 144.687 L
251.374 144.346 L
252.62 144.011 L
253.866 143.683 L
255.112 143.362 L
256.358 143.048 L
257.604 142.744 L
258.85 142.448 L
260.096 142.162 L
261.342 141.886 L
262.588 141.62 L
263.834 141.364 L
265.08 141.117 L
266.326 140.88 L
267.572 140.654 L
268.818 140.436 L
270.064 140.229 L
271.31 140.032 L
272.556 139.844 L
273.802 139.666 L
275.048 139.497 L
276.294 139.337 L
277.54 139.185 L
278.786 139.041 L
280.032 138.905 L
281.278 138.777 L
282.524 138.656 L
283.77 138.541 L
285.016 138.433 L
286.262 138.332 L
287.508 138.237 L
288.754 138.151 L
290 138.072 L
291.246 138.001 L
292.492 137.938 L
293.738 137.885 L
294.984 137.841 L
296.23 137.806 L
297.476 137.781 L
298.722 137.766 L
299.968 137.762 L
301.214 137.767 L
302.46 137.782 L
303.706 137.808 L
304.952 137.844 L
306.198 137.89 L
307.444 137.947 L
308.69 138.014 L
309.936 138.092 L
311.182 138.18 L
312.428 138.28 L
313.674 138.39 L
314.92 138.512 L
316.166 138.645 L
317.412 138.79 L
318.658 138.947 L
319.904 139.116 L
321.15 139.297 L
322.396 139.491 L
323.642 139.697 L
324.888 139.917 L
326.134 140.15 L
327.38 140.397 L
328.626 140.658 L
329.872 140.933 L
331.118 141.223 L
332.364 141.527 L
333.61 141.847 L
334.856 142.182 L
336.102 142.53 L
337.348 142.888 L
338.594 143.253 L
339.84 143.621 L
341.086 143.992 L
342.332 144.361 L
343.578 144.726 L
344.824 145.083 L
346.07 145.431 L
347.316 145.768 L
348.562 146.096 L
349.808 146.421 L
351.054 146.746 L
352.3 147.077 L
353.546 147.418 L
354.792 147.773 L
356.038 148.148 L
357.284 148.545 L
358.53 148.971 L
359.776 149.427 L
361.022 149.911 L
362.268 150.416 L
363.514 150.939 L
364.76 151.473 L
366.006 152.013 L
367.252 152.554 L
368.498 153.091 L
369.744 153.619 L
370.99 154.133 L
372.236 154.627 L
373.482 155.105 L
374.728 155.566 L
375.974 156.015 L
377.22 156.452 L
378.466 156.881 L
379.712 157.303 L
380.958 157.72 L
382.204 158.136 L
383.45 158.551 L
384.696 158.968 L
385.942 159.386 L
387.188 159.804 L
388.434 160.22 L
389.68 160.635 L
390.926 161.046 L
392.172 161.453 L
393.418 161.855 L
394.664 162.25 L
395.91 162.637 L
397.156 163.015 L
398.402 163.381 L
399.648 163.73 L
400.894 164.059 L
402.14 164.364 L
403.386 164.642 L
404.632 164.888 L
405.878 165.099 L
407.124 165.271 L
408.37 165.4 L
409.616 165.485 L
410.862 165.528 L
412.108 165.537 L
413.354 165.516 L
414.6 165.473 L
415.846 165.413 L
417.092 165.341 L
418.338 165.263 L
419.584 165.187 L
420.83 165.116 L
422.076 165.057 L
423.322 165.008 L
424.568 164.969 L
425.814 164.937 L
427.06 164.912 L
428.306 164.891 L
429.552 164.874 L
430.798 164.859 L
432.044 164.844 L
433.29 164.828 L
434.536 164.809 L
435.782 164.789 L
437.028 164.767 L
438.274 164.745 L
439.52 164.722 L
440.766 164.699 L
442.012 164.676 L
443.258 164.655 L
444.504 164.636 L
S
GR
GS
1 0 1 RC
1 LJ
1.5 LW
N
134.25 165 M
135.496 165.532 L
136.742 166.038 L
137.988 166.518 L
139.234 166.972 L
140.48 167.399 L
141.726 167.798 L
142.972 168.17 L
144.218 168.514 L
145.464 168.829 L
146.71 169.114 L
147.956 169.37 L
149.202 169.596 L
150.448 169.791 L
151.694 169.954 L
152.94 170.087 L
154.186 170.187 L
155.432 170.254 L
156.678 170.289 L
157.924 170.289 L
159.17 170.256 L
160.416 170.189 L
161.662 170.089 L
162.908 169.959 L
164.154 169.8 L
165.4 169.615 L
166.646 169.404 L
167.892 169.172 L
169.138 168.918 L
170.384 168.646 L
171.63 168.357 L
172.876 168.054 L
174.122 167.736 L
175.368 167.406 L
176.614 167.064 L
177.86 166.712 L
179.106 166.349 L
180.352 165.979 L
181.598 165.6 L
182.844 165.215 L
184.09 164.825 L
185.336 164.43 L
186.582 164.031 L
187.828 163.628 L
189.074 163.223 L
190.32 162.815 L
191.566 162.406 L
192.812 161.996 L
194.058 161.586 L
195.304 161.175 L
196.55 160.766 L
197.796 160.357 L
199.042 159.949 L
200.288 159.54 L
201.534 159.129 L
202.78 158.716 L
204.026 158.298 L
205.272 157.875 L
206.518 157.447 L
207.764 157.011 L
209.01 156.567 L
210.256 156.114 L
211.502 155.654 L
212.748 155.189 L
213.994 154.722 L
215.24 154.253 L
216.486 153.786 L
217.732 153.323 L
218.978 152.865 L
220.224 152.414 L
221.47 151.974 L
222.716 151.545 L
223.962 151.127 L
225.208 150.721 L
226.454 150.324 L
227.7 149.936 L
228.946 149.558 L
230.192 149.187 L
231.438 148.825 L
232.684 148.468 L
233.93 148.119 L
235.176 147.775 L
236.422 147.436 L
237.668 147.104 L
238.914 146.778 L
240.16 146.458 L
241.406 146.145 L
242.652 145.838 L
243.898 145.538 L
245.144 145.246 L
246.39 144.96 L
247.636 144.682 L
248.882 144.411 L
250.128 144.146 L
251.374 143.887 L
252.62 143.634 L
253.866 143.386 L
255.112 143.142 L
256.358 142.903 L
257.604 142.667 L
258.85 142.434 L
260.096 142.204 L
261.342 141.977 L
262.588 141.755 L
263.834 141.537 L
265.08 141.325 L
266.326 141.12 L
267.572 140.921 L
268.818 140.731 L
270.064 140.548 L
271.31 140.376 L
272.556 140.213 L
273.802 140.06 L
275.048 139.916 L
276.294 139.782 L
277.54 139.658 L
278.786 139.542 L
280.032 139.436 L
281.278 139.338 L
282.524 139.249 L
283.77 139.169 L
285.016 139.096 L
286.262 139.033 L
287.508 138.977 L
288.754 138.931 L
290 138.893 L
291.246 138.865 L
292.492 138.846 L
293.738 138.837 L
294.984 138.837 L
296.23 138.848 L
297.476 138.868 L
298.722 138.898 L
299.968 138.938 L
301.214 138.987 L
302.46 139.045 L
303.706 139.111 L
304.952 139.186 L
306.198 139.269 L
307.444 139.359 L
308.69 139.456 L
309.936 139.561 L
311.182 139.673 L
312.428 139.792 L
313.674 139.918 L
314.92 140.052 L
316.166 140.193 L
317.412 140.342 L
318.658 140.499 L
319.904 140.663 L
321.15 140.836 L
322.396 141.016 L
323.642 141.205 L
324.888 141.403 L
326.134 141.611 L
327.38 141.828 L
328.626 142.057 L
329.872 142.296 L
331.118 142.546 L
332.364 142.809 L
333.61 143.084 L
334.856 143.371 L
336.102 143.672 L
337.348 143.984 L
338.594 144.308 L
339.84 144.643 L
341.086 144.988 L
342.332 145.344 L
343.578 145.709 L
344.824 146.084 L
346.07 146.467 L
347.316 146.859 L
348.562 147.257 L
349.808 147.66 L
351.054 148.066 L
352.3 148.473 L
353.546 148.88 L
354.792 149.286 L
356.038 149.687 L
357.284 150.083 L
358.53 150.472 L
359.776 150.852 L
361.022 151.226 L
362.268 151.593 L
363.514 151.955 L
364.76 152.314 L
366.006 152.672 L
367.252 153.029 L
368.498 153.388 L
369.744 153.749 L
370.99 154.113 L
372.236 154.483 L
373.482 154.858 L
374.728 155.235 L
375.974 155.613 L
377.22 155.992 L
378.466 156.37 L
379.712 156.746 L
380.958 157.119 L
382.204 157.487 L
383.45 157.849 L
384.696 158.204 L
385.942 158.553 L
387.188 158.897 L
388.434 159.236 L
389.68 159.573 L
390.926 159.908 L
392.172 160.242 L
393.418 160.576 L
394.664 160.911 L
395.91 161.248 L
397.156 161.588 L
398.402 161.926 L
399.648 162.257 L
400.894 162.578 L
402.14 162.883 L
403.386 163.168 L
404.632 163.428 L
405.878 163.657 L
407.124 163.852 L
408.37 164.007 L
409.616 164.12 L
410.862 164.194 L
412.108 164.236 L
413.354 164.25 L
414.6 164.242 L
415.846 164.219 L
417.092 164.185 L
418.338 164.146 L
419.584 164.109 L
420.83 164.078 L
422.076 164.058 L
423.322 164.048 L
424.568 164.048 L
425.814 164.056 L
427.06 164.069 L
428.306 164.087 L
429.552 164.109 L
430.798 164.131 L
432.044 164.154 L
433.29 164.175 L
434.536 164.194 L
435.782 164.209 L
437.028 164.223 L
438.274 164.235 L
439.52 164.245 L
440.766 164.254 L
442.012 164.264 L
443.258 164.272 L
444.504 164.282 L
S
GR
GS
0 0 1 RC
1 LJ
1.5 LW
N
134.25 165 M
135.496 165.544 L
136.742 166.057 L
137.988 166.539 L
139.234 166.991 L
140.48 167.411 L
141.726 167.8 L
142.972 168.157 L
144.218 168.483 L
145.464 168.778 L
146.71 169.041 L
147.956 169.272 L
149.202 169.471 L
150.448 169.638 L
151.694 169.773 L
152.94 169.875 L
154.186 169.945 L
155.432 169.983 L
156.678 169.988 L
157.924 169.96 L
159.17 169.9 L
160.416 169.807 L
161.662 169.683 L
162.908 169.529 L
164.154 169.349 L
165.4 169.143 L
166.646 168.913 L
167.892 168.661 L
169.138 168.39 L
170.384 168.101 L
171.63 167.796 L
172.876 167.476 L
174.122 167.144 L
175.368 166.799 L
176.614 166.444 L
177.86 166.079 L
179.106 165.705 L
180.352 165.324 L
181.598 164.937 L
182.844 164.545 L
184.09 164.148 L
185.336 163.749 L
186.582 163.347 L
187.828 162.942 L
189.074 162.536 L
190.32 162.127 L
191.566 161.718 L
192.812 161.307 L
194.058 160.895 L
195.304 160.483 L
196.55 160.07 L
197.796 159.658 L
199.042 159.244 L
200.288 158.829 L
201.534 158.412 L
202.78 157.992 L
204.026 157.569 L
205.272 157.141 L
206.518 156.709 L
207.764 156.27 L
209.01 155.826 L
210.256 155.374 L
211.502 154.918 L
212.748 154.459 L
213.994 153.998 L
215.24 153.538 L
216.486 153.081 L
217.732 152.628 L
218.978 152.183 L
220.224 151.746 L
221.47 151.319 L
222.716 150.905 L
223.962 150.502 L
225.208 150.111 L
226.454 149.73 L
227.7 149.359 L
228.946 148.998 L
230.192 148.644 L
231.438 148.299 L
232.684 147.961 L
233.93 147.63 L
235.176 147.305 L
236.422 146.985 L
237.668 146.672 L
238.914 146.365 L
240.16 146.064 L
241.406 145.77 L
242.652 145.482 L
243.898 145.2 L
245.144 144.926 L
246.39 144.658 L
247.636 144.397 L
248.882 144.142 L
250.128 143.894 L
251.374 143.652 L
252.62 143.416 L
253.866 143.185 L
255.112 142.96 L
256.358 142.74 L
257.604 142.524 L
258.85 142.313 L
260.096 142.106 L
261.342 141.903 L
262.588 141.706 L
263.834 141.515 L
265.08 141.33 L
266.326 141.152 L
267.572 140.981 L
268.818 140.818 L
270.064 140.663 L
271.31 140.517 L
272.556 140.38 L
273.802 140.253 L
275.048 140.135 L
276.294 140.026 L
277.54 139.925 L
278.786 139.834 L
280.032 139.752 L
281.278 139.677 L
282.524 139.612 L
283.77 139.555 L
285.016 139.506 L
286.262 139.465 L
287.508 139.432 L
288.754 139.408 L
290 139.391 L
291.246 139.382 L
292.492 139.381 L
293.738 139.388 L
294.984 139.402 L
296.23 139.424 L
297.476 139.453 L
298.722 139.49 L
299.968 139.535 L
301.214 139.588 L
302.46 139.649 L
303.706 139.719 L
304.952 139.798 L
306.198 139.886 L
307.444 139.984 L
308.69 140.091 L
309.936 140.208 L
311.182 140.335 L
312.428 140.47 L
313.674 140.613 L
314.92 140.765 L
316.166 140.923 L
317.412 141.089 L
318.658 141.26 L
319.904 141.438 L
321.15 141.62 L
322.396 141.808 L
323.642 142 L
324.888 142.196 L
326.134 142.397 L
327.38 142.603 L
328.626 142.813 L
329.872 143.027 L
331.118 143.246 L
332.364 143.468 L
333.61 143.695 L
334.856 143.926 L
336.102 144.163 L
337.348 144.407 L
338.594 144.658 L
339.84 144.919 L
341.086 145.19 L
342.332 145.473 L
343.578 145.77 L
344.824 146.081 L
346.07 146.408 L
347.316 146.751 L
348.562 147.108 L
349.808 147.477 L
351.054 147.854 L
352.3 148.237 L
353.546 148.621 L
354.792 149.006 L
356.038 149.386 L
357.284 149.76 L
358.53 150.125 L
359.776 150.478 L
361.022 150.821 L
362.268 151.155 L
363.514 151.481 L
364.76 151.802 L
366.006 152.12 L
367.252 152.435 L
368.498 152.751 L
369.744 153.068 L
370.99 153.388 L
372.236 153.713 L
373.482 154.042 L
374.728 154.374 L
375.974 154.707 L
377.22 155.041 L
378.466 155.375 L
379.712 155.707 L
380.958 156.037 L
382.204 156.363 L
383.45 156.684 L
384.696 156.999 L
385.942 157.308 L
387.188 157.611 L
388.434 157.909 L
389.68 158.2 L
390.926 158.486 L
392.172 158.765 L
393.418 159.039 L
394.664 159.307 L
395.91 159.569 L
397.156 159.824 L
398.402 160.073 L
399.648 160.315 L
400.894 160.548 L
402.14 160.773 L
403.386 160.987 L
404.632 161.191 L
405.878 161.384 L
407.124 161.564 L
408.37 161.732 L
409.616 161.887 L
410.862 162.028 L
412.108 162.158 L
413.354 162.277 L
414.6 162.386 L
415.846 162.486 L
417.092 162.578 L
418.338 162.663 L
419.584 162.741 L
420.83 162.814 L
422.076 162.883 L
423.322 162.947 L
424.568 163.008 L
425.814 163.065 L
427.06 163.119 L
428.306 163.171 L
429.552 163.22 L
430.798 163.267 L
432.044 163.312 L
433.29 163.356 L
434.536 163.399 L
435.782 163.441 L
437.028 163.483 L
438.274 163.524 L
439.52 163.566 L
440.766 163.607 L
442.012 163.65 L
443.258 163.692 L
444.504 163.736 L
S
GR
GS
0 1 0 RC
1 LJ
1.5 LW
N
134.25 165 M
135.496 165.528 L
136.742 166.024 L
137.988 166.489 L
139.234 166.922 L
140.48 167.323 L
141.726 167.691 L
142.972 168.026 L
144.218 168.329 L
145.464 168.598 L
146.71 168.834 L
147.956 169.037 L
149.202 169.205 L
150.448 169.34 L
151.694 169.44 L
152.94 169.506 L
154.186 169.537 L
155.432 169.533 L
156.678 169.494 L
157.924 169.419 L
159.17 169.309 L
160.416 169.163 L
161.662 168.985 L
162.908 168.776 L
164.154 168.541 L
165.4 168.282 L
166.646 168.002 L
167.892 167.704 L
169.138 167.391 L
170.384 167.067 L
171.63 166.734 L
172.876 166.394 L
174.122 166.048 L
175.368 165.696 L
176.614 165.339 L
177.86 164.974 L
179.106 164.604 L
180.352 164.227 L
181.598 163.843 L
182.844 163.453 L
184.09 163.055 L
185.336 162.651 L
186.582 162.24 L
187.828 161.822 L
189.074 161.397 L
190.32 160.965 L
191.566 160.527 L
192.812 160.081 L
194.058 159.629 L
195.304 159.171 L
196.55 158.706 L
197.796 158.234 L
199.042 157.758 L
200.288 157.279 L
201.534 156.8 L
202.78 156.321 L
204.026 155.846 L
205.272 155.376 L
206.518 154.912 L
207.764 154.458 L
209.01 154.015 L
210.256 153.583 L
211.502 153.164 L
212.748 152.755 L
213.994 152.354 L
215.24 151.962 L
216.486 151.577 L
217.732 151.197 L
218.978 150.821 L
220.224 150.449 L
221.47 150.078 L
222.716 149.708 L
223.962 149.34 L
225.208 148.976 L
226.454 148.617 L
227.7 148.263 L
228.946 147.917 L
230.192 147.58 L
231.438 147.253 L
232.684 146.938 L
233.93 146.636 L
235.176 146.348 L
236.422 146.073 L
237.668 145.808 L
238.914 145.553 L
240.16 145.306 L
241.406 145.065 L
242.652 144.829 L
243.898 144.595 L
245.144 144.363 L
246.39 144.13 L
247.636 143.896 L
248.882 143.661 L
250.128 143.427 L
251.374 143.195 L
252.62 142.966 L
253.866 142.742 L
255.112 142.524 L
256.358 142.313 L
257.604 142.111 L
258.85 141.92 L
260.096 141.74 L
261.342 141.571 L
262.588 141.412 L
263.834 141.264 L
265.08 141.126 L
266.326 140.997 L
267.572 140.876 L
268.818 140.765 L
270.064 140.661 L
271.31 140.565 L
272.556 140.476 L
273.802 140.395 L
275.048 140.32 L
276.294 140.253 L
277.54 140.193 L
278.786 140.141 L
280.032 140.096 L
281.278 140.058 L
282.524 140.028 L
283.77 140.006 L
285.016 139.991 L
286.262 139.984 L
287.508 139.984 L
288.754 139.992 L
290 140.008 L
291.246 140.031 L
292.492 140.063 L
293.738 140.101 L
294.984 140.148 L
296.23 140.202 L
297.476 140.264 L
298.722 140.333 L
299.968 140.408 L
301.214 140.488 L
302.46 140.574 L
303.706 140.663 L
304.952 140.756 L
306.198 140.851 L
307.444 140.948 L
308.69 141.046 L
309.936 141.145 L
311.182 141.246 L
312.428 141.352 L
313.674 141.463 L
314.92 141.583 L
316.166 141.713 L
317.412 141.856 L
318.658 142.012 L
319.904 142.185 L
321.15 142.375 L
322.396 142.585 L
323.642 142.811 L
324.888 143.049 L
326.134 143.297 L
327.38 143.549 L
328.626 143.803 L
329.872 144.055 L
331.118 144.301 L
332.364 144.537 L
333.61 144.76 L
334.856 144.968 L
336.102 145.163 L
337.348 145.35 L
338.594 145.535 L
339.84 145.722 L
341.086 145.916 L
342.332 146.122 L
343.578 146.345 L
344.824 146.589 L
346.07 146.859 L
347.316 147.159 L
348.562 147.483 L
349.808 147.826 L
351.054 148.182 L
352.3 148.544 L
353.546 148.906 L
354.792 149.262 L
356.038 149.606 L
357.284 149.931 L
358.53 150.233 L
359.776 150.505 L
361.022 150.752 L
362.268 150.979 L
363.514 151.191 L
364.76 151.393 L
366.006 151.591 L
367.252 151.791 L
368.498 151.996 L
369.744 152.213 L
370.99 152.447 L
372.236 152.701 L
373.482 152.974 L
374.728 153.262 L
375.974 153.561 L
377.22 153.867 L
378.466 154.178 L
379.712 154.488 L
380.958 154.796 L
382.204 155.096 L
383.45 155.385 L
384.696 155.661 L
385.942 155.924 L
387.188 156.175 L
388.434 156.416 L
389.68 156.648 L
390.926 156.873 L
392.172 157.091 L
393.418 157.304 L
394.664 157.513 L
395.91 157.72 L
397.156 157.926 L
398.402 158.13 L
399.648 158.332 L
400.894 158.531 L
402.14 158.727 L
403.386 158.919 L
404.632 159.106 L
405.878 159.288 L
407.124 159.464 L
408.37 159.633 L
409.616 159.796 L
410.862 159.952 L
412.108 160.102 L
413.354 160.247 L
414.6 160.387 L
415.846 160.522 L
417.092 160.653 L
418.338 160.781 L
419.584 160.906 L
420.83 161.029 L
422.076 161.15 L
423.322 161.27 L
424.568 161.387 L
425.814 161.503 L
427.06 161.617 L
428.306 161.729 L
429.552 161.839 L
430.798 161.947 L
432.044 162.053 L
433.29 162.157 L
434.536 162.259 L
435.782 162.359 L
437.028 162.457 L
438.274 162.554 L
439.52 162.648 L
440.766 162.74 L
442.012 162.831 L
443.258 162.919 L
444.504 163.006 L
S
GR
GS
1 0 0 RC
1 LJ
1.5 LW
N
134.25 165 M
135.496 165.525 L
136.742 166.013 L
137.988 166.463 L
139.234 166.877 L
140.48 167.255 L
141.726 167.596 L
142.972 167.901 L
144.218 168.17 L
145.464 168.403 L
146.71 168.601 L
147.956 168.764 L
149.202 168.892 L
150.448 168.985 L
151.694 169.044 L
152.94 169.068 L
154.186 169.058 L
155.432 169.014 L
156.678 168.936 L
157.924 168.825 L
159.17 168.681 L
160.416 168.504 L
161.662 168.297 L
162.908 168.062 L
164.154 167.803 L
165.4 167.521 L
166.646 167.22 L
167.892 166.903 L
169.138 166.571 L
170.384 166.229 L
171.63 165.878 L
172.876 165.521 L
174.122 165.157 L
175.368 164.786 L
176.614 164.406 L
177.86 164.016 L
179.106 163.616 L
180.352 163.203 L
181.598 162.778 L
182.844 162.339 L
184.09 161.885 L
185.336 161.415 L
186.582 160.933 L
187.828 160.44 L
189.074 159.941 L
190.32 159.437 L
191.566 158.932 L
192.812 158.428 L
194.058 157.929 L
195.304 157.438 L
196.55 156.956 L
197.796 156.488 L
199.042 156.031 L
200.288 155.585 L
201.534 155.147 L
202.78 154.717 L
204.026 154.294 L
205.272 153.874 L
206.518 153.459 L
207.764 153.044 L
209.01 152.63 L
210.256 152.216 L
211.502 151.801 L
212.748 151.388 L
213.994 150.978 L
215.24 150.572 L
216.486 150.172 L
217.732 149.779 L
218.978 149.394 L
220.224 149.019 L
221.47 148.655 L
222.716 148.302 L
223.962 147.962 L
225.208 147.633 L
226.454 147.314 L
227.7 147.005 L
228.946 146.705 L
230.192 146.414 L
231.438 146.131 L
232.684 145.855 L
233.93 145.585 L
235.176 145.322 L
236.422 145.065 L
237.668 144.814 L
238.914 144.568 L
240.16 144.329 L
241.406 144.095 L
242.652 143.866 L
243.898 143.643 L
245.144 143.426 L
246.39 143.213 L
247.636 143.006 L
248.882 142.805 L
250.128 142.61 L
251.374 142.421 L
252.62 142.239 L
253.866 142.064 L
255.112 141.897 L
256.358 141.738 L
257.604 141.588 L
258.85 141.446 L
260.096 141.314 L
261.342 141.191 L
262.588 141.077 L
263.834 140.972 L
265.08 140.875 L
266.326 140.787 L
267.572 140.707 L
268.818 140.636 L
270.064 140.573 L
271.31 140.517 L
272.556 140.47 L
273.802 140.43 L
275.048 140.397 L
276.294 140.371 L
277.54 140.352 L
278.786 140.339 L
280.032 140.333 L
281.278 140.333 L
282.524 140.338 L
283.77 140.349 L
285.016 140.365 L
286.262 140.386 L
287.508 140.413 L
288.754 140.445 L
290 140.483 L
291.246 140.526 L
292.492 140.575 L
293.738 140.629 L
294.984 140.689 L
296.23 140.755 L
297.476 140.827 L
298.722 140.905 L
299.968 140.99 L
301.214 141.082 L
302.46 141.182 L
303.706 141.29 L
304.952 141.406 L
306.198 141.531 L
307.444 141.666 L
308.69 141.811 L
309.936 141.965 L
311.182 142.128 L
312.428 142.298 L
313.674 142.472 L
314.92 142.649 L
316.166 142.827 L
317.412 143.004 L
318.658 143.179 L
319.904 143.349 L
321.15 143.512 L
322.396 143.668 L
323.642 143.818 L
324.888 143.965 L
326.134 144.112 L
327.38 144.261 L
328.626 144.414 L
329.872 144.575 L
331.118 144.747 L
332.364 144.93 L
333.61 145.13 L
334.856 145.346 L
336.102 145.577 L
337.348 145.821 L
338.594 146.074 L
339.84 146.333 L
341.086 146.595 L
342.332 146.858 L
343.578 147.119 L
344.824 147.375 L
346.07 147.622 L
347.316 147.859 L
348.562 148.087 L
349.808 148.306 L
351.054 148.519 L
352.3 148.728 L
353.546 148.932 L
354.792 149.135 L
356.038 149.338 L
357.284 149.542 L
358.53 149.749 L
359.776 149.96 L
361.022 150.174 L
362.268 150.391 L
363.514 150.611 L
364.76 150.831 L
366.006 151.052 L
367.252 151.273 L
368.498 151.492 L
369.744 151.71 L
370.99 151.926 L
372.236 152.138 L
373.482 152.347 L
374.728 152.554 L
375.974 152.758 L
377.22 152.961 L
378.466 153.163 L
379.712 153.364 L
380.958 153.564 L
382.204 153.765 L
383.45 153.966 L
384.696 154.168 L
385.942 154.37 L
387.188 154.57 L
388.434 154.769 L
389.68 154.964 L
390.926 155.155 L
392.172 155.341 L
393.418 155.52 L
394.664 155.693 L
395.91 155.856 L
397.156 156.012 L
398.402 156.159 L
399.648 156.302 L
400.894 156.441 L
402.14 156.58 L
403.386 156.719 L
404.632 156.861 L
405.878 157.008 L
407.124 157.163 L
408.37 157.326 L
409.616 157.5 L
410.862 157.683 L
412.108 157.874 L
413.354 158.071 L
414.6 158.271 L
415.846 158.474 L
417.092 158.676 L
418.338 158.877 L
419.584 159.075 L
420.83 159.267 L
422.076 159.452 L
423.322 159.631 L
424.568 159.804 L
425.814 159.972 L
427.06 160.136 L
428.306 160.297 L
429.552 160.455 L
430.798 160.611 L
432.044 160.765 L
433.29 160.919 L
434.536 161.073 L
435.782 161.227 L
437.028 161.379 L
438.274 161.531 L
439.52 161.68 L
440.766 161.827 L
442.012 161.971 L
443.258 162.112 L
444.504 162.248 L
S
GR
GS
0 1 1 RC
1 LJ
1.5 LW
N
134.25 165 M
135.496 165.514 L
136.742 165.989 L
137.988 166.426 L
139.234 166.824 L
140.48 167.185 L
141.726 167.507 L
142.972 167.793 L
144.218 168.041 L
145.464 168.253 L
146.71 168.429 L
147.956 168.569 L
149.202 168.673 L
150.448 168.742 L
151.694 168.776 L
152.94 168.775 L
154.186 168.74 L
155.432 168.671 L
156.678 168.569 L
157.924 168.434 L
159.17 168.265 L
160.416 168.064 L
161.662 167.833 L
162.908 167.573 L
164.154 167.287 L
165.4 166.977 L
166.646 166.644 L
167.892 166.29 L
169.138 165.918 L
170.384 165.53 L
171.63 165.128 L
172.876 164.713 L
174.122 164.288 L
175.368 163.853 L
176.614 163.41 L
177.86 162.962 L
179.106 162.509 L
180.352 162.052 L
181.598 161.594 L
182.844 161.136 L
184.09 160.68 L
185.336 160.226 L
186.582 159.775 L
187.828 159.325 L
189.074 158.878 L
190.32 158.431 L
191.566 157.985 L
192.812 157.539 L
194.058 157.092 L
195.304 156.644 L
196.55 156.195 L
197.796 155.745 L
199.042 155.294 L
200.288 154.843 L
201.534 154.394 L
202.78 153.948 L
204.026 153.507 L
205.272 153.071 L
206.518 152.643 L
207.764 152.222 L
209.01 151.811 L
210.256 151.41 L
211.502 151.019 L
212.748 150.636 L
213.994 150.26 L
215.24 149.891 L
216.486 149.527 L
217.732 149.166 L
218.978 148.808 L
220.224 148.452 L
221.47 148.097 L
222.716 147.741 L
223.962 147.386 L
225.208 147.034 L
226.454 146.686 L
227.7 146.345 L
228.946 146.01 L
230.192 145.686 L
231.438 145.372 L
232.684 145.07 L
233.93 144.783 L
235.176 144.511 L
236.422 144.254 L
237.668 144.011 L
238.914 143.78 L
240.16 143.561 L
241.406 143.351 L
242.652 143.151 L
243.898 142.959 L
245.144 142.773 L
246.39 142.593 L
247.636 142.418 L
248.882 142.248 L
250.128 142.083 L
251.374 141.925 L
252.62 141.772 L
253.866 141.627 L
255.112 141.489 L
256.358 141.359 L
257.604 141.237 L
258.85 141.125 L
260.096 141.021 L
261.342 140.927 L
262.588 140.841 L
263.834 140.764 L
265.08 140.694 L
266.326 140.633 L
267.572 140.579 L
268.818 140.532 L
270.064 140.492 L
271.31 140.458 L
272.556 140.431 L
273.802 140.41 L
275.048 140.395 L
276.294 140.385 L
277.54 140.381 L
278.786 140.382 L
280.032 140.388 L
281.278 140.4 L
282.524 140.416 L
283.77 140.437 L
285.016 140.463 L
286.262 140.494 L
287.508 140.529 L
288.754 140.569 L
290 140.615 L
291.246 140.666 L
292.492 140.723 L
293.738 140.785 L
294.984 140.853 L
296.23 140.927 L
297.476 141.008 L
298.722 141.095 L
299.968 141.189 L
301.214 141.29 L
302.46 141.399 L
303.706 141.515 L
304.952 141.639 L
306.198 141.772 L
307.444 141.914 L
308.69 142.064 L
309.936 142.223 L
311.182 142.39 L
312.428 142.561 L
313.674 142.735 L
314.92 142.909 L
316.166 143.082 L
317.412 143.251 L
318.658 143.414 L
319.904 143.569 L
321.15 143.713 L
322.396 143.846 L
323.642 143.969 L
324.888 144.087 L
326.134 144.202 L
327.38 144.318 L
328.626 144.438 L
329.872 144.565 L
331.118 144.703 L
332.364 144.856 L
333.61 145.026 L
334.856 145.216 L
336.102 145.423 L
337.348 145.645 L
338.594 145.876 L
339.84 146.115 L
341.086 146.357 L
342.332 146.599 L
343.578 146.838 L
344.824 147.07 L
346.07 147.291 L
347.316 147.499 L
348.562 147.695 L
349.808 147.88 L
351.054 148.056 L
352.3 148.225 L
353.546 148.388 L
354.792 148.546 L
356.038 148.702 L
357.284 148.857 L
358.53 149.013 L
359.776 149.171 L
361.022 149.331 L
362.268 149.492 L
363.514 149.656 L
364.76 149.82 L
366.006 149.986 L
367.252 150.153 L
368.498 150.32 L
369.744 150.488 L
370.99 150.656 L
372.236 150.824 L
373.482 150.991 L
374.728 151.156 L
375.974 151.32 L
377.22 151.481 L
378.466 151.639 L
379.712 151.793 L
380.958 151.942 L
382.204 152.086 L
383.45 152.224 L
384.696 152.356 L
385.942 152.482 L
387.188 152.605 L
388.434 152.725 L
389.68 152.843 L
390.926 152.961 L
392.172 153.08 L
393.418 153.201 L
394.664 153.325 L
395.91 153.455 L
397.156 153.59 L
398.402 153.732 L
399.648 153.88 L
400.894 154.034 L
402.14 154.195 L
403.386 154.363 L
404.632 154.539 L
405.878 154.721 L
407.124 154.911 L
408.37 155.108 L
409.616 155.314 L
410.862 155.527 L
412.108 155.748 L
413.354 155.977 L
414.6 156.215 L
415.846 156.46 L
417.092 156.715 L
418.338 156.978 L
419.584 157.249 L
420.83 157.529 L
422.076 157.818 L
423.322 158.111 L
424.568 158.406 L
425.814 158.699 L
427.06 158.985 L
428.306 159.261 L
429.552 159.524 L
430.798 159.769 L
432.044 159.993 L
433.29 160.191 L
434.536 160.363 L
435.782 160.51 L
437.028 160.639 L
438.274 160.755 L
439.52 160.861 L
440.766 160.965 L
442.012 161.07 L
443.258 161.181 L
444.504 161.305 L
S
GR
GS
1 1 0 RC
1 LJ
1.5 LW
N
134.25 165 M
135.496 165.558 L
136.742 166.06 L
137.988 166.508 L
139.234 166.905 L
140.48 167.251 L
141.726 167.549 L
142.972 167.8 L
144.218 168.005 L
145.464 168.168 L
146.71 168.289 L
147.956 168.37 L
149.202 168.413 L
150.448 168.42 L
151.694 168.393 L
152.94 168.332 L
154.186 168.241 L
155.432 168.12 L
156.678 167.972 L
157.924 167.798 L
159.17 167.6 L
160.416 167.379 L
161.662 167.136 L
162.908 166.872 L
164.154 166.585 L
165.4 166.277 L
166.646 165.948 L
167.892 165.597 L
169.138 165.226 L
170.384 164.833 L
171.63 164.42 L
172.876 163.986 L
174.122 163.535 L
175.368 163.068 L
176.614 162.588 L
177.86 162.099 L
179.106 161.601 L
180.352 161.099 L
181.598 160.595 L
182.844 160.09 L
184.09 159.589 L
185.336 159.092 L
186.582 158.6 L
187.828 158.113 L
189.074 157.63 L
190.32 157.15 L
191.566 156.674 L
192.812 156.2 L
194.058 155.728 L
195.304 155.258 L
196.55 154.789 L
197.796 154.321 L
199.042 153.855 L
200.288 153.391 L
201.534 152.93 L
202.78 152.473 L
204.026 152.021 L
205.272 151.575 L
206.518 151.134 L
207.764 150.701 L
209.01 150.276 L
210.256 149.86 L
211.502 149.452 L
212.748 149.054 L
213.994 148.666 L
215.24 148.288 L
216.486 147.921 L
217.732 147.564 L
218.978 147.218 L
220.224 146.883 L
221.47 146.561 L
222.716 146.25 L
223.962 145.95 L
225.208 145.661 L
226.454 145.382 L
227.7 145.111 L
228.946 144.848 L
230.192 144.592 L
231.438 144.342 L
232.684 144.097 L
233.93 143.857 L
235.176 143.621 L
236.422 143.389 L
237.668 143.162 L
238.914 142.941 L
240.16 142.726 L
241.406 142.518 L
242.652 142.319 L
243.898 142.128 L
245.144 141.946 L
246.39 141.774 L
247.636 141.613 L
248.882 141.462 L
250.128 141.322 L
251.374 141.191 L
252.62 141.069 L
253.866 140.957 L
255.112 140.854 L
256.358 140.759 L
257.604 140.672 L
258.85 140.593 L
260.096 140.522 L
261.342 140.458 L
262.588 140.402 L
263.834 140.353 L
265.08 140.312 L
266.326 140.279 L
267.572 140.253 L
268.818 140.235 L
270.064 140.224 L
271.31 140.222 L
272.556 140.226 L
273.802 140.238 L
275.048 140.256 L
276.294 140.28 L
277.54 140.309 L
278.786 140.341 L
280.032 140.378 L
281.278 140.417 L
282.524 140.459 L
283.77 140.502 L
285.016 140.546 L
286.262 140.592 L
287.508 140.642 L
288.754 140.697 L
290 140.757 L
291.246 140.825 L
292.492 140.902 L
293.738 140.988 L
294.984 141.086 L
296.23 141.196 L
297.476 141.32 L
298.722 141.455 L
299.968 141.599 L
301.214 141.75 L
302.46 141.906 L
303.706 142.065 L
304.952 142.223 L
306.198 142.379 L
307.444 142.531 L
308.69 142.676 L
309.936 142.812 L
311.182 142.942 L
312.428 143.067 L
313.674 143.19 L
314.92 143.313 L
316.166 143.438 L
317.412 143.568 L
318.658 143.704 L
319.904 143.85 L
321.15 144.007 L
322.396 144.177 L
323.642 144.358 L
324.888 144.547 L
326.134 144.742 L
327.38 144.939 L
328.626 145.137 L
329.872 145.333 L
331.118 145.524 L
332.364 145.707 L
333.61 145.88 L
334.856 146.041 L
336.102 146.191 L
337.348 146.333 L
338.594 146.469 L
339.84 146.601 L
341.086 146.732 L
342.332 146.863 L
343.578 146.998 L
344.824 147.139 L
346.07 147.287 L
347.316 147.445 L
348.562 147.61 L
349.808 147.779 L
351.054 147.95 L
352.3 148.118 L
353.546 148.282 L
354.792 148.439 L
356.038 148.585 L
357.284 148.717 L
358.53 148.833 L
359.776 148.93 L
361.022 149.011 L
362.268 149.08 L
363.514 149.139 L
364.76 149.192 L
366.006 149.243 L
367.252 149.294 L
368.498 149.35 L
369.744 149.413 L
370.99 149.488 L
372.236 149.576 L
373.482 149.676 L
374.728 149.786 L
375.974 149.903 L
377.22 150.026 L
378.466 150.151 L
379.712 150.277 L
380.958 150.401 L
382.204 150.521 L
383.45 150.635 L
384.696 150.74 L
385.942 150.839 L
387.188 150.931 L
388.434 151.019 L
389.68 151.105 L
390.926 151.189 L
392.172 151.273 L
393.418 151.358 L
394.664 151.447 L
395.91 151.539 L
397.156 151.638 L
398.402 151.744 L
399.648 151.859 L
400.894 151.984 L
402.14 152.12 L
403.386 152.268 L
404.632 152.431 L
405.878 152.609 L
407.124 152.804 L
408.37 153.016 L
409.616 153.248 L
410.862 153.498 L
412.108 153.765 L
413.354 154.047 L
414.6 154.343 L
415.846 154.651 L
417.092 154.972 L
418.338 155.302 L
419.584 155.64 L
420.83 155.987 L
422.076 156.338 L
423.322 156.693 L
424.568 157.047 L
425.814 157.397 L
427.06 157.741 L
428.306 158.074 L
429.552 158.394 L
430.798 158.698 L
432.044 158.981 L
433.29 159.242 L
434.536 159.478 L
435.782 159.692 L
437.028 159.888 L
438.274 160.069 L
439.52 160.24 L
440.766 160.405 L
442.012 160.568 L
443.258 160.733 L
444.504 160.903 L
S
GR
GS
1 0 1 RC
1 LJ
1.5 LW
N
134.25 165 M
135.496 164.133 L
136.742 163.29 L
137.988 162.472 L
139.234 161.678 L
140.48 160.91 L
141.726 160.169 L
142.972 159.456 L
144.218 158.772 L
145.464 158.117 L
146.71 157.492 L
147.956 156.898 L
149.202 156.336 L
150.448 155.807 L
151.694 155.312 L
152.94 154.851 L
154.186 154.426 L
155.432 154.037 L
156.678 153.685 L
157.924 153.371 L
159.17 153.096 L
160.416 152.86 L
161.662 152.661 L
162.908 152.499 L
164.154 152.371 L
165.4 152.276 L
166.646 152.211 L
167.892 152.176 L
169.138 152.167 L
170.384 152.184 L
171.63 152.224 L
172.876 152.286 L
174.122 152.368 L
175.368 152.47 L
176.614 152.589 L
177.86 152.725 L
179.106 152.875 L
180.352 153.039 L
181.598 153.215 L
182.844 153.403 L
184.09 153.6 L
185.336 153.805 L
186.582 154.017 L
187.828 154.237 L
189.074 154.463 L
190.32 154.694 L
191.566 154.931 L
192.812 155.171 L
194.058 155.415 L
195.304 155.662 L
196.55 155.911 L
197.796 156.162 L
199.042 156.415 L
200.288 156.671 L
201.534 156.93 L
202.78 157.194 L
204.026 157.463 L
205.272 157.738 L
206.518 158.019 L
207.764 158.307 L
209.01 158.603 L
210.256 158.906 L
211.502 159.217 L
212.748 159.533 L
213.994 159.852 L
215.24 160.174 L
216.486 160.495 L
217.732 160.816 L
218.978 161.133 L
220.224 161.445 L
221.47 161.752 L
222.716 162.051 L
223.962 162.342 L
225.208 162.626 L
226.454 162.904 L
227.7 163.175 L
228.946 163.441 L
230.192 163.7 L
231.438 163.955 L
232.684 164.204 L
233.93 164.449 L
235.176 164.691 L
236.422 164.927 L
237.668 165.16 L
238.914 165.389 L
240.16 165.614 L
241.406 165.834 L
242.652 166.05 L
243.898 166.262 L
245.144 166.469 L
246.39 166.673 L
247.636 166.872 L
248.882 167.067 L
250.128 167.258 L
251.374 167.446 L
252.62 167.631 L
253.866 167.813 L
255.112 167.993 L
256.358 168.171 L
257.604 168.348 L
258.85 168.523 L
260.096 168.697 L
261.342 168.869 L
262.588 169.039 L
263.834 169.207 L
265.08 169.372 L
266.326 169.533 L
267.572 169.69 L
268.818 169.843 L
270.064 169.991 L
271.31 170.133 L
272.556 170.269 L
273.802 170.399 L
275.048 170.524 L
276.294 170.644 L
277.54 170.758 L
278.786 170.866 L
280.032 170.97 L
281.278 171.07 L
282.524 171.164 L
283.77 171.254 L
285.016 171.34 L
286.262 171.422 L
287.508 171.499 L
288.754 171.572 L
290 171.641 L
291.246 171.705 L
292.492 171.765 L
293.738 171.821 L
294.984 171.872 L
296.23 171.919 L
297.476 171.962 L
298.722 172 L
299.968 172.034 L
301.214 172.063 L
302.46 172.089 L
303.706 172.11 L
304.952 172.127 L
306.198 172.14 L
307.444 172.149 L
308.69 172.154 L
309.936 172.155 L
311.182 172.152 L
312.428 172.146 L
313.674 172.136 L
314.92 172.122 L
316.166 172.105 L
317.412 172.084 L
318.658 172.061 L
319.904 172.034 L
321.15 172.003 L
322.396 171.97 L
323.642 171.934 L
324.888 171.894 L
326.134 171.851 L
327.38 171.804 L
328.626 171.753 L
329.872 171.699 L
331.118 171.64 L
332.364 171.577 L
333.61 171.51 L
334.856 171.439 L
336.102 171.363 L
337.348 171.283 L
338.594 171.199 L
339.84 171.11 L
341.086 171.016 L
342.332 170.918 L
343.578 170.816 L
344.824 170.71 L
346.07 170.599 L
347.316 170.484 L
348.562 170.365 L
349.808 170.243 L
351.054 170.118 L
352.3 169.991 L
353.546 169.862 L
354.792 169.731 L
356.038 169.6 L
357.284 169.468 L
358.53 169.336 L
359.776 169.205 L
361.022 169.074 L
362.268 168.943 L
363.514 168.811 L
364.76 168.677 L
366.006 168.542 L
367.252 168.405 L
368.498 168.265 L
369.744 168.122 L
370.99 167.975 L
372.236 167.825 L
373.482 167.67 L
374.728 167.513 L
375.974 167.352 L
377.22 167.189 L
378.466 167.024 L
379.712 166.856 L
380.958 166.688 L
382.204 166.518 L
383.45 166.348 L
384.696 166.177 L
385.942 166.004 L
387.188 165.829 L
388.434 165.65 L
389.68 165.465 L
390.926 165.273 L
392.172 165.073 L
393.418 164.864 L
394.664 164.645 L
395.91 164.413 L
397.156 164.17 L
398.402 163.915 L
399.648 163.652 L
400.894 163.383 L
402.14 163.109 L
403.386 162.835 L
404.632 162.561 L
405.878 162.291 L
407.124 162.026 L
408.37 161.769 L
409.616 161.522 L
410.862 161.284 L
412.108 161.054 L
413.354 160.831 L
414.6 160.615 L
415.846 160.404 L
417.092 160.197 L
418.338 159.993 L
419.584 159.792 L
420.83 159.592 L
422.076 159.393 L
423.322 159.195 L
424.568 159 L
425.814 158.81 L
427.06 158.626 L
428.306 158.448 L
429.552 158.279 L
430.798 158.12 L
432.044 157.972 L
433.29 157.837 L
434.536 157.714 L
435.782 157.605 L
437.028 157.508 L
438.274 157.42 L
439.52 157.343 L
440.766 157.274 L
442.012 157.212 L
443.258 157.157 L
444.504 157.106 L
S
GR
GS
0 0 1 RC
1 LJ
1.5 LW
N
134.25 165 M
135.496 164.195 L
136.742 163.434 L
137.988 162.716 L
139.234 162.042 L
140.48 161.412 L
141.726 160.825 L
142.972 160.282 L
144.218 159.783 L
145.464 159.328 L
146.71 158.917 L
147.956 158.55 L
149.202 158.228 L
150.448 157.95 L
151.694 157.717 L
152.94 157.529 L
154.186 157.385 L
155.432 157.286 L
156.678 157.232 L
157.924 157.223 L
159.17 157.259 L
160.416 157.34 L
161.662 157.464 L
162.908 157.628 L
164.154 157.829 L
165.4 158.066 L
166.646 158.334 L
167.892 158.632 L
169.138 158.958 L
170.384 159.308 L
171.63 159.68 L
172.876 160.072 L
174.122 160.481 L
175.368 160.907 L
176.614 161.347 L
177.86 161.8 L
179.106 162.265 L
180.352 162.74 L
181.598 163.223 L
182.844 163.713 L
184.09 164.209 L
185.336 164.708 L
186.582 165.21 L
187.828 165.715 L
189.074 166.223 L
190.32 166.732 L
191.566 167.243 L
192.812 167.755 L
194.058 168.268 L
195.304 168.781 L
196.55 169.295 L
197.796 169.807 L
199.042 170.32 L
200.288 170.835 L
201.534 171.351 L
202.78 171.871 L
204.026 172.394 L
205.272 172.922 L
206.518 173.456 L
207.764 173.997 L
209.01 174.545 L
210.256 175.101 L
211.502 175.663 L
212.748 176.228 L
213.994 176.794 L
215.24 177.358 L
216.486 177.917 L
217.732 178.47 L
218.978 179.014 L
220.224 179.545 L
221.47 180.062 L
222.716 180.563 L
223.962 181.047 L
225.208 181.516 L
226.454 181.971 L
227.7 182.412 L
228.946 182.84 L
230.192 183.256 L
231.438 183.661 L
232.684 184.056 L
233.93 184.441 L
235.176 184.818 L
236.422 185.186 L
237.668 185.546 L
238.914 185.897 L
240.16 186.239 L
241.406 186.574 L
242.652 186.899 L
243.898 187.217 L
245.144 187.526 L
246.39 187.826 L
247.636 188.118 L
248.882 188.402 L
250.128 188.679 L
251.374 188.947 L
252.62 189.209 L
253.866 189.463 L
255.112 189.712 L
256.358 189.953 L
257.604 190.189 L
258.85 190.419 L
260.096 190.644 L
261.342 190.862 L
262.588 191.074 L
263.834 191.279 L
265.08 191.477 L
266.326 191.666 L
267.572 191.847 L
268.818 192.019 L
270.064 192.181 L
271.31 192.333 L
272.556 192.474 L
273.802 192.604 L
275.048 192.725 L
276.294 192.835 L
277.54 192.936 L
278.786 193.027 L
280.032 193.109 L
281.278 193.181 L
282.524 193.245 L
283.77 193.3 L
285.016 193.347 L
286.262 193.386 L
287.508 193.416 L
288.754 193.438 L
290 193.453 L
291.246 193.459 L
292.492 193.457 L
293.738 193.448 L
294.984 193.431 L
296.23 193.407 L
297.476 193.375 L
298.722 193.335 L
299.968 193.288 L
301.214 193.233 L
302.46 193.169 L
303.706 193.098 L
304.952 193.019 L
306.198 192.932 L
307.444 192.836 L
308.69 192.731 L
309.936 192.618 L
311.182 192.497 L
312.428 192.368 L
313.674 192.231 L
314.92 192.088 L
316.166 191.937 L
317.412 191.78 L
318.658 191.617 L
319.904 191.449 L
321.15 191.275 L
322.396 191.097 L
323.642 190.913 L
324.888 190.725 L
326.134 190.533 L
327.38 190.336 L
328.626 190.135 L
329.872 189.93 L
331.118 189.721 L
332.364 189.509 L
333.61 189.293 L
334.856 189.073 L
336.102 188.848 L
337.348 188.617 L
338.594 188.379 L
339.84 188.132 L
341.086 187.875 L
342.332 187.605 L
343.578 187.323 L
344.824 187.027 L
346.07 186.715 L
347.316 186.386 L
348.562 186.043 L
349.808 185.687 L
351.054 185.321 L
352.3 184.948 L
353.546 184.57 L
354.792 184.189 L
356.038 183.808 L
357.284 183.429 L
358.53 183.054 L
359.776 182.686 L
361.022 182.323 L
362.268 181.963 L
363.514 181.607 L
364.76 181.25 L
366.006 180.893 L
367.252 180.534 L
368.498 180.172 L
369.744 179.803 L
370.99 179.428 L
372.236 179.045 L
373.482 178.655 L
374.728 178.256 L
375.974 177.85 L
377.22 177.437 L
378.466 177.017 L
379.712 176.591 L
380.958 176.159 L
382.204 175.721 L
383.45 175.277 L
384.696 174.829 L
385.942 174.376 L
387.188 173.92 L
388.434 173.461 L
389.68 173 L
390.926 172.538 L
392.172 172.076 L
393.418 171.614 L
394.664 171.154 L
395.91 170.696 L
397.156 170.24 L
398.402 169.783 L
399.648 169.321 L
400.894 168.849 L
402.14 168.364 L
403.386 167.861 L
404.632 167.335 L
405.878 166.784 L
407.124 166.202 L
408.37 165.585 L
409.616 164.932 L
410.862 164.25 L
412.108 163.548 L
413.354 162.836 L
414.6 162.123 L
415.846 161.419 L
417.092 160.734 L
418.338 160.077 L
419.584 159.457 L
420.83 158.885 L
422.076 158.367 L
423.322 157.9 L
424.568 157.481 L
425.814 157.103 L
427.06 156.763 L
428.306 156.455 L
429.552 156.175 L
430.798 155.917 L
432.044 155.676 L
433.29 155.449 L
434.536 155.23 L
435.782 155.019 L
437.028 154.816 L
438.274 154.62 L
439.52 154.431 L
440.766 154.249 L
442.012 154.074 L
443.258 153.906 L
444.504 153.744 L
S
GR
GS
0 1 0 RC
1 LJ
1.5 LW
N
134.25 165 M
135.496 164.299 L
136.742 163.652 L
137.988 163.06 L
139.234 162.521 L
140.48 162.038 L
141.726 161.61 L
142.972 161.236 L
144.218 160.918 L
145.464 160.655 L
146.71 160.448 L
147.956 160.297 L
149.202 160.202 L
150.448 160.164 L
151.694 160.182 L
152.94 160.256 L
154.186 160.388 L
155.432 160.576 L
156.678 160.822 L
157.924 161.126 L
159.17 161.487 L
160.416 161.905 L
161.662 162.376 L
162.908 162.893 L
164.154 163.452 L
165.4 164.047 L
166.646 164.672 L
167.892 165.322 L
169.138 165.991 L
170.384 166.675 L
171.63 167.366 L
172.876 168.061 L
174.122 168.76 L
175.368 169.463 L
176.614 170.171 L
177.86 170.886 L
179.106 171.607 L
180.352 172.336 L
181.598 173.073 L
182.844 173.819 L
184.09 174.576 L
185.336 175.343 L
186.582 176.121 L
187.828 176.91 L
189.074 177.709 L
190.32 178.519 L
191.566 179.34 L
192.812 180.171 L
194.058 181.012 L
195.304 181.863 L
196.55 182.725 L
197.796 183.596 L
199.042 184.474 L
200.288 185.355 L
201.534 186.236 L
202.78 187.112 L
204.026 187.981 L
205.272 188.838 L
206.518 189.681 L
207.764 190.506 L
209.01 191.308 L
210.256 192.087 L
211.502 192.842 L
212.748 193.576 L
213.994 194.293 L
215.24 194.993 L
216.486 195.68 L
217.732 196.356 L
218.978 197.023 L
220.224 197.684 L
221.47 198.341 L
222.716 198.995 L
223.962 199.645 L
225.208 200.289 L
226.454 200.923 L
227.7 201.545 L
228.946 202.153 L
230.192 202.744 L
231.438 203.315 L
232.684 203.863 L
233.93 204.387 L
235.176 204.885 L
236.422 205.357 L
237.668 205.809 L
238.914 206.242 L
240.16 206.661 L
241.406 207.067 L
242.652 207.464 L
243.898 207.855 L
245.144 208.244 L
246.39 208.633 L
247.636 209.024 L
248.882 209.417 L
250.128 209.808 L
251.374 210.195 L
252.62 210.575 L
253.866 210.947 L
255.112 211.308 L
256.358 211.655 L
257.604 211.985 L
258.85 212.297 L
260.096 212.589 L
261.342 212.861 L
262.588 213.113 L
263.834 213.346 L
265.08 213.562 L
266.326 213.762 L
267.572 213.945 L
268.818 214.113 L
270.064 214.268 L
271.31 214.408 L
272.556 214.536 L
273.802 214.652 L
275.048 214.755 L
276.294 214.845 L
277.54 214.923 L
278.786 214.988 L
280.032 215.04 L
281.278 215.08 L
282.524 215.107 L
283.77 215.121 L
285.016 215.123 L
286.262 215.111 L
287.508 215.087 L
288.754 215.049 L
290 214.999 L
291.246 214.935 L
292.492 214.859 L
293.738 214.769 L
294.984 214.666 L
296.23 214.55 L
297.476 214.421 L
298.722 214.28 L
299.968 214.128 L
301.214 213.967 L
302.46 213.799 L
303.706 213.623 L
304.952 213.443 L
306.198 213.259 L
307.444 213.073 L
308.69 212.885 L
309.936 212.697 L
311.182 212.506 L
312.428 212.308 L
313.674 212.101 L
314.92 211.88 L
316.166 211.642 L
317.412 211.384 L
318.658 211.102 L
319.904 210.793 L
321.15 210.453 L
322.396 210.081 L
323.642 209.681 L
324.888 209.26 L
326.134 208.822 L
327.38 208.376 L
328.626 207.926 L
329.872 207.479 L
331.118 207.04 L
332.364 206.617 L
333.61 206.216 L
334.856 205.839 L
336.102 205.481 L
337.348 205.133 L
338.594 204.787 L
339.84 204.434 L
341.086 204.065 L
342.332 203.672 L
343.578 203.247 L
344.824 202.78 L
346.07 202.264 L
347.316 201.692 L
348.562 201.073 L
349.808 200.418 L
351.054 199.736 L
352.3 199.04 L
353.546 198.34 L
354.792 197.647 L
356.038 196.972 L
357.284 196.326 L
358.53 195.72 L
359.776 195.16 L
361.022 194.641 L
362.268 194.153 L
363.514 193.684 L
364.76 193.225 L
366.006 192.765 L
367.252 192.295 L
368.498 191.804 L
369.744 191.281 L
370.99 190.718 L
372.236 190.105 L
373.482 189.448 L
374.728 188.752 L
375.974 188.025 L
377.22 187.275 L
378.466 186.506 L
379.712 185.727 L
380.958 184.944 L
382.204 184.164 L
383.45 183.394 L
384.696 182.638 L
385.942 181.897 L
387.188 181.167 L
388.434 180.446 L
389.68 179.73 L
390.926 179.018 L
392.172 178.307 L
393.418 177.593 L
394.664 176.875 L
395.91 176.15 L
397.156 175.415 L
398.402 174.67 L
399.648 173.913 L
400.894 173.146 L
402.14 172.366 L
403.386 171.575 L
404.632 170.771 L
405.878 169.953 L
407.124 169.123 L
408.37 168.278 L
409.616 167.42 L
410.862 166.552 L
412.108 165.68 L
413.354 164.808 L
414.6 163.94 L
415.846 163.083 L
417.092 162.24 L
418.338 161.416 L
419.584 160.617 L
420.83 159.847 L
422.076 159.109 L
423.322 158.405 L
424.568 157.732 L
425.814 157.09 L
427.06 156.479 L
428.306 155.896 L
429.552 155.341 L
430.798 154.813 L
432.044 154.31 L
433.29 153.833 L
434.536 153.38 L
435.782 152.95 L
437.028 152.543 L
438.274 152.157 L
439.52 151.793 L
440.766 151.45 L
442.012 151.126 L
443.258 150.822 L
444.504 150.537 L
S
GR
GS
1 0 0 RC
1 LJ
1.5 LW
N
134.25 165 M
135.496 164.341 L
136.742 163.768 L
137.988 163.278 L
139.234 162.87 L
140.48 162.542 L
141.726 162.291 L
142.972 162.117 L
144.218 162.018 L
145.464 161.991 L
146.71 162.036 L
147.956 162.149 L
149.202 162.33 L
150.448 162.577 L
151.694 162.887 L
152.94 163.26 L
154.186 163.693 L
155.432 164.185 L
156.678 164.733 L
157.924 165.337 L
159.17 165.994 L
160.416 166.701 L
161.662 167.456 L
162.908 168.253 L
164.154 169.087 L
165.4 169.954 L
166.646 170.85 L
167.892 171.768 L
169.138 172.706 L
170.384 173.658 L
171.63 174.62 L
172.876 175.587 L
174.122 176.563 L
175.368 177.549 L
176.614 178.549 L
177.86 179.565 L
179.106 180.601 L
180.352 181.659 L
181.598 182.742 L
182.844 183.853 L
184.09 184.996 L
185.336 186.171 L
186.582 187.372 L
187.828 188.594 L
189.074 189.829 L
190.32 191.07 L
191.566 192.31 L
192.812 193.543 L
194.058 194.76 L
195.304 195.956 L
196.55 197.123 L
197.796 198.256 L
199.042 199.357 L
200.288 200.43 L
201.534 201.479 L
202.78 202.509 L
204.026 203.522 L
205.272 204.522 L
206.518 205.515 L
207.764 206.503 L
209.01 207.49 L
210.256 208.48 L
211.502 209.469 L
212.748 210.455 L
213.994 211.434 L
215.24 212.402 L
216.486 213.357 L
217.732 214.294 L
218.978 215.21 L
220.224 216.102 L
221.47 216.966 L
222.716 217.8 L
223.962 218.605 L
225.208 219.382 L
226.454 220.133 L
227.7 220.86 L
228.946 221.564 L
230.192 222.248 L
231.438 222.913 L
232.684 223.562 L
233.93 224.195 L
235.176 224.814 L
236.422 225.42 L
237.668 226.012 L
238.914 226.592 L
240.16 227.158 L
241.406 227.711 L
242.652 228.251 L
243.898 228.778 L
245.144 229.292 L
246.39 229.794 L
247.636 230.282 L
248.882 230.757 L
250.128 231.218 L
251.374 231.662 L
252.62 232.09 L
253.866 232.5 L
255.112 232.891 L
256.358 233.262 L
257.604 233.613 L
258.85 233.941 L
260.096 234.247 L
261.342 234.531 L
262.588 234.792 L
263.834 235.032 L
265.08 235.251 L
266.326 235.449 L
267.572 235.627 L
268.818 235.785 L
270.064 235.923 L
271.31 236.043 L
272.556 236.144 L
273.802 236.227 L
275.048 236.292 L
276.294 236.339 L
277.54 236.37 L
278.786 236.383 L
280.032 236.381 L
281.278 236.362 L
282.524 236.328 L
283.77 236.279 L
285.016 236.215 L
286.262 236.136 L
287.508 236.043 L
288.754 235.936 L
290 235.814 L
291.246 235.679 L
292.492 235.53 L
293.738 235.367 L
294.984 235.191 L
296.23 235.002 L
297.476 234.8 L
298.722 234.583 L
299.968 234.35 L
301.214 234.1 L
302.46 233.831 L
303.706 233.542 L
304.952 233.23 L
306.198 232.896 L
307.444 232.537 L
308.69 232.151 L
309.936 231.739 L
311.182 231.303 L
312.428 230.849 L
313.674 230.381 L
314.92 229.903 L
316.166 229.42 L
317.412 228.937 L
318.658 228.458 L
319.904 227.988 L
321.15 227.531 L
322.396 227.09 L
323.642 226.66 L
324.888 226.234 L
326.134 225.805 L
327.38 225.367 L
328.626 224.912 L
329.872 224.433 L
331.118 223.924 L
332.364 223.379 L
333.61 222.789 L
334.856 222.15 L
336.102 221.468 L
337.348 220.749 L
338.594 220 L
339.84 219.23 L
341.086 218.444 L
342.332 217.65 L
343.578 216.855 L
344.824 216.066 L
346.07 215.291 L
347.316 214.534 L
348.562 213.793 L
349.808 213.065 L
351.054 212.344 L
352.3 211.627 L
353.546 210.909 L
354.792 210.186 L
356.038 209.454 L
357.284 208.708 L
358.53 207.945 L
359.776 207.161 L
361.022 206.357 L
362.268 205.536 L
363.514 204.698 L
364.76 203.847 L
366.006 202.983 L
367.252 202.11 L
368.498 201.229 L
369.744 200.343 L
370.99 199.452 L
372.236 198.559 L
373.482 197.662 L
374.728 196.759 L
375.974 195.847 L
377.22 194.926 L
378.466 193.992 L
379.712 193.043 L
380.958 192.078 L
382.204 191.095 L
383.45 190.09 L
384.696 189.063 L
385.942 188.02 L
387.188 186.966 L
388.434 185.907 L
389.68 184.849 L
390.926 183.799 L
392.172 182.762 L
393.418 181.744 L
394.664 180.752 L
395.91 179.792 L
397.156 178.866 L
398.402 177.969 L
399.648 177.09 L
400.894 176.219 L
402.14 175.348 L
403.386 174.467 L
404.632 173.566 L
405.878 172.636 L
407.124 171.667 L
408.37 170.649 L
409.616 169.577 L
410.862 168.459 L
412.108 167.307 L
413.354 166.135 L
414.6 164.955 L
415.846 163.778 L
417.092 162.618 L
418.338 161.486 L
419.584 160.396 L
420.83 159.359 L
422.076 158.386 L
423.322 157.474 L
424.568 156.617 L
425.814 155.812 L
427.06 155.054 L
428.306 154.337 L
429.552 153.656 L
430.798 153.007 L
432.044 152.384 L
433.29 151.783 L
434.536 151.2 L
435.782 150.635 L
437.028 150.09 L
438.274 149.566 L
439.52 149.064 L
440.766 148.586 L
442.012 148.133 L
443.258 147.708 L
444.504 147.31 L
S
GR
GS
0 1 1 RC
1 LJ
1.5 LW
N
134.25 165 M
135.496 164.416 L
136.742 163.94 L
137.988 163.568 L
139.234 163.299 L
140.48 163.129 L
141.726 163.055 L
142.972 163.074 L
144.218 163.184 L
145.464 163.382 L
146.71 163.664 L
147.956 164.028 L
149.202 164.471 L
150.448 164.99 L
151.694 165.582 L
152.94 166.245 L
154.186 166.975 L
155.432 167.77 L
156.678 168.626 L
157.924 169.541 L
159.17 170.513 L
160.416 171.537 L
161.662 172.611 L
162.908 173.733 L
164.154 174.899 L
165.4 176.106 L
166.646 177.353 L
167.892 178.634 L
169.138 179.949 L
170.384 181.294 L
171.63 182.665 L
172.876 184.061 L
174.122 185.476 L
175.368 186.907 L
176.614 188.349 L
177.86 189.799 L
179.106 191.251 L
180.352 192.702 L
181.598 194.148 L
182.844 195.583 L
184.09 197.004 L
185.336 198.408 L
186.582 199.796 L
187.828 201.17 L
189.074 202.532 L
190.32 203.885 L
191.566 205.231 L
192.812 206.572 L
194.058 207.911 L
195.304 209.249 L
196.55 210.59 L
197.796 211.934 L
199.042 213.278 L
200.288 214.619 L
201.534 215.954 L
202.78 217.277 L
204.026 218.587 L
205.272 219.878 L
206.518 221.148 L
207.764 222.391 L
209.01 223.606 L
210.256 224.789 L
211.502 225.942 L
212.748 227.07 L
213.994 228.175 L
215.24 229.263 L
216.486 230.336 L
217.732 231.398 L
218.978 232.452 L
220.224 233.503 L
221.47 234.555 L
222.716 235.609 L
223.962 236.661 L
225.208 237.706 L
226.454 238.739 L
227.7 239.754 L
228.946 240.746 L
230.192 241.71 L
231.438 242.639 L
232.684 243.529 L
233.93 244.374 L
235.176 245.17 L
236.422 245.92 L
237.668 246.627 L
238.914 247.295 L
240.16 247.929 L
241.406 248.532 L
242.652 249.107 L
243.898 249.66 L
245.144 250.193 L
246.39 250.71 L
247.636 251.215 L
248.882 251.706 L
250.128 252.183 L
251.374 252.642 L
252.62 253.082 L
253.866 253.502 L
255.112 253.9 L
256.358 254.273 L
257.604 254.62 L
258.85 254.94 L
260.096 255.23 L
261.342 255.492 L
262.588 255.727 L
263.834 255.934 L
265.08 256.116 L
266.326 256.273 L
267.572 256.406 L
268.818 256.516 L
270.064 256.604 L
271.31 256.671 L
272.556 256.718 L
273.802 256.745 L
275.048 256.752 L
276.294 256.74 L
277.54 256.709 L
278.786 256.659 L
280.032 256.591 L
281.278 256.504 L
282.524 256.4 L
283.77 256.278 L
285.016 256.138 L
286.262 255.981 L
287.508 255.806 L
288.754 255.614 L
290 255.403 L
291.246 255.175 L
292.492 254.928 L
293.738 254.662 L
294.984 254.378 L
296.23 254.076 L
297.476 253.754 L
298.722 253.412 L
299.968 253.047 L
301.214 252.658 L
302.46 252.242 L
303.706 251.799 L
304.952 251.326 L
306.198 250.822 L
307.444 250.284 L
308.69 249.711 L
309.936 249.103 L
311.182 248.466 L
312.428 247.808 L
313.674 247.136 L
314.92 246.458 L
316.166 245.784 L
317.412 245.119 L
318.658 244.472 L
319.904 243.852 L
321.15 243.265 L
322.396 242.717 L
323.642 242.197 L
324.888 241.694 L
326.134 241.193 L
327.38 240.682 L
328.626 240.147 L
329.872 239.577 L
331.118 238.958 L
332.364 238.276 L
333.61 237.52 L
334.856 236.68 L
336.102 235.765 L
337.348 234.787 L
338.594 233.76 L
339.84 232.696 L
341.086 231.609 L
342.332 230.51 L
343.578 229.413 L
344.824 228.331 L
346.07 227.276 L
347.316 226.258 L
348.562 225.274 L
349.808 224.318 L
351.054 223.384 L
352.3 222.466 L
353.546 221.557 L
354.792 220.651 L
356.038 219.742 L
357.284 218.825 L
358.53 217.892 L
359.776 216.938 L
361.022 215.963 L
362.268 214.967 L
363.514 213.948 L
364.76 212.908 L
366.006 211.845 L
367.252 210.759 L
368.498 209.651 L
369.744 208.52 L
370.99 207.366 L
372.236 206.189 L
373.482 204.995 L
374.728 203.788 L
375.974 202.575 L
377.22 201.36 L
378.466 200.149 L
379.712 198.949 L
380.958 197.763 L
382.204 196.598 L
383.45 195.459 L
384.696 194.35 L
385.942 193.265 L
387.188 192.198 L
388.434 191.14 L
389.68 190.086 L
390.926 189.027 L
392.172 187.956 L
393.418 186.867 L
394.664 185.752 L
395.91 184.604 L
397.156 183.417 L
398.402 182.194 L
399.648 180.941 L
400.894 179.66 L
402.14 178.358 L
403.386 177.037 L
404.632 175.704 L
405.878 174.362 L
407.124 173.015 L
408.37 171.67 L
409.616 170.328 L
410.862 168.992 L
412.108 167.66 L
413.354 166.334 L
414.6 165.014 L
415.846 163.699 L
417.092 162.39 L
418.338 161.087 L
419.584 159.789 L
420.83 158.498 L
422.076 157.215 L
423.322 155.95 L
424.568 154.714 L
425.814 153.519 L
427.06 152.376 L
428.306 151.297 L
429.552 150.293 L
430.798 149.377 L
432.044 148.558 L
433.29 147.85 L
434.536 147.259 L
435.782 146.771 L
437.028 146.37 L
438.274 146.038 L
439.52 145.759 L
440.766 145.513 L
442.012 145.285 L
443.258 145.056 L
444.504 144.81 L
S
GR
GS
1 1 0 RC
1 LJ
1.5 LW
N
134.25 165 M
135.496 164.387 L
136.742 163.938 L
137.988 163.644 L
139.234 163.499 L
140.48 163.494 L
141.726 163.623 L
142.972 163.877 L
144.218 164.25 L
145.464 164.733 L
146.71 165.319 L
147.956 166.001 L
149.202 166.772 L
150.448 167.622 L
151.694 168.546 L
152.94 169.536 L
154.186 170.583 L
155.432 171.682 L
156.678 172.823 L
157.924 173.999 L
159.17 175.204 L
160.416 176.431 L
161.662 177.683 L
162.908 178.965 L
164.154 180.28 L
165.4 181.635 L
166.646 183.032 L
167.892 184.476 L
169.138 185.973 L
170.384 187.526 L
171.63 189.14 L
172.876 190.818 L
174.122 192.551 L
175.368 194.33 L
176.614 196.145 L
177.86 197.987 L
179.106 199.845 L
180.352 201.709 L
181.598 203.571 L
182.844 205.419 L
184.09 207.245 L
185.336 209.04 L
186.582 210.806 L
187.828 212.545 L
189.074 214.261 L
190.32 215.956 L
191.566 217.635 L
192.812 219.299 L
194.058 220.951 L
195.304 222.596 L
196.55 224.236 L
197.796 225.873 L
199.042 227.505 L
200.288 229.13 L
201.534 230.745 L
202.78 232.347 L
204.026 233.933 L
205.272 235.501 L
206.518 237.049 L
207.764 238.573 L
209.01 240.07 L
210.256 241.539 L
211.502 242.978 L
212.748 244.385 L
213.994 245.759 L
215.24 247.099 L
216.486 248.405 L
217.732 249.673 L
218.978 250.905 L
220.224 252.097 L
221.47 253.249 L
222.716 254.36 L
223.962 255.434 L
225.208 256.472 L
226.454 257.477 L
227.7 258.454 L
228.946 259.404 L
230.192 260.332 L
231.438 261.239 L
232.684 262.129 L
233.93 263.006 L
235.176 263.871 L
236.422 264.722 L
237.668 265.556 L
238.914 266.372 L
240.16 267.165 L
241.406 267.934 L
242.652 268.675 L
243.898 269.386 L
245.144 270.064 L
246.39 270.705 L
247.636 271.309 L
248.882 271.876 L
250.128 272.405 L
251.374 272.899 L
252.62 273.358 L
253.866 273.783 L
255.112 274.176 L
256.358 274.536 L
257.604 274.866 L
258.85 275.166 L
260.096 275.437 L
261.342 275.678 L
262.588 275.89 L
263.834 276.072 L
265.08 276.224 L
266.326 276.345 L
267.572 276.436 L
268.818 276.495 L
270.064 276.522 L
271.31 276.518 L
272.556 276.482 L
273.802 276.416 L
275.048 276.324 L
276.294 276.208 L
277.54 276.072 L
278.786 275.918 L
280.032 275.748 L
281.278 275.566 L
282.524 275.375 L
283.77 275.178 L
285.016 274.975 L
286.262 274.763 L
287.508 274.535 L
288.754 274.286 L
290 274.009 L
291.246 273.699 L
292.492 273.349 L
293.738 272.955 L
294.984 272.509 L
296.23 272.006 L
297.476 271.442 L
298.722 270.825 L
299.968 270.164 L
301.214 269.469 L
302.46 268.75 L
303.706 268.015 L
304.952 267.275 L
306.198 266.539 L
307.444 265.817 L
308.69 265.119 L
309.936 264.451 L
311.182 263.804 L
312.428 263.17 L
313.674 262.536 L
314.92 261.893 L
316.166 261.229 L
317.412 260.533 L
318.658 259.796 L
319.904 259.005 L
321.15 258.151 L
322.396 257.227 L
323.642 256.24 L
324.888 255.204 L
326.134 254.131 L
327.38 253.034 L
328.626 251.925 L
329.872 250.816 L
331.118 249.72 L
332.364 248.65 L
333.61 247.618 L
334.856 246.631 L
336.102 245.681 L
337.348 244.753 L
338.594 243.833 L
339.84 242.905 L
341.086 241.957 L
342.332 240.973 L
343.578 239.94 L
344.824 238.844 L
346.07 237.669 L
347.316 236.407 L
348.562 235.077 L
349.808 233.699 L
351.054 232.299 L
352.3 230.897 L
353.546 229.518 L
354.792 228.184 L
356.038 226.918 L
357.284 225.743 L
358.53 224.682 L
359.776 223.749 L
361.022 222.921 L
362.268 222.166 L
363.514 221.452 L
364.76 220.748 L
366.006 220.021 L
367.252 219.24 L
368.498 218.372 L
369.744 217.387 L
370.99 216.251 L
372.236 214.943 L
373.482 213.481 L
374.728 211.894 L
375.974 210.209 L
377.22 208.455 L
378.466 206.66 L
379.712 204.853 L
380.958 203.061 L
382.204 201.313 L
383.45 199.636 L
384.696 198.053 L
385.942 196.556 L
387.188 195.133 L
388.434 193.77 L
389.68 192.453 L
390.926 191.168 L
392.172 189.904 L
393.418 188.645 L
394.664 187.379 L
395.91 186.091 L
397.156 184.773 L
398.402 183.423 L
399.648 182.044 L
400.894 180.64 L
402.14 179.212 L
403.386 177.766 L
404.632 176.302 L
405.878 174.824 L
407.124 173.335 L
408.37 171.837 L
409.616 170.335 L
410.862 168.829 L
412.108 167.325 L
413.354 165.824 L
414.6 164.329 L
415.846 162.844 L
417.092 161.37 L
418.338 159.912 L
419.584 158.473 L
420.83 157.054 L
422.076 155.66 L
423.322 154.299 L
424.568 152.977 L
425.814 151.705 L
427.06 150.488 L
428.306 149.337 L
429.552 148.258 L
430.798 147.26 L
432.044 146.351 L
433.29 145.539 L
434.536 144.829 L
435.782 144.212 L
437.028 143.675 L
438.274 143.205 L
439.52 142.791 L
440.766 142.418 L
442.012 142.076 L
443.258 141.75 L
444.504 141.43 L
S
GR
GS
1 LJ
0.5 LW
N
346.07 196.15 M
433.29 196.15 L
S
GR
GS
1 LJ
0.5 LW
N
346.07 196.15 M
346.07 343.037 L
S
GR
GS
1 LJ
0.5 LW
N
433.29 196.15 M
433.29 343.037 L
S
GR
GS
1 LJ
2 LW
N
358.53 209.5 M
383.45 209.5 L
S
GR
GS
[1 0 0 1 390 212] CT
/Helvetica 12 F
GS
[1 0 0 1 0 0] CT
0 0 moveto 
1 -1 scale
(v) t 
GR
GR
GS
[1 0 0 1 396 218] CT
/Helvetica 9.6 F
GS
[1 0 0 1 0 0] CT
0 0 moveto 
1 -1 scale
(z) t 
GR
GR
GS
[1 0 0 1 401 212] CT
/Helvetica 12 F
GS
[1 0 0 1 0 0] CT
0 0 moveto 
1 -1 scale
(\(0\)) t 
GR
GR
GS
1 0 1 RC
1 LJ
1.5 LW
N
358.53 231.75 M
383.45 231.75 L
S
GR
GS
[1 0 0 1 390 234] CT
/Helvetica 12 F
GS
[1 0 0 1 0 0] CT
0 0 moveto 
1 -1 scale
(v) t 
GR
GR
GS
[1 0 0 1 396 240] CT
/Helvetica 9.6 F
GS
[1 0 0 1 0 0] CT
0 0 moveto 
1 -1 scale
(z) t 
GR
GR
GS
[1 0 0 1 401 234] CT
/Helvetica 12 F
GS
[1 0 0 1 0 0] CT
0 0 moveto 
1 -1 scale
(\(5\)) t 
GR
GR
GS
0 0 1 RC
1 LJ
1.5 LW
N
358.53 254 M
383.45 254 L
S
GR
GS
[1 0 0 1 390 256] CT
/Helvetica 12 F
GS
[1 0 0 1 0 0] CT
0 0 moveto 
1 -1 scale
(v) t 
GR
GR
GS
[1 0 0 1 396 262] CT
/Helvetica 9.6 F
GS
[1 0 0 1 0 0] CT
0 0 moveto 
1 -1 scale
(z) t 
GR
GR
GS
[1 0 0 1 401 256] CT
/Helvetica 12 F
GS
[1 0 0 1 0 0] CT
0 0 moveto 
1 -1 scale
(\(10\)) t 
GR
GR
GS
0 1 0 RC
1 LJ
1.5 LW
N
358.53 276.25 M
383.45 276.25 L
S
GR
GS
[1 0 0 1 390 278] CT
/Helvetica 12 F
GS
[1 0 0 1 0 0] CT
0 0 moveto 
1 -1 scale
(v) t 
GR
GR
GS
[1 0 0 1 396 284] CT
/Helvetica 9.6 F
GS
[1 0 0 1 0 0] CT
0 0 moveto 
1 -1 scale
(z) t 
GR
GR
GS
[1 0 0 1 401 278] CT
/Helvetica 12 F
GS
[1 0 0 1 0 0] CT
0 0 moveto 
1 -1 scale
(\(15\)) t 
GR
GR
GS
1 0 0 RC
1 LJ
1.5 LW
N
358.53 298.5 M
383.45 298.5 L
S
GR
GS
[1 0 0 1 390 301] CT
/Helvetica 12 F
GS
[1 0 0 1 0 0] CT
0 0 moveto 
1 -1 scale
(v) t 
GR
GR
GS
[1 0 0 1 396 307] CT
/Helvetica 9.6 F
GS
[1 0 0 1 0 0] CT
0 0 moveto 
1 -1 scale
(z) t 
GR
GR
GS
[1 0 0 1 401 301] CT
/Helvetica 12 F
GS
[1 0 0 1 0 0] CT
0 0 moveto 
1 -1 scale
(\(20\)) t 
GR
GR
GS
0 1 1 RC
1 LJ
1.5 LW
N
358.53 320.75 M
383.45 320.75 L
S
GR
GS
[1 0 0 1 390 323] CT
/Helvetica 12 F
GS
[1 0 0 1 0 0] CT
0 0 moveto 
1 -1 scale
(v) t 
GR
GR
GS
[1 0 0 1 396 329] CT
/Helvetica 9.6 F
GS
[1 0 0 1 0 0] CT
0 0 moveto 
1 -1 scale
(z) t 
GR
GR
GS
[1 0 0 1 401 323] CT
/Helvetica 12 F
GS
[1 0 0 1 0 0] CT
0 0 moveto 
1 -1 scale
(\(25\)) t 
GR
GR
GS
1 1 0 RC
1 LJ
1.5 LW
N
358.53 343 M
383.45 343 L
S
GR
GS
[1 0 0 1 390 345] CT
/Helvetica 12 F
GS
[1 0 0 1 0 0] CT
0 0 moveto 
1 -1 scale
(v) t 
GR
GR
GS
[1 0 0 1 396 351] CT
/Helvetica 9.6 F
GS
[1 0 0 1 0 0] CT
0 0 moveto 
1 -1 scale
(z) t 
GR
GR
GS
[1 0 0 1 401 345] CT
/Helvetica 12 F
GS
[1 0 0 1 0 0] CT
0 0 moveto 
1 -1 scale
(\(30\)) t 
GR
GR
%%Trailer
%%Pages: 1
%%EOF
