%!PS-Adobe-3.0 EPSF-3.0
%%Creator: (MATLAB, The Mathworks, Inc. Version 9.5.0.944444 \(R2018b\). Operating System: Mac OS X)
%%Title: ./stretchingAD_B.eps
%%CreationDate: 2020-05-08T18:22:12
%%Pages: (atend)
%%BoundingBox:    40     0   447   392
%%LanguageLevel: 2
%%EndComments
%%BeginProlog
%%BeginResource: procset (Apache XML Graphics Std ProcSet) 1.2 0
%%Version: 1.2 0
%%Copyright: (Copyright 2001-2003,2010 The Apache Software Foundation. License terms: http://www.apache.org/licenses/LICENSE-2.0)
/bd{bind def}bind def
/ld{load def}bd
/GR/grestore ld
/GS/gsave ld
/RM/rmoveto ld
/C/curveto ld
/t/show ld
/L/lineto ld
/ML/setmiterlimit ld
/CT/concat ld
/f/fill ld
/N/newpath ld
/S/stroke ld
/CC/setcmykcolor ld
/A/ashow ld
/cp/closepath ld
/RC/setrgbcolor ld
/LJ/setlinejoin ld
/GC/setgray ld
/LW/setlinewidth ld
/M/moveto ld
/re {4 2 roll M
1 index 0 rlineto
0 exch rlineto
neg 0 rlineto
cp } bd
/_ctm matrix def
/_tm matrix def
/BT { _ctm currentmatrix pop matrix _tm copy pop 0 0 moveto } bd
/ET { _ctm setmatrix } bd
/iTm { _ctm setmatrix _tm concat } bd
/Tm { _tm astore pop iTm 0 0 moveto } bd
/ux 0.0 def
/uy 0.0 def
/F {
  /Tp exch def
  /Tf exch def
  Tf findfont Tp scalefont setfont
  /cf Tf def  /cs Tp def
} bd
/ULS {currentpoint /uy exch def /ux exch def} bd
/ULE {
  /Tcx currentpoint pop def
  gsave
  newpath
  cf findfont cs scalefont dup
  /FontMatrix get 0 get /Ts exch def /FontInfo get dup
  /UnderlinePosition get Ts mul /To exch def
  /UnderlineThickness get Ts mul /Tt exch def
  ux uy To add moveto  Tcx uy To add lineto
  Tt setlinewidth stroke
  grestore
} bd
/OLE {
  /Tcx currentpoint pop def
  gsave
  newpath
  cf findfont cs scalefont dup
  /FontMatrix get 0 get /Ts exch def /FontInfo get dup
  /UnderlinePosition get Ts mul /To exch def
  /UnderlineThickness get Ts mul /Tt exch def
  ux uy To add cs add moveto Tcx uy To add cs add lineto
  Tt setlinewidth stroke
  grestore
} bd
/SOE {
  /Tcx currentpoint pop def
  gsave
  newpath
  cf findfont cs scalefont dup
  /FontMatrix get 0 get /Ts exch def /FontInfo get dup
  /UnderlinePosition get Ts mul /To exch def
  /UnderlineThickness get Ts mul /Tt exch def
  ux uy To add cs 10 mul 26 idiv add moveto Tcx uy To add cs 10 mul 26 idiv add lineto
  Tt setlinewidth stroke
  grestore
} bd
/QT {
/Y22 exch store
/X22 exch store
/Y21 exch store
/X21 exch store
currentpoint
/Y21 load 2 mul add 3 div exch
/X21 load 2 mul add 3 div exch
/X21 load 2 mul /X22 load add 3 div
/Y21 load 2 mul /Y22 load add 3 div
/X22 load /Y22 load curveto
} bd
/SSPD {
dup length /d exch dict def
{
/v exch def
/k exch def
currentpagedevice k known {
/cpdv currentpagedevice k get def
v cpdv ne {
/upd false def
/nullv v type /nulltype eq def
/nullcpdv cpdv type /nulltype eq def
nullv nullcpdv or
{
/upd true def
} {
/sametype v type cpdv type eq def
sametype {
v type /arraytype eq {
/vlen v length def
/cpdvlen cpdv length def
vlen cpdvlen eq {
0 1 vlen 1 sub {
/i exch def
/obj v i get def
/cpdobj cpdv i get def
obj cpdobj ne {
/upd true def
exit
} if
} for
} {
/upd true def
} ifelse
} {
v type /dicttype eq {
v {
/dv exch def
/dk exch def
/cpddv cpdv dk get def
dv cpddv ne {
/upd true def
exit
} if
} forall
} {
/upd true def
} ifelse
} ifelse
} if
} ifelse
upd true eq {
d k v put
} if
} if
} if
} forall
d length 0 gt {
d setpagedevice
} if
} bd
/RE { % /NewFontName [NewEncodingArray] /FontName RE -
  findfont dup length dict begin
  {
    1 index /FID ne
    {def} {pop pop} ifelse
  } forall
  /Encoding exch def
  /FontName 1 index def
  currentdict definefont pop
  end
} bind def
%%EndResource
%%BeginResource: procset (Apache XML Graphics EPS ProcSet) 1.0 0
%%Version: 1.0 0
%%Copyright: (Copyright 2002-2003 The Apache Software Foundation. License terms: http://www.apache.org/licenses/LICENSE-2.0)
/BeginEPSF { %def
/b4_Inc_state save def         % Save state for cleanup
/dict_count countdictstack def % Count objects on dict stack
/op_count count 1 sub def      % Count objects on operand stack
userdict begin                 % Push userdict on dict stack
/showpage { } def              % Redefine showpage, { } = null proc
0 setgray 0 setlinecap         % Prepare graphics state
1 setlinewidth 0 setlinejoin
10 setmiterlimit [ ] 0 setdash newpath
/languagelevel where           % If level not equal to 1 then
{pop languagelevel             % set strokeadjust and
1 ne                           % overprint to their defaults.
{false setstrokeadjust false setoverprint
} if
} if
} bd
/EndEPSF { %def
count op_count sub {pop} repeat            % Clean up stacks
countdictstack dict_count sub {end} repeat
b4_Inc_state restore
} bd
%%EndResource
%FOPBeginFontDict
%%IncludeResource: font Courier-Oblique
%%IncludeResource: font Courier-BoldOblique
%%IncludeResource: font Courier-Bold
%%IncludeResource: font ZapfDingbats
%%IncludeResource: font Symbol
%%IncludeResource: font Helvetica
%%IncludeResource: font Helvetica-Oblique
%%IncludeResource: font Helvetica-Bold
%%IncludeResource: font Helvetica-BoldOblique
%%IncludeResource: font Times-Roman
%%IncludeResource: font Times-Italic
%%IncludeResource: font Times-Bold
%%IncludeResource: font Times-BoldItalic
%%IncludeResource: font Courier
%FOPEndFontDict
%%BeginResource: encoding WinAnsiEncoding
/WinAnsiEncoding [
/.notdef /.notdef /.notdef /.notdef /.notdef
/.notdef /.notdef /.notdef /.notdef /.notdef
/.notdef /.notdef /.notdef /.notdef /.notdef
/.notdef /.notdef /.notdef /.notdef /.notdef
/.notdef /.notdef /.notdef /.notdef /.notdef
/.notdef /.notdef /.notdef /.notdef /.notdef
/.notdef /.notdef /space /exclam /quotedbl
/numbersign /dollar /percent /ampersand /quotesingle
/parenleft /parenright /asterisk /plus /comma
/hyphen /period /slash /zero /one
/two /three /four /five /six
/seven /eight /nine /colon /semicolon
/less /equal /greater /question /at
/A /B /C /D /E
/F /G /H /I /J
/K /L /M /N /O
/P /Q /R /S /T
/U /V /W /X /Y
/Z /bracketleft /backslash /bracketright /asciicircum
/underscore /quoteleft /a /b /c
/d /e /f /g /h
/i /j /k /l /m
/n /o /p /q /r
/s /t /u /v /w
/x /y /z /braceleft /bar
/braceright /asciitilde /bullet /Euro /bullet
/quotesinglbase /florin /quotedblbase /ellipsis /dagger
/daggerdbl /circumflex /perthousand /Scaron /guilsinglleft
/OE /bullet /Zcaron /bullet /bullet
/quoteleft /quoteright /quotedblleft /quotedblright /bullet
/endash /emdash /asciitilde /trademark /scaron
/guilsinglright /oe /bullet /zcaron /Ydieresis
/space /exclamdown /cent /sterling /currency
/yen /brokenbar /section /dieresis /copyright
/ordfeminine /guillemotleft /logicalnot /sfthyphen /registered
/macron /degree /plusminus /twosuperior /threesuperior
/acute /mu /paragraph /middot /cedilla
/onesuperior /ordmasculine /guillemotright /onequarter /onehalf
/threequarters /questiondown /Agrave /Aacute /Acircumflex
/Atilde /Adieresis /Aring /AE /Ccedilla
/Egrave /Eacute /Ecircumflex /Edieresis /Igrave
/Iacute /Icircumflex /Idieresis /Eth /Ntilde
/Ograve /Oacute /Ocircumflex /Otilde /Odieresis
/multiply /Oslash /Ugrave /Uacute /Ucircumflex
/Udieresis /Yacute /Thorn /germandbls /agrave
/aacute /acircumflex /atilde /adieresis /aring
/ae /ccedilla /egrave /eacute /ecircumflex
/edieresis /igrave /iacute /icircumflex /idieresis
/eth /ntilde /ograve /oacute /ocircumflex
/otilde /odieresis /divide /oslash /ugrave
/uacute /ucircumflex /udieresis /yacute /thorn
/ydieresis
] def
%%EndResource
%FOPBeginFontReencode
/Courier-Oblique findfont
dup length dict begin
  {1 index /FID ne {def} {pop pop} ifelse} forall
  /Encoding WinAnsiEncoding def
  currentdict
end
/Courier-Oblique exch definefont pop
/Courier-BoldOblique findfont
dup length dict begin
  {1 index /FID ne {def} {pop pop} ifelse} forall
  /Encoding WinAnsiEncoding def
  currentdict
end
/Courier-BoldOblique exch definefont pop
/Courier-Bold findfont
dup length dict begin
  {1 index /FID ne {def} {pop pop} ifelse} forall
  /Encoding WinAnsiEncoding def
  currentdict
end
/Courier-Bold exch definefont pop
/Helvetica findfont
dup length dict begin
  {1 index /FID ne {def} {pop pop} ifelse} forall
  /Encoding WinAnsiEncoding def
  currentdict
end
/Helvetica exch definefont pop
/Helvetica-Oblique findfont
dup length dict begin
  {1 index /FID ne {def} {pop pop} ifelse} forall
  /Encoding WinAnsiEncoding def
  currentdict
end
/Helvetica-Oblique exch definefont pop
/Helvetica-Bold findfont
dup length dict begin
  {1 index /FID ne {def} {pop pop} ifelse} forall
  /Encoding WinAnsiEncoding def
  currentdict
end
/Helvetica-Bold exch definefont pop
/Helvetica-BoldOblique findfont
dup length dict begin
  {1 index /FID ne {def} {pop pop} ifelse} forall
  /Encoding WinAnsiEncoding def
  currentdict
end
/Helvetica-BoldOblique exch definefont pop
/Times-Roman findfont
dup length dict begin
  {1 index /FID ne {def} {pop pop} ifelse} forall
  /Encoding WinAnsiEncoding def
  currentdict
end
/Times-Roman exch definefont pop
/Times-Italic findfont
dup length dict begin
  {1 index /FID ne {def} {pop pop} ifelse} forall
  /Encoding WinAnsiEncoding def
  currentdict
end
/Times-Italic exch definefont pop
/Times-Bold findfont
dup length dict begin
  {1 index /FID ne {def} {pop pop} ifelse} forall
  /Encoding WinAnsiEncoding def
  currentdict
end
/Times-Bold exch definefont pop
/Times-BoldItalic findfont
dup length dict begin
  {1 index /FID ne {def} {pop pop} ifelse} forall
  /Encoding WinAnsiEncoding def
  currentdict
end
/Times-BoldItalic exch definefont pop
/Courier findfont
dup length dict begin
  {1 index /FID ne {def} {pop pop} ifelse} forall
  /Encoding WinAnsiEncoding def
  currentdict
end
/Courier exch definefont pop
%FOPEndFontReencode
%%EndProlog
%%Page: 1 1
%%PageBoundingBox: 0 0 560 420
%%BeginPageSetup
[1 0 0 -1 0 420] CT
%%EndPageSetup
GS
1 GC
N
0 0 560 420 re
f
GR
GS
1 GC
N
0 0 560 420 re
f
GR
GS
1 GC
N
134.25 343 M
445.75 343 L
445.75 31.5 L
134.25 31.5 L
cp
f
GR
GS
0.896 GC
1 LJ
N
134.25 343 M
134.25 31.5 L
S
GR
GS
0.896 GC
1 LJ
N
258.85 343 M
258.85 31.5 L
S
GR
GS
0.896 GC
1 LJ
N
383.45 343 M
383.45 31.5 L
S
GR
GS
0.896 GC
1 LJ
N
445.75 322.233 M
134.25 322.233 L
S
GR
GS
0.896 GC
1 LJ
N
445.75 239.167 M
134.25 239.167 L
S
GR
GS
0.896 GC
1 LJ
N
445.75 156.1 M
134.25 156.1 L
S
GR
GS
0.896 GC
1 LJ
N
445.75 73.033 M
134.25 73.033 L
S
GR
GS
0.302 GC
2 setlinecap
1 LJ
N
134.25 343 M
445.75 343 L
S
GR
GS
0.302 GC
2 setlinecap
1 LJ
N
134.25 343 M
134.25 349.23 L
S
GR
GS
0.302 GC
2 setlinecap
1 LJ
N
258.85 343 M
258.85 349.23 L
S
GR
GS
0.302 GC
2 setlinecap
1 LJ
N
383.45 343 M
383.45 349.23 L
S
GR
GS
0.302 GC
2 setlinecap
1 LJ
N
159.17 343 M
159.17 346.115 L
S
GR
GS
0.302 GC
2 setlinecap
1 LJ
N
184.09 343 M
184.09 346.115 L
S
GR
GS
0.302 GC
2 setlinecap
1 LJ
N
209.01 343 M
209.01 346.115 L
S
GR
GS
0.302 GC
2 setlinecap
1 LJ
N
233.93 343 M
233.93 346.115 L
S
GR
GS
0.302 GC
2 setlinecap
1 LJ
N
283.77 343 M
283.77 346.115 L
S
GR
GS
0.302 GC
2 setlinecap
1 LJ
N
308.69 343 M
308.69 346.115 L
S
GR
GS
0.302 GC
2 setlinecap
1 LJ
N
333.61 343 M
333.61 346.115 L
S
GR
GS
0.302 GC
2 setlinecap
1 LJ
N
358.53 343 M
358.53 346.115 L
S
GR
GS
0.302 GC
2 setlinecap
1 LJ
N
408.37 343 M
408.37 346.115 L
S
GR
GS
0.302 GC
2 setlinecap
1 LJ
N
433.29 343 M
433.29 346.115 L
S
GR
GS
[1 0 0 1 134.25 356.23001] CT
0.302 GC
/Helvetica 25 F
GS
[1 0 0 1 0 0] CT
-7 24 moveto 
1 -1 scale
(0) t 
GR
GR
GS
[1 0 0 1 258.85001 356.23001] CT
0.302 GC
/Helvetica 25 F
GS
[1 0 0 1 0 0] CT
-17.5 24 moveto 
1 -1 scale
(0.1) t 
GR
GR
GS
[1 0 0 1 383.45001 356.23001] CT
0.302 GC
/Helvetica 25 F
GS
[1 0 0 1 0 0] CT
-17.5 24 moveto 
1 -1 scale
(0.2) t 
GR
GR
GS
[1 0 0 1 290.00015 386.73001] CT
0.302 GC
/Helvetica 27.5 F
GS
[1 0 0 1 0 0] CT
-44.5 27 moveto 
1 -1 scale
(time \(s\)) t 
GR
GR
GS
0.302 GC
2 setlinecap
1 LJ
N
134.25 343 M
134.25 31.5 L
S
GR
GS
0.302 GC
2 setlinecap
1 LJ
N
134.25 322.233 M
128.02 322.233 L
S
GR
GS
0.302 GC
2 setlinecap
1 LJ
N
134.25 239.167 M
128.02 239.167 L
S
GR
GS
0.302 GC
2 setlinecap
1 LJ
N
134.25 156.1 M
128.02 156.1 L
S
GR
GS
0.302 GC
2 setlinecap
1 LJ
N
134.25 73.033 M
128.02 73.033 L
S
GR
GS
0.302 GC
2 setlinecap
1 LJ
N
134.25 343 M
131.135 343 L
S
GR
GS
0.302 GC
2 setlinecap
1 LJ
N
134.25 301.467 M
131.135 301.467 L
S
GR
GS
0.302 GC
2 setlinecap
1 LJ
N
134.25 280.7 M
131.135 280.7 L
S
GR
GS
0.302 GC
2 setlinecap
1 LJ
N
134.25 259.933 M
131.135 259.933 L
S
GR
GS
0.302 GC
2 setlinecap
1 LJ
N
134.25 218.4 M
131.135 218.4 L
S
GR
GS
0.302 GC
2 setlinecap
1 LJ
N
134.25 197.633 M
131.135 197.633 L
S
GR
GS
0.302 GC
2 setlinecap
1 LJ
N
134.25 176.867 M
131.135 176.867 L
S
GR
GS
0.302 GC
2 setlinecap
1 LJ
N
134.25 135.333 M
131.135 135.333 L
S
GR
GS
0.302 GC
2 setlinecap
1 LJ
N
134.25 114.567 M
131.135 114.567 L
S
GR
GS
0.302 GC
2 setlinecap
1 LJ
N
134.25 93.8 M
131.135 93.8 L
S
GR
GS
0.302 GC
2 setlinecap
1 LJ
N
134.25 52.267 M
131.135 52.267 L
S
GR
GS
0.302 GC
2 setlinecap
1 LJ
N
134.25 31.5 M
131.135 31.5 L
S
GR
GS
[1 0 0 1 121.02 322.23334] CT
0.302 GC
/Helvetica 25 F
GS
[1 0 0 1 0 0] CT
-52 9 moveto 
1 -1 scale
(-400) t 
GR
GR
GS
[1 0 0 1 121.02 239.16667] CT
0.302 GC
/Helvetica 25 F
GS
[1 0 0 1 0 0] CT
-52 9 moveto 
1 -1 scale
(-200) t 
GR
GR
GS
[1 0 0 1 121.02 156.10001] CT
0.302 GC
/Helvetica 25 F
GS
[1 0 0 1 0 0] CT
-14 9 moveto 
1 -1 scale
(0) t 
GR
GR
GS
[1 0 0 1 121.02 73.03333] CT
0.302 GC
/Helvetica 25 F
GS
[1 0 0 1 0 0] CT
-42 9 moveto 
1 -1 scale
(200) t 
GR
GR
GS
[0 -1 1 0 66.52 187.24985] CT
0.302 GC
/Helvetica 27.5 F
GS
[1 0 0 1 0 0] CT
-167 -6 moveto 
1 -1 scale
(component velocity \(deg/s\)) t 
GR
GR
GS
1 LJ
2 LW
N
134.25 156.1 M
135.496 155.391 L
136.742 154.637 L
137.988 153.843 L
139.234 153.011 L
140.48 152.144 L
141.726 151.245 L
142.972 150.318 L
144.218 149.366 L
145.464 148.391 L
146.71 147.397 L
147.956 146.387 L
149.202 145.364 L
150.448 144.331 L
151.694 143.292 L
152.94 142.249 L
154.186 141.205 L
155.432 140.163 L
156.678 139.128 L
157.924 138.101 L
159.17 137.086 L
160.416 136.086 L
161.662 135.101 L
162.908 134.134 L
164.154 133.185 L
165.4 132.254 L
166.646 131.344 L
167.892 130.454 L
169.138 129.586 L
170.384 128.741 L
171.63 127.92 L
172.876 127.124 L
174.122 126.351 L
175.368 125.601 L
176.614 124.873 L
177.86 124.166 L
179.106 123.478 L
180.352 122.81 L
181.598 122.159 L
182.844 121.524 L
184.09 120.906 L
185.336 120.302 L
186.582 119.713 L
187.828 119.14 L
189.074 118.583 L
190.32 118.041 L
191.566 117.516 L
192.812 117.008 L
194.058 116.516 L
195.304 116.042 L
196.55 115.586 L
197.796 115.149 L
199.042 114.733 L
200.288 114.341 L
201.534 113.978 L
202.78 113.645 L
204.026 113.347 L
205.272 113.087 L
206.518 112.867 L
207.764 112.692 L
209.01 112.563 L
210.256 112.485 L
211.502 112.458 L
212.748 112.483 L
213.994 112.559 L
215.24 112.687 L
216.486 112.868 L
217.732 113.101 L
218.978 113.387 L
220.224 113.727 L
221.47 114.121 L
222.716 114.57 L
223.962 115.073 L
225.208 115.633 L
226.454 116.25 L
227.7 116.925 L
228.946 117.66 L
230.192 118.454 L
231.438 119.31 L
232.684 120.229 L
233.93 121.21 L
235.176 122.259 L
236.422 123.387 L
237.668 124.612 L
238.914 125.948 L
240.16 127.411 L
241.406 129.017 L
242.652 130.782 L
243.898 132.722 L
245.144 134.853 L
246.39 137.189 L
247.636 139.734 L
248.882 142.434 L
250.128 145.225 L
251.374 148.041 L
252.62 150.815 L
253.866 153.482 L
255.112 155.976 L
256.358 158.232 L
257.604 160.182 L
258.85 161.762 L
260.096 162.926 L
261.342 163.704 L
262.588 164.147 L
263.834 164.306 L
265.08 164.232 L
266.326 163.975 L
267.572 163.586 L
268.818 163.116 L
270.064 162.616 L
271.31 162.136 L
272.556 161.717 L
273.802 161.362 L
275.048 161.062 L
276.294 160.811 L
277.54 160.601 L
278.786 160.423 L
280.032 160.271 L
281.278 160.137 L
282.524 160.014 L
283.77 159.893 L
285.016 159.768 L
286.262 159.639 L
287.508 159.507 L
288.754 159.372 L
290 159.233 L
291.246 159.093 L
292.492 158.952 L
293.738 158.81 L
294.984 158.668 L
296.23 158.526 L
297.476 158.385 L
298.722 158.245 L
299.968 158.107 L
301.214 157.971 L
302.46 157.837 L
303.706 157.705 L
304.952 157.575 L
306.198 157.449 L
307.444 157.326 L
308.69 157.207 L
309.936 157.091 L
311.182 156.979 L
312.428 156.872 L
313.674 156.769 L
314.92 156.67 L
316.166 156.577 L
317.412 156.49 L
318.658 156.408 L
319.904 156.332 L
321.15 156.262 L
322.396 156.198 L
323.642 156.14 L
324.888 156.087 L
326.134 156.04 L
327.38 155.996 L
328.626 155.956 L
329.872 155.919 L
331.118 155.884 L
332.364 155.851 L
333.61 155.82 L
334.856 155.789 L
336.102 155.76 L
337.348 155.731 L
338.594 155.704 L
339.84 155.678 L
341.086 155.654 L
342.332 155.631 L
343.578 155.61 L
344.824 155.591 L
346.07 155.574 L
347.316 155.559 L
348.562 155.546 L
349.808 155.535 L
351.054 155.526 L
352.3 155.518 L
353.546 155.512 L
354.792 155.507 L
356.038 155.503 L
357.284 155.5 L
358.53 155.497 L
359.776 155.495 L
361.022 155.493 L
362.268 155.492 L
363.514 155.491 L
364.76 155.491 L
366.006 155.491 L
367.252 155.492 L
368.498 155.493 L
369.744 155.495 L
370.99 155.498 L
372.236 155.501 L
373.482 155.504 L
374.728 155.508 L
375.974 155.513 L
377.22 155.518 L
378.466 155.524 L
379.712 155.53 L
380.958 155.537 L
382.204 155.544 L
383.45 155.551 L
384.696 155.559 L
385.942 155.568 L
387.188 155.576 L
388.434 155.585 L
389.68 155.595 L
390.926 155.605 L
392.172 155.615 L
393.418 155.625 L
394.664 155.635 L
395.91 155.645 L
397.156 155.656 L
398.402 155.667 L
399.648 155.677 L
400.894 155.688 L
402.14 155.699 L
403.386 155.71 L
404.632 155.72 L
405.878 155.731 L
407.124 155.741 L
408.37 155.752 L
409.616 155.762 L
410.862 155.772 L
412.108 155.782 L
413.354 155.792 L
414.6 155.801 L
415.846 155.811 L
417.092 155.82 L
418.338 155.83 L
419.584 155.839 L
420.83 155.849 L
422.076 155.858 L
423.322 155.867 L
424.568 155.877 L
425.814 155.886 L
427.06 155.896 L
428.306 155.905 L
429.552 155.915 L
430.798 155.924 L
432.044 155.933 L
433.29 155.942 L
434.536 155.952 L
435.782 155.961 L
437.028 155.97 L
438.274 155.978 L
439.52 155.987 L
440.766 155.995 L
442.012 156.003 L
443.258 156.01 L
444.504 156.018 L
S
GR
GS
1 0 1 RC
1 LJ
1.5 LW
N
134.25 156.1 M
135.496 152.213 L
136.742 148.51 L
137.988 144.987 L
139.234 141.64 L
140.48 138.465 L
141.726 135.457 L
142.972 132.613 L
144.218 129.928 L
145.464 127.398 L
146.71 125.019 L
147.956 122.787 L
149.202 120.697 L
150.448 118.745 L
151.694 116.928 L
152.94 115.24 L
154.186 113.678 L
155.432 112.238 L
156.678 110.915 L
157.924 109.705 L
159.17 108.604 L
160.416 107.609 L
161.662 106.715 L
162.908 105.921 L
164.154 105.224 L
165.4 104.622 L
166.646 104.111 L
167.892 103.69 L
169.138 103.356 L
170.384 103.106 L
171.63 102.938 L
172.876 102.849 L
174.122 102.837 L
175.368 102.901 L
176.614 103.04 L
177.86 103.25 L
179.106 103.532 L
180.352 103.882 L
181.598 104.3 L
182.844 104.783 L
184.09 105.331 L
185.336 105.94 L
186.582 106.608 L
187.828 107.33 L
189.074 108.101 L
190.32 108.919 L
191.566 109.779 L
192.812 110.676 L
194.058 111.607 L
195.304 112.568 L
196.55 113.554 L
197.796 114.562 L
199.042 115.588 L
200.288 116.63 L
201.534 117.684 L
202.78 118.749 L
204.026 119.82 L
205.272 120.896 L
206.518 121.973 L
207.764 123.048 L
209.01 124.118 L
210.256 125.183 L
211.502 126.247 L
212.748 127.317 L
213.994 128.4 L
215.24 129.503 L
216.486 130.633 L
217.732 131.796 L
218.978 132.999 L
220.224 134.25 L
221.47 135.554 L
222.716 136.915 L
223.962 138.322 L
225.208 139.759 L
226.454 141.212 L
227.7 142.666 L
228.946 144.105 L
230.192 145.515 L
231.438 146.88 L
232.684 148.186 L
233.93 149.418 L
235.176 150.564 L
236.422 151.623 L
237.668 152.601 L
238.914 153.502 L
240.16 154.327 L
241.406 155.083 L
242.652 155.772 L
243.898 156.398 L
245.144 156.965 L
246.39 157.477 L
247.636 157.937 L
248.882 158.348 L
250.128 158.711 L
251.374 159.03 L
252.62 159.305 L
253.866 159.539 L
255.112 159.733 L
256.358 159.891 L
257.604 160.013 L
258.85 160.102 L
260.096 160.161 L
261.342 160.192 L
262.588 160.198 L
263.834 160.184 L
265.08 160.152 L
266.326 160.107 L
267.572 160.05 L
268.818 159.987 L
270.064 159.92 L
271.31 159.853 L
272.556 159.788 L
273.802 159.726 L
275.048 159.666 L
276.294 159.607 L
277.54 159.548 L
278.786 159.49 L
280.032 159.431 L
281.278 159.371 L
282.524 159.309 L
283.77 159.244 L
285.016 159.177 L
286.262 159.107 L
287.508 159.035 L
288.754 158.961 L
290 158.886 L
291.246 158.81 L
292.492 158.733 L
293.738 158.657 L
294.984 158.58 L
296.23 158.505 L
297.476 158.431 L
298.722 158.358 L
299.968 158.287 L
301.214 158.217 L
302.46 158.149 L
303.706 158.081 L
304.952 158.016 L
306.198 157.952 L
307.444 157.889 L
308.69 157.828 L
309.936 157.769 L
311.182 157.711 L
312.428 157.655 L
313.674 157.601 L
314.92 157.548 L
316.166 157.497 L
317.412 157.449 L
318.658 157.402 L
319.904 157.357 L
321.15 157.314 L
322.396 157.272 L
323.642 157.233 L
324.888 157.195 L
326.134 157.159 L
327.38 157.123 L
328.626 157.089 L
329.872 157.054 L
331.118 157.02 L
332.364 156.986 L
333.61 156.952 L
334.856 156.917 L
336.102 156.882 L
337.348 156.847 L
338.594 156.812 L
339.84 156.777 L
341.086 156.742 L
342.332 156.707 L
343.578 156.673 L
344.824 156.64 L
346.07 156.608 L
347.316 156.577 L
348.562 156.547 L
349.808 156.518 L
351.054 156.49 L
352.3 156.464 L
353.546 156.438 L
354.792 156.413 L
356.038 156.389 L
357.284 156.366 L
358.53 156.343 L
359.776 156.322 L
361.022 156.302 L
362.268 156.282 L
363.514 156.263 L
364.76 156.245 L
366.006 156.228 L
367.252 156.211 L
368.498 156.195 L
369.744 156.179 L
370.99 156.164 L
372.236 156.149 L
373.482 156.135 L
374.728 156.121 L
375.974 156.108 L
377.22 156.096 L
378.466 156.084 L
379.712 156.072 L
380.958 156.061 L
382.204 156.051 L
383.45 156.041 L
384.696 156.032 L
385.942 156.023 L
387.188 156.015 L
388.434 156.007 L
389.68 156 L
390.926 155.993 L
392.172 155.987 L
393.418 155.981 L
394.664 155.976 L
395.91 155.97 L
397.156 155.966 L
398.402 155.961 L
399.648 155.957 L
400.894 155.953 L
402.14 155.949 L
403.386 155.945 L
404.632 155.942 L
405.878 155.939 L
407.124 155.937 L
408.37 155.934 L
409.616 155.932 L
410.862 155.931 L
412.108 155.929 L
413.354 155.928 L
414.6 155.927 L
415.846 155.926 L
417.092 155.925 L
418.338 155.925 L
419.584 155.925 L
420.83 155.925 L
422.076 155.925 L
423.322 155.925 L
424.568 155.926 L
425.814 155.927 L
427.06 155.927 L
428.306 155.928 L
429.552 155.929 L
430.798 155.93 L
432.044 155.932 L
433.29 155.933 L
434.536 155.934 L
435.782 155.936 L
437.028 155.938 L
438.274 155.939 L
439.52 155.941 L
440.766 155.943 L
442.012 155.945 L
443.258 155.947 L
444.504 155.949 L
S
GR
GS
0 0 1 RC
1 LJ
1.5 LW
N
134.25 156.1 M
135.496 148.239 L
136.742 140.754 L
137.988 133.639 L
139.234 126.891 L
140.48 120.505 L
141.726 114.475 L
142.972 108.799 L
144.218 103.471 L
145.464 98.486 L
146.71 93.841 L
147.956 89.531 L
149.202 85.551 L
150.448 81.896 L
151.694 78.563 L
152.94 75.547 L
154.186 72.843 L
155.432 70.446 L
156.678 68.353 L
157.924 66.559 L
159.17 65.058 L
160.416 63.846 L
161.662 62.911 L
162.908 62.239 L
164.154 61.817 L
165.4 61.632 L
166.646 61.672 L
167.892 61.923 L
169.138 62.371 L
170.384 63.004 L
171.63 63.809 L
172.876 64.772 L
174.122 65.886 L
175.368 67.14 L
176.614 68.525 L
177.86 70.034 L
179.106 71.656 L
180.352 73.383 L
181.598 75.206 L
182.844 77.116 L
184.09 79.105 L
185.336 81.166 L
186.582 83.308 L
187.828 85.543 L
189.074 87.882 L
190.32 90.337 L
191.566 92.92 L
192.812 95.643 L
194.058 98.517 L
195.304 101.554 L
196.55 104.765 L
197.796 108.156 L
199.042 111.699 L
200.288 115.361 L
201.534 119.109 L
202.78 122.909 L
204.026 126.728 L
205.272 130.531 L
206.518 134.286 L
207.764 137.958 L
209.01 141.515 L
210.256 144.928 L
211.502 148.199 L
212.748 151.331 L
213.994 154.331 L
215.24 157.206 L
216.486 159.96 L
217.732 162.601 L
218.978 165.133 L
220.224 167.562 L
221.47 169.895 L
222.716 172.136 L
223.962 174.286 L
225.208 176.342 L
226.454 178.306 L
227.7 180.174 L
228.946 181.947 L
230.192 183.623 L
231.438 185.202 L
232.684 186.681 L
233.93 188.062 L
235.176 189.332 L
236.422 190.45 L
237.668 191.36 L
238.914 192.01 L
240.16 192.347 L
241.406 192.318 L
242.652 191.869 L
243.898 190.948 L
245.144 189.501 L
246.39 187.476 L
247.636 184.85 L
248.882 181.728 L
250.128 178.247 L
251.374 174.543 L
252.62 170.752 L
253.866 167.01 L
255.112 163.453 L
256.358 160.218 L
257.604 157.44 L
258.85 155.257 L
260.096 153.766 L
261.342 152.913 L
262.588 152.605 L
263.834 152.752 L
265.08 153.26 L
266.326 154.038 L
267.572 154.994 L
268.818 156.035 L
270.064 157.069 L
271.31 158.004 L
272.556 158.767 L
273.802 159.361 L
275.048 159.809 L
276.294 160.131 L
277.54 160.35 L
278.786 160.489 L
280.032 160.569 L
281.278 160.612 L
282.524 160.64 L
283.77 160.676 L
285.016 160.736 L
286.262 160.821 L
287.508 160.925 L
288.754 161.044 L
290 161.172 L
291.246 161.305 L
292.492 161.437 L
293.738 161.564 L
294.984 161.68 L
296.23 161.781 L
297.476 161.864 L
298.722 161.927 L
299.968 161.974 L
301.214 162.006 L
302.46 162.024 L
303.706 162.031 L
304.952 162.028 L
306.198 162.016 L
307.444 161.998 L
308.69 161.976 L
309.936 161.95 L
311.182 161.921 L
312.428 161.889 L
313.674 161.854 L
314.92 161.817 L
316.166 161.777 L
317.412 161.734 L
318.658 161.688 L
319.904 161.64 L
321.15 161.59 L
322.396 161.537 L
323.642 161.482 L
324.888 161.425 L
326.134 161.365 L
327.38 161.304 L
328.626 161.241 L
329.872 161.176 L
331.118 161.109 L
332.364 161.041 L
333.61 160.972 L
334.856 160.901 L
336.102 160.828 L
337.348 160.755 L
338.594 160.679 L
339.84 160.602 L
341.086 160.523 L
342.332 160.442 L
343.578 160.359 L
344.824 160.273 L
346.07 160.186 L
347.316 160.097 L
348.562 160.006 L
349.808 159.914 L
351.054 159.822 L
352.3 159.731 L
353.546 159.642 L
354.792 159.555 L
356.038 159.471 L
357.284 159.391 L
358.53 159.316 L
359.776 159.246 L
361.022 159.18 L
362.268 159.118 L
363.514 159.059 L
364.76 159.002 L
366.006 158.946 L
367.252 158.891 L
368.498 158.834 L
369.744 158.777 L
370.99 158.717 L
372.236 158.654 L
373.482 158.589 L
374.728 158.521 L
375.974 158.451 L
377.22 158.38 L
378.466 158.307 L
379.712 158.233 L
380.958 158.158 L
382.204 158.083 L
383.45 158.009 L
384.696 157.934 L
385.942 157.861 L
387.188 157.788 L
388.434 157.717 L
389.68 157.647 L
390.926 157.578 L
392.172 157.512 L
393.418 157.448 L
394.664 157.386 L
395.91 157.327 L
397.156 157.27 L
398.402 157.217 L
399.648 157.166 L
400.894 157.118 L
402.14 157.073 L
403.386 157.03 L
404.632 156.99 L
405.878 156.953 L
407.124 156.917 L
408.37 156.884 L
409.616 156.853 L
410.862 156.824 L
412.108 156.797 L
413.354 156.771 L
414.6 156.745 L
415.846 156.72 L
417.092 156.695 L
418.338 156.67 L
419.584 156.644 L
420.83 156.617 L
422.076 156.589 L
423.322 156.56 L
424.568 156.53 L
425.814 156.499 L
427.06 156.468 L
428.306 156.437 L
429.552 156.407 L
430.798 156.377 L
432.044 156.348 L
433.29 156.32 L
434.536 156.293 L
435.782 156.268 L
437.028 156.244 L
438.274 156.221 L
439.52 156.199 L
440.766 156.179 L
442.012 156.159 L
443.258 156.141 L
444.504 156.123 L
S
GR
GS
0 1 0 RC
1 LJ
1.5 LW
N
134.25 156.1 M
135.496 144.737 L
136.742 134.027 L
137.988 123.955 L
139.234 114.506 L
140.48 105.664 L
141.726 97.415 L
142.972 89.744 L
144.218 82.634 L
145.464 76.072 L
146.71 70.042 L
147.956 64.528 L
149.202 59.516 L
150.448 54.991 L
151.694 50.937 L
152.94 47.339 L
154.186 44.182 L
155.432 41.451 L
156.678 39.131 L
157.924 37.206 L
159.17 35.661 L
160.416 34.482 L
161.662 33.648 L
162.908 33.14 L
164.154 32.939 L
165.4 33.025 L
166.646 33.38 L
167.892 33.983 L
169.138 34.815 L
170.384 35.856 L
171.63 37.088 L
172.876 38.495 L
174.122 40.088 L
175.368 41.88 L
176.614 43.886 L
177.86 46.121 L
179.106 48.598 L
180.352 51.332 L
181.598 54.338 L
182.844 57.63 L
184.09 61.222 L
185.336 65.119 L
186.582 69.289 L
187.828 73.688 L
189.074 78.274 L
190.32 83.005 L
191.566 87.836 L
192.812 92.727 L
194.058 97.634 L
195.304 102.514 L
196.55 107.325 L
197.796 112.033 L
199.042 116.641 L
200.288 121.161 L
201.534 125.605 L
202.78 129.985 L
204.026 134.312 L
205.272 138.599 L
206.518 142.857 L
207.764 147.099 L
209.01 151.335 L
210.256 155.574 L
211.502 159.797 L
212.748 163.983 L
213.994 168.11 L
215.24 172.157 L
216.486 176.101 L
217.732 179.919 L
218.978 183.591 L
220.224 187.095 L
221.47 190.407 L
222.716 193.511 L
223.962 196.41 L
225.208 199.111 L
226.454 201.62 L
227.7 203.945 L
228.946 206.093 L
230.192 208.072 L
231.438 209.888 L
232.684 211.549 L
233.93 213.062 L
235.176 214.418 L
236.422 215.545 L
237.668 216.355 L
238.914 216.76 L
240.16 216.673 L
241.406 216.005 L
242.652 214.668 L
243.898 212.574 L
245.144 209.636 L
246.39 205.765 L
247.636 200.926 L
248.882 195.295 L
250.128 189.099 L
251.374 182.568 L
252.62 175.929 L
253.866 169.411 L
255.112 163.242 L
256.358 157.65 L
257.604 152.863 L
258.85 149.11 L
260.096 146.554 L
261.342 145.101 L
262.588 144.592 L
263.834 144.869 L
265.08 145.771 L
266.326 147.141 L
267.572 148.82 L
268.818 150.648 L
270.064 152.466 L
271.31 154.117 L
272.556 155.473 L
273.802 156.542 L
275.048 157.365 L
276.294 157.981 L
277.54 158.432 L
278.786 158.757 L
280.032 158.997 L
281.278 159.191 L
282.524 159.381 L
283.77 159.607 L
285.016 159.9 L
286.262 160.255 L
287.508 160.659 L
288.754 161.099 L
290 161.561 L
291.246 162.032 L
292.492 162.497 L
293.738 162.945 L
294.984 163.36 L
296.23 163.731 L
297.476 164.046 L
298.722 164.308 L
299.968 164.523 L
301.214 164.698 L
302.46 164.837 L
303.706 164.948 L
304.952 165.036 L
306.198 165.107 L
307.444 165.168 L
308.69 165.223 L
309.936 165.278 L
311.182 165.333 L
312.428 165.387 L
313.674 165.437 L
314.92 165.484 L
316.166 165.526 L
317.412 165.561 L
318.658 165.588 L
319.904 165.606 L
321.15 165.614 L
322.396 165.61 L
323.642 165.596 L
324.888 165.571 L
326.134 165.536 L
327.38 165.492 L
328.626 165.438 L
329.872 165.377 L
331.118 165.308 L
332.364 165.232 L
333.61 165.149 L
334.856 165.06 L
336.102 164.966 L
337.348 164.866 L
338.594 164.763 L
339.84 164.655 L
341.086 164.544 L
342.332 164.43 L
343.578 164.314 L
344.824 164.196 L
346.07 164.076 L
347.316 163.956 L
348.562 163.836 L
349.808 163.714 L
351.054 163.592 L
352.3 163.47 L
353.546 163.346 L
354.792 163.223 L
356.038 163.098 L
357.284 162.973 L
358.53 162.848 L
359.776 162.722 L
361.022 162.597 L
362.268 162.472 L
363.514 162.348 L
364.76 162.227 L
366.006 162.107 L
367.252 161.991 L
368.498 161.879 L
369.744 161.771 L
370.99 161.668 L
372.236 161.57 L
373.482 161.476 L
374.728 161.385 L
375.974 161.297 L
377.22 161.209 L
378.466 161.122 L
379.712 161.033 L
380.958 160.941 L
382.204 160.846 L
383.45 160.746 L
384.696 160.64 L
385.942 160.529 L
387.188 160.414 L
388.434 160.296 L
389.68 160.175 L
390.926 160.053 L
392.172 159.929 L
393.418 159.806 L
394.664 159.684 L
395.91 159.564 L
397.156 159.446 L
398.402 159.331 L
399.648 159.219 L
400.894 159.11 L
402.14 159.005 L
403.386 158.903 L
404.632 158.805 L
405.878 158.711 L
407.124 158.62 L
408.37 158.535 L
409.616 158.453 L
410.862 158.376 L
412.108 158.301 L
413.354 158.23 L
414.6 158.16 L
415.846 158.092 L
417.092 158.025 L
418.338 157.958 L
419.584 157.89 L
420.83 157.822 L
422.076 157.752 L
423.322 157.682 L
424.568 157.611 L
425.814 157.541 L
427.06 157.472 L
428.306 157.405 L
429.552 157.34 L
430.798 157.278 L
432.044 157.219 L
433.29 157.165 L
434.536 157.116 L
435.782 157.071 L
437.028 157.03 L
438.274 156.992 L
439.52 156.956 L
440.766 156.922 L
442.012 156.888 L
443.258 156.855 L
444.504 156.822 L
S
GR
GS
1 0 0 RC
1 LJ
1.5 LW
N
134.25 156.1 M
135.496 142.914 L
136.742 130.363 L
137.988 118.443 L
139.234 107.147 L
140.48 96.47 L
141.726 86.406 L
142.972 76.95 L
144.218 68.097 L
145.464 59.84 L
146.71 52.175 L
147.956 45.095 L
149.202 38.595 L
150.448 32.67 L
150.729 31.463 L
S
GR
GS
1 0 0 RC
1 LJ
1.5 LW
N
180.419 31.463 M
181.598 35.343 L
182.844 39.759 L
184.09 44.501 L
185.336 49.568 L
186.582 54.925 L
187.828 60.528 L
189.074 66.333 L
190.32 72.296 L
191.566 78.373 L
192.812 84.519 L
194.058 90.691 L
195.304 96.844 L
196.55 102.935 L
197.796 108.928 L
199.042 114.824 L
200.288 120.636 L
201.534 126.372 L
202.78 132.043 L
204.026 137.661 L
205.272 143.236 L
206.518 148.778 L
207.764 154.298 L
209.01 159.807 L
210.256 165.308 L
211.502 170.779 L
212.748 176.188 L
213.994 181.506 L
215.24 186.703 L
216.486 191.748 L
217.732 196.611 L
218.978 201.262 L
220.224 205.67 L
221.47 209.806 L
222.716 213.647 L
223.962 217.197 L
225.208 220.47 L
226.454 223.477 L
227.7 226.232 L
228.946 228.746 L
230.192 231.032 L
231.438 233.102 L
232.684 234.969 L
233.93 236.645 L
235.176 238.121 L
236.422 239.296 L
237.668 240.048 L
238.914 240.255 L
240.16 239.795 L
241.406 238.545 L
242.652 236.383 L
243.898 233.187 L
245.144 228.835 L
246.39 223.204 L
247.636 216.245 L
248.882 208.202 L
250.128 199.39 L
251.374 190.126 L
252.62 180.727 L
253.866 171.509 L
255.112 162.788 L
256.358 154.88 L
257.604 148.102 L
258.85 142.771 L
260.096 139.112 L
261.342 136.998 L
262.588 136.208 L
263.834 136.523 L
265.08 137.726 L
266.326 139.596 L
267.572 141.915 L
268.818 144.464 L
270.064 147.024 L
271.31 149.376 L
272.556 151.347 L
273.802 152.943 L
275.048 154.217 L
276.294 155.221 L
277.54 156.009 L
278.786 156.632 L
280.032 157.144 L
281.278 157.596 L
282.524 158.041 L
283.77 158.532 L
285.016 159.109 L
286.262 159.765 L
287.508 160.483 L
288.754 161.243 L
290 162.028 L
291.246 162.818 L
292.492 163.596 L
293.738 164.343 L
294.984 165.039 L
296.23 165.668 L
297.476 166.215 L
298.722 166.683 L
299.968 167.082 L
301.214 167.419 L
302.46 167.703 L
303.706 167.943 L
304.952 168.147 L
306.198 168.323 L
307.444 168.48 L
308.69 168.625 L
309.936 168.767 L
311.182 168.905 L
312.428 169.038 L
313.674 169.164 L
314.92 169.283 L
316.166 169.393 L
317.412 169.493 L
318.658 169.581 L
319.904 169.657 L
321.15 169.718 L
322.396 169.764 L
323.642 169.796 L
324.888 169.814 L
326.134 169.82 L
327.38 169.815 L
328.626 169.799 L
329.872 169.774 L
331.118 169.741 L
332.364 169.7 L
333.61 169.653 L
334.856 169.601 L
336.102 169.542 L
337.348 169.476 L
338.594 169.403 L
339.84 169.321 L
341.086 169.229 L
342.332 169.127 L
343.578 169.014 L
344.824 168.89 L
346.07 168.752 L
347.316 168.601 L
348.562 168.439 L
349.808 168.268 L
351.054 168.09 L
352.3 167.908 L
353.546 167.724 L
354.792 167.541 L
356.038 167.36 L
357.284 167.184 L
358.53 167.015 L
359.776 166.855 L
361.022 166.703 L
362.268 166.556 L
363.514 166.413 L
364.76 166.272 L
366.006 166.13 L
367.252 165.986 L
368.498 165.838 L
369.744 165.684 L
370.99 165.522 L
372.236 165.35 L
373.482 165.17 L
374.728 164.984 L
375.974 164.794 L
377.22 164.602 L
378.466 164.41 L
379.712 164.221 L
380.958 164.035 L
382.204 163.855 L
383.45 163.684 L
384.696 163.522 L
385.942 163.369 L
387.188 163.224 L
388.434 163.085 L
389.68 162.95 L
390.926 162.819 L
392.172 162.69 L
393.418 162.561 L
394.664 162.431 L
395.91 162.299 L
397.156 162.164 L
398.402 162.026 L
399.648 161.886 L
400.894 161.743 L
402.14 161.598 L
403.386 161.453 L
404.632 161.306 L
405.878 161.16 L
407.124 161.013 L
408.37 160.868 L
409.616 160.724 L
410.862 160.582 L
412.108 160.442 L
413.354 160.306 L
414.6 160.174 L
415.846 160.046 L
417.092 159.924 L
418.338 159.808 L
419.584 159.699 L
420.83 159.596 L
422.076 159.502 L
423.322 159.415 L
424.568 159.333 L
425.814 159.256 L
427.06 159.181 L
428.306 159.109 L
429.552 159.037 L
430.798 158.965 L
432.044 158.891 L
433.29 158.814 L
434.536 158.734 L
435.782 158.649 L
437.028 158.562 L
438.274 158.472 L
439.52 158.381 L
440.766 158.288 L
442.012 158.195 L
443.258 158.102 L
444.504 158.01 L
S
GR
GS
0 1 1 RC
1 LJ
1.5 LW
N
134.25 156.1 M
135.496 140.25 L
136.742 125.192 L
137.988 110.915 L
139.234 97.412 L
140.48 84.673 L
141.726 72.689 L
142.972 61.451 L
144.218 50.949 L
145.464 41.175 L
146.71 32.12 L
146.808 31.463 L
S
GR
GS
0 1 1 RC
1 LJ
1.5 LW
N
183.68 31.463 M
184.09 33.293 L
185.336 38.92 L
186.582 44.613 L
187.828 50.389 L
189.074 56.261 L
190.32 62.244 L
191.566 68.353 L
192.812 74.602 L
194.058 81.006 L
195.304 87.578 L
196.55 94.335 L
197.796 101.282 L
199.042 108.394 L
200.288 115.64 L
201.534 122.985 L
202.78 130.399 L
204.026 137.847 L
205.272 145.297 L
206.518 152.717 L
207.764 160.074 L
209.01 167.334 L
210.256 174.468 L
211.502 181.451 L
212.748 188.259 L
213.994 194.871 L
215.24 201.262 L
216.486 207.412 L
217.732 213.295 L
218.978 218.89 L
220.224 224.175 L
221.47 229.125 L
222.716 233.722 L
223.962 237.965 L
225.208 241.855 L
226.454 245.394 L
227.7 248.584 L
228.946 251.427 L
230.192 253.924 L
231.438 256.079 L
232.684 257.892 L
233.93 259.365 L
235.176 260.481 L
236.422 261.139 L
237.668 261.217 L
238.914 260.597 L
240.16 259.157 L
241.406 256.776 L
242.652 253.334 L
243.898 248.71 L
245.144 242.784 L
246.39 235.435 L
247.636 226.622 L
248.882 216.627 L
250.128 205.809 L
251.374 194.529 L
252.62 183.147 L
253.866 172.025 L
255.112 161.523 L
256.358 152.001 L
257.604 143.819 L
258.85 137.339 L
260.096 132.819 L
261.342 130.111 L
262.588 128.964 L
263.834 129.129 L
265.08 130.355 L
266.326 132.392 L
267.572 134.99 L
268.818 137.899 L
270.064 140.868 L
271.31 143.647 L
272.556 146.037 L
273.802 148.039 L
275.048 149.704 L
276.294 151.083 L
277.54 152.229 L
278.786 153.192 L
280.032 154.025 L
281.278 154.778 L
282.524 155.504 L
283.77 156.253 L
285.016 157.067 L
286.262 157.942 L
287.508 158.864 L
288.754 159.819 L
290 160.792 L
291.246 161.77 L
292.492 162.738 L
293.738 163.682 L
294.984 164.588 L
296.23 165.442 L
297.476 166.232 L
298.722 166.96 L
299.968 167.627 L
301.214 168.238 L
302.46 168.795 L
303.706 169.302 L
304.952 169.762 L
306.198 170.179 L
307.444 170.555 L
308.69 170.894 L
309.936 171.199 L
311.182 171.472 L
312.428 171.717 L
313.674 171.936 L
314.92 172.132 L
316.166 172.307 L
317.412 172.464 L
318.658 172.607 L
319.904 172.737 L
321.15 172.857 L
322.396 172.97 L
323.642 173.075 L
324.888 173.171 L
326.134 173.259 L
327.38 173.337 L
328.626 173.404 L
329.872 173.46 L
331.118 173.505 L
332.364 173.538 L
333.61 173.557 L
334.856 173.563 L
336.102 173.555 L
337.348 173.533 L
338.594 173.498 L
339.84 173.449 L
341.086 173.386 L
342.332 173.309 L
343.578 173.218 L
344.824 173.114 L
346.07 172.995 L
347.316 172.863 L
348.562 172.718 L
349.808 172.564 L
351.054 172.402 L
352.3 172.233 L
353.546 172.061 L
354.792 171.887 L
356.038 171.712 L
357.284 171.539 L
358.53 171.371 L
359.776 171.207 L
361.022 171.048 L
362.268 170.892 L
363.514 170.736 L
364.76 170.58 L
366.006 170.422 L
367.252 170.259 L
368.498 170.092 L
369.744 169.916 L
370.99 169.732 L
372.236 169.538 L
373.482 169.335 L
374.728 169.124 L
375.974 168.906 L
377.22 168.683 L
378.466 168.456 L
379.712 168.226 L
380.958 167.995 L
382.204 167.763 L
383.45 167.532 L
384.696 167.303 L
385.942 167.077 L
387.188 166.855 L
388.434 166.638 L
389.68 166.425 L
390.926 166.219 L
392.172 166.019 L
393.418 165.826 L
394.664 165.641 L
395.91 165.465 L
397.156 165.298 L
398.402 165.138 L
399.648 164.983 L
400.894 164.832 L
402.14 164.682 L
403.386 164.531 L
404.632 164.377 L
405.878 164.218 L
407.124 164.052 L
408.37 163.878 L
409.616 163.693 L
410.862 163.5 L
412.108 163.3 L
413.354 163.098 L
414.6 162.895 L
415.846 162.694 L
417.092 162.498 L
418.338 162.309 L
419.584 162.13 L
420.83 161.964 L
422.076 161.812 L
423.322 161.672 L
424.568 161.544 L
425.814 161.426 L
427.06 161.314 L
428.306 161.207 L
429.552 161.103 L
430.798 161.001 L
432.044 160.897 L
433.29 160.791 L
434.536 160.68 L
435.782 160.564 L
437.028 160.446 L
438.274 160.325 L
439.52 160.203 L
440.766 160.08 L
442.012 159.957 L
443.258 159.835 L
444.504 159.714 L
S
GR
GS
1 1 0 RC
1 LJ
1.5 LW
N
134.25 156.1 M
135.496 140.531 L
136.742 125.458 L
137.988 110.896 L
139.234 96.863 L
140.48 83.374 L
141.726 70.447 L
142.972 58.097 L
144.218 46.341 L
145.464 35.196 L
145.906 31.463 L
S
GR
GS
1 1 0 RC
1 LJ
1.5 LW
N
186.651 31.463 M
187.828 38.345 L
189.074 45.778 L
190.32 53.338 L
191.566 61.008 L
192.812 68.772 L
194.058 76.611 L
195.304 84.507 L
196.55 92.444 L
197.796 100.407 L
199.042 108.391 L
200.288 116.393 L
201.534 124.412 L
202.78 132.444 L
204.026 140.489 L
205.272 148.544 L
206.518 156.607 L
207.764 164.675 L
209.01 172.746 L
210.256 180.811 L
211.502 188.828 L
212.748 196.752 L
213.994 204.533 L
215.24 212.124 L
216.486 219.477 L
217.732 226.544 L
218.978 233.277 L
220.224 239.629 L
221.47 245.552 L
222.716 251.007 L
223.962 255.994 L
225.208 260.522 L
226.454 264.6 L
227.7 268.237 L
228.946 271.442 L
230.192 274.224 L
231.438 276.592 L
232.684 278.556 L
233.93 280.123 L
235.176 281.278 L
236.422 281.899 L
237.668 281.839 L
238.914 280.952 L
240.16 279.09 L
241.406 276.106 L
242.652 271.854 L
243.898 266.187 L
245.144 258.958 L
246.39 250.019 L
247.636 239.32 L
248.882 227.197 L
250.128 214.079 L
251.374 200.399 L
252.62 186.586 L
253.866 173.073 L
255.112 160.29 L
256.358 148.668 L
257.604 138.638 L
258.85 130.632 L
260.096 124.959 L
261.342 121.449 L
262.588 119.808 L
263.834 119.744 L
265.08 120.964 L
266.326 123.178 L
267.572 126.091 L
268.818 129.411 L
270.064 132.846 L
271.31 136.104 L
272.556 138.95 L
273.802 141.381 L
275.048 143.451 L
276.294 145.215 L
277.54 146.727 L
278.786 148.043 L
280.032 149.215 L
281.278 150.3 L
282.524 151.352 L
283.77 152.424 L
285.016 153.56 L
286.262 154.755 L
287.508 155.99 L
288.754 157.249 L
290 158.514 L
291.246 159.767 L
292.492 160.991 L
293.738 162.17 L
294.984 163.284 L
296.23 164.318 L
297.476 165.258 L
298.722 166.109 L
299.968 166.881 L
301.214 167.585 L
302.46 168.229 L
303.706 168.825 L
304.952 169.382 L
306.198 169.91 L
307.444 170.419 L
308.69 170.918 L
309.936 171.416 L
311.182 171.91 L
312.428 172.396 L
313.674 172.869 L
314.92 173.325 L
316.166 173.759 L
317.412 174.166 L
318.658 174.543 L
319.904 174.885 L
321.15 175.186 L
322.396 175.445 L
323.642 175.663 L
324.888 175.845 L
326.134 175.994 L
327.38 176.114 L
328.626 176.208 L
329.872 176.281 L
331.118 176.337 L
332.364 176.379 L
333.61 176.411 L
334.856 176.436 L
336.102 176.454 L
337.348 176.464 L
338.594 176.466 L
339.84 176.459 L
341.086 176.442 L
342.332 176.414 L
343.578 176.374 L
344.824 176.322 L
346.07 176.257 L
347.316 176.178 L
348.562 176.086 L
349.808 175.983 L
351.054 175.87 L
352.3 175.748 L
353.546 175.619 L
354.792 175.483 L
356.038 175.341 L
357.284 175.197 L
358.53 175.049 L
359.776 174.9 L
361.022 174.748 L
362.268 174.593 L
363.514 174.432 L
364.76 174.266 L
366.006 174.092 L
367.252 173.91 L
368.498 173.718 L
369.744 173.515 L
370.99 173.3 L
372.236 173.072 L
373.482 172.833 L
374.728 172.585 L
375.974 172.33 L
377.22 172.07 L
378.466 171.807 L
379.712 171.544 L
380.958 171.281 L
382.204 171.022 L
383.45 170.769 L
384.696 170.522 L
385.942 170.283 L
387.188 170.051 L
388.434 169.825 L
389.68 169.606 L
390.926 169.394 L
392.172 169.188 L
393.418 168.987 L
394.664 168.793 L
395.91 168.604 L
397.156 168.42 L
398.402 168.239 L
399.648 168.061 L
400.894 167.882 L
402.14 167.702 L
403.386 167.518 L
404.632 167.329 L
405.878 167.133 L
407.124 166.929 L
408.37 166.715 L
409.616 166.489 L
410.862 166.254 L
412.108 166.013 L
413.354 165.768 L
414.6 165.524 L
415.846 165.282 L
417.092 165.046 L
418.338 164.819 L
419.584 164.604 L
420.83 164.403 L
422.076 164.219 L
423.322 164.05 L
424.568 163.892 L
425.814 163.744 L
427.06 163.602 L
428.306 163.462 L
429.552 163.323 L
430.798 163.182 L
432.044 163.035 L
433.29 162.879 L
434.536 162.713 L
435.782 162.539 L
437.028 162.358 L
438.274 162.174 L
439.52 161.989 L
440.766 161.805 L
442.012 161.626 L
443.258 161.453 L
444.504 161.29 L
S
GR
GS
1 0 1 RC
1 LJ
1.5 LW
N
134.25 156.1 M
135.496 157.982 L
136.742 159.774 L
137.988 161.479 L
139.234 163.099 L
140.48 164.638 L
141.726 166.097 L
142.972 167.479 L
144.218 168.787 L
145.464 170.023 L
146.71 171.19 L
147.956 172.29 L
149.202 173.326 L
150.448 174.301 L
151.694 175.216 L
152.94 176.075 L
154.186 176.88 L
155.432 177.634 L
156.678 178.338 L
157.924 178.997 L
159.17 179.611 L
160.416 180.184 L
161.662 180.716 L
162.908 181.207 L
164.154 181.657 L
165.4 182.067 L
166.646 182.436 L
167.892 182.764 L
169.138 183.052 L
170.384 183.3 L
171.63 183.508 L
172.876 183.676 L
174.122 183.806 L
175.368 183.901 L
176.614 183.962 L
177.86 183.99 L
179.106 183.99 L
180.352 183.961 L
181.598 183.907 L
182.844 183.829 L
184.09 183.73 L
185.336 183.61 L
186.582 183.472 L
187.828 183.315 L
189.074 183.139 L
190.32 182.944 L
191.566 182.732 L
192.812 182.501 L
194.058 182.254 L
195.304 181.989 L
196.55 181.707 L
197.796 181.409 L
199.042 181.096 L
200.288 180.769 L
201.534 180.431 L
202.78 180.083 L
204.026 179.726 L
205.272 179.361 L
206.518 178.992 L
207.764 178.618 L
209.01 178.243 L
210.256 177.865 L
211.502 177.484 L
212.748 177.094 L
213.994 176.692 L
215.24 176.274 L
216.486 175.838 L
217.732 175.378 L
218.978 174.891 L
220.224 174.373 L
221.47 173.821 L
222.716 173.233 L
223.962 172.612 L
225.208 171.964 L
226.454 171.294 L
227.7 170.609 L
228.946 169.914 L
230.192 169.214 L
231.438 168.515 L
232.684 167.823 L
233.93 167.143 L
235.176 166.48 L
236.422 165.832 L
237.668 165.198 L
238.914 164.575 L
240.16 163.961 L
241.406 163.354 L
242.652 162.751 L
243.898 162.151 L
245.144 161.551 L
246.39 160.949 L
247.636 160.342 L
248.882 159.728 L
250.128 159.104 L
251.374 158.467 L
252.62 157.814 L
253.866 157.141 L
255.112 156.446 L
256.358 155.726 L
257.604 154.978 L
258.85 154.198 L
260.096 153.386 L
261.342 152.549 L
262.588 151.697 L
263.834 150.839 L
265.08 149.984 L
266.326 149.141 L
267.572 148.321 L
268.818 147.532 L
270.064 146.784 L
271.31 146.086 L
272.556 145.445 L
273.802 144.858 L
275.048 144.32 L
276.294 143.824 L
277.54 143.366 L
278.786 142.94 L
280.032 142.539 L
281.278 142.159 L
282.524 141.794 L
283.77 141.438 L
285.016 141.087 L
286.262 140.742 L
287.508 140.405 L
288.754 140.077 L
290 139.76 L
291.246 139.457 L
292.492 139.17 L
293.738 138.899 L
294.984 138.648 L
296.23 138.418 L
297.476 138.211 L
298.722 138.025 L
299.968 137.86 L
301.214 137.714 L
302.46 137.586 L
303.706 137.474 L
304.952 137.377 L
306.198 137.295 L
307.444 137.224 L
308.69 137.165 L
309.936 137.115 L
311.182 137.075 L
312.428 137.043 L
313.674 137.019 L
314.92 137.002 L
316.166 136.992 L
317.412 136.988 L
318.658 136.99 L
319.904 136.997 L
321.15 137.007 L
322.396 137.022 L
323.642 137.04 L
324.888 137.062 L
326.134 137.088 L
327.38 137.118 L
328.626 137.152 L
329.872 137.19 L
331.118 137.232 L
332.364 137.279 L
333.61 137.33 L
334.856 137.385 L
336.102 137.445 L
337.348 137.508 L
338.594 137.576 L
339.84 137.648 L
341.086 137.723 L
342.332 137.801 L
343.578 137.883 L
344.824 137.968 L
346.07 138.057 L
347.316 138.147 L
348.562 138.241 L
349.808 138.336 L
351.054 138.434 L
352.3 138.534 L
353.546 138.634 L
354.792 138.736 L
356.038 138.839 L
357.284 138.943 L
358.53 139.046 L
359.776 139.15 L
361.022 139.254 L
362.268 139.359 L
363.514 139.464 L
364.76 139.569 L
366.006 139.676 L
367.252 139.783 L
368.498 139.891 L
369.744 140.001 L
370.99 140.112 L
372.236 140.225 L
373.482 140.338 L
374.728 140.453 L
375.974 140.568 L
377.22 140.684 L
378.466 140.8 L
379.712 140.916 L
380.958 141.031 L
382.204 141.145 L
383.45 141.259 L
384.696 141.371 L
385.942 141.482 L
387.188 141.592 L
388.434 141.701 L
389.68 141.81 L
390.926 141.919 L
392.172 142.028 L
393.418 142.137 L
394.664 142.246 L
395.91 142.356 L
397.156 142.466 L
398.402 142.578 L
399.648 142.689 L
400.894 142.8 L
402.14 142.912 L
403.386 143.022 L
404.632 143.132 L
405.878 143.242 L
407.124 143.349 L
408.37 143.456 L
409.616 143.561 L
410.862 143.664 L
412.108 143.766 L
413.354 143.867 L
414.6 143.967 L
415.846 144.066 L
417.092 144.165 L
418.338 144.264 L
419.584 144.363 L
420.83 144.462 L
422.076 144.562 L
423.322 144.661 L
424.568 144.761 L
425.814 144.86 L
427.06 144.959 L
428.306 145.058 L
429.552 145.155 L
430.798 145.252 L
432.044 145.347 L
433.29 145.441 L
434.536 145.533 L
435.782 145.624 L
437.028 145.713 L
438.274 145.801 L
439.52 145.888 L
440.766 145.975 L
442.012 146.061 L
443.258 146.147 L
444.504 146.232 L
S
GR
GS
0 0 1 RC
1 LJ
1.5 LW
N
134.25 156.1 M
135.496 161.301 L
136.742 166.319 L
137.988 171.153 L
139.234 175.805 L
140.48 180.275 L
141.726 184.563 L
142.972 188.671 L
144.218 192.6 L
145.464 196.349 L
146.71 199.92 L
147.956 203.312 L
149.202 206.528 L
150.448 209.567 L
151.694 212.43 L
152.94 215.118 L
154.186 217.632 L
155.432 219.972 L
156.678 222.138 L
157.924 224.132 L
159.17 225.954 L
160.416 227.607 L
161.662 229.099 L
162.908 230.44 L
164.154 231.641 L
165.4 232.713 L
166.646 233.665 L
167.892 234.508 L
169.138 235.253 L
170.384 235.909 L
171.63 236.488 L
172.876 236.998 L
174.122 237.44 L
175.368 237.817 L
176.614 238.129 L
177.86 238.377 L
179.106 238.562 L
180.352 238.683 L
181.598 238.743 L
182.844 238.742 L
184.09 238.681 L
185.336 238.56 L
186.582 238.377 L
187.828 238.13 L
189.074 237.817 L
190.32 237.435 L
191.566 236.981 L
192.812 236.455 L
194.058 235.852 L
195.304 235.171 L
196.55 234.41 L
197.796 233.568 L
199.042 232.651 L
200.288 231.669 L
201.534 230.629 L
202.78 229.54 L
204.026 228.41 L
205.272 227.248 L
206.518 226.063 L
207.764 224.863 L
209.01 223.656 L
210.256 222.449 L
211.502 221.239 L
212.748 220.024 L
213.994 218.798 L
215.24 217.557 L
216.486 216.299 L
217.732 215.018 L
218.978 213.71 L
220.224 212.372 L
221.47 210.999 L
222.716 209.59 L
223.962 208.146 L
225.208 206.675 L
226.454 205.18 L
227.7 203.668 L
228.946 202.142 L
230.192 200.609 L
231.438 199.074 L
232.684 197.541 L
233.93 196.015 L
235.176 194.5 L
236.422 192.987 L
237.668 191.465 L
238.914 189.924 L
240.16 188.352 L
241.406 186.739 L
242.652 185.073 L
243.898 183.345 L
245.144 181.542 L
246.39 179.655 L
247.636 177.678 L
248.882 175.626 L
250.128 173.52 L
251.374 171.381 L
252.62 169.229 L
253.866 167.086 L
255.112 164.971 L
256.358 162.907 L
257.604 160.914 L
258.85 159.011 L
260.096 157.217 L
261.342 155.527 L
262.588 153.934 L
263.834 152.43 L
265.08 151.008 L
266.326 149.66 L
267.572 148.377 L
268.818 147.154 L
270.064 145.981 L
271.31 144.851 L
272.556 143.759 L
273.802 142.704 L
275.048 141.687 L
276.294 140.711 L
277.54 139.778 L
278.786 138.888 L
280.032 138.045 L
281.278 137.249 L
282.524 136.502 L
283.77 135.806 L
285.016 135.162 L
286.262 134.567 L
287.508 134.017 L
288.754 133.509 L
290 133.039 L
291.246 132.604 L
292.492 132.199 L
293.738 131.822 L
294.984 131.468 L
296.23 131.134 L
297.476 130.817 L
298.722 130.516 L
299.968 130.233 L
301.214 129.967 L
302.46 129.72 L
303.706 129.491 L
304.952 129.281 L
306.198 129.09 L
307.444 128.919 L
308.69 128.769 L
309.936 128.639 L
311.182 128.528 L
312.428 128.435 L
313.674 128.36 L
314.92 128.3 L
316.166 128.254 L
317.412 128.221 L
318.658 128.2 L
319.904 128.189 L
321.15 128.187 L
322.396 128.193 L
323.642 128.207 L
324.888 128.228 L
326.134 128.256 L
327.38 128.291 L
328.626 128.333 L
329.872 128.38 L
331.118 128.434 L
332.364 128.494 L
333.61 128.56 L
334.856 128.631 L
336.102 128.708 L
337.348 128.791 L
338.594 128.88 L
339.84 128.975 L
341.086 129.077 L
342.332 129.186 L
343.578 129.303 L
344.824 129.426 L
346.07 129.558 L
347.316 129.697 L
348.562 129.842 L
349.808 129.992 L
351.054 130.145 L
352.3 130.3 L
353.546 130.455 L
354.792 130.609 L
356.038 130.759 L
357.284 130.905 L
358.53 131.045 L
359.776 131.177 L
361.022 131.303 L
362.268 131.424 L
363.514 131.542 L
364.76 131.659 L
366.006 131.776 L
367.252 131.895 L
368.498 132.017 L
369.744 132.144 L
370.99 132.277 L
372.236 132.418 L
373.482 132.567 L
374.728 132.723 L
375.974 132.886 L
377.22 133.055 L
378.466 133.23 L
379.712 133.41 L
380.958 133.595 L
382.204 133.784 L
383.45 133.978 L
384.696 134.174 L
385.942 134.374 L
387.188 134.575 L
388.434 134.777 L
389.68 134.98 L
390.926 135.181 L
392.172 135.381 L
393.418 135.578 L
394.664 135.772 L
395.91 135.962 L
397.156 136.147 L
398.402 136.326 L
399.648 136.5 L
400.894 136.669 L
402.14 136.831 L
403.386 136.987 L
404.632 137.136 L
405.878 137.278 L
407.124 137.414 L
408.37 137.542 L
409.616 137.663 L
410.862 137.778 L
412.108 137.889 L
413.354 137.997 L
414.6 138.105 L
415.846 138.213 L
417.092 138.323 L
418.338 138.437 L
419.584 138.557 L
420.83 138.684 L
422.076 138.82 L
423.322 138.963 L
424.568 139.113 L
425.814 139.268 L
427.06 139.428 L
428.306 139.59 L
429.552 139.755 L
430.798 139.92 L
432.044 140.085 L
433.29 140.249 L
434.536 140.409 L
435.782 140.568 L
437.028 140.723 L
438.274 140.876 L
439.52 141.027 L
440.766 141.175 L
442.012 141.32 L
443.258 141.463 L
444.504 141.604 L
S
GR
GS
0 1 0 RC
1 LJ
1.5 LW
N
134.25 156.1 M
135.496 164.533 L
136.742 172.59 L
137.988 180.276 L
139.234 187.602 L
140.48 194.575 L
141.726 201.204 L
142.972 207.495 L
144.218 213.459 L
145.464 219.102 L
146.71 224.434 L
147.956 229.461 L
149.202 234.193 L
150.448 238.638 L
151.694 242.803 L
152.94 246.697 L
154.186 250.329 L
155.432 253.705 L
156.678 256.836 L
157.924 259.727 L
159.17 262.389 L
160.416 264.829 L
161.662 267.06 L
162.908 269.094 L
164.154 270.944 L
165.4 272.622 L
166.646 274.14 L
167.892 275.511 L
169.138 276.748 L
170.384 277.863 L
171.63 278.869 L
172.876 279.776 L
174.122 280.582 L
175.368 281.285 L
176.614 281.881 L
177.86 282.367 L
179.106 282.739 L
180.352 282.995 L
181.598 283.131 L
182.844 283.143 L
184.09 283.029 L
185.336 282.786 L
186.582 282.422 L
187.828 281.944 L
189.074 281.36 L
190.32 280.679 L
191.566 279.908 L
192.812 279.056 L
194.058 278.132 L
195.304 277.142 L
196.55 276.096 L
197.796 275 L
199.042 273.856 L
200.288 272.664 L
201.534 271.426 L
202.78 270.141 L
204.026 268.81 L
205.272 267.435 L
206.518 266.014 L
207.764 264.55 L
209.01 263.042 L
210.256 261.49 L
211.502 259.895 L
212.748 258.257 L
213.994 256.573 L
215.24 254.844 L
216.486 253.07 L
217.732 251.249 L
218.978 249.382 L
220.224 247.467 L
221.47 245.504 L
222.716 243.493 L
223.962 241.441 L
225.208 239.354 L
226.454 237.238 L
227.7 235.1 L
228.946 232.946 L
230.192 230.784 L
231.438 228.619 L
232.684 226.459 L
233.93 224.31 L
235.176 222.175 L
236.422 220.043 L
237.668 217.901 L
238.914 215.733 L
240.16 213.527 L
241.406 211.267 L
242.652 208.94 L
243.898 206.531 L
245.144 204.027 L
246.39 201.412 L
247.636 198.679 L
248.882 195.844 L
250.128 192.93 L
251.374 189.96 L
252.62 186.954 L
253.866 183.937 L
255.112 180.93 L
256.358 177.956 L
257.604 175.037 L
258.85 172.197 L
260.096 169.453 L
261.342 166.812 L
262.588 164.277 L
263.834 161.851 L
265.08 159.537 L
266.326 157.338 L
267.572 155.257 L
268.818 153.296 L
270.064 151.459 L
271.31 149.748 L
272.556 148.164 L
273.802 146.694 L
275.048 145.326 L
276.294 144.043 L
277.54 142.833 L
278.786 141.68 L
280.032 140.57 L
281.278 139.488 L
282.524 138.421 L
283.77 137.354 L
285.016 136.277 L
286.262 135.195 L
287.508 134.119 L
288.754 133.06 L
290 132.027 L
291.246 131.032 L
292.492 130.083 L
293.738 129.192 L
294.984 128.369 L
296.23 127.623 L
297.476 126.963 L
298.722 126.383 L
299.968 125.874 L
301.214 125.428 L
302.46 125.037 L
303.706 124.692 L
304.952 124.385 L
306.198 124.107 L
307.444 123.851 L
308.69 123.606 L
309.936 123.368 L
311.182 123.135 L
312.428 122.91 L
313.674 122.695 L
314.92 122.49 L
316.166 122.298 L
317.412 122.12 L
318.658 121.958 L
319.904 121.815 L
321.15 121.69 L
322.396 121.587 L
323.642 121.503 L
324.888 121.44 L
326.134 121.394 L
327.38 121.366 L
328.626 121.355 L
329.872 121.359 L
331.118 121.377 L
332.364 121.41 L
333.61 121.455 L
334.856 121.513 L
336.102 121.581 L
337.348 121.66 L
338.594 121.749 L
339.84 121.846 L
341.086 121.953 L
342.332 122.067 L
343.578 122.188 L
344.824 122.315 L
346.07 122.448 L
347.316 122.587 L
348.562 122.73 L
349.808 122.878 L
351.054 123.03 L
352.3 123.187 L
353.546 123.348 L
354.792 123.514 L
356.038 123.683 L
357.284 123.856 L
358.53 124.034 L
359.776 124.214 L
361.022 124.398 L
362.268 124.582 L
363.514 124.768 L
364.76 124.952 L
366.006 125.135 L
367.252 125.314 L
368.498 125.49 L
369.744 125.66 L
370.99 125.824 L
372.236 125.982 L
373.482 126.133 L
374.728 126.282 L
375.974 126.429 L
377.22 126.577 L
378.466 126.727 L
379.712 126.881 L
380.958 127.042 L
382.204 127.211 L
383.45 127.39 L
384.696 127.581 L
385.942 127.783 L
387.188 127.995 L
388.434 128.215 L
389.68 128.442 L
390.926 128.675 L
392.172 128.912 L
393.418 129.153 L
394.664 129.396 L
395.91 129.639 L
397.156 129.882 L
398.402 130.124 L
399.648 130.364 L
400.894 130.6 L
402.14 130.833 L
403.386 131.061 L
404.632 131.285 L
405.878 131.502 L
407.124 131.712 L
408.37 131.915 L
409.616 132.109 L
410.862 132.297 L
412.108 132.48 L
413.354 132.659 L
414.6 132.837 L
415.846 133.014 L
417.092 133.193 L
418.338 133.375 L
419.584 133.561 L
420.83 133.754 L
422.076 133.955 L
423.322 134.161 L
424.568 134.371 L
425.814 134.582 L
427.06 134.793 L
428.306 135.001 L
429.552 135.204 L
430.798 135.399 L
432.044 135.586 L
433.29 135.761 L
434.536 135.924 L
435.782 136.075 L
437.028 136.217 L
438.274 136.352 L
439.52 136.483 L
440.766 136.611 L
442.012 136.739 L
443.258 136.869 L
444.504 137.004 L
S
GR
GS
1 0 0 RC
1 LJ
1.5 LW
N
134.25 156.1 M
135.496 166.037 L
136.742 175.671 L
137.988 184.999 L
139.234 194.02 L
140.48 202.73 L
141.726 211.127 L
142.972 219.207 L
144.218 226.968 L
145.464 234.408 L
146.71 241.523 L
147.956 248.311 L
149.202 254.769 L
150.448 260.895 L
151.694 266.684 L
152.94 272.136 L
154.186 277.247 L
155.432 282.014 L
156.678 286.435 L
157.924 290.506 L
159.17 294.226 L
160.416 297.595 L
161.662 300.635 L
162.908 303.371 L
164.154 305.828 L
165.4 308.031 L
166.646 310.005 L
167.892 311.775 L
169.138 313.367 L
170.384 314.806 L
171.63 316.117 L
172.876 317.32 L
174.122 318.413 L
175.368 319.388 L
176.614 320.24 L
177.86 320.959 L
179.106 321.54 L
180.352 321.975 L
181.598 322.256 L
182.844 322.378 L
184.09 322.331 L
185.336 322.113 L
186.582 321.732 L
187.828 321.2 L
189.074 320.526 L
190.32 319.725 L
191.566 318.806 L
192.812 317.781 L
194.058 316.662 L
195.304 315.461 L
196.55 314.188 L
197.796 312.854 L
199.042 311.46 L
200.288 310.007 L
201.534 308.496 L
202.78 306.926 L
204.026 305.297 L
205.272 303.61 L
206.518 301.866 L
207.764 300.064 L
209.01 298.205 L
210.256 296.288 L
211.502 294.315 L
212.748 292.283 L
213.994 290.194 L
215.24 288.046 L
216.486 285.839 L
217.732 283.573 L
218.978 281.248 L
220.224 278.862 L
221.47 276.417 L
222.716 273.912 L
223.962 271.356 L
225.208 268.756 L
226.454 266.123 L
227.7 263.464 L
228.946 260.789 L
230.192 258.106 L
231.438 255.424 L
232.684 252.753 L
233.93 250.1 L
235.176 247.47 L
236.422 244.847 L
237.668 242.211 L
238.914 239.541 L
240.16 236.817 L
241.406 234.018 L
242.652 231.124 L
243.898 228.115 L
245.144 224.97 L
246.39 221.668 L
247.636 218.198 L
248.882 214.582 L
250.128 210.85 L
251.374 207.034 L
252.62 203.164 L
253.866 199.271 L
255.112 195.386 L
256.358 191.54 L
257.604 187.762 L
258.85 184.085 L
260.096 180.534 L
261.342 177.115 L
262.588 173.831 L
263.834 170.684 L
265.08 167.674 L
266.326 164.805 L
267.572 162.078 L
268.818 159.494 L
270.064 157.056 L
271.31 154.765 L
272.556 152.621 L
273.802 150.611 L
275.048 148.721 L
276.294 146.935 L
277.54 145.238 L
278.786 143.616 L
280.032 142.053 L
281.278 140.535 L
282.524 139.047 L
283.77 137.573 L
285.016 136.103 L
286.262 134.643 L
287.508 133.205 L
288.754 131.799 L
290 130.436 L
291.246 129.127 L
292.492 127.882 L
293.738 126.713 L
294.984 125.631 L
296.23 124.646 L
297.476 123.765 L
298.722 122.983 L
299.968 122.29 L
301.214 121.677 L
302.46 121.134 L
303.706 120.652 L
304.952 120.222 L
306.198 119.833 L
307.444 119.476 L
308.69 119.143 L
309.936 118.825 L
311.182 118.522 L
312.428 118.234 L
313.674 117.962 L
314.92 117.708 L
316.166 117.473 L
317.412 117.258 L
318.658 117.063 L
319.904 116.889 L
321.15 116.738 L
322.396 116.611 L
323.642 116.505 L
324.888 116.42 L
326.134 116.353 L
327.38 116.302 L
328.626 116.267 L
329.872 116.245 L
331.118 116.235 L
332.364 116.234 L
333.61 116.242 L
334.856 116.257 L
336.102 116.279 L
337.348 116.311 L
338.594 116.353 L
339.84 116.406 L
341.086 116.473 L
342.332 116.553 L
343.578 116.65 L
344.824 116.763 L
346.07 116.895 L
347.316 117.045 L
348.562 117.212 L
349.808 117.393 L
351.054 117.584 L
352.3 117.784 L
353.546 117.989 L
354.792 118.196 L
356.038 118.403 L
357.284 118.606 L
358.53 118.802 L
359.776 118.99 L
361.022 119.172 L
362.268 119.349 L
363.514 119.524 L
364.76 119.699 L
366.006 119.878 L
367.252 120.062 L
368.498 120.254 L
369.744 120.456 L
370.99 120.671 L
372.236 120.9 L
373.482 121.141 L
374.728 121.393 L
375.974 121.651 L
377.22 121.914 L
378.466 122.178 L
379.712 122.441 L
380.958 122.701 L
382.204 122.953 L
383.45 123.197 L
384.696 123.429 L
385.942 123.651 L
387.188 123.865 L
388.434 124.072 L
389.68 124.275 L
390.926 124.475 L
392.172 124.675 L
393.418 124.876 L
394.664 125.08 L
395.91 125.29 L
397.156 125.506 L
398.402 125.728 L
399.648 125.956 L
400.894 126.19 L
402.14 126.429 L
403.386 126.672 L
404.632 126.919 L
405.878 127.169 L
407.124 127.423 L
408.37 127.679 L
409.616 127.936 L
410.862 128.194 L
412.108 128.451 L
413.354 128.705 L
414.6 128.954 L
415.846 129.197 L
417.092 129.433 L
418.338 129.659 L
419.584 129.874 L
420.83 130.077 L
422.076 130.266 L
423.322 130.443 L
424.568 130.612 L
425.814 130.774 L
427.06 130.931 L
428.306 131.087 L
429.552 131.245 L
430.798 131.405 L
432.044 131.572 L
433.29 131.747 L
434.536 131.932 L
435.782 132.127 L
437.028 132.332 L
438.274 132.544 L
439.52 132.764 L
440.766 132.989 L
442.012 133.219 L
443.258 133.454 L
444.504 133.691 L
S
GR
GS
0 1 1 RC
1 LJ
1.5 LW
N
134.25 156.1 M
135.496 168.251 L
136.742 179.934 L
137.988 191.156 L
139.234 201.926 L
140.48 212.253 L
141.726 222.144 L
142.972 231.608 L
144.218 240.652 L
145.464 249.286 L
146.71 257.517 L
147.956 265.353 L
149.202 272.803 L
150.448 279.875 L
151.694 286.577 L
152.94 292.917 L
154.186 298.904 L
155.432 304.546 L
156.678 309.851 L
157.924 314.826 L
159.17 319.481 L
160.416 323.824 L
161.662 327.858 L
162.908 331.59 L
164.154 335.024 L
165.4 338.164 L
166.646 341.016 L
167.627 343.037 L
S
GR
GS
0 1 1 RC
1 LJ
1.5 LW
N
199.445 343.037 M
200.288 341.926 L
201.534 340.189 L
202.78 338.359 L
204.026 336.441 L
205.272 334.438 L
206.518 332.354 L
207.764 330.191 L
209.01 327.954 L
210.256 325.646 L
211.502 323.272 L
212.748 320.839 L
213.994 318.352 L
215.24 315.817 L
216.486 313.24 L
217.732 310.626 L
218.978 307.982 L
220.224 305.313 L
221.47 302.626 L
222.716 299.922 L
223.962 297.191 L
225.208 294.42 L
226.454 291.596 L
227.7 288.704 L
228.946 285.732 L
230.192 282.665 L
231.438 279.491 L
232.684 276.195 L
233.93 272.764 L
235.176 269.19 L
236.422 265.486 L
237.668 261.673 L
238.914 257.768 L
240.16 253.79 L
241.406 249.76 L
242.652 245.696 L
243.898 241.616 L
245.144 237.541 L
246.39 233.489 L
247.636 229.475 L
248.882 225.499 L
250.128 221.556 L
251.374 217.642 L
252.62 213.751 L
253.866 209.88 L
255.112 206.025 L
256.358 202.179 L
257.604 198.339 L
258.85 194.501 L
260.096 190.664 L
261.342 186.844 L
262.588 183.063 L
263.834 179.342 L
265.08 175.702 L
266.326 172.164 L
267.572 168.748 L
268.818 165.476 L
270.064 162.37 L
271.31 159.449 L
272.556 156.728 L
273.802 154.197 L
275.048 151.839 L
276.294 149.636 L
277.54 147.571 L
278.786 145.628 L
280.032 143.788 L
281.278 142.035 L
282.524 140.351 L
283.77 138.72 L
285.016 137.128 L
286.262 135.574 L
287.508 134.062 L
288.754 132.596 L
290 131.18 L
291.246 129.816 L
292.492 128.508 L
293.738 127.26 L
294.984 126.076 L
296.23 124.958 L
297.476 123.909 L
298.722 122.93 L
299.968 122.017 L
301.214 121.17 L
302.46 120.387 L
303.706 119.666 L
304.952 119.005 L
306.198 118.404 L
307.444 117.861 L
308.69 117.373 L
309.936 116.939 L
311.182 116.554 L
312.428 116.214 L
313.674 115.914 L
314.92 115.649 L
316.166 115.415 L
317.412 115.205 L
318.658 115.017 L
319.904 114.844 L
321.15 114.682 L
322.396 114.527 L
323.642 114.38 L
324.888 114.241 L
326.134 114.112 L
327.38 113.995 L
328.626 113.889 L
329.872 113.797 L
331.118 113.72 L
332.364 113.658 L
333.61 113.614 L
334.856 113.587 L
336.102 113.579 L
337.348 113.588 L
338.594 113.615 L
339.84 113.659 L
341.086 113.72 L
342.332 113.797 L
343.578 113.89 L
344.824 114 L
346.07 114.125 L
347.316 114.264 L
348.562 114.418 L
349.808 114.582 L
351.054 114.755 L
352.3 114.935 L
353.546 115.121 L
354.792 115.309 L
356.038 115.498 L
357.284 115.685 L
358.53 115.87 L
359.776 116.049 L
361.022 116.225 L
362.268 116.399 L
363.514 116.574 L
364.76 116.75 L
366.006 116.929 L
367.252 117.115 L
368.498 117.307 L
369.744 117.509 L
370.99 117.721 L
372.236 117.946 L
373.482 118.182 L
374.728 118.428 L
375.974 118.683 L
377.22 118.945 L
378.466 119.214 L
379.712 119.487 L
380.958 119.764 L
382.204 120.044 L
383.45 120.324 L
384.696 120.604 L
385.942 120.883 L
387.188 121.159 L
388.434 121.432 L
389.68 121.7 L
390.926 121.962 L
392.172 122.217 L
393.418 122.464 L
394.664 122.702 L
395.91 122.93 L
397.156 123.147 L
398.402 123.355 L
399.648 123.558 L
400.894 123.759 L
402.14 123.96 L
403.386 124.165 L
404.632 124.376 L
405.878 124.596 L
407.124 124.829 L
408.37 125.077 L
409.616 125.341 L
410.862 125.621 L
412.108 125.91 L
413.354 126.206 L
414.6 126.505 L
415.846 126.803 L
417.092 127.096 L
418.338 127.38 L
419.584 127.651 L
420.83 127.905 L
422.076 128.14 L
423.322 128.358 L
424.568 128.562 L
425.814 128.753 L
427.06 128.937 L
428.306 129.115 L
429.552 129.291 L
430.798 129.467 L
432.044 129.647 L
433.29 129.834 L
434.536 130.03 L
435.782 130.234 L
437.028 130.446 L
438.274 130.663 L
439.52 130.885 L
440.766 131.111 L
442.012 131.338 L
443.258 131.567 L
444.504 131.795 L
S
GR
GS
1 1 0 RC
1 LJ
1.5 LW
N
134.25 156.1 M
135.496 168.89 L
136.742 181.265 L
137.988 193.226 L
139.234 204.777 L
140.48 215.919 L
141.726 226.656 L
142.972 236.99 L
144.218 246.922 L
145.464 256.456 L
146.71 265.594 L
147.956 274.338 L
149.202 282.691 L
150.448 290.655 L
151.694 298.232 L
152.94 305.426 L
154.186 312.238 L
155.432 318.671 L
156.678 324.727 L
157.924 330.409 L
159.17 335.719 L
160.416 340.661 L
161.062 343.037 L
S
GR
GS
1 1 0 RC
1 LJ
1.5 LW
N
212.802 343.037 M
213.994 340.541 L
215.24 337.862 L
216.486 335.124 L
217.732 332.335 L
218.978 329.503 L
220.224 326.637 L
221.47 323.745 L
222.716 320.832 L
223.962 317.888 L
225.208 314.898 L
226.454 311.85 L
227.7 308.73 L
228.946 305.523 L
230.192 302.217 L
231.438 298.797 L
232.684 295.249 L
233.93 291.561 L
235.176 287.722 L
236.422 283.742 L
237.668 279.634 L
238.914 275.413 L
240.16 271.092 L
241.406 266.684 L
242.652 262.204 L
243.898 257.666 L
245.144 253.082 L
246.39 248.467 L
247.636 243.833 L
248.882 239.19 L
250.128 234.547 L
251.374 229.912 L
252.62 225.294 L
253.866 220.701 L
255.112 216.142 L
256.358 211.625 L
257.604 207.159 L
258.85 202.753 L
260.096 198.415 L
261.342 194.158 L
262.588 189.993 L
263.834 185.932 L
265.08 181.987 L
266.326 178.17 L
267.572 174.493 L
268.818 170.969 L
270.064 167.608 L
271.31 164.424 L
272.556 161.423 L
273.802 158.598 L
275.048 155.935 L
276.294 153.423 L
277.54 151.048 L
278.786 148.797 L
280.032 146.658 L
281.278 144.619 L
282.524 142.666 L
283.77 140.788 L
285.016 138.973 L
286.262 137.223 L
287.508 135.541 L
288.754 133.931 L
290 132.396 L
291.246 130.94 L
292.492 129.566 L
293.738 128.278 L
294.984 127.079 L
296.23 125.972 L
297.476 124.96 L
298.722 124.036 L
299.968 123.191 L
301.214 122.418 L
302.46 121.707 L
303.706 121.051 L
304.952 120.441 L
306.198 119.869 L
307.444 119.327 L
308.69 118.806 L
309.936 118.3 L
311.182 117.81 L
312.428 117.339 L
313.674 116.889 L
314.92 116.464 L
316.166 116.066 L
317.412 115.698 L
318.658 115.363 L
319.904 115.064 L
321.15 114.804 L
322.396 114.585 L
323.642 114.404 L
324.888 114.259 L
326.134 114.145 L
327.38 114.06 L
328.626 114 L
329.872 113.962 L
331.118 113.942 L
332.364 113.938 L
333.61 113.946 L
334.856 113.964 L
336.102 113.99 L
337.348 114.026 L
338.594 114.071 L
339.84 114.125 L
341.086 114.189 L
342.332 114.263 L
343.578 114.346 L
344.824 114.44 L
346.07 114.544 L
347.316 114.658 L
348.562 114.782 L
349.808 114.914 L
351.054 115.054 L
352.3 115.2 L
353.546 115.352 L
354.792 115.509 L
356.038 115.67 L
357.284 115.834 L
358.53 116 L
359.776 116.168 L
361.022 116.338 L
362.268 116.511 L
363.514 116.69 L
364.76 116.874 L
366.006 117.066 L
367.252 117.267 L
368.498 117.477 L
369.744 117.699 L
370.99 117.933 L
372.236 118.181 L
373.482 118.44 L
374.728 118.708 L
375.974 118.984 L
377.22 119.265 L
378.466 119.549 L
379.712 119.834 L
380.958 120.118 L
382.204 120.4 L
383.45 120.675 L
384.696 120.944 L
385.942 121.206 L
387.188 121.461 L
388.434 121.709 L
389.68 121.951 L
390.926 122.186 L
392.172 122.414 L
393.418 122.637 L
394.664 122.854 L
395.91 123.065 L
397.156 123.27 L
398.402 123.473 L
399.648 123.674 L
400.894 123.876 L
402.14 124.082 L
403.386 124.293 L
404.632 124.511 L
405.878 124.739 L
407.124 124.979 L
408.37 125.234 L
409.616 125.503 L
410.862 125.785 L
412.108 126.077 L
413.354 126.373 L
414.6 126.671 L
415.846 126.967 L
417.092 127.258 L
418.338 127.538 L
419.584 127.806 L
420.83 128.056 L
422.076 128.288 L
423.322 128.502 L
424.568 128.704 L
425.814 128.897 L
427.06 129.084 L
428.306 129.271 L
429.552 129.46 L
430.798 129.655 L
432.044 129.861 L
433.29 130.081 L
434.536 130.317 L
435.782 130.568 L
437.028 130.829 L
438.274 131.097 L
439.52 131.368 L
440.766 131.637 L
442.012 131.902 L
443.258 132.159 L
444.504 132.403 L
S
GR
GS
1 LJ
0.5 LW
N
346.07 185.173 M
433.29 185.173 L
S
GR
GS
1 LJ
0.5 LW
N
346.07 334.693 M
433.29 334.693 L
S
GR
GS
1 LJ
0.5 LW
N
346.07 185.173 M
346.07 334.693 L
S
GR
GS
1 LJ
0.5 LW
N
433.29 185.173 M
433.29 334.693 L
S
GR
GS
1 LJ
2 LW
N
358.53 197.633 M
383.45 197.633 L
S
GR
GS
[1 0 0 1 390 200] CT
/Helvetica 12 F
GS
[1 0 0 1 0 0] CT
0 0 moveto 
1 -1 scale
(v) t 
GR
GR
GS
[1 0 0 1 396 206] CT
/Helvetica 9.6 F
GS
[1 0 0 1 0 0] CT
0 0 moveto 
1 -1 scale
(z) t 
GR
GR
GS
[1 0 0 1 401 200] CT
/Helvetica 12 F
GS
[1 0 0 1 0 0] CT
0 0 moveto 
1 -1 scale
(\(0\)) t 
GR
GR
GS
1 0 1 RC
1 LJ
1.5 LW
N
358.53 218.4 M
383.45 218.4 L
S
GR
GS
[1 0 0 1 390 220] CT
/Helvetica 12 F
GS
[1 0 0 1 0 0] CT
0 0 moveto 
1 -1 scale
(v) t 
GR
GR
GS
[1 0 0 1 396 226] CT
/Helvetica 9.6 F
GS
[1 0 0 1 0 0] CT
0 0 moveto 
1 -1 scale
(z) t 
GR
GR
GS
[1 0 0 1 401 220] CT
/Helvetica 12 F
GS
[1 0 0 1 0 0] CT
0 0 moveto 
1 -1 scale
(\(5\)) t 
GR
GR
GS
0 0 1 RC
1 LJ
1.5 LW
N
358.53 239.167 M
383.45 239.167 L
S
GR
GS
[1 0 0 1 390 241] CT
/Helvetica 12 F
GS
[1 0 0 1 0 0] CT
0 0 moveto 
1 -1 scale
(v) t 
GR
GR
GS
[1 0 0 1 396 247] CT
/Helvetica 9.6 F
GS
[1 0 0 1 0 0] CT
0 0 moveto 
1 -1 scale
(z) t 
GR
GR
GS
[1 0 0 1 401 241] CT
/Helvetica 12 F
GS
[1 0 0 1 0 0] CT
0 0 moveto 
1 -1 scale
(\(10\)) t 
GR
GR
GS
0 1 0 RC
1 LJ
1.5 LW
N
358.53 259.933 M
383.45 259.933 L
S
GR
GS
[1 0 0 1 390 262] CT
/Helvetica 12 F
GS
[1 0 0 1 0 0] CT
0 0 moveto 
1 -1 scale
(v) t 
GR
GR
GS
[1 0 0 1 396 268] CT
/Helvetica 9.6 F
GS
[1 0 0 1 0 0] CT
0 0 moveto 
1 -1 scale
(z) t 
GR
GR
GS
[1 0 0 1 401 262] CT
/Helvetica 12 F
GS
[1 0 0 1 0 0] CT
0 0 moveto 
1 -1 scale
(\(15\)) t 
GR
GR
GS
1 0 0 RC
1 LJ
1.5 LW
N
358.53 280.7 M
383.45 280.7 L
S
GR
GS
[1 0 0 1 390 283] CT
/Helvetica 12 F
GS
[1 0 0 1 0 0] CT
0 0 moveto 
1 -1 scale
(v) t 
GR
GR
GS
[1 0 0 1 396 289] CT
/Helvetica 9.6 F
GS
[1 0 0 1 0 0] CT
0 0 moveto 
1 -1 scale
(z) t 
GR
GR
GS
[1 0 0 1 401 283] CT
/Helvetica 12 F
GS
[1 0 0 1 0 0] CT
0 0 moveto 
1 -1 scale
(\(20\)) t 
GR
GR
GS
0 1 1 RC
1 LJ
1.5 LW
N
358.53 301.467 M
383.45 301.467 L
S
GR
GS
[1 0 0 1 390 303] CT
/Helvetica 12 F
GS
[1 0 0 1 0 0] CT
0 0 moveto 
1 -1 scale
(v) t 
GR
GR
GS
[1 0 0 1 396 309] CT
/Helvetica 9.6 F
GS
[1 0 0 1 0 0] CT
0 0 moveto 
1 -1 scale
(z) t 
GR
GR
GS
[1 0 0 1 401 303] CT
/Helvetica 12 F
GS
[1 0 0 1 0 0] CT
0 0 moveto 
1 -1 scale
(\(25\)) t 
GR
GR
GS
1 1 0 RC
1 LJ
1.5 LW
N
358.53 322.233 M
383.45 322.233 L
S
GR
GS
[1 0 0 1 390 324] CT
/Helvetica 12 F
GS
[1 0 0 1 0 0] CT
0 0 moveto 
1 -1 scale
(v) t 
GR
GR
GS
[1 0 0 1 396 330] CT
/Helvetica 9.6 F
GS
[1 0 0 1 0 0] CT
0 0 moveto 
1 -1 scale
(z) t 
GR
GR
GS
[1 0 0 1 401 324] CT
/Helvetica 12 F
GS
[1 0 0 1 0 0] CT
0 0 moveto 
1 -1 scale
(\(30\)) t 
GR
GR
%%Trailer
%%Pages: 1
%%EOF
