%!PS-Adobe-3.0 EPSF-3.0
%%Creator: (MATLAB, The Mathworks, Inc. Version 9.5.0.944444 \(R2018b\). Operating System: Mac OS X)
%%Title: ./stretchinAD_C.eps
%%CreationDate: 2020-05-08T18:22:12
%%Pages: (atend)
%%BoundingBox:    37     0   459   398
%%LanguageLevel: 2
%%EndComments
%%BeginProlog
%%BeginResource: procset (Apache XML Graphics Std ProcSet) 1.2 0
%%Version: 1.2 0
%%Copyright: (Copyright 2001-2003,2010 The Apache Software Foundation. License terms: http://www.apache.org/licenses/LICENSE-2.0)
/bd{bind def}bind def
/ld{load def}bd
/GR/grestore ld
/GS/gsave ld
/RM/rmoveto ld
/C/curveto ld
/t/show ld
/L/lineto ld
/ML/setmiterlimit ld
/CT/concat ld
/f/fill ld
/N/newpath ld
/S/stroke ld
/CC/setcmykcolor ld
/A/ashow ld
/cp/closepath ld
/RC/setrgbcolor ld
/LJ/setlinejoin ld
/GC/setgray ld
/LW/setlinewidth ld
/M/moveto ld
/re {4 2 roll M
1 index 0 rlineto
0 exch rlineto
neg 0 rlineto
cp } bd
/_ctm matrix def
/_tm matrix def
/BT { _ctm currentmatrix pop matrix _tm copy pop 0 0 moveto } bd
/ET { _ctm setmatrix } bd
/iTm { _ctm setmatrix _tm concat } bd
/Tm { _tm astore pop iTm 0 0 moveto } bd
/ux 0.0 def
/uy 0.0 def
/F {
  /Tp exch def
  /Tf exch def
  Tf findfont Tp scalefont setfont
  /cf Tf def  /cs Tp def
} bd
/ULS {currentpoint /uy exch def /ux exch def} bd
/ULE {
  /Tcx currentpoint pop def
  gsave
  newpath
  cf findfont cs scalefont dup
  /FontMatrix get 0 get /Ts exch def /FontInfo get dup
  /UnderlinePosition get Ts mul /To exch def
  /UnderlineThickness get Ts mul /Tt exch def
  ux uy To add moveto  Tcx uy To add lineto
  Tt setlinewidth stroke
  grestore
} bd
/OLE {
  /Tcx currentpoint pop def
  gsave
  newpath
  cf findfont cs scalefont dup
  /FontMatrix get 0 get /Ts exch def /FontInfo get dup
  /UnderlinePosition get Ts mul /To exch def
  /UnderlineThickness get Ts mul /Tt exch def
  ux uy To add cs add moveto Tcx uy To add cs add lineto
  Tt setlinewidth stroke
  grestore
} bd
/SOE {
  /Tcx currentpoint pop def
  gsave
  newpath
  cf findfont cs scalefont dup
  /FontMatrix get 0 get /Ts exch def /FontInfo get dup
  /UnderlinePosition get Ts mul /To exch def
  /UnderlineThickness get Ts mul /Tt exch def
  ux uy To add cs 10 mul 26 idiv add moveto Tcx uy To add cs 10 mul 26 idiv add lineto
  Tt setlinewidth stroke
  grestore
} bd
/QT {
/Y22 exch store
/X22 exch store
/Y21 exch store
/X21 exch store
currentpoint
/Y21 load 2 mul add 3 div exch
/X21 load 2 mul add 3 div exch
/X21 load 2 mul /X22 load add 3 div
/Y21 load 2 mul /Y22 load add 3 div
/X22 load /Y22 load curveto
} bd
/SSPD {
dup length /d exch dict def
{
/v exch def
/k exch def
currentpagedevice k known {
/cpdv currentpagedevice k get def
v cpdv ne {
/upd false def
/nullv v type /nulltype eq def
/nullcpdv cpdv type /nulltype eq def
nullv nullcpdv or
{
/upd true def
} {
/sametype v type cpdv type eq def
sametype {
v type /arraytype eq {
/vlen v length def
/cpdvlen cpdv length def
vlen cpdvlen eq {
0 1 vlen 1 sub {
/i exch def
/obj v i get def
/cpdobj cpdv i get def
obj cpdobj ne {
/upd true def
exit
} if
} for
} {
/upd true def
} ifelse
} {
v type /dicttype eq {
v {
/dv exch def
/dk exch def
/cpddv cpdv dk get def
dv cpddv ne {
/upd true def
exit
} if
} forall
} {
/upd true def
} ifelse
} ifelse
} if
} ifelse
upd true eq {
d k v put
} if
} if
} if
} forall
d length 0 gt {
d setpagedevice
} if
} bd
/RE { % /NewFontName [NewEncodingArray] /FontName RE -
  findfont dup length dict begin
  {
    1 index /FID ne
    {def} {pop pop} ifelse
  } forall
  /Encoding exch def
  /FontName 1 index def
  currentdict definefont pop
  end
} bind def
%%EndResource
%%BeginResource: procset (Apache XML Graphics EPS ProcSet) 1.0 0
%%Version: 1.0 0
%%Copyright: (Copyright 2002-2003 The Apache Software Foundation. License terms: http://www.apache.org/licenses/LICENSE-2.0)
/BeginEPSF { %def
/b4_Inc_state save def         % Save state for cleanup
/dict_count countdictstack def % Count objects on dict stack
/op_count count 1 sub def      % Count objects on operand stack
userdict begin                 % Push userdict on dict stack
/showpage { } def              % Redefine showpage, { } = null proc
0 setgray 0 setlinecap         % Prepare graphics state
1 setlinewidth 0 setlinejoin
10 setmiterlimit [ ] 0 setdash newpath
/languagelevel where           % If level not equal to 1 then
{pop languagelevel             % set strokeadjust and
1 ne                           % overprint to their defaults.
{false setstrokeadjust false setoverprint
} if
} if
} bd
/EndEPSF { %def
count op_count sub {pop} repeat            % Clean up stacks
countdictstack dict_count sub {end} repeat
b4_Inc_state restore
} bd
%%EndResource
%FOPBeginFontDict
%%IncludeResource: font Courier-Oblique
%%IncludeResource: font Courier-BoldOblique
%%IncludeResource: font Courier-Bold
%%IncludeResource: font ZapfDingbats
%%IncludeResource: font Symbol
%%IncludeResource: font Helvetica
%%IncludeResource: font Helvetica-Oblique
%%IncludeResource: font Helvetica-Bold
%%IncludeResource: font Helvetica-BoldOblique
%%IncludeResource: font Times-Roman
%%IncludeResource: font Times-Italic
%%IncludeResource: font Times-Bold
%%IncludeResource: font Times-BoldItalic
%%IncludeResource: font Courier
%FOPEndFontDict
%%BeginResource: encoding WinAnsiEncoding
/WinAnsiEncoding [
/.notdef /.notdef /.notdef /.notdef /.notdef
/.notdef /.notdef /.notdef /.notdef /.notdef
/.notdef /.notdef /.notdef /.notdef /.notdef
/.notdef /.notdef /.notdef /.notdef /.notdef
/.notdef /.notdef /.notdef /.notdef /.notdef
/.notdef /.notdef /.notdef /.notdef /.notdef
/.notdef /.notdef /space /exclam /quotedbl
/numbersign /dollar /percent /ampersand /quotesingle
/parenleft /parenright /asterisk /plus /comma
/hyphen /period /slash /zero /one
/two /three /four /five /six
/seven /eight /nine /colon /semicolon
/less /equal /greater /question /at
/A /B /C /D /E
/F /G /H /I /J
/K /L /M /N /O
/P /Q /R /S /T
/U /V /W /X /Y
/Z /bracketleft /backslash /bracketright /asciicircum
/underscore /quoteleft /a /b /c
/d /e /f /g /h
/i /j /k /l /m
/n /o /p /q /r
/s /t /u /v /w
/x /y /z /braceleft /bar
/braceright /asciitilde /bullet /Euro /bullet
/quotesinglbase /florin /quotedblbase /ellipsis /dagger
/daggerdbl /circumflex /perthousand /Scaron /guilsinglleft
/OE /bullet /Zcaron /bullet /bullet
/quoteleft /quoteright /quotedblleft /quotedblright /bullet
/endash /emdash /asciitilde /trademark /scaron
/guilsinglright /oe /bullet /zcaron /Ydieresis
/space /exclamdown /cent /sterling /currency
/yen /brokenbar /section /dieresis /copyright
/ordfeminine /guillemotleft /logicalnot /sfthyphen /registered
/macron /degree /plusminus /twosuperior /threesuperior
/acute /mu /paragraph /middot /cedilla
/onesuperior /ordmasculine /guillemotright /onequarter /onehalf
/threequarters /questiondown /Agrave /Aacute /Acircumflex
/Atilde /Adieresis /Aring /AE /Ccedilla
/Egrave /Eacute /Ecircumflex /Edieresis /Igrave
/Iacute /Icircumflex /Idieresis /Eth /Ntilde
/Ograve /Oacute /Ocircumflex /Otilde /Odieresis
/multiply /Oslash /Ugrave /Uacute /Ucircumflex
/Udieresis /Yacute /Thorn /germandbls /agrave
/aacute /acircumflex /atilde /adieresis /aring
/ae /ccedilla /egrave /eacute /ecircumflex
/edieresis /igrave /iacute /icircumflex /idieresis
/eth /ntilde /ograve /oacute /ocircumflex
/otilde /odieresis /divide /oslash /ugrave
/uacute /ucircumflex /udieresis /yacute /thorn
/ydieresis
] def
%%EndResource
%FOPBeginFontReencode
/Courier-Oblique findfont
dup length dict begin
  {1 index /FID ne {def} {pop pop} ifelse} forall
  /Encoding WinAnsiEncoding def
  currentdict
end
/Courier-Oblique exch definefont pop
/Courier-BoldOblique findfont
dup length dict begin
  {1 index /FID ne {def} {pop pop} ifelse} forall
  /Encoding WinAnsiEncoding def
  currentdict
end
/Courier-BoldOblique exch definefont pop
/Courier-Bold findfont
dup length dict begin
  {1 index /FID ne {def} {pop pop} ifelse} forall
  /Encoding WinAnsiEncoding def
  currentdict
end
/Courier-Bold exch definefont pop
/Helvetica findfont
dup length dict begin
  {1 index /FID ne {def} {pop pop} ifelse} forall
  /Encoding WinAnsiEncoding def
  currentdict
end
/Helvetica exch definefont pop
/Helvetica-Oblique findfont
dup length dict begin
  {1 index /FID ne {def} {pop pop} ifelse} forall
  /Encoding WinAnsiEncoding def
  currentdict
end
/Helvetica-Oblique exch definefont pop
/Helvetica-Bold findfont
dup length dict begin
  {1 index /FID ne {def} {pop pop} ifelse} forall
  /Encoding WinAnsiEncoding def
  currentdict
end
/Helvetica-Bold exch definefont pop
/Helvetica-BoldOblique findfont
dup length dict begin
  {1 index /FID ne {def} {pop pop} ifelse} forall
  /Encoding WinAnsiEncoding def
  currentdict
end
/Helvetica-BoldOblique exch definefont pop
/Times-Roman findfont
dup length dict begin
  {1 index /FID ne {def} {pop pop} ifelse} forall
  /Encoding WinAnsiEncoding def
  currentdict
end
/Times-Roman exch definefont pop
/Times-Italic findfont
dup length dict begin
  {1 index /FID ne {def} {pop pop} ifelse} forall
  /Encoding WinAnsiEncoding def
  currentdict
end
/Times-Italic exch definefont pop
/Times-Bold findfont
dup length dict begin
  {1 index /FID ne {def} {pop pop} ifelse} forall
  /Encoding WinAnsiEncoding def
  currentdict
end
/Times-Bold exch definefont pop
/Times-BoldItalic findfont
dup length dict begin
  {1 index /FID ne {def} {pop pop} ifelse} forall
  /Encoding WinAnsiEncoding def
  currentdict
end
/Times-BoldItalic exch definefont pop
/Courier findfont
dup length dict begin
  {1 index /FID ne {def} {pop pop} ifelse} forall
  /Encoding WinAnsiEncoding def
  currentdict
end
/Courier exch definefont pop
%FOPEndFontReencode
%%EndProlog
%%Page: 1 1
%%PageBoundingBox: 0 0 560 420
%%BeginPageSetup
[1 0 0 -1 0 420] CT
%%EndPageSetup
GS
1 GC
N
0 0 560 420 re
f
GR
GS
1 GC
N
0 0 560 420 re
f
GR
GS
1 GC
N
134.25 343 M
445.75 343 L
445.75 31.5 L
134.25 31.5 L
cp
f
GR
GS
0.896 GC
1 LJ
N
134.25 343 M
134.25 31.5 L
S
GR
GS
0.896 GC
1 LJ
N
212.125 343 M
212.125 31.5 L
S
GR
GS
0.896 GC
1 LJ
N
290 343 M
290 31.5 L
S
GR
GS
0.896 GC
1 LJ
N
367.875 343 M
367.875 31.5 L
S
GR
GS
0.896 GC
1 LJ
N
445.75 343 M
445.75 31.5 L
S
GR
GS
0.896 GC
1 LJ
N
445.75 343 M
134.25 343 L
S
GR
GS
0.896 GC
1 LJ
N
445.75 239.167 M
134.25 239.167 L
S
GR
GS
0.896 GC
1 LJ
N
445.75 135.333 M
134.25 135.333 L
S
GR
GS
0.896 GC
1 LJ
N
445.75 31.5 M
134.25 31.5 L
S
GR
GS
0.302 GC
2 setlinecap
1 LJ
N
134.25 343 M
445.75 343 L
S
GR
GS
0.302 GC
2 setlinecap
1 LJ
N
134.25 343 M
134.25 349.23 L
S
GR
GS
0.302 GC
2 setlinecap
1 LJ
N
212.125 343 M
212.125 349.23 L
S
GR
GS
0.302 GC
2 setlinecap
1 LJ
N
290 343 M
290 349.23 L
S
GR
GS
0.302 GC
2 setlinecap
1 LJ
N
367.875 343 M
367.875 349.23 L
S
GR
GS
0.302 GC
2 setlinecap
1 LJ
N
445.75 343 M
445.75 349.23 L
S
GR
GS
0.302 GC
2 setlinecap
1 LJ
N
153.719 343 M
153.719 346.115 L
S
GR
GS
0.302 GC
2 setlinecap
1 LJ
N
173.188 343 M
173.188 346.115 L
S
GR
GS
0.302 GC
2 setlinecap
1 LJ
N
192.656 343 M
192.656 346.115 L
S
GR
GS
0.302 GC
2 setlinecap
1 LJ
N
231.594 343 M
231.594 346.115 L
S
GR
GS
0.302 GC
2 setlinecap
1 LJ
N
251.063 343 M
251.063 346.115 L
S
GR
GS
0.302 GC
2 setlinecap
1 LJ
N
270.531 343 M
270.531 346.115 L
S
GR
GS
0.302 GC
2 setlinecap
1 LJ
N
309.469 343 M
309.469 346.115 L
S
GR
GS
0.302 GC
2 setlinecap
1 LJ
N
328.938 343 M
328.938 346.115 L
S
GR
GS
0.302 GC
2 setlinecap
1 LJ
N
348.406 343 M
348.406 346.115 L
S
GR
GS
0.302 GC
2 setlinecap
1 LJ
N
387.344 343 M
387.344 346.115 L
S
GR
GS
0.302 GC
2 setlinecap
1 LJ
N
406.813 343 M
406.813 346.115 L
S
GR
GS
0.302 GC
2 setlinecap
1 LJ
N
426.281 343 M
426.281 346.115 L
S
GR
GS
[1 0 0 1 134.25 356.23001] CT
0.302 GC
/Helvetica 25 F
GS
[1 0 0 1 0 0] CT
-7 24 moveto 
1 -1 scale
(0) t 
GR
GR
GS
[1 0 0 1 212.125 356.23001] CT
0.302 GC
/Helvetica 25 F
GS
[1 0 0 1 0 0] CT
-14 24 moveto 
1 -1 scale
(20) t 
GR
GR
GS
[1 0 0 1 290 356.23001] CT
0.302 GC
/Helvetica 25 F
GS
[1 0 0 1 0 0] CT
-14 24 moveto 
1 -1 scale
(40) t 
GR
GR
GS
[1 0 0 1 367.875 356.23001] CT
0.302 GC
/Helvetica 25 F
GS
[1 0 0 1 0 0] CT
-14 24 moveto 
1 -1 scale
(60) t 
GR
GR
GS
[1 0 0 1 445.75 356.23001] CT
0.302 GC
/Helvetica 25 F
GS
[1 0 0 1 0 0] CT
-14 24 moveto 
1 -1 scale
(80) t 
GR
GR
GS
[1 0 0 1 290.00015 386.73001] CT
0.302 GC
/Helvetica 27.5 F
GS
[1 0 0 1 0 0] CT
-144 27 moveto 
1 -1 scale
(saccade direction \(deg\)) t 
GR
GR
GS
0.302 GC
2 setlinecap
1 LJ
N
134.25 343 M
134.25 31.5 L
S
GR
GS
0.302 GC
2 setlinecap
1 LJ
N
134.25 343 M
128.02 343 L
S
GR
GS
0.302 GC
2 setlinecap
1 LJ
N
134.25 239.167 M
128.02 239.167 L
S
GR
GS
0.302 GC
2 setlinecap
1 LJ
N
134.25 135.333 M
128.02 135.333 L
S
GR
GS
0.302 GC
2 setlinecap
1 LJ
N
134.25 31.5 M
128.02 31.5 L
S
GR
GS
0.302 GC
2 setlinecap
1 LJ
N
134.25 322.233 M
131.135 322.233 L
S
GR
GS
0.302 GC
2 setlinecap
1 LJ
N
134.25 301.467 M
131.135 301.467 L
S
GR
GS
0.302 GC
2 setlinecap
1 LJ
N
134.25 280.7 M
131.135 280.7 L
S
GR
GS
0.302 GC
2 setlinecap
1 LJ
N
134.25 259.933 M
131.135 259.933 L
S
GR
GS
0.302 GC
2 setlinecap
1 LJ
N
134.25 218.4 M
131.135 218.4 L
S
GR
GS
0.302 GC
2 setlinecap
1 LJ
N
134.25 197.633 M
131.135 197.633 L
S
GR
GS
0.302 GC
2 setlinecap
1 LJ
N
134.25 176.867 M
131.135 176.867 L
S
GR
GS
0.302 GC
2 setlinecap
1 LJ
N
134.25 156.1 M
131.135 156.1 L
S
GR
GS
0.302 GC
2 setlinecap
1 LJ
N
134.25 114.567 M
131.135 114.567 L
S
GR
GS
0.302 GC
2 setlinecap
1 LJ
N
134.25 93.8 M
131.135 93.8 L
S
GR
GS
0.302 GC
2 setlinecap
1 LJ
N
134.25 73.033 M
131.135 73.033 L
S
GR
GS
0.302 GC
2 setlinecap
1 LJ
N
134.25 52.267 M
131.135 52.267 L
S
GR
GS
[1 0 0 1 121.02 343] CT
0.302 GC
/Helvetica 25 F
GS
[1 0 0 1 0 0] CT
-14 9 moveto 
1 -1 scale
(0) t 
GR
GR
GS
[1 0 0 1 121.02 239.16667] CT
0.302 GC
/Helvetica 25 F
GS
[1 0 0 1 0 0] CT
-42 9 moveto 
1 -1 scale
(100) t 
GR
GR
GS
[1 0 0 1 121.02 135.33333] CT
0.302 GC
/Helvetica 25 F
GS
[1 0 0 1 0 0] CT
-42 9 moveto 
1 -1 scale
(200) t 
GR
GR
GS
[1 0 0 1 121.02 31.5] CT
0.302 GC
/Helvetica 25 F
GS
[1 0 0 1 0 0] CT
-42 9 moveto 
1 -1 scale
(300) t 
GR
GR
GS
[0 -1 1 0 58 327] CT
0.302 GC
/Helvetica 27.5 F
GS
[1 0 0 1 0 0] CT
0 0 moveto 
1 -1 scale
(horizontal V) t 
GR
GR
GS
[0 -1 1 0 71 182] CT
0.302 GC
/Helvetica 22 F
GS
[1 0 0 1 0 0] CT
0 0 moveto 
1 -1 scale
(max) t 
GR
GR
GS
[0 -1 1 0 58 140] CT
0.302 GC
/Helvetica 27.5 F
GS
[1 0 0 1 0 0] CT
0 0 moveto 
1 -1 scale
( \(deg/s\)) t 
GR
GR
GS
[10 6] 0 setdash
2 LJ
1.5 LW
N
134.25 234.159 M
258.871 250.703 L
334.156 275.007 L
375.38 291.781 L
399.798 302.577 L
415.594 309.828 L
426.548 314.956 L
S
GR
GS
1 LJ
2 LW
N
134.25 234.159 M
258.871 210.095 L
334.156 112.271 L
375.38 41.904 L
378.916 31.463 L
S
GR
GS
[1 0 0 1 134.25 234.1586] CT
1 0 0 RC
N
5 0 M
5 -2.761 2.761 -5 0 -5 C
-2.761 -5 -5 -2.761 -5 0 C
-5 2.761 -2.761 5 0 5 C
2.761 5 5 2.761 5 0 C
cp
f
GR
GS
[1 0 0 1 134.25 234.1586] CT
10.0 ML
2 LW
N
5 0 M
5 -2.761 2.761 -5 0 -5 C
-2.761 -5 -5 -2.761 -5 0 C
-5 2.761 -2.761 5 0 5 C
2.761 5 5 2.761 5 0 C
cp
S
GR
GS
[1 0 0 1 258.87097 210.0948] CT
1 0 0 RC
N
/f536683381{5 0 M
5 -2.761 2.761 -5 0 -5 C
-2.761 -5 -5 -2.761 -5 0 C
-5 2.761 -2.761 5 0 5 C
2.761 5 5 2.761 5 0 C
cp}def
f536683381
f
GR
GS
[1 0 0 1 258.87097 210.0948] CT
10.0 ML
2 LW
N
5 0 M
5 -2.761 2.761 -5 0 -5 C
-2.761 -5 -5 -2.761 -5 0 C
-5 2.761 -2.761 5 0 5 C
2.761 5 5 2.761 5 0 C
cp
S
GR
GS
[1 0 0 1 334.15585 112.27137] CT
1 0 0 RC
N
f536683381
f
GR
GS
[1 0 0 1 334.15585 112.27137] CT
10.0 ML
2 LW
N
5 0 M
5 -2.761 2.761 -5 0 -5 C
-2.761 -5 -5 -2.761 -5 0 C
-5 2.761 -2.761 5 0 5 C
2.761 5 5 2.761 5 0 C
cp
S
GR
GS
[1 0 0 1 375.38025 41.90361] CT
1 0 0 RC
N
f536683381
f
GR
GS
[1 0 0 1 375.38025 41.90361] CT
10.0 ML
2 LW
N
5 0 M
5 -2.761 2.761 -5 0 -5 C
-2.761 -5 -5 -2.761 -5 0 C
-5 2.761 -2.761 5 0 5 C
2.761 5 5 2.761 5 0 C
cp
S
GR
%%Trailer
%%Pages: 1
%%EOF
