%!PS-Adobe-3.0 EPSF-3.0
%%Creator: (MATLAB, The Mathworks, Inc. Version 9.5.0.944444 \(R2018b\). Operating System: Mac OS X)
%%Title: ./stretchingdz0_B.eps
%%CreationDate: 2020-05-07T20:44:20
%%Pages: (atend)
%%BoundingBox:    40     0   447   392
%%LanguageLevel: 2
%%EndComments
%%BeginProlog
%%BeginResource: procset (Apache XML Graphics Std ProcSet) 1.2 0
%%Version: 1.2 0
%%Copyright: (Copyright 2001-2003,2010 The Apache Software Foundation. License terms: http://www.apache.org/licenses/LICENSE-2.0)
/bd{bind def}bind def
/ld{load def}bd
/GR/grestore ld
/GS/gsave ld
/RM/rmoveto ld
/C/curveto ld
/t/show ld
/L/lineto ld
/ML/setmiterlimit ld
/CT/concat ld
/f/fill ld
/N/newpath ld
/S/stroke ld
/CC/setcmykcolor ld
/A/ashow ld
/cp/closepath ld
/RC/setrgbcolor ld
/LJ/setlinejoin ld
/GC/setgray ld
/LW/setlinewidth ld
/M/moveto ld
/re {4 2 roll M
1 index 0 rlineto
0 exch rlineto
neg 0 rlineto
cp } bd
/_ctm matrix def
/_tm matrix def
/BT { _ctm currentmatrix pop matrix _tm copy pop 0 0 moveto } bd
/ET { _ctm setmatrix } bd
/iTm { _ctm setmatrix _tm concat } bd
/Tm { _tm astore pop iTm 0 0 moveto } bd
/ux 0.0 def
/uy 0.0 def
/F {
  /Tp exch def
  /Tf exch def
  Tf findfont Tp scalefont setfont
  /cf Tf def  /cs Tp def
} bd
/ULS {currentpoint /uy exch def /ux exch def} bd
/ULE {
  /Tcx currentpoint pop def
  gsave
  newpath
  cf findfont cs scalefont dup
  /FontMatrix get 0 get /Ts exch def /FontInfo get dup
  /UnderlinePosition get Ts mul /To exch def
  /UnderlineThickness get Ts mul /Tt exch def
  ux uy To add moveto  Tcx uy To add lineto
  Tt setlinewidth stroke
  grestore
} bd
/OLE {
  /Tcx currentpoint pop def
  gsave
  newpath
  cf findfont cs scalefont dup
  /FontMatrix get 0 get /Ts exch def /FontInfo get dup
  /UnderlinePosition get Ts mul /To exch def
  /UnderlineThickness get Ts mul /Tt exch def
  ux uy To add cs add moveto Tcx uy To add cs add lineto
  Tt setlinewidth stroke
  grestore
} bd
/SOE {
  /Tcx currentpoint pop def
  gsave
  newpath
  cf findfont cs scalefont dup
  /FontMatrix get 0 get /Ts exch def /FontInfo get dup
  /UnderlinePosition get Ts mul /To exch def
  /UnderlineThickness get Ts mul /Tt exch def
  ux uy To add cs 10 mul 26 idiv add moveto Tcx uy To add cs 10 mul 26 idiv add lineto
  Tt setlinewidth stroke
  grestore
} bd
/QT {
/Y22 exch store
/X22 exch store
/Y21 exch store
/X21 exch store
currentpoint
/Y21 load 2 mul add 3 div exch
/X21 load 2 mul add 3 div exch
/X21 load 2 mul /X22 load add 3 div
/Y21 load 2 mul /Y22 load add 3 div
/X22 load /Y22 load curveto
} bd
/SSPD {
dup length /d exch dict def
{
/v exch def
/k exch def
currentpagedevice k known {
/cpdv currentpagedevice k get def
v cpdv ne {
/upd false def
/nullv v type /nulltype eq def
/nullcpdv cpdv type /nulltype eq def
nullv nullcpdv or
{
/upd true def
} {
/sametype v type cpdv type eq def
sametype {
v type /arraytype eq {
/vlen v length def
/cpdvlen cpdv length def
vlen cpdvlen eq {
0 1 vlen 1 sub {
/i exch def
/obj v i get def
/cpdobj cpdv i get def
obj cpdobj ne {
/upd true def
exit
} if
} for
} {
/upd true def
} ifelse
} {
v type /dicttype eq {
v {
/dv exch def
/dk exch def
/cpddv cpdv dk get def
dv cpddv ne {
/upd true def
exit
} if
} forall
} {
/upd true def
} ifelse
} ifelse
} if
} ifelse
upd true eq {
d k v put
} if
} if
} if
} forall
d length 0 gt {
d setpagedevice
} if
} bd
/RE { % /NewFontName [NewEncodingArray] /FontName RE -
  findfont dup length dict begin
  {
    1 index /FID ne
    {def} {pop pop} ifelse
  } forall
  /Encoding exch def
  /FontName 1 index def
  currentdict definefont pop
  end
} bind def
%%EndResource
%%BeginResource: procset (Apache XML Graphics EPS ProcSet) 1.0 0
%%Version: 1.0 0
%%Copyright: (Copyright 2002-2003 The Apache Software Foundation. License terms: http://www.apache.org/licenses/LICENSE-2.0)
/BeginEPSF { %def
/b4_Inc_state save def         % Save state for cleanup
/dict_count countdictstack def % Count objects on dict stack
/op_count count 1 sub def      % Count objects on operand stack
userdict begin                 % Push userdict on dict stack
/showpage { } def              % Redefine showpage, { } = null proc
0 setgray 0 setlinecap         % Prepare graphics state
1 setlinewidth 0 setlinejoin
10 setmiterlimit [ ] 0 setdash newpath
/languagelevel where           % If level not equal to 1 then
{pop languagelevel             % set strokeadjust and
1 ne                           % overprint to their defaults.
{false setstrokeadjust false setoverprint
} if
} if
} bd
/EndEPSF { %def
count op_count sub {pop} repeat            % Clean up stacks
countdictstack dict_count sub {end} repeat
b4_Inc_state restore
} bd
%%EndResource
%FOPBeginFontDict
%%IncludeResource: font Courier-Oblique
%%IncludeResource: font Courier-BoldOblique
%%IncludeResource: font Courier-Bold
%%IncludeResource: font ZapfDingbats
%%IncludeResource: font Symbol
%%IncludeResource: font Helvetica
%%IncludeResource: font Helvetica-Oblique
%%IncludeResource: font Helvetica-Bold
%%IncludeResource: font Helvetica-BoldOblique
%%IncludeResource: font Times-Roman
%%IncludeResource: font Times-Italic
%%IncludeResource: font Times-Bold
%%IncludeResource: font Times-BoldItalic
%%IncludeResource: font Courier
%FOPEndFontDict
%%BeginResource: encoding WinAnsiEncoding
/WinAnsiEncoding [
/.notdef /.notdef /.notdef /.notdef /.notdef
/.notdef /.notdef /.notdef /.notdef /.notdef
/.notdef /.notdef /.notdef /.notdef /.notdef
/.notdef /.notdef /.notdef /.notdef /.notdef
/.notdef /.notdef /.notdef /.notdef /.notdef
/.notdef /.notdef /.notdef /.notdef /.notdef
/.notdef /.notdef /space /exclam /quotedbl
/numbersign /dollar /percent /ampersand /quotesingle
/parenleft /parenright /asterisk /plus /comma
/hyphen /period /slash /zero /one
/two /three /four /five /six
/seven /eight /nine /colon /semicolon
/less /equal /greater /question /at
/A /B /C /D /E
/F /G /H /I /J
/K /L /M /N /O
/P /Q /R /S /T
/U /V /W /X /Y
/Z /bracketleft /backslash /bracketright /asciicircum
/underscore /quoteleft /a /b /c
/d /e /f /g /h
/i /j /k /l /m
/n /o /p /q /r
/s /t /u /v /w
/x /y /z /braceleft /bar
/braceright /asciitilde /bullet /Euro /bullet
/quotesinglbase /florin /quotedblbase /ellipsis /dagger
/daggerdbl /circumflex /perthousand /Scaron /guilsinglleft
/OE /bullet /Zcaron /bullet /bullet
/quoteleft /quoteright /quotedblleft /quotedblright /bullet
/endash /emdash /asciitilde /trademark /scaron
/guilsinglright /oe /bullet /zcaron /Ydieresis
/space /exclamdown /cent /sterling /currency
/yen /brokenbar /section /dieresis /copyright
/ordfeminine /guillemotleft /logicalnot /sfthyphen /registered
/macron /degree /plusminus /twosuperior /threesuperior
/acute /mu /paragraph /middot /cedilla
/onesuperior /ordmasculine /guillemotright /onequarter /onehalf
/threequarters /questiondown /Agrave /Aacute /Acircumflex
/Atilde /Adieresis /Aring /AE /Ccedilla
/Egrave /Eacute /Ecircumflex /Edieresis /Igrave
/Iacute /Icircumflex /Idieresis /Eth /Ntilde
/Ograve /Oacute /Ocircumflex /Otilde /Odieresis
/multiply /Oslash /Ugrave /Uacute /Ucircumflex
/Udieresis /Yacute /Thorn /germandbls /agrave
/aacute /acircumflex /atilde /adieresis /aring
/ae /ccedilla /egrave /eacute /ecircumflex
/edieresis /igrave /iacute /icircumflex /idieresis
/eth /ntilde /ograve /oacute /ocircumflex
/otilde /odieresis /divide /oslash /ugrave
/uacute /ucircumflex /udieresis /yacute /thorn
/ydieresis
] def
%%EndResource
%FOPBeginFontReencode
/Courier-Oblique findfont
dup length dict begin
  {1 index /FID ne {def} {pop pop} ifelse} forall
  /Encoding WinAnsiEncoding def
  currentdict
end
/Courier-Oblique exch definefont pop
/Courier-BoldOblique findfont
dup length dict begin
  {1 index /FID ne {def} {pop pop} ifelse} forall
  /Encoding WinAnsiEncoding def
  currentdict
end
/Courier-BoldOblique exch definefont pop
/Courier-Bold findfont
dup length dict begin
  {1 index /FID ne {def} {pop pop} ifelse} forall
  /Encoding WinAnsiEncoding def
  currentdict
end
/Courier-Bold exch definefont pop
/Helvetica findfont
dup length dict begin
  {1 index /FID ne {def} {pop pop} ifelse} forall
  /Encoding WinAnsiEncoding def
  currentdict
end
/Helvetica exch definefont pop
/Helvetica-Oblique findfont
dup length dict begin
  {1 index /FID ne {def} {pop pop} ifelse} forall
  /Encoding WinAnsiEncoding def
  currentdict
end
/Helvetica-Oblique exch definefont pop
/Helvetica-Bold findfont
dup length dict begin
  {1 index /FID ne {def} {pop pop} ifelse} forall
  /Encoding WinAnsiEncoding def
  currentdict
end
/Helvetica-Bold exch definefont pop
/Helvetica-BoldOblique findfont
dup length dict begin
  {1 index /FID ne {def} {pop pop} ifelse} forall
  /Encoding WinAnsiEncoding def
  currentdict
end
/Helvetica-BoldOblique exch definefont pop
/Times-Roman findfont
dup length dict begin
  {1 index /FID ne {def} {pop pop} ifelse} forall
  /Encoding WinAnsiEncoding def
  currentdict
end
/Times-Roman exch definefont pop
/Times-Italic findfont
dup length dict begin
  {1 index /FID ne {def} {pop pop} ifelse} forall
  /Encoding WinAnsiEncoding def
  currentdict
end
/Times-Italic exch definefont pop
/Times-Bold findfont
dup length dict begin
  {1 index /FID ne {def} {pop pop} ifelse} forall
  /Encoding WinAnsiEncoding def
  currentdict
end
/Times-Bold exch definefont pop
/Times-BoldItalic findfont
dup length dict begin
  {1 index /FID ne {def} {pop pop} ifelse} forall
  /Encoding WinAnsiEncoding def
  currentdict
end
/Times-BoldItalic exch definefont pop
/Courier findfont
dup length dict begin
  {1 index /FID ne {def} {pop pop} ifelse} forall
  /Encoding WinAnsiEncoding def
  currentdict
end
/Courier exch definefont pop
%FOPEndFontReencode
%%EndProlog
%%Page: 1 1
%%PageBoundingBox: 0 0 560 420
%%BeginPageSetup
[1 0 0 -1 0 420] CT
%%EndPageSetup
GS
1 GC
N
0 0 560 420 re
f
GR
GS
1 GC
N
0 0 560 420 re
f
GR
GS
1 GC
N
134.25 343 M
445.75 343 L
445.75 31.5 L
134.25 31.5 L
cp
f
GR
GS
0.896 GC
1 LJ
N
134.25 343 M
134.25 31.5 L
S
GR
GS
0.896 GC
1 LJ
N
258.85 343 M
258.85 31.5 L
S
GR
GS
0.896 GC
1 LJ
N
383.45 343 M
383.45 31.5 L
S
GR
GS
0.896 GC
1 LJ
N
445.75 322.233 M
134.25 322.233 L
S
GR
GS
0.896 GC
1 LJ
N
445.75 239.167 M
134.25 239.167 L
S
GR
GS
0.896 GC
1 LJ
N
445.75 156.1 M
134.25 156.1 L
S
GR
GS
0.896 GC
1 LJ
N
445.75 73.033 M
134.25 73.033 L
S
GR
GS
0.302 GC
2 setlinecap
1 LJ
N
134.25 343 M
445.75 343 L
S
GR
GS
0.302 GC
2 setlinecap
1 LJ
N
134.25 343 M
134.25 349.23 L
S
GR
GS
0.302 GC
2 setlinecap
1 LJ
N
258.85 343 M
258.85 349.23 L
S
GR
GS
0.302 GC
2 setlinecap
1 LJ
N
383.45 343 M
383.45 349.23 L
S
GR
GS
0.302 GC
2 setlinecap
1 LJ
N
159.17 343 M
159.17 346.115 L
S
GR
GS
0.302 GC
2 setlinecap
1 LJ
N
184.09 343 M
184.09 346.115 L
S
GR
GS
0.302 GC
2 setlinecap
1 LJ
N
209.01 343 M
209.01 346.115 L
S
GR
GS
0.302 GC
2 setlinecap
1 LJ
N
233.93 343 M
233.93 346.115 L
S
GR
GS
0.302 GC
2 setlinecap
1 LJ
N
283.77 343 M
283.77 346.115 L
S
GR
GS
0.302 GC
2 setlinecap
1 LJ
N
308.69 343 M
308.69 346.115 L
S
GR
GS
0.302 GC
2 setlinecap
1 LJ
N
333.61 343 M
333.61 346.115 L
S
GR
GS
0.302 GC
2 setlinecap
1 LJ
N
358.53 343 M
358.53 346.115 L
S
GR
GS
0.302 GC
2 setlinecap
1 LJ
N
408.37 343 M
408.37 346.115 L
S
GR
GS
0.302 GC
2 setlinecap
1 LJ
N
433.29 343 M
433.29 346.115 L
S
GR
GS
[1 0 0 1 134.25 356.23001] CT
0.302 GC
/Helvetica 25 F
GS
[1 0 0 1 0 0] CT
-7 24 moveto 
1 -1 scale
(0) t 
GR
GR
GS
[1 0 0 1 258.85001 356.23001] CT
0.302 GC
/Helvetica 25 F
GS
[1 0 0 1 0 0] CT
-17.5 24 moveto 
1 -1 scale
(0.1) t 
GR
GR
GS
[1 0 0 1 383.45001 356.23001] CT
0.302 GC
/Helvetica 25 F
GS
[1 0 0 1 0 0] CT
-17.5 24 moveto 
1 -1 scale
(0.2) t 
GR
GR
GS
[1 0 0 1 290.00015 386.73001] CT
0.302 GC
/Helvetica 27.5 F
GS
[1 0 0 1 0 0] CT
-44.5 27 moveto 
1 -1 scale
(time \(s\)) t 
GR
GR
GS
0.302 GC
2 setlinecap
1 LJ
N
134.25 343 M
134.25 31.5 L
S
GR
GS
0.302 GC
2 setlinecap
1 LJ
N
134.25 322.233 M
128.02 322.233 L
S
GR
GS
0.302 GC
2 setlinecap
1 LJ
N
134.25 239.167 M
128.02 239.167 L
S
GR
GS
0.302 GC
2 setlinecap
1 LJ
N
134.25 156.1 M
128.02 156.1 L
S
GR
GS
0.302 GC
2 setlinecap
1 LJ
N
134.25 73.033 M
128.02 73.033 L
S
GR
GS
0.302 GC
2 setlinecap
1 LJ
N
134.25 343 M
131.135 343 L
S
GR
GS
0.302 GC
2 setlinecap
1 LJ
N
134.25 301.467 M
131.135 301.467 L
S
GR
GS
0.302 GC
2 setlinecap
1 LJ
N
134.25 280.7 M
131.135 280.7 L
S
GR
GS
0.302 GC
2 setlinecap
1 LJ
N
134.25 259.933 M
131.135 259.933 L
S
GR
GS
0.302 GC
2 setlinecap
1 LJ
N
134.25 218.4 M
131.135 218.4 L
S
GR
GS
0.302 GC
2 setlinecap
1 LJ
N
134.25 197.633 M
131.135 197.633 L
S
GR
GS
0.302 GC
2 setlinecap
1 LJ
N
134.25 176.867 M
131.135 176.867 L
S
GR
GS
0.302 GC
2 setlinecap
1 LJ
N
134.25 135.333 M
131.135 135.333 L
S
GR
GS
0.302 GC
2 setlinecap
1 LJ
N
134.25 114.567 M
131.135 114.567 L
S
GR
GS
0.302 GC
2 setlinecap
1 LJ
N
134.25 93.8 M
131.135 93.8 L
S
GR
GS
0.302 GC
2 setlinecap
1 LJ
N
134.25 52.267 M
131.135 52.267 L
S
GR
GS
0.302 GC
2 setlinecap
1 LJ
N
134.25 31.5 M
131.135 31.5 L
S
GR
GS
[1 0 0 1 121.02 322.23334] CT
0.302 GC
/Helvetica 25 F
GS
[1 0 0 1 0 0] CT
-52 9 moveto 
1 -1 scale
(-400) t 
GR
GR
GS
[1 0 0 1 121.02 239.16667] CT
0.302 GC
/Helvetica 25 F
GS
[1 0 0 1 0 0] CT
-52 9 moveto 
1 -1 scale
(-200) t 
GR
GR
GS
[1 0 0 1 121.02 156.10001] CT
0.302 GC
/Helvetica 25 F
GS
[1 0 0 1 0 0] CT
-14 9 moveto 
1 -1 scale
(0) t 
GR
GR
GS
[1 0 0 1 121.02 73.03333] CT
0.302 GC
/Helvetica 25 F
GS
[1 0 0 1 0 0] CT
-42 9 moveto 
1 -1 scale
(200) t 
GR
GR
GS
[0 -1 1 0 66.52 187.24985] CT
0.302 GC
/Helvetica 27.5 F
GS
[1 0 0 1 0 0] CT
-167 -6 moveto 
1 -1 scale
(component velocity \(deg/s\)) t 
GR
GR
GS
1 LJ
2 LW
N
134.25 156.1 M
135.496 151.487 L
136.742 146.547 L
137.988 141.327 L
139.234 135.874 L
140.48 130.234 L
141.726 124.453 L
142.972 118.58 L
144.218 112.659 L
145.464 106.739 L
146.71 100.866 L
147.956 95.086 L
149.202 89.446 L
150.448 83.993 L
151.694 78.774 L
152.94 73.834 L
154.186 69.222 L
155.432 64.984 L
156.678 61.166 L
157.924 57.815 L
159.17 54.978 L
160.416 52.693 L
161.662 50.965 L
162.908 49.791 L
164.154 49.167 L
165.4 49.09 L
166.646 49.556 L
167.892 50.563 L
169.138 52.106 L
170.384 54.183 L
171.63 56.79 L
172.876 59.917 L
174.122 63.529 L
175.368 67.584 L
176.614 72.043 L
177.86 76.862 L
179.106 82 L
180.352 87.417 L
181.598 93.07 L
182.844 98.919 L
184.09 104.921 L
185.336 111.03 L
186.582 117.167 L
187.828 123.249 L
189.074 129.193 L
190.32 134.916 L
191.566 140.333 L
192.812 145.361 L
194.058 149.917 L
195.304 153.916 L
196.55 157.276 L
197.796 159.939 L
199.042 161.956 L
200.288 163.405 L
201.534 164.363 L
202.78 164.907 L
204.026 165.116 L
205.272 165.065 L
206.518 164.834 L
207.764 164.498 L
209.01 164.137 L
210.256 163.812 L
211.502 163.531 L
212.748 163.287 L
213.994 163.072 L
215.24 162.878 L
216.486 162.7 L
217.732 162.529 L
218.978 162.357 L
220.224 162.179 L
221.47 161.986 L
222.716 161.773 L
223.962 161.542 L
225.208 161.298 L
226.454 161.046 L
227.7 160.789 L
228.946 160.532 L
230.192 160.278 L
231.438 160.034 L
232.684 159.802 L
233.93 159.588 L
235.176 159.394 L
236.422 159.219 L
237.668 159.062 L
238.914 158.92 L
240.16 158.792 L
241.406 158.674 L
242.652 158.567 L
243.898 158.466 L
245.144 158.37 L
246.39 158.278 L
247.636 158.187 L
248.882 158.096 L
250.128 158.007 L
251.374 157.918 L
252.62 157.83 L
253.866 157.742 L
255.112 157.655 L
256.358 157.567 L
257.604 157.48 L
258.85 157.392 L
260.096 157.304 L
261.342 157.217 L
262.588 157.13 L
263.834 157.045 L
265.08 156.962 L
266.326 156.882 L
267.572 156.805 L
268.818 156.732 L
270.064 156.663 L
271.31 156.6 L
272.556 156.541 L
273.802 156.489 L
275.048 156.44 L
276.294 156.396 L
277.54 156.355 L
278.786 156.317 L
280.032 156.282 L
281.278 156.249 L
282.524 156.217 L
283.77 156.186 L
285.016 156.155 L
286.262 156.125 L
287.508 156.095 L
288.754 156.066 L
290 156.038 L
291.246 156.011 L
292.492 155.985 L
293.738 155.961 L
294.984 155.937 L
296.23 155.916 L
297.476 155.895 L
298.722 155.877 L
299.968 155.859 L
301.214 155.843 L
302.46 155.829 L
303.706 155.816 L
304.952 155.803 L
306.198 155.792 L
307.444 155.782 L
308.69 155.773 L
309.936 155.764 L
311.182 155.757 L
312.428 155.75 L
313.674 155.744 L
314.92 155.739 L
316.166 155.734 L
317.412 155.731 L
318.658 155.728 L
319.904 155.726 L
321.15 155.724 L
322.396 155.724 L
323.642 155.724 L
324.888 155.724 L
326.134 155.726 L
327.38 155.727 L
328.626 155.729 L
329.872 155.732 L
331.118 155.734 L
332.364 155.737 L
333.61 155.74 L
334.856 155.743 L
336.102 155.746 L
337.348 155.749 L
338.594 155.753 L
339.84 155.756 L
341.086 155.76 L
342.332 155.765 L
343.578 155.77 L
344.824 155.775 L
346.07 155.781 L
347.316 155.787 L
348.562 155.794 L
349.808 155.801 L
351.054 155.809 L
352.3 155.817 L
353.546 155.824 L
354.792 155.832 L
356.038 155.84 L
357.284 155.848 L
358.53 155.855 L
359.776 155.862 L
361.022 155.868 L
362.268 155.875 L
363.514 155.881 L
364.76 155.887 L
366.006 155.893 L
367.252 155.899 L
368.498 155.905 L
369.744 155.912 L
370.99 155.919 L
372.236 155.926 L
373.482 155.933 L
374.728 155.94 L
375.974 155.948 L
377.22 155.956 L
378.466 155.964 L
379.712 155.971 L
380.958 155.979 L
382.204 155.987 L
383.45 155.994 L
384.696 156.001 L
385.942 156.008 L
387.188 156.014 L
388.434 156.021 L
389.68 156.027 L
390.926 156.033 L
392.172 156.039 L
393.418 156.045 L
394.664 156.051 L
395.91 156.057 L
397.156 156.063 L
398.402 156.069 L
399.648 156.075 L
400.894 156.081 L
402.14 156.087 L
403.386 156.093 L
404.632 156.099 L
405.878 156.105 L
407.124 156.11 L
408.37 156.115 L
409.616 156.121 L
410.862 156.126 L
412.108 156.13 L
413.354 156.135 L
414.6 156.14 L
415.846 156.144 L
417.092 156.148 L
418.338 156.153 L
419.584 156.157 L
420.83 156.161 L
422.076 156.165 L
423.322 156.169 L
424.568 156.173 L
425.814 156.177 L
427.06 156.181 L
428.306 156.185 L
429.552 156.189 L
430.798 156.193 L
432.044 156.196 L
433.29 156.2 L
434.536 156.203 L
435.782 156.207 L
437.028 156.21 L
438.274 156.213 L
439.52 156.216 L
440.766 156.219 L
442.012 156.222 L
443.258 156.225 L
444.504 156.227 L
S
GR
GS
1 0 1 RC
1 LJ
1.5 LW
N
134.25 156.1 M
135.496 151.69 L
136.742 147.034 L
137.988 142.171 L
139.234 137.138 L
140.48 131.973 L
141.726 126.713 L
142.972 121.397 L
144.218 116.06 L
145.464 110.742 L
146.71 105.48 L
147.956 100.31 L
149.202 95.272 L
150.448 90.403 L
151.694 85.739 L
152.94 81.32 L
154.186 77.182 L
155.432 73.363 L
156.678 69.9 L
157.924 66.832 L
159.17 64.195 L
160.416 62.023 L
161.662 60.323 L
162.908 59.1 L
164.154 58.357 L
165.4 58.099 L
166.646 58.327 L
167.892 59.047 L
169.138 60.261 L
170.384 61.973 L
171.63 64.188 L
172.876 66.9 L
174.122 70.077 L
175.368 73.677 L
176.614 77.661 L
177.86 81.986 L
179.106 86.613 L
180.352 91.5 L
181.598 96.606 L
182.844 101.891 L
184.09 107.314 L
185.336 112.828 L
186.582 118.361 L
187.828 123.838 L
189.074 129.18 L
190.32 134.312 L
191.566 139.156 L
192.812 143.636 L
194.058 147.673 L
195.304 151.192 L
196.55 154.116 L
197.796 156.392 L
199.042 158.071 L
200.288 159.227 L
201.534 159.936 L
202.78 160.272 L
204.026 160.311 L
205.272 160.128 L
206.518 159.797 L
207.764 159.394 L
209.01 158.994 L
210.256 158.657 L
211.502 158.388 L
212.748 158.178 L
213.994 158.017 L
215.24 157.895 L
216.486 157.802 L
217.732 157.73 L
218.978 157.669 L
220.224 157.608 L
221.47 157.538 L
222.716 157.453 L
223.962 157.352 L
225.208 157.24 L
226.454 157.119 L
227.7 156.993 L
228.946 156.865 L
230.192 156.737 L
231.438 156.615 L
232.684 156.499 L
233.93 156.395 L
235.176 156.303 L
236.422 156.225 L
237.668 156.157 L
238.914 156.098 L
240.16 156.047 L
241.406 156.001 L
242.652 155.961 L
243.898 155.923 L
245.144 155.886 L
246.39 155.849 L
247.636 155.81 L
248.882 155.769 L
250.128 155.728 L
251.374 155.687 L
252.62 155.646 L
253.866 155.606 L
255.112 155.567 L
256.358 155.53 L
257.604 155.497 L
258.85 155.466 L
260.096 155.439 L
261.342 155.416 L
262.588 155.396 L
263.834 155.378 L
265.08 155.364 L
266.326 155.352 L
267.572 155.341 L
268.818 155.333 L
270.064 155.325 L
271.31 155.319 L
272.556 155.314 L
273.802 155.309 L
275.048 155.305 L
276.294 155.302 L
277.54 155.3 L
278.786 155.299 L
280.032 155.298 L
281.278 155.298 L
282.524 155.3 L
283.77 155.302 L
285.016 155.305 L
286.262 155.309 L
287.508 155.314 L
288.754 155.319 L
290 155.325 L
291.246 155.332 L
292.492 155.339 L
293.738 155.346 L
294.984 155.354 L
296.23 155.362 L
297.476 155.37 L
298.722 155.378 L
299.968 155.386 L
301.214 155.395 L
302.46 155.404 L
303.706 155.414 L
304.952 155.424 L
306.198 155.434 L
307.444 155.445 L
308.69 155.456 L
309.936 155.469 L
311.182 155.481 L
312.428 155.494 L
313.674 155.507 L
314.92 155.52 L
316.166 155.534 L
317.412 155.547 L
318.658 155.559 L
319.904 155.571 L
321.15 155.583 L
322.396 155.594 L
323.642 155.604 L
324.888 155.614 L
326.134 155.623 L
327.38 155.632 L
328.626 155.642 L
329.872 155.651 L
331.118 155.661 L
332.364 155.672 L
333.61 155.682 L
334.856 155.694 L
336.102 155.706 L
337.348 155.719 L
338.594 155.732 L
339.84 155.746 L
341.086 155.759 L
342.332 155.772 L
343.578 155.785 L
344.824 155.798 L
346.07 155.81 L
347.316 155.821 L
348.562 155.832 L
349.808 155.842 L
351.054 155.851 L
352.3 155.861 L
353.546 155.869 L
354.792 155.878 L
356.038 155.886 L
357.284 155.894 L
358.53 155.902 L
359.776 155.91 L
361.022 155.918 L
362.268 155.926 L
363.514 155.933 L
364.76 155.941 L
366.006 155.948 L
367.252 155.955 L
368.498 155.962 L
369.744 155.969 L
370.99 155.975 L
372.236 155.981 L
373.482 155.986 L
374.728 155.992 L
375.974 155.997 L
377.22 156.002 L
378.466 156.007 L
379.712 156.011 L
380.958 156.016 L
382.204 156.021 L
383.45 156.026 L
384.696 156.031 L
385.942 156.036 L
387.188 156.042 L
388.434 156.047 L
389.68 156.052 L
390.926 156.057 L
392.172 156.062 L
393.418 156.067 L
394.664 156.072 L
395.91 156.076 L
397.156 156.08 L
398.402 156.083 L
399.648 156.087 L
400.894 156.089 L
402.14 156.092 L
403.386 156.095 L
404.632 156.097 L
405.878 156.099 L
407.124 156.102 L
408.37 156.104 L
409.616 156.106 L
410.862 156.108 L
412.108 156.111 L
413.354 156.113 L
414.6 156.115 L
415.846 156.117 L
417.092 156.119 L
418.338 156.121 L
419.584 156.123 L
420.83 156.125 L
422.076 156.127 L
423.322 156.128 L
424.568 156.13 L
425.814 156.131 L
427.06 156.132 L
428.306 156.134 L
429.552 156.135 L
430.798 156.136 L
432.044 156.137 L
433.29 156.138 L
434.536 156.138 L
435.782 156.139 L
437.028 156.14 L
438.274 156.14 L
439.52 156.141 L
440.766 156.141 L
442.012 156.142 L
443.258 156.142 L
444.504 156.142 L
S
GR
GS
0 0 1 RC
1 LJ
1.5 LW
N
134.25 156.1 M
135.496 153.85 L
136.742 151.388 L
137.988 148.736 L
139.234 145.915 L
140.48 142.949 L
141.726 139.858 L
142.972 136.665 L
144.218 133.391 L
145.464 130.06 L
146.71 126.693 L
147.956 123.312 L
149.202 119.94 L
150.448 116.597 L
151.694 113.307 L
152.94 110.091 L
154.186 106.972 L
155.432 103.971 L
156.678 101.11 L
157.924 98.412 L
159.17 95.899 L
160.416 93.589 L
161.662 91.489 L
162.908 89.6 L
164.154 87.926 L
165.4 86.469 L
166.646 85.232 L
167.892 84.216 L
169.138 83.425 L
170.384 82.862 L
171.63 82.528 L
172.876 82.427 L
174.122 82.557 L
175.368 82.918 L
176.614 83.508 L
177.86 84.328 L
179.106 85.376 L
180.352 86.651 L
181.598 88.153 L
182.844 89.881 L
184.09 91.833 L
185.336 94.008 L
186.582 96.392 L
187.828 98.972 L
189.074 101.733 L
190.32 104.662 L
191.566 107.744 L
192.812 110.965 L
194.058 114.31 L
195.304 117.766 L
196.55 121.319 L
197.796 124.947 L
199.042 128.602 L
200.288 132.229 L
201.534 135.771 L
202.78 139.175 L
204.026 142.383 L
205.272 145.342 L
206.518 147.995 L
207.764 150.287 L
209.01 152.163 L
210.256 153.586 L
211.502 154.593 L
212.748 155.237 L
213.994 155.575 L
215.24 155.661 L
216.486 155.551 L
217.732 155.299 L
218.978 154.961 L
220.224 154.59 L
221.47 154.243 L
222.716 153.964 L
223.962 153.754 L
225.208 153.603 L
226.454 153.504 L
227.7 153.445 L
228.946 153.418 L
230.192 153.414 L
231.438 153.424 L
232.684 153.438 L
233.93 153.446 L
235.176 153.442 L
236.422 153.426 L
237.668 153.4 L
238.914 153.367 L
240.16 153.328 L
241.406 153.286 L
242.652 153.243 L
243.898 153.201 L
245.144 153.162 L
246.39 153.13 L
247.636 153.105 L
248.882 153.087 L
250.128 153.076 L
251.374 153.07 L
252.62 153.071 L
253.866 153.076 L
255.112 153.085 L
256.358 153.098 L
257.604 153.114 L
258.85 153.131 L
260.096 153.151 L
261.342 153.172 L
262.588 153.195 L
263.834 153.22 L
265.08 153.246 L
266.326 153.274 L
267.572 153.304 L
268.818 153.335 L
270.064 153.369 L
271.31 153.404 L
272.556 153.44 L
273.802 153.478 L
275.048 153.517 L
276.294 153.557 L
277.54 153.597 L
278.786 153.638 L
280.032 153.677 L
281.278 153.717 L
282.524 153.755 L
283.77 153.791 L
285.016 153.826 L
286.262 153.86 L
287.508 153.893 L
288.754 153.927 L
290 153.961 L
291.246 153.997 L
292.492 154.035 L
293.738 154.076 L
294.984 154.121 L
296.23 154.169 L
297.476 154.222 L
298.722 154.279 L
299.968 154.338 L
301.214 154.399 L
302.46 154.461 L
303.706 154.522 L
304.952 154.582 L
306.198 154.64 L
307.444 154.694 L
308.69 154.744 L
309.936 154.789 L
311.182 154.829 L
312.428 154.865 L
313.674 154.899 L
314.92 154.931 L
316.166 154.963 L
317.412 154.994 L
318.658 155.027 L
319.904 155.062 L
321.15 155.099 L
322.396 155.141 L
323.642 155.185 L
324.888 155.232 L
326.134 155.281 L
327.38 155.329 L
328.626 155.378 L
329.872 155.426 L
331.118 155.472 L
332.364 155.515 L
333.61 155.554 L
334.856 155.589 L
336.102 155.621 L
337.348 155.65 L
338.594 155.676 L
339.84 155.701 L
341.086 155.725 L
342.332 155.749 L
343.578 155.773 L
344.824 155.799 L
346.07 155.827 L
347.316 155.857 L
348.562 155.889 L
349.808 155.922 L
351.054 155.957 L
352.3 155.991 L
353.546 156.026 L
354.792 156.059 L
356.038 156.091 L
357.284 156.12 L
358.53 156.147 L
359.776 156.171 L
361.022 156.192 L
362.268 156.21 L
363.514 156.226 L
364.76 156.241 L
366.006 156.254 L
367.252 156.267 L
368.498 156.28 L
369.744 156.293 L
370.99 156.307 L
372.236 156.322 L
373.482 156.338 L
374.728 156.354 L
375.974 156.371 L
377.22 156.388 L
378.466 156.405 L
379.712 156.422 L
380.958 156.438 L
382.204 156.453 L
383.45 156.466 L
384.696 156.479 L
385.942 156.49 L
387.188 156.499 L
388.434 156.508 L
389.68 156.516 L
390.926 156.523 L
392.172 156.53 L
393.418 156.536 L
394.664 156.542 L
395.91 156.548 L
397.156 156.554 L
398.402 156.56 L
399.648 156.566 L
400.894 156.571 L
402.14 156.577 L
403.386 156.583 L
404.632 156.588 L
405.878 156.593 L
407.124 156.597 L
408.37 156.601 L
409.616 156.605 L
410.862 156.608 L
412.108 156.611 L
413.354 156.613 L
414.6 156.615 L
415.846 156.617 L
417.092 156.618 L
418.338 156.619 L
419.584 156.62 L
420.83 156.621 L
422.076 156.621 L
423.322 156.621 L
424.568 156.621 L
425.814 156.621 L
427.06 156.621 L
428.306 156.62 L
429.552 156.62 L
430.798 156.619 L
432.044 156.618 L
433.29 156.616 L
434.536 156.615 L
435.782 156.613 L
437.028 156.611 L
438.274 156.609 L
439.52 156.607 L
440.766 156.604 L
442.012 156.602 L
443.258 156.599 L
444.504 156.596 L
S
GR
GS
0 1 0 RC
1 LJ
1.5 LW
N
134.25 156.1 M
135.496 155.427 L
136.742 154.631 L
137.988 153.719 L
139.234 152.698 L
140.48 151.575 L
141.726 150.356 L
142.972 149.049 L
144.218 147.661 L
145.464 146.198 L
146.71 144.668 L
147.956 143.077 L
149.202 141.433 L
150.448 139.743 L
151.694 138.012 L
152.94 136.249 L
154.186 134.461 L
155.432 132.653 L
156.678 130.834 L
157.924 129.01 L
159.17 127.188 L
160.416 125.376 L
161.662 123.583 L
162.908 121.819 L
164.154 120.095 L
165.4 118.422 L
166.646 116.809 L
167.892 115.267 L
169.138 113.805 L
170.384 112.435 L
171.63 111.166 L
172.876 110.007 L
174.122 108.959 L
175.368 108.021 L
176.614 107.192 L
177.86 106.471 L
179.106 105.858 L
180.352 105.351 L
181.598 104.95 L
182.844 104.654 L
184.09 104.462 L
185.336 104.372 L
186.582 104.381 L
187.828 104.483 L
189.074 104.674 L
190.32 104.949 L
191.566 105.304 L
192.812 105.732 L
194.058 106.231 L
195.304 106.794 L
196.55 107.418 L
197.796 108.099 L
199.042 108.842 L
200.288 109.653 L
201.534 110.538 L
202.78 111.503 L
204.026 112.555 L
205.272 113.701 L
206.518 114.945 L
207.764 116.296 L
209.01 117.758 L
210.256 119.334 L
211.502 121.009 L
212.748 122.765 L
213.994 124.582 L
215.24 126.443 L
216.486 128.327 L
217.732 130.217 L
218.978 132.094 L
220.224 133.939 L
221.47 135.732 L
222.716 137.458 L
223.962 139.104 L
225.208 140.662 L
226.454 142.122 L
227.7 143.476 L
228.946 144.713 L
230.192 145.825 L
231.438 146.803 L
232.684 147.636 L
233.93 148.316 L
235.176 148.839 L
236.422 149.218 L
237.668 149.473 L
238.914 149.624 L
240.16 149.691 L
241.406 149.691 L
242.652 149.645 L
243.898 149.573 L
245.144 149.493 L
246.39 149.425 L
247.636 149.385 L
248.882 149.372 L
250.128 149.382 L
251.374 149.413 L
252.62 149.459 L
253.866 149.518 L
255.112 149.584 L
256.358 149.655 L
257.604 149.726 L
258.85 149.794 L
260.096 149.856 L
261.342 149.912 L
262.588 149.965 L
263.834 150.015 L
265.08 150.064 L
266.326 150.115 L
267.572 150.168 L
268.818 150.226 L
270.064 150.291 L
271.31 150.362 L
272.556 150.443 L
273.802 150.533 L
275.048 150.629 L
276.294 150.73 L
277.54 150.836 L
278.786 150.944 L
280.032 151.054 L
281.278 151.164 L
282.524 151.273 L
283.77 151.379 L
285.016 151.481 L
286.262 151.581 L
287.508 151.677 L
288.754 151.772 L
290 151.865 L
291.246 151.957 L
292.492 152.049 L
293.738 152.142 L
294.984 152.235 L
296.23 152.331 L
297.476 152.428 L
298.722 152.527 L
299.968 152.627 L
301.214 152.728 L
302.46 152.828 L
303.706 152.928 L
304.952 153.027 L
306.198 153.124 L
307.444 153.218 L
308.69 153.309 L
309.936 153.397 L
311.182 153.482 L
312.428 153.565 L
313.674 153.645 L
314.92 153.724 L
316.166 153.802 L
317.412 153.879 L
318.658 153.956 L
319.904 154.034 L
321.15 154.113 L
322.396 154.194 L
323.642 154.276 L
324.888 154.358 L
326.134 154.442 L
327.38 154.525 L
328.626 154.608 L
329.872 154.691 L
331.118 154.774 L
332.364 154.855 L
333.61 154.934 L
334.856 155.012 L
336.102 155.088 L
337.348 155.162 L
338.594 155.235 L
339.84 155.305 L
341.086 155.373 L
342.332 155.439 L
343.578 155.504 L
344.824 155.566 L
346.07 155.626 L
347.316 155.684 L
348.562 155.74 L
349.808 155.794 L
351.054 155.847 L
352.3 155.898 L
353.546 155.949 L
354.792 155.998 L
356.038 156.047 L
357.284 156.095 L
358.53 156.144 L
359.776 156.192 L
361.022 156.239 L
362.268 156.287 L
363.514 156.333 L
364.76 156.379 L
366.006 156.424 L
367.252 156.467 L
368.498 156.509 L
369.744 156.549 L
370.99 156.587 L
372.236 156.622 L
373.482 156.656 L
374.728 156.688 L
375.974 156.717 L
377.22 156.746 L
378.466 156.772 L
379.712 156.797 L
380.958 156.821 L
382.204 156.843 L
383.45 156.864 L
384.696 156.885 L
385.942 156.904 L
387.188 156.923 L
388.434 156.94 L
389.68 156.957 L
390.926 156.974 L
392.172 156.99 L
393.418 157.005 L
394.664 157.02 L
395.91 157.034 L
397.156 157.048 L
398.402 157.062 L
399.648 157.075 L
400.894 157.088 L
402.14 157.1 L
403.386 157.111 L
404.632 157.122 L
405.878 157.132 L
407.124 157.141 L
408.37 157.15 L
409.616 157.157 L
410.862 157.164 L
412.108 157.17 L
413.354 157.175 L
414.6 157.18 L
415.846 157.183 L
417.092 157.186 L
418.338 157.189 L
419.584 157.191 L
420.83 157.192 L
422.076 157.193 L
423.322 157.193 L
424.568 157.193 L
425.814 157.193 L
427.06 157.192 L
428.306 157.19 L
429.552 157.189 L
430.798 157.186 L
432.044 157.183 L
433.29 157.18 L
434.536 157.177 L
435.782 157.173 L
437.028 157.168 L
438.274 157.163 L
439.52 157.159 L
440.766 157.153 L
442.012 157.148 L
443.258 157.143 L
444.504 157.137 L
S
GR
GS
1 0 0 RC
1 LJ
1.5 LW
N
134.25 156.1 M
135.496 156.327 L
136.742 156.403 L
137.988 156.335 L
139.234 156.132 L
140.48 155.802 L
141.726 155.353 L
142.972 154.795 L
144.218 154.134 L
145.464 153.381 L
146.71 152.543 L
147.956 151.628 L
149.202 150.645 L
150.448 149.602 L
151.694 148.508 L
152.94 147.371 L
154.186 146.2 L
155.432 145.002 L
156.678 143.787 L
157.924 142.562 L
159.17 141.336 L
160.416 140.117 L
161.662 138.908 L
162.908 137.713 L
164.154 136.535 L
165.4 135.377 L
166.646 134.243 L
167.892 133.136 L
169.138 132.058 L
170.384 131.014 L
171.63 130.006 L
172.876 129.036 L
174.122 128.106 L
175.368 127.212 L
176.614 126.354 L
177.86 125.53 L
179.106 124.74 L
180.352 123.981 L
181.598 123.254 L
182.844 122.555 L
184.09 121.885 L
185.336 121.242 L
186.582 120.629 L
187.828 120.048 L
189.074 119.501 L
190.32 118.992 L
191.566 118.523 L
192.812 118.097 L
194.058 117.716 L
195.304 117.384 L
196.55 117.102 L
197.796 116.872 L
199.042 116.696 L
200.288 116.571 L
201.534 116.498 L
202.78 116.475 L
204.026 116.502 L
205.272 116.578 L
206.518 116.703 L
207.764 116.875 L
209.01 117.094 L
210.256 117.359 L
211.502 117.667 L
212.748 118.016 L
213.994 118.403 L
215.24 118.825 L
216.486 119.28 L
217.732 119.765 L
218.978 120.276 L
220.224 120.812 L
221.47 121.369 L
222.716 121.946 L
223.962 122.541 L
225.208 123.155 L
226.454 123.787 L
227.7 124.438 L
228.946 125.107 L
230.192 125.795 L
231.438 126.502 L
232.684 127.226 L
233.93 127.97 L
235.176 128.731 L
236.422 129.51 L
237.668 130.304 L
238.914 131.114 L
240.16 131.938 L
241.406 132.775 L
242.652 133.624 L
243.898 134.484 L
245.144 135.353 L
246.39 136.231 L
247.636 137.115 L
248.882 137.997 L
250.128 138.866 L
251.374 139.713 L
252.62 140.527 L
253.866 141.299 L
255.112 142.018 L
256.358 142.674 L
257.604 143.258 L
258.85 143.76 L
260.096 144.172 L
261.342 144.503 L
262.588 144.764 L
263.834 144.966 L
265.08 145.122 L
266.326 145.241 L
267.572 145.336 L
268.818 145.418 L
270.064 145.498 L
271.31 145.588 L
272.556 145.696 L
273.802 145.822 L
275.048 145.964 L
276.294 146.118 L
277.54 146.281 L
278.786 146.45 L
280.032 146.623 L
281.278 146.797 L
282.524 146.968 L
283.77 147.134 L
285.016 147.292 L
286.262 147.445 L
287.508 147.593 L
288.754 147.738 L
290 147.882 L
291.246 148.028 L
292.492 148.177 L
293.738 148.331 L
294.984 148.491 L
296.23 148.66 L
297.476 148.839 L
298.722 149.026 L
299.968 149.219 L
301.214 149.417 L
302.46 149.616 L
303.706 149.815 L
304.952 150.011 L
306.198 150.203 L
307.444 150.388 L
308.69 150.564 L
309.936 150.729 L
311.182 150.885 L
312.428 151.034 L
313.674 151.178 L
314.92 151.318 L
316.166 151.457 L
317.412 151.596 L
318.658 151.737 L
319.904 151.883 L
321.15 152.035 L
322.396 152.195 L
323.642 152.36 L
324.888 152.53 L
326.134 152.701 L
327.38 152.872 L
328.626 153.041 L
329.872 153.205 L
331.118 153.363 L
332.364 153.511 L
333.61 153.649 L
334.856 153.775 L
336.102 153.89 L
337.348 153.995 L
338.594 154.094 L
339.84 154.187 L
341.086 154.277 L
342.332 154.366 L
343.578 154.456 L
344.824 154.548 L
346.07 154.646 L
347.316 154.749 L
348.562 154.858 L
349.808 154.971 L
351.054 155.086 L
352.3 155.203 L
353.546 155.319 L
354.792 155.434 L
356.038 155.546 L
357.284 155.655 L
358.53 155.757 L
359.776 155.853 L
361.022 155.943 L
362.268 156.027 L
363.514 156.107 L
364.76 156.182 L
366.006 156.254 L
367.252 156.323 L
368.498 156.39 L
369.744 156.455 L
370.99 156.52 L
372.236 156.585 L
373.482 156.649 L
374.728 156.713 L
375.974 156.776 L
377.22 156.838 L
378.466 156.899 L
379.712 156.958 L
380.958 157.015 L
382.204 157.07 L
383.45 157.123 L
384.696 157.173 L
385.942 157.22 L
387.188 157.265 L
388.434 157.308 L
389.68 157.348 L
390.926 157.386 L
392.172 157.422 L
393.418 157.456 L
394.664 157.488 L
395.91 157.518 L
397.156 157.546 L
398.402 157.572 L
399.648 157.597 L
400.894 157.62 L
402.14 157.642 L
403.386 157.662 L
404.632 157.681 L
405.878 157.698 L
407.124 157.715 L
408.37 157.729 L
409.616 157.743 L
410.862 157.755 L
412.108 157.767 L
413.354 157.777 L
414.6 157.787 L
415.846 157.795 L
417.092 157.803 L
418.338 157.811 L
419.584 157.817 L
420.83 157.823 L
422.076 157.829 L
423.322 157.834 L
424.568 157.838 L
425.814 157.842 L
427.06 157.846 L
428.306 157.848 L
429.552 157.85 L
430.798 157.851 L
432.044 157.851 L
433.29 157.851 L
434.536 157.849 L
435.782 157.847 L
437.028 157.844 L
438.274 157.84 L
439.52 157.836 L
440.766 157.83 L
442.012 157.825 L
443.258 157.818 L
444.504 157.811 L
S
GR
GS
0 1 1 RC
1 LJ
1.5 LW
N
134.25 156.1 M
135.496 156.443 L
136.742 156.678 L
137.988 156.81 L
139.234 156.845 L
140.48 156.79 L
141.726 156.648 L
142.972 156.427 L
144.218 156.131 L
145.464 155.767 L
146.71 155.34 L
147.956 154.855 L
149.202 154.318 L
150.448 153.735 L
151.694 153.112 L
152.94 152.453 L
154.186 151.765 L
155.432 151.054 L
156.678 150.324 L
157.924 149.582 L
159.17 148.833 L
160.416 148.082 L
161.662 147.328 L
162.908 146.57 L
164.154 145.806 L
165.4 145.036 L
166.646 144.257 L
167.892 143.469 L
169.138 142.67 L
170.384 141.859 L
171.63 141.034 L
172.876 140.195 L
174.122 139.346 L
175.368 138.493 L
176.614 137.642 L
177.86 136.798 L
179.106 135.966 L
180.352 135.152 L
181.598 134.361 L
182.844 133.6 L
184.09 132.873 L
185.336 132.185 L
186.582 131.535 L
187.828 130.92 L
189.074 130.337 L
190.32 129.785 L
191.566 129.26 L
192.812 128.761 L
194.058 128.284 L
195.304 127.828 L
196.55 127.389 L
197.796 126.967 L
199.042 126.561 L
200.288 126.173 L
201.534 125.805 L
202.78 125.458 L
204.026 125.133 L
205.272 124.832 L
206.518 124.556 L
207.764 124.307 L
209.01 124.086 L
210.256 123.894 L
211.502 123.731 L
212.748 123.595 L
213.994 123.485 L
215.24 123.401 L
216.486 123.342 L
217.732 123.305 L
218.978 123.292 L
220.224 123.299 L
221.47 123.327 L
222.716 123.375 L
223.962 123.442 L
225.208 123.529 L
226.454 123.637 L
227.7 123.766 L
228.946 123.916 L
230.192 124.088 L
231.438 124.282 L
232.684 124.499 L
233.93 124.738 L
235.176 125 L
236.422 125.284 L
237.668 125.587 L
238.914 125.907 L
240.16 126.243 L
241.406 126.591 L
242.652 126.952 L
243.898 127.321 L
245.144 127.698 L
246.39 128.08 L
247.636 128.467 L
248.882 128.857 L
250.128 129.253 L
251.374 129.656 L
252.62 130.066 L
253.866 130.484 L
255.112 130.912 L
256.358 131.35 L
257.604 131.8 L
258.85 132.263 L
260.096 132.738 L
261.342 133.223 L
262.588 133.713 L
263.834 134.205 L
265.08 134.695 L
266.326 135.178 L
267.572 135.65 L
268.818 136.108 L
270.064 136.548 L
271.31 136.965 L
272.556 137.356 L
273.802 137.725 L
275.048 138.076 L
276.294 138.411 L
277.54 138.736 L
278.786 139.054 L
280.032 139.369 L
281.278 139.685 L
282.524 140.005 L
283.77 140.335 L
285.016 140.676 L
286.262 141.026 L
287.508 141.382 L
288.754 141.739 L
290 142.094 L
291.246 142.443 L
292.492 142.783 L
293.738 143.11 L
294.984 143.42 L
296.23 143.709 L
297.476 143.975 L
298.722 144.221 L
299.968 144.451 L
301.214 144.67 L
302.46 144.881 L
303.706 145.089 L
304.952 145.298 L
306.198 145.513 L
307.444 145.737 L
308.69 145.975 L
309.936 146.229 L
311.182 146.498 L
312.428 146.779 L
313.674 147.067 L
314.92 147.36 L
316.166 147.654 L
317.412 147.945 L
318.658 148.231 L
319.904 148.509 L
321.15 148.773 L
322.396 149.023 L
323.642 149.259 L
324.888 149.483 L
326.134 149.696 L
327.38 149.9 L
328.626 150.097 L
329.872 150.288 L
331.118 150.475 L
332.364 150.66 L
333.61 150.844 L
334.856 151.029 L
336.102 151.215 L
337.348 151.401 L
338.594 151.588 L
339.84 151.774 L
341.086 151.96 L
342.332 152.146 L
343.578 152.331 L
344.824 152.514 L
346.07 152.697 L
347.316 152.877 L
348.562 153.056 L
349.808 153.233 L
351.054 153.409 L
352.3 153.583 L
353.546 153.756 L
354.792 153.927 L
356.038 154.097 L
357.284 154.265 L
358.53 154.432 L
359.776 154.598 L
361.022 154.762 L
362.268 154.923 L
363.514 155.08 L
364.76 155.232 L
366.006 155.379 L
367.252 155.52 L
368.498 155.653 L
369.744 155.778 L
370.99 155.894 L
372.236 156.001 L
373.482 156.1 L
374.728 156.191 L
375.974 156.276 L
377.22 156.356 L
378.466 156.433 L
379.712 156.507 L
380.958 156.58 L
382.204 156.654 L
383.45 156.729 L
384.696 156.806 L
385.942 156.885 L
387.188 156.966 L
388.434 157.048 L
389.68 157.131 L
390.926 157.214 L
392.172 157.297 L
393.418 157.379 L
394.664 157.459 L
395.91 157.538 L
397.156 157.614 L
398.402 157.688 L
399.648 157.759 L
400.894 157.827 L
402.14 157.891 L
403.386 157.952 L
404.632 158.009 L
405.878 158.062 L
407.124 158.11 L
408.37 158.154 L
409.616 158.193 L
410.862 158.227 L
412.108 158.258 L
413.354 158.285 L
414.6 158.309 L
415.846 158.331 L
417.092 158.351 L
418.338 158.369 L
419.584 158.387 L
420.83 158.404 L
422.076 158.42 L
423.322 158.437 L
424.568 158.454 L
425.814 158.469 L
427.06 158.484 L
428.306 158.498 L
429.552 158.51 L
430.798 158.522 L
432.044 158.531 L
433.29 158.538 L
434.536 158.543 L
435.782 158.547 L
437.028 158.548 L
438.274 158.548 L
439.52 158.546 L
440.766 158.543 L
442.012 158.539 L
443.258 158.534 L
444.504 158.528 L
S
GR
GS
1 1 0 RC
1 LJ
1.5 LW
N
134.25 156.1 M
135.496 156.405 L
136.742 156.638 L
137.988 156.801 L
139.234 156.897 L
140.48 156.929 L
141.726 156.899 L
142.972 156.81 L
144.218 156.665 L
145.464 156.467 L
146.71 156.217 L
147.956 155.92 L
149.202 155.577 L
150.448 155.191 L
151.694 154.765 L
152.94 154.301 L
154.186 153.803 L
155.432 153.272 L
156.678 152.712 L
157.924 152.126 L
159.17 151.515 L
160.416 150.883 L
161.662 150.232 L
162.908 149.563 L
164.154 148.879 L
165.4 148.181 L
166.646 147.472 L
167.892 146.754 L
169.138 146.028 L
170.384 145.298 L
171.63 144.563 L
172.876 143.828 L
174.122 143.094 L
175.368 142.363 L
176.614 141.637 L
177.86 140.919 L
179.106 140.211 L
180.352 139.515 L
181.598 138.834 L
182.844 138.169 L
184.09 137.523 L
185.336 136.898 L
186.582 136.294 L
187.828 135.709 L
189.074 135.145 L
190.32 134.599 L
191.566 134.071 L
192.812 133.562 L
194.058 133.07 L
195.304 132.594 L
196.55 132.135 L
197.796 131.692 L
199.042 131.264 L
200.288 130.853 L
201.534 130.458 L
202.78 130.079 L
204.026 129.718 L
205.272 129.373 L
206.518 129.046 L
207.764 128.737 L
209.01 128.445 L
210.256 128.171 L
211.502 127.915 L
212.748 127.677 L
213.994 127.458 L
215.24 127.258 L
216.486 127.076 L
217.732 126.913 L
218.978 126.769 L
220.224 126.645 L
221.47 126.539 L
222.716 126.453 L
223.962 126.386 L
225.208 126.336 L
226.454 126.302 L
227.7 126.283 L
228.946 126.278 L
230.192 126.286 L
231.438 126.306 L
232.684 126.337 L
233.93 126.377 L
235.176 126.427 L
236.422 126.486 L
237.668 126.556 L
238.914 126.639 L
240.16 126.736 L
241.406 126.847 L
242.652 126.975 L
243.898 127.12 L
245.144 127.284 L
246.39 127.468 L
247.636 127.672 L
248.882 127.894 L
250.128 128.129 L
251.374 128.373 L
252.62 128.623 L
253.866 128.875 L
255.112 129.124 L
256.358 129.367 L
257.604 129.6 L
258.85 129.818 L
260.096 130.02 L
261.342 130.208 L
262.588 130.387 L
263.834 130.561 L
265.08 130.735 L
266.326 130.914 L
267.572 131.101 L
268.818 131.301 L
270.064 131.519 L
271.31 131.759 L
272.556 132.025 L
273.802 132.313 L
275.048 132.619 L
276.294 132.939 L
277.54 133.269 L
278.786 133.605 L
280.032 133.943 L
281.278 134.277 L
282.524 134.605 L
283.77 134.922 L
285.016 135.225 L
286.262 135.516 L
287.508 135.797 L
288.754 136.07 L
290 136.339 L
291.246 136.606 L
292.492 136.873 L
293.738 137.145 L
294.984 137.422 L
296.23 137.708 L
297.476 138.004 L
298.722 138.311 L
299.968 138.626 L
301.214 138.949 L
302.46 139.279 L
303.706 139.613 L
304.952 139.952 L
306.198 140.293 L
307.444 140.635 L
308.69 140.977 L
309.936 141.319 L
311.182 141.659 L
312.428 141.998 L
313.674 142.335 L
314.92 142.671 L
316.166 143.005 L
317.412 143.338 L
318.658 143.668 L
319.904 143.997 L
321.15 144.324 L
322.396 144.649 L
323.642 144.972 L
324.888 145.293 L
326.134 145.612 L
327.38 145.928 L
328.626 146.243 L
329.872 146.555 L
331.118 146.865 L
332.364 147.172 L
333.61 147.477 L
334.856 147.78 L
336.102 148.08 L
337.348 148.377 L
338.594 148.671 L
339.84 148.962 L
341.086 149.249 L
342.332 149.531 L
343.578 149.81 L
344.824 150.083 L
346.07 150.352 L
347.316 150.616 L
348.562 150.875 L
349.808 151.129 L
351.054 151.379 L
352.3 151.624 L
353.546 151.865 L
354.792 152.102 L
356.038 152.336 L
357.284 152.565 L
358.53 152.791 L
359.776 153.014 L
361.022 153.234 L
362.268 153.45 L
363.514 153.662 L
364.76 153.87 L
366.006 154.074 L
367.252 154.273 L
368.498 154.468 L
369.744 154.659 L
370.99 154.844 L
372.236 155.024 L
373.482 155.2 L
374.728 155.371 L
375.974 155.537 L
377.22 155.699 L
378.466 155.856 L
379.712 156.01 L
380.958 156.159 L
382.204 156.305 L
383.45 156.448 L
384.696 156.587 L
385.942 156.723 L
387.188 156.855 L
388.434 156.984 L
389.68 157.109 L
390.926 157.23 L
392.172 157.347 L
393.418 157.461 L
394.664 157.57 L
395.91 157.676 L
397.156 157.777 L
398.402 157.874 L
399.648 157.968 L
400.894 158.058 L
402.14 158.144 L
403.386 158.226 L
404.632 158.306 L
405.878 158.382 L
407.124 158.455 L
408.37 158.525 L
409.616 158.593 L
410.862 158.657 L
412.108 158.719 L
413.354 158.779 L
414.6 158.835 L
415.846 158.889 L
417.092 158.94 L
418.338 158.988 L
419.584 159.033 L
420.83 159.076 L
422.076 159.115 L
423.322 159.152 L
424.568 159.186 L
425.814 159.218 L
427.06 159.247 L
428.306 159.274 L
429.552 159.299 L
430.798 159.321 L
432.044 159.341 L
433.29 159.36 L
434.536 159.376 L
435.782 159.39 L
437.028 159.403 L
438.274 159.414 L
439.52 159.423 L
440.766 159.43 L
442.012 159.436 L
443.258 159.44 L
444.504 159.442 L
S
GR
GS
1 0 1 RC
1 LJ
1.5 LW
N
134.25 156.1 M
135.496 156.183 L
136.742 156.482 L
137.988 156.982 L
139.234 157.669 L
140.48 158.529 L
141.726 159.548 L
142.972 160.711 L
144.218 162.004 L
145.464 163.413 L
146.71 164.924 L
147.956 166.523 L
149.202 168.194 L
150.448 169.925 L
151.694 171.701 L
152.94 173.507 L
154.186 175.33 L
155.432 177.155 L
156.678 178.968 L
157.924 180.754 L
159.17 182.501 L
160.416 184.195 L
161.662 185.837 L
162.908 187.43 L
164.154 188.977 L
165.4 190.479 L
166.646 191.941 L
167.892 193.363 L
169.138 194.75 L
170.384 196.103 L
171.63 197.426 L
172.876 198.719 L
174.122 199.973 L
175.368 201.179 L
176.614 202.324 L
177.86 203.4 L
179.106 204.395 L
180.352 205.298 L
181.598 206.1 L
182.844 206.789 L
184.09 207.355 L
185.336 207.788 L
186.582 208.079 L
187.828 208.22 L
189.074 208.203 L
190.32 208.019 L
191.566 207.661 L
192.812 207.119 L
194.058 206.387 L
195.304 205.455 L
196.55 204.315 L
197.796 202.966 L
199.042 201.436 L
200.288 199.758 L
201.534 197.966 L
202.78 196.096 L
204.026 194.18 L
205.272 192.253 L
206.518 190.35 L
207.764 188.503 L
209.01 186.749 L
210.256 185.112 L
211.502 183.587 L
212.748 182.161 L
213.994 180.82 L
215.24 179.551 L
216.486 178.34 L
217.732 177.173 L
218.978 176.038 L
220.224 174.92 L
221.47 173.806 L
222.716 172.687 L
223.962 171.567 L
225.208 170.456 L
226.454 169.362 L
227.7 168.295 L
228.946 167.264 L
230.192 166.277 L
231.438 165.344 L
232.684 164.474 L
233.93 163.675 L
235.176 162.954 L
236.422 162.304 L
237.668 161.716 L
238.914 161.181 L
240.16 160.69 L
241.406 160.232 L
242.652 159.8 L
243.898 159.383 L
245.144 158.972 L
246.39 158.558 L
247.636 158.134 L
248.882 157.701 L
250.128 157.264 L
251.374 156.827 L
252.62 156.394 L
253.866 155.968 L
255.112 155.554 L
256.358 155.156 L
257.604 154.777 L
258.85 154.423 L
260.096 154.095 L
261.342 153.794 L
262.588 153.517 L
263.834 153.262 L
265.08 153.027 L
266.326 152.811 L
267.572 152.612 L
268.818 152.428 L
270.064 152.257 L
271.31 152.097 L
272.556 151.947 L
273.802 151.805 L
275.048 151.671 L
276.294 151.545 L
277.54 151.425 L
278.786 151.312 L
280.032 151.204 L
281.278 151.101 L
282.524 151.003 L
283.77 150.908 L
285.016 150.816 L
286.262 150.727 L
287.508 150.643 L
288.754 150.561 L
290 150.485 L
291.246 150.412 L
292.492 150.344 L
293.738 150.282 L
294.984 150.225 L
296.23 150.173 L
297.476 150.128 L
298.722 150.088 L
299.968 150.053 L
301.214 150.023 L
302.46 149.997 L
303.706 149.976 L
304.952 149.959 L
306.198 149.945 L
307.444 149.934 L
308.69 149.926 L
309.936 149.921 L
311.182 149.917 L
312.428 149.916 L
313.674 149.917 L
314.92 149.919 L
316.166 149.923 L
317.412 149.929 L
318.658 149.936 L
319.904 149.943 L
321.15 149.952 L
322.396 149.962 L
323.642 149.973 L
324.888 149.985 L
326.134 149.998 L
327.38 150.013 L
328.626 150.03 L
329.872 150.049 L
331.118 150.07 L
332.364 150.094 L
333.61 150.12 L
334.856 150.149 L
336.102 150.18 L
337.348 150.214 L
338.594 150.249 L
339.84 150.286 L
341.086 150.323 L
342.332 150.362 L
343.578 150.401 L
344.824 150.439 L
346.07 150.478 L
347.316 150.516 L
348.562 150.553 L
349.808 150.59 L
351.054 150.626 L
352.3 150.663 L
353.546 150.699 L
354.792 150.736 L
356.038 150.772 L
357.284 150.81 L
358.53 150.847 L
359.776 150.885 L
361.022 150.924 L
362.268 150.963 L
363.514 151.002 L
364.76 151.041 L
366.006 151.079 L
367.252 151.117 L
368.498 151.155 L
369.744 151.191 L
370.99 151.226 L
372.236 151.26 L
373.482 151.293 L
374.728 151.325 L
375.974 151.357 L
377.22 151.389 L
378.466 151.422 L
379.712 151.456 L
380.958 151.49 L
382.204 151.527 L
383.45 151.565 L
384.696 151.605 L
385.942 151.647 L
387.188 151.691 L
388.434 151.736 L
389.68 151.781 L
390.926 151.826 L
392.172 151.87 L
393.418 151.914 L
394.664 151.956 L
395.91 151.996 L
397.156 152.034 L
398.402 152.071 L
399.648 152.105 L
400.894 152.138 L
402.14 152.17 L
403.386 152.202 L
404.632 152.233 L
405.878 152.264 L
407.124 152.295 L
408.37 152.326 L
409.616 152.359 L
410.862 152.392 L
412.108 152.426 L
413.354 152.461 L
414.6 152.496 L
415.846 152.532 L
417.092 152.567 L
418.338 152.603 L
419.584 152.64 L
420.83 152.676 L
422.076 152.712 L
423.322 152.748 L
424.568 152.784 L
425.814 152.82 L
427.06 152.855 L
428.306 152.891 L
429.552 152.925 L
430.798 152.959 L
432.044 152.993 L
433.29 153.026 L
434.536 153.058 L
435.782 153.089 L
437.028 153.12 L
438.274 153.15 L
439.52 153.178 L
440.766 153.206 L
442.012 153.233 L
443.258 153.258 L
444.504 153.282 L
S
GR
GS
0 0 1 RC
1 LJ
1.5 LW
N
134.25 156.1 M
135.496 157.04 L
136.742 158.234 L
137.988 159.666 L
139.234 161.322 L
140.48 163.186 L
141.726 165.242 L
142.972 167.475 L
144.218 169.871 L
145.464 172.413 L
146.71 175.086 L
147.956 177.876 L
149.202 180.766 L
150.448 183.742 L
151.694 186.787 L
152.94 189.887 L
154.186 193.027 L
155.432 196.191 L
156.678 199.364 L
157.924 202.53 L
159.17 205.674 L
160.416 208.783 L
161.662 211.851 L
162.908 214.875 L
164.154 217.85 L
165.4 220.774 L
166.646 223.642 L
167.892 226.452 L
169.138 229.198 L
170.384 231.878 L
171.63 234.488 L
172.876 237.024 L
174.122 239.479 L
175.368 241.847 L
176.614 244.121 L
177.86 246.293 L
179.106 248.357 L
180.352 250.307 L
181.598 252.134 L
182.844 253.833 L
184.09 255.396 L
185.336 256.818 L
186.582 258.097 L
187.828 259.232 L
189.074 260.223 L
190.32 261.07 L
191.566 261.772 L
192.812 262.329 L
194.058 262.739 L
195.304 263.003 L
196.55 263.12 L
197.796 263.087 L
199.042 262.886 L
200.288 262.499 L
201.534 261.905 L
202.78 261.085 L
204.026 260.02 L
205.272 258.69 L
206.518 257.075 L
207.764 255.156 L
209.01 252.913 L
210.256 250.338 L
211.502 247.475 L
212.748 244.378 L
213.994 241.102 L
215.24 237.7 L
216.486 234.228 L
217.732 230.741 L
218.978 227.292 L
220.224 223.938 L
221.47 220.732 L
222.716 217.717 L
223.962 214.891 L
225.208 212.238 L
226.454 209.745 L
227.7 207.397 L
228.946 205.179 L
230.192 203.077 L
231.438 201.077 L
232.684 199.163 L
233.93 197.321 L
235.176 195.54 L
236.422 193.816 L
237.668 192.15 L
238.914 190.543 L
240.16 188.993 L
241.406 187.502 L
242.652 186.07 L
243.898 184.696 L
245.144 183.382 L
246.39 182.126 L
247.636 180.929 L
248.882 179.785 L
250.128 178.69 L
251.374 177.639 L
252.62 176.625 L
253.866 175.644 L
255.112 174.69 L
256.358 173.758 L
257.604 172.842 L
258.85 171.938 L
260.096 171.042 L
261.342 170.155 L
262.588 169.282 L
263.834 168.427 L
265.08 167.594 L
266.326 166.786 L
267.572 166.008 L
268.818 165.263 L
270.064 164.556 L
271.31 163.89 L
272.556 163.268 L
273.802 162.689 L
275.048 162.151 L
276.294 161.65 L
277.54 161.185 L
278.786 160.753 L
280.032 160.351 L
281.278 159.978 L
282.524 159.63 L
283.77 159.305 L
285.016 159.001 L
286.262 158.715 L
287.508 158.444 L
288.754 158.185 L
290 157.934 L
291.246 157.69 L
292.492 157.45 L
293.738 157.209 L
294.984 156.966 L
296.23 156.718 L
297.476 156.462 L
298.722 156.201 L
299.968 155.939 L
301.214 155.678 L
302.46 155.423 L
303.706 155.176 L
304.952 154.941 L
306.198 154.722 L
307.444 154.521 L
308.69 154.342 L
309.936 154.188 L
311.182 154.056 L
312.428 153.943 L
313.674 153.846 L
314.92 153.763 L
316.166 153.689 L
317.412 153.623 L
318.658 153.56 L
319.904 153.498 L
321.15 153.434 L
322.396 153.365 L
323.642 153.291 L
324.888 153.216 L
326.134 153.139 L
327.38 153.062 L
328.626 152.987 L
329.872 152.915 L
331.118 152.847 L
332.364 152.785 L
333.61 152.73 L
334.856 152.684 L
336.102 152.646 L
337.348 152.615 L
338.594 152.589 L
339.84 152.569 L
341.086 152.554 L
342.332 152.542 L
343.578 152.533 L
344.824 152.526 L
346.07 152.52 L
347.316 152.514 L
348.562 152.508 L
349.808 152.503 L
351.054 152.499 L
352.3 152.495 L
353.546 152.492 L
354.792 152.49 L
356.038 152.489 L
357.284 152.489 L
358.53 152.491 L
359.776 152.493 L
361.022 152.498 L
362.268 152.503 L
363.514 152.511 L
364.76 152.52 L
366.006 152.53 L
367.252 152.542 L
368.498 152.556 L
369.744 152.571 L
370.99 152.589 L
372.236 152.608 L
373.482 152.628 L
374.728 152.65 L
375.974 152.673 L
377.22 152.697 L
378.466 152.721 L
379.712 152.745 L
380.958 152.769 L
382.204 152.794 L
383.45 152.817 L
384.696 152.84 L
385.942 152.862 L
387.188 152.884 L
388.434 152.906 L
389.68 152.927 L
390.926 152.949 L
392.172 152.971 L
393.418 152.993 L
394.664 153.016 L
395.91 153.04 L
397.156 153.064 L
398.402 153.09 L
399.648 153.116 L
400.894 153.143 L
402.14 153.171 L
403.386 153.199 L
404.632 153.228 L
405.878 153.257 L
407.124 153.286 L
408.37 153.316 L
409.616 153.345 L
410.862 153.375 L
412.108 153.405 L
413.354 153.435 L
414.6 153.464 L
415.846 153.492 L
417.092 153.521 L
418.338 153.548 L
419.584 153.575 L
420.83 153.6 L
422.076 153.625 L
423.322 153.649 L
424.568 153.672 L
425.814 153.694 L
427.06 153.716 L
428.306 153.738 L
429.552 153.76 L
430.798 153.783 L
432.044 153.806 L
433.29 153.829 L
434.536 153.853 L
435.782 153.879 L
437.028 153.904 L
438.274 153.93 L
439.52 153.957 L
440.766 153.984 L
442.012 154.011 L
443.258 154.038 L
444.504 154.066 L
S
GR
GS
0 1 0 RC
1 LJ
1.5 LW
N
134.25 156.1 M
135.496 157.107 L
136.742 158.302 L
137.988 159.679 L
139.234 161.233 L
140.48 162.955 L
141.726 164.84 L
142.972 166.881 L
144.218 169.072 L
145.464 171.406 L
146.71 173.877 L
147.956 176.477 L
149.202 179.202 L
150.448 182.043 L
151.694 184.996 L
152.94 188.052 L
154.186 191.206 L
155.432 194.452 L
156.678 197.781 L
157.924 201.19 L
159.17 204.669 L
160.416 208.212 L
161.662 211.803 L
162.908 215.423 L
164.154 219.054 L
165.4 222.68 L
166.646 226.282 L
167.892 229.843 L
169.138 233.344 L
170.384 236.768 L
171.63 240.097 L
172.876 243.316 L
174.122 246.424 L
175.368 249.422 L
176.614 252.311 L
177.86 255.091 L
179.106 257.765 L
180.352 260.334 L
181.598 262.797 L
182.844 265.158 L
184.09 267.417 L
185.336 269.574 L
186.582 271.63 L
187.828 273.582 L
189.074 275.43 L
190.32 277.173 L
191.566 278.81 L
192.812 280.339 L
194.058 281.76 L
195.304 283.07 L
196.55 284.271 L
197.796 285.358 L
199.042 286.331 L
200.288 287.184 L
201.534 287.914 L
202.78 288.519 L
204.026 288.993 L
205.272 289.334 L
206.518 289.538 L
207.764 289.601 L
209.01 289.52 L
210.256 289.292 L
211.502 288.923 L
212.748 288.417 L
213.994 287.781 L
215.24 287.019 L
216.486 286.139 L
217.732 285.146 L
218.978 284.045 L
220.224 282.843 L
221.47 281.544 L
222.716 280.151 L
223.962 278.648 L
225.208 277.014 L
226.454 275.229 L
227.7 273.271 L
228.946 271.122 L
230.192 268.76 L
231.438 266.166 L
232.684 263.318 L
233.93 260.196 L
235.176 256.792 L
236.422 253.148 L
237.668 249.318 L
238.914 245.356 L
240.16 241.315 L
241.406 237.249 L
242.652 233.213 L
243.898 229.26 L
245.144 225.444 L
246.39 221.82 L
247.636 218.428 L
248.882 215.266 L
250.128 212.318 L
251.374 209.568 L
252.62 206.999 L
253.866 204.597 L
255.112 202.346 L
256.358 200.23 L
257.604 198.233 L
258.85 196.34 L
260.096 194.535 L
261.342 192.807 L
262.588 191.143 L
263.834 189.532 L
265.08 187.963 L
266.326 186.424 L
267.572 184.902 L
268.818 183.388 L
270.064 181.869 L
271.31 180.333 L
272.556 178.773 L
273.802 177.199 L
275.048 175.624 L
276.294 174.063 L
277.54 172.529 L
278.786 171.036 L
280.032 169.598 L
281.278 168.228 L
282.524 166.941 L
283.77 165.75 L
285.016 164.665 L
286.262 163.68 L
287.508 162.783 L
288.754 161.966 L
290 161.216 L
291.246 160.524 L
292.492 159.878 L
293.738 159.27 L
294.984 158.687 L
296.23 158.119 L
297.476 157.559 L
298.722 157.006 L
299.968 156.464 L
301.214 155.935 L
302.46 155.422 L
303.706 154.927 L
304.952 154.454 L
306.198 154.005 L
307.444 153.582 L
308.69 153.189 L
309.936 152.828 L
311.182 152.496 L
312.428 152.19 L
313.674 151.907 L
314.92 151.645 L
316.166 151.401 L
317.412 151.17 L
318.658 150.952 L
319.904 150.741 L
321.15 150.537 L
322.396 150.335 L
323.642 150.137 L
324.888 149.943 L
326.134 149.755 L
327.38 149.573 L
328.626 149.398 L
329.872 149.232 L
331.118 149.074 L
332.364 148.927 L
333.61 148.791 L
334.856 148.667 L
336.102 148.554 L
337.348 148.451 L
338.594 148.359 L
339.84 148.275 L
341.086 148.201 L
342.332 148.134 L
343.578 148.074 L
344.824 148.021 L
346.07 147.974 L
347.316 147.932 L
348.562 147.895 L
349.808 147.863 L
351.054 147.836 L
352.3 147.813 L
353.546 147.794 L
354.792 147.78 L
356.038 147.771 L
357.284 147.765 L
358.53 147.763 L
359.776 147.765 L
361.022 147.771 L
362.268 147.78 L
363.514 147.792 L
364.76 147.807 L
366.006 147.826 L
367.252 147.847 L
368.498 147.87 L
369.744 147.896 L
370.99 147.925 L
372.236 147.955 L
373.482 147.987 L
374.728 148.021 L
375.974 148.056 L
377.22 148.093 L
378.466 148.13 L
379.712 148.169 L
380.958 148.208 L
382.204 148.247 L
383.45 148.287 L
384.696 148.327 L
385.942 148.367 L
387.188 148.408 L
388.434 148.449 L
389.68 148.491 L
390.926 148.534 L
392.172 148.578 L
393.418 148.624 L
394.664 148.672 L
395.91 148.721 L
397.156 148.772 L
398.402 148.825 L
399.648 148.88 L
400.894 148.936 L
402.14 148.994 L
403.386 149.053 L
404.632 149.112 L
405.878 149.173 L
407.124 149.233 L
408.37 149.295 L
409.616 149.356 L
410.862 149.417 L
412.108 149.479 L
413.354 149.54 L
414.6 149.601 L
415.846 149.662 L
417.092 149.722 L
418.338 149.782 L
419.584 149.841 L
420.83 149.9 L
422.076 149.957 L
423.322 150.015 L
424.568 150.071 L
425.814 150.127 L
427.06 150.183 L
428.306 150.239 L
429.552 150.295 L
430.798 150.35 L
432.044 150.406 L
433.29 150.463 L
434.536 150.52 L
435.782 150.577 L
437.028 150.634 L
438.274 150.691 L
439.52 150.747 L
440.766 150.803 L
442.012 150.858 L
443.258 150.911 L
444.504 150.963 L
S
GR
GS
1 0 0 RC
1 LJ
1.5 LW
N
134.25 156.1 M
135.496 155.914 L
136.742 156.13 L
137.988 156.727 L
139.234 157.683 L
140.48 158.973 L
141.726 160.578 L
142.972 162.473 L
144.218 164.636 L
145.464 167.046 L
146.71 169.679 L
147.956 172.514 L
149.202 175.528 L
150.448 178.698 L
151.694 182.003 L
152.94 185.419 L
154.186 188.924 L
155.432 192.497 L
156.678 196.114 L
157.924 199.754 L
159.17 203.393 L
160.416 207.012 L
161.662 210.603 L
162.908 214.16 L
164.154 217.676 L
165.4 221.147 L
166.646 224.567 L
167.892 227.929 L
169.138 231.228 L
170.384 234.457 L
171.63 237.613 L
172.876 240.689 L
174.122 243.689 L
175.368 246.619 L
176.614 249.483 L
177.86 252.285 L
179.106 255.03 L
180.352 257.724 L
181.598 260.37 L
182.844 262.975 L
184.09 265.542 L
185.336 268.075 L
186.582 270.569 L
187.828 273.02 L
189.074 275.422 L
190.32 277.769 L
191.566 280.055 L
192.812 282.275 L
194.058 284.424 L
195.304 286.496 L
196.55 288.485 L
197.796 290.386 L
199.042 292.194 L
200.288 293.905 L
201.534 295.513 L
202.78 297.013 L
204.026 298.402 L
205.272 299.675 L
206.518 300.825 L
207.764 301.85 L
209.01 302.744 L
210.256 303.504 L
211.502 304.134 L
212.748 304.64 L
213.994 305.026 L
215.24 305.299 L
216.486 305.465 L
217.732 305.528 L
218.978 305.494 L
220.224 305.369 L
221.47 305.159 L
222.716 304.868 L
223.962 304.494 L
225.208 304.037 L
226.454 303.493 L
227.7 302.862 L
228.946 302.142 L
230.192 301.329 L
231.438 300.423 L
232.684 299.422 L
233.93 298.322 L
235.176 297.124 L
236.422 295.823 L
237.668 294.418 L
238.914 292.905 L
240.16 291.283 L
241.406 289.548 L
242.652 287.698 L
243.898 285.73 L
245.144 283.642 L
246.39 281.431 L
247.636 279.094 L
248.882 276.628 L
250.128 274.027 L
251.374 271.288 L
252.62 268.407 L
253.866 265.379 L
255.112 262.201 L
256.358 258.867 L
257.604 255.374 L
258.85 251.717 L
260.096 247.899 L
261.342 243.954 L
262.588 239.921 L
263.834 235.84 L
265.08 231.752 L
266.326 227.695 L
267.572 223.711 L
268.818 219.839 L
270.064 216.119 L
271.31 212.591 L
272.556 209.286 L
273.802 206.198 L
275.048 203.31 L
276.294 200.607 L
277.54 198.073 L
278.786 195.692 L
280.032 193.448 L
281.278 191.326 L
282.524 189.31 L
283.77 187.384 L
285.016 185.534 L
286.262 183.75 L
287.508 182.026 L
288.754 180.354 L
290 178.727 L
291.246 177.137 L
292.492 175.577 L
293.738 174.04 L
294.984 172.518 L
296.23 171.004 L
297.476 169.493 L
298.722 167.993 L
299.968 166.513 L
301.214 165.064 L
302.46 163.655 L
303.706 162.297 L
304.952 161 L
306.198 159.774 L
307.444 158.628 L
308.69 157.572 L
309.936 156.614 L
311.182 155.746 L
312.428 154.957 L
313.674 154.235 L
314.92 153.57 L
316.166 152.95 L
317.412 152.365 L
318.658 151.804 L
319.904 151.256 L
321.15 150.709 L
322.396 150.155 L
323.642 149.598 L
324.888 149.044 L
326.134 148.497 L
327.38 147.965 L
328.626 147.452 L
329.872 146.965 L
331.118 146.509 L
332.364 146.09 L
333.61 145.714 L
334.856 145.386 L
336.102 145.101 L
337.348 144.853 L
338.594 144.639 L
339.84 144.451 L
341.086 144.285 L
342.332 144.136 L
343.578 143.997 L
344.824 143.863 L
346.07 143.729 L
347.316 143.591 L
348.562 143.449 L
349.808 143.306 L
351.054 143.164 L
352.3 143.025 L
353.546 142.892 L
354.792 142.765 L
356.038 142.648 L
357.284 142.543 L
358.53 142.452 L
359.776 142.376 L
361.022 142.315 L
362.268 142.267 L
363.514 142.232 L
364.76 142.208 L
366.006 142.193 L
367.252 142.187 L
368.498 142.188 L
369.744 142.195 L
370.99 142.207 L
372.236 142.223 L
373.482 142.242 L
374.728 142.265 L
375.974 142.291 L
377.22 142.321 L
378.466 142.355 L
379.712 142.393 L
380.958 142.435 L
382.204 142.482 L
383.45 142.532 L
384.696 142.586 L
385.942 142.645 L
387.188 142.706 L
388.434 142.771 L
389.68 142.839 L
390.926 142.91 L
392.172 142.982 L
393.418 143.056 L
394.664 143.132 L
395.91 143.209 L
397.156 143.287 L
398.402 143.365 L
399.648 143.444 L
400.894 143.522 L
402.14 143.6 L
403.386 143.678 L
404.632 143.755 L
405.878 143.831 L
407.124 143.906 L
408.37 143.98 L
409.616 144.052 L
410.862 144.122 L
412.108 144.192 L
413.354 144.262 L
414.6 144.332 L
415.846 144.404 L
417.092 144.476 L
418.338 144.551 L
419.584 144.628 L
420.83 144.709 L
422.076 144.793 L
423.322 144.88 L
424.568 144.97 L
425.814 145.062 L
427.06 145.156 L
428.306 145.251 L
429.552 145.347 L
430.798 145.443 L
432.044 145.539 L
433.29 145.635 L
434.536 145.729 L
435.782 145.823 L
437.028 145.916 L
438.274 146.008 L
439.52 146.099 L
440.766 146.19 L
442.012 146.281 L
443.258 146.371 L
444.504 146.46 L
S
GR
GS
0 1 1 RC
1 LJ
1.5 LW
N
134.25 156.1 M
135.496 155.787 L
136.742 155.882 L
137.988 156.361 L
139.234 157.199 L
140.48 158.372 L
141.726 159.855 L
142.972 161.623 L
144.218 163.653 L
145.464 165.92 L
146.71 168.398 L
147.956 171.064 L
149.202 173.893 L
150.448 176.861 L
151.694 179.942 L
152.94 183.113 L
154.186 186.348 L
155.432 189.624 L
156.678 192.915 L
157.924 196.198 L
159.17 199.448 L
160.416 202.646 L
161.662 205.799 L
162.908 208.922 L
164.154 212.027 L
165.4 215.128 L
166.646 218.239 L
167.892 221.373 L
169.138 224.544 L
170.384 227.764 L
171.63 231.048 L
172.876 234.403 L
174.122 237.812 L
175.368 241.252 L
176.614 244.7 L
177.86 248.133 L
179.106 251.529 L
180.352 254.864 L
181.598 258.116 L
182.844 261.261 L
184.09 264.277 L
185.336 267.147 L
186.582 269.875 L
187.828 272.474 L
189.074 274.954 L
190.32 277.328 L
191.566 279.606 L
192.812 281.799 L
194.058 283.92 L
195.304 285.978 L
196.55 287.986 L
197.796 289.953 L
199.042 291.874 L
200.288 293.747 L
201.534 295.564 L
202.78 297.32 L
204.026 299.011 L
205.272 300.631 L
206.518 302.174 L
207.764 303.636 L
209.01 305.011 L
210.256 306.295 L
211.502 307.486 L
212.748 308.585 L
213.994 309.592 L
215.24 310.508 L
216.486 311.331 L
217.732 312.063 L
218.978 312.703 L
220.224 313.252 L
221.47 313.709 L
222.716 314.075 L
223.962 314.349 L
225.208 314.533 L
226.454 314.626 L
227.7 314.629 L
228.946 314.541 L
230.192 314.363 L
231.438 314.095 L
232.684 313.738 L
233.93 313.291 L
235.176 312.756 L
236.422 312.135 L
237.668 311.434 L
238.914 310.655 L
240.16 309.804 L
241.406 308.883 L
242.652 307.898 L
243.898 306.852 L
245.144 305.75 L
246.39 304.595 L
247.636 303.389 L
248.882 302.127 L
250.128 300.799 L
251.374 299.398 L
252.62 297.915 L
253.866 296.341 L
255.112 294.668 L
256.358 292.888 L
257.604 290.992 L
258.85 288.973 L
260.096 286.826 L
261.342 284.569 L
262.588 282.228 L
263.834 279.824 L
265.08 277.381 L
266.326 274.923 L
267.572 272.473 L
268.818 270.055 L
270.064 267.692 L
271.31 265.406 L
272.556 263.211 L
273.802 261.071 L
275.048 258.938 L
276.294 256.765 L
277.54 254.506 L
278.786 252.112 L
280.032 249.537 L
281.278 246.733 L
282.524 243.654 L
283.77 240.252 L
285.016 236.501 L
286.262 232.458 L
287.508 228.202 L
288.754 223.81 L
290 219.36 L
291.246 214.932 L
292.492 210.603 L
293.738 206.45 L
294.984 202.554 L
296.23 198.991 L
297.476 195.818 L
298.722 193.005 L
299.968 190.503 L
301.214 188.258 L
302.46 186.22 L
303.706 184.338 L
304.952 182.56 L
306.198 180.836 L
307.444 179.114 L
308.69 177.343 L
309.936 175.484 L
311.182 173.552 L
312.428 171.572 L
313.674 169.571 L
314.92 167.574 L
316.166 165.61 L
317.412 163.703 L
318.658 161.881 L
319.904 160.169 L
321.15 158.593 L
322.396 157.175 L
323.642 155.903 L
324.888 154.763 L
326.134 153.739 L
327.38 152.815 L
328.626 151.974 L
329.872 151.202 L
331.118 150.481 L
332.364 149.797 L
333.61 149.134 L
334.856 148.478 L
336.102 147.829 L
337.348 147.189 L
338.594 146.56 L
339.84 145.946 L
341.086 145.347 L
342.332 144.767 L
343.578 144.208 L
344.824 143.672 L
346.07 143.161 L
347.316 142.677 L
348.562 142.22 L
349.808 141.789 L
351.054 141.383 L
352.3 141.001 L
353.546 140.641 L
354.792 140.304 L
356.038 139.988 L
357.284 139.692 L
358.53 139.416 L
359.776 139.158 L
361.022 138.918 L
362.268 138.696 L
363.514 138.491 L
364.76 138.304 L
366.006 138.135 L
367.252 137.982 L
368.498 137.845 L
369.744 137.725 L
370.99 137.622 L
372.236 137.533 L
373.482 137.46 L
374.728 137.4 L
375.974 137.352 L
377.22 137.314 L
378.466 137.285 L
379.712 137.265 L
380.958 137.251 L
382.204 137.242 L
383.45 137.237 L
384.696 137.235 L
385.942 137.237 L
387.188 137.243 L
388.434 137.254 L
389.68 137.271 L
390.926 137.295 L
392.172 137.327 L
393.418 137.368 L
394.664 137.418 L
395.91 137.478 L
397.156 137.55 L
398.402 137.631 L
399.648 137.72 L
400.894 137.816 L
402.14 137.916 L
403.386 138.019 L
404.632 138.124 L
405.878 138.229 L
407.124 138.332 L
408.37 138.431 L
409.616 138.525 L
410.862 138.616 L
412.108 138.705 L
413.354 138.792 L
414.6 138.879 L
415.846 138.967 L
417.092 139.059 L
418.338 139.154 L
419.584 139.254 L
420.83 139.361 L
422.076 139.476 L
423.322 139.598 L
424.568 139.725 L
425.814 139.857 L
427.06 139.993 L
428.306 140.132 L
429.552 140.272 L
430.798 140.413 L
432.044 140.554 L
433.29 140.694 L
434.536 140.831 L
435.782 140.966 L
437.028 141.098 L
438.274 141.229 L
439.52 141.357 L
440.766 141.483 L
442.012 141.607 L
443.258 141.729 L
444.504 141.849 L
S
GR
GS
1 1 0 RC
1 LJ
1.5 LW
N
134.25 156.1 M
135.496 156.001 L
136.742 156.261 L
137.988 156.86 L
139.234 157.781 L
140.48 159.005 L
141.726 160.515 L
142.972 162.29 L
144.218 164.314 L
145.464 166.568 L
146.71 169.034 L
147.956 171.692 L
149.202 174.525 L
150.448 177.515 L
151.694 180.643 L
152.94 183.891 L
154.186 187.241 L
155.432 190.673 L
156.678 194.171 L
157.924 197.714 L
159.17 201.286 L
160.416 204.871 L
161.662 208.465 L
162.908 212.067 L
164.154 215.677 L
165.4 219.295 L
166.646 222.92 L
167.892 226.551 L
169.138 230.188 L
170.384 233.829 L
171.63 237.476 L
172.876 241.124 L
174.122 244.766 L
175.368 248.389 L
176.614 251.983 L
177.86 255.536 L
179.106 259.037 L
180.352 262.475 L
181.598 265.839 L
182.844 269.118 L
184.09 272.301 L
185.336 275.378 L
186.582 278.352 L
187.828 281.226 L
189.074 284.004 L
190.32 286.689 L
191.566 289.285 L
192.812 291.796 L
194.058 294.226 L
195.304 296.579 L
196.55 298.857 L
197.796 301.065 L
199.042 303.202 L
200.288 305.266 L
201.534 307.256 L
202.78 309.17 L
204.026 311.008 L
205.272 312.768 L
206.518 314.448 L
207.764 316.047 L
209.01 317.564 L
210.256 318.998 L
211.502 320.345 L
212.748 321.605 L
213.994 322.775 L
215.24 323.853 L
216.486 324.837 L
217.732 325.724 L
218.978 326.512 L
220.224 327.2 L
221.47 327.785 L
222.716 328.267 L
223.962 328.648 L
225.208 328.937 L
226.454 329.138 L
227.7 329.256 L
228.946 329.298 L
230.192 329.269 L
231.438 329.176 L
232.684 329.023 L
233.93 328.817 L
235.176 328.56 L
236.422 328.246 L
237.668 327.864 L
238.914 327.406 L
240.16 326.86 L
241.406 326.218 L
242.652 325.47 L
243.898 324.605 L
245.144 323.615 L
246.39 322.488 L
247.636 321.222 L
248.882 319.835 L
250.128 318.349 L
251.374 316.789 L
252.62 315.179 L
253.866 313.541 L
255.112 311.901 L
256.358 310.281 L
257.604 308.706 L
258.85 307.199 L
260.096 305.774 L
261.342 304.409 L
262.588 303.071 L
263.834 301.729 L
265.08 300.351 L
266.326 298.904 L
267.572 297.356 L
268.818 295.675 L
270.064 293.829 L
271.31 291.786 L
272.556 289.525 L
273.802 287.065 L
275.048 284.439 L
276.294 281.678 L
277.54 278.812 L
278.786 275.873 L
280.032 272.893 L
281.278 269.902 L
282.524 266.932 L
283.77 264.013 L
285.016 261.169 L
286.262 258.387 L
287.508 255.643 L
288.754 252.918 L
290 250.188 L
291.246 247.431 L
292.492 244.626 L
293.738 241.751 L
294.984 238.785 L
296.23 235.704 L
297.476 232.495 L
298.722 229.176 L
299.968 225.773 L
301.214 222.313 L
302.46 218.82 L
303.706 215.321 L
304.952 211.842 L
306.198 208.409 L
307.444 205.048 L
308.69 201.784 L
309.936 198.639 L
311.182 195.614 L
312.428 192.707 L
313.674 189.912 L
314.92 187.227 L
316.166 184.649 L
317.412 182.174 L
318.658 179.798 L
319.904 177.519 L
321.15 175.332 L
322.396 173.234 L
323.642 171.223 L
324.888 169.295 L
326.134 167.448 L
327.38 165.678 L
328.626 163.983 L
329.872 162.36 L
331.118 160.806 L
332.364 159.318 L
333.61 157.893 L
334.856 156.529 L
336.102 155.223 L
337.348 153.976 L
338.594 152.785 L
339.84 151.65 L
341.086 150.569 L
342.332 149.54 L
343.578 148.563 L
344.824 147.637 L
346.07 146.76 L
347.316 145.931 L
348.562 145.147 L
349.808 144.407 L
351.054 143.708 L
352.3 143.049 L
353.546 142.426 L
354.792 141.839 L
356.038 141.284 L
357.284 140.759 L
358.53 140.263 L
359.776 139.793 L
361.022 139.348 L
362.268 138.929 L
363.514 138.534 L
364.76 138.164 L
366.006 137.816 L
367.252 137.492 L
368.498 137.191 L
369.744 136.912 L
370.99 136.654 L
372.236 136.417 L
373.482 136.2 L
374.728 136.003 L
375.974 135.824 L
377.22 135.662 L
378.466 135.516 L
379.712 135.386 L
380.958 135.27 L
382.204 135.168 L
383.45 135.078 L
384.696 135 L
385.942 134.934 L
387.188 134.878 L
388.434 134.833 L
389.68 134.798 L
390.926 134.772 L
392.172 134.757 L
393.418 134.75 L
394.664 134.753 L
395.91 134.764 L
397.156 134.783 L
398.402 134.81 L
399.648 134.844 L
400.894 134.886 L
402.14 134.934 L
403.386 134.989 L
404.632 135.05 L
405.878 135.117 L
407.124 135.19 L
408.37 135.267 L
409.616 135.35 L
410.862 135.437 L
412.108 135.528 L
413.354 135.624 L
414.6 135.723 L
415.846 135.826 L
417.092 135.932 L
418.338 136.041 L
419.584 136.153 L
420.83 136.268 L
422.076 136.385 L
423.322 136.503 L
424.568 136.625 L
425.814 136.748 L
427.06 136.873 L
428.306 137 L
429.552 137.129 L
430.798 137.26 L
432.044 137.393 L
433.29 137.527 L
434.536 137.664 L
435.782 137.801 L
437.028 137.941 L
438.274 138.081 L
439.52 138.222 L
440.766 138.364 L
442.012 138.506 L
443.258 138.649 L
444.504 138.792 L
S
GR
GS
1 LJ
0.5 LW
N
346.07 185.173 M
433.29 185.173 L
S
GR
GS
1 LJ
0.5 LW
N
346.07 334.693 M
433.29 334.693 L
S
GR
GS
1 LJ
0.5 LW
N
346.07 185.173 M
346.07 334.693 L
S
GR
GS
1 LJ
0.5 LW
N
433.29 185.173 M
433.29 334.693 L
S
GR
GS
1 LJ
2 LW
N
358.53 197.633 M
383.45 197.633 L
S
GR
GS
[1 0 0 1 390 200] CT
/Helvetica 12 F
GS
[1 0 0 1 0 0] CT
0 0 moveto 
1 -1 scale
(v) t 
GR
GR
GS
[1 0 0 1 396 206] CT
/Helvetica 9.6 F
GS
[1 0 0 1 0 0] CT
0 0 moveto 
1 -1 scale
(z) t 
GR
GR
GS
[1 0 0 1 401 200] CT
/Helvetica 12 F
GS
[1 0 0 1 0 0] CT
0 0 moveto 
1 -1 scale
(\(0\)) t 
GR
GR
GS
1 0 1 RC
1 LJ
1.5 LW
N
358.53 218.4 M
383.45 218.4 L
S
GR
GS
[1 0 0 1 390 220] CT
/Helvetica 12 F
GS
[1 0 0 1 0 0] CT
0 0 moveto 
1 -1 scale
(v) t 
GR
GR
GS
[1 0 0 1 396 226] CT
/Helvetica 9.6 F
GS
[1 0 0 1 0 0] CT
0 0 moveto 
1 -1 scale
(z) t 
GR
GR
GS
[1 0 0 1 401 220] CT
/Helvetica 12 F
GS
[1 0 0 1 0 0] CT
0 0 moveto 
1 -1 scale
(\(5\)) t 
GR
GR
GS
0 0 1 RC
1 LJ
1.5 LW
N
358.53 239.167 M
383.45 239.167 L
S
GR
GS
[1 0 0 1 390 241] CT
/Helvetica 12 F
GS
[1 0 0 1 0 0] CT
0 0 moveto 
1 -1 scale
(v) t 
GR
GR
GS
[1 0 0 1 396 247] CT
/Helvetica 9.6 F
GS
[1 0 0 1 0 0] CT
0 0 moveto 
1 -1 scale
(z) t 
GR
GR
GS
[1 0 0 1 401 241] CT
/Helvetica 12 F
GS
[1 0 0 1 0 0] CT
0 0 moveto 
1 -1 scale
(\(10\)) t 
GR
GR
GS
0 1 0 RC
1 LJ
1.5 LW
N
358.53 259.933 M
383.45 259.933 L
S
GR
GS
[1 0 0 1 390 262] CT
/Helvetica 12 F
GS
[1 0 0 1 0 0] CT
0 0 moveto 
1 -1 scale
(v) t 
GR
GR
GS
[1 0 0 1 396 268] CT
/Helvetica 9.6 F
GS
[1 0 0 1 0 0] CT
0 0 moveto 
1 -1 scale
(z) t 
GR
GR
GS
[1 0 0 1 401 262] CT
/Helvetica 12 F
GS
[1 0 0 1 0 0] CT
0 0 moveto 
1 -1 scale
(\(15\)) t 
GR
GR
GS
1 0 0 RC
1 LJ
1.5 LW
N
358.53 280.7 M
383.45 280.7 L
S
GR
GS
[1 0 0 1 390 283] CT
/Helvetica 12 F
GS
[1 0 0 1 0 0] CT
0 0 moveto 
1 -1 scale
(v) t 
GR
GR
GS
[1 0 0 1 396 289] CT
/Helvetica 9.6 F
GS
[1 0 0 1 0 0] CT
0 0 moveto 
1 -1 scale
(z) t 
GR
GR
GS
[1 0 0 1 401 283] CT
/Helvetica 12 F
GS
[1 0 0 1 0 0] CT
0 0 moveto 
1 -1 scale
(\(20\)) t 
GR
GR
GS
0 1 1 RC
1 LJ
1.5 LW
N
358.53 301.467 M
383.45 301.467 L
S
GR
GS
[1 0 0 1 390 303] CT
/Helvetica 12 F
GS
[1 0 0 1 0 0] CT
0 0 moveto 
1 -1 scale
(v) t 
GR
GR
GS
[1 0 0 1 396 309] CT
/Helvetica 9.6 F
GS
[1 0 0 1 0 0] CT
0 0 moveto 
1 -1 scale
(z) t 
GR
GR
GS
[1 0 0 1 401 303] CT
/Helvetica 12 F
GS
[1 0 0 1 0 0] CT
0 0 moveto 
1 -1 scale
(\(25\)) t 
GR
GR
GS
1 1 0 RC
1 LJ
1.5 LW
N
358.53 322.233 M
383.45 322.233 L
S
GR
GS
[1 0 0 1 390 324] CT
/Helvetica 12 F
GS
[1 0 0 1 0 0] CT
0 0 moveto 
1 -1 scale
(v) t 
GR
GR
GS
[1 0 0 1 396 330] CT
/Helvetica 9.6 F
GS
[1 0 0 1 0 0] CT
0 0 moveto 
1 -1 scale
(z) t 
GR
GR
GS
[1 0 0 1 401 324] CT
/Helvetica 12 F
GS
[1 0 0 1 0 0] CT
0 0 moveto 
1 -1 scale
(\(30\)) t 
GR
GR
%%Trailer
%%Pages: 1
%%EOF
