%!PS-Adobe-3.0 EPSF-3.0
%%Creator: (MATLAB, The Mathworks, Inc. Version 9.5.0.944444 \(R2018b\). Operating System: Mac OS X)
%%Title: ./stretchingtar_B.eps
%%CreationDate: 2020-05-07T20:41:40
%%Pages: (atend)
%%BoundingBox:    40     0   447   392
%%LanguageLevel: 2
%%EndComments
%%BeginProlog
%%BeginResource: procset (Apache XML Graphics Std ProcSet) 1.2 0
%%Version: 1.2 0
%%Copyright: (Copyright 2001-2003,2010 The Apache Software Foundation. License terms: http://www.apache.org/licenses/LICENSE-2.0)
/bd{bind def}bind def
/ld{load def}bd
/GR/grestore ld
/GS/gsave ld
/RM/rmoveto ld
/C/curveto ld
/t/show ld
/L/lineto ld
/ML/setmiterlimit ld
/CT/concat ld
/f/fill ld
/N/newpath ld
/S/stroke ld
/CC/setcmykcolor ld
/A/ashow ld
/cp/closepath ld
/RC/setrgbcolor ld
/LJ/setlinejoin ld
/GC/setgray ld
/LW/setlinewidth ld
/M/moveto ld
/re {4 2 roll M
1 index 0 rlineto
0 exch rlineto
neg 0 rlineto
cp } bd
/_ctm matrix def
/_tm matrix def
/BT { _ctm currentmatrix pop matrix _tm copy pop 0 0 moveto } bd
/ET { _ctm setmatrix } bd
/iTm { _ctm setmatrix _tm concat } bd
/Tm { _tm astore pop iTm 0 0 moveto } bd
/ux 0.0 def
/uy 0.0 def
/F {
  /Tp exch def
  /Tf exch def
  Tf findfont Tp scalefont setfont
  /cf Tf def  /cs Tp def
} bd
/ULS {currentpoint /uy exch def /ux exch def} bd
/ULE {
  /Tcx currentpoint pop def
  gsave
  newpath
  cf findfont cs scalefont dup
  /FontMatrix get 0 get /Ts exch def /FontInfo get dup
  /UnderlinePosition get Ts mul /To exch def
  /UnderlineThickness get Ts mul /Tt exch def
  ux uy To add moveto  Tcx uy To add lineto
  Tt setlinewidth stroke
  grestore
} bd
/OLE {
  /Tcx currentpoint pop def
  gsave
  newpath
  cf findfont cs scalefont dup
  /FontMatrix get 0 get /Ts exch def /FontInfo get dup
  /UnderlinePosition get Ts mul /To exch def
  /UnderlineThickness get Ts mul /Tt exch def
  ux uy To add cs add moveto Tcx uy To add cs add lineto
  Tt setlinewidth stroke
  grestore
} bd
/SOE {
  /Tcx currentpoint pop def
  gsave
  newpath
  cf findfont cs scalefont dup
  /FontMatrix get 0 get /Ts exch def /FontInfo get dup
  /UnderlinePosition get Ts mul /To exch def
  /UnderlineThickness get Ts mul /Tt exch def
  ux uy To add cs 10 mul 26 idiv add moveto Tcx uy To add cs 10 mul 26 idiv add lineto
  Tt setlinewidth stroke
  grestore
} bd
/QT {
/Y22 exch store
/X22 exch store
/Y21 exch store
/X21 exch store
currentpoint
/Y21 load 2 mul add 3 div exch
/X21 load 2 mul add 3 div exch
/X21 load 2 mul /X22 load add 3 div
/Y21 load 2 mul /Y22 load add 3 div
/X22 load /Y22 load curveto
} bd
/SSPD {
dup length /d exch dict def
{
/v exch def
/k exch def
currentpagedevice k known {
/cpdv currentpagedevice k get def
v cpdv ne {
/upd false def
/nullv v type /nulltype eq def
/nullcpdv cpdv type /nulltype eq def
nullv nullcpdv or
{
/upd true def
} {
/sametype v type cpdv type eq def
sametype {
v type /arraytype eq {
/vlen v length def
/cpdvlen cpdv length def
vlen cpdvlen eq {
0 1 vlen 1 sub {
/i exch def
/obj v i get def
/cpdobj cpdv i get def
obj cpdobj ne {
/upd true def
exit
} if
} for
} {
/upd true def
} ifelse
} {
v type /dicttype eq {
v {
/dv exch def
/dk exch def
/cpddv cpdv dk get def
dv cpddv ne {
/upd true def
exit
} if
} forall
} {
/upd true def
} ifelse
} ifelse
} if
} ifelse
upd true eq {
d k v put
} if
} if
} if
} forall
d length 0 gt {
d setpagedevice
} if
} bd
/RE { % /NewFontName [NewEncodingArray] /FontName RE -
  findfont dup length dict begin
  {
    1 index /FID ne
    {def} {pop pop} ifelse
  } forall
  /Encoding exch def
  /FontName 1 index def
  currentdict definefont pop
  end
} bind def
%%EndResource
%%BeginResource: procset (Apache XML Graphics EPS ProcSet) 1.0 0
%%Version: 1.0 0
%%Copyright: (Copyright 2002-2003 The Apache Software Foundation. License terms: http://www.apache.org/licenses/LICENSE-2.0)
/BeginEPSF { %def
/b4_Inc_state save def         % Save state for cleanup
/dict_count countdictstack def % Count objects on dict stack
/op_count count 1 sub def      % Count objects on operand stack
userdict begin                 % Push userdict on dict stack
/showpage { } def              % Redefine showpage, { } = null proc
0 setgray 0 setlinecap         % Prepare graphics state
1 setlinewidth 0 setlinejoin
10 setmiterlimit [ ] 0 setdash newpath
/languagelevel where           % If level not equal to 1 then
{pop languagelevel             % set strokeadjust and
1 ne                           % overprint to their defaults.
{false setstrokeadjust false setoverprint
} if
} if
} bd
/EndEPSF { %def
count op_count sub {pop} repeat            % Clean up stacks
countdictstack dict_count sub {end} repeat
b4_Inc_state restore
} bd
%%EndResource
%FOPBeginFontDict
%%IncludeResource: font Courier-Oblique
%%IncludeResource: font Courier-BoldOblique
%%IncludeResource: font Courier-Bold
%%IncludeResource: font ZapfDingbats
%%IncludeResource: font Symbol
%%IncludeResource: font Helvetica
%%IncludeResource: font Helvetica-Oblique
%%IncludeResource: font Helvetica-Bold
%%IncludeResource: font Helvetica-BoldOblique
%%IncludeResource: font Times-Roman
%%IncludeResource: font Times-Italic
%%IncludeResource: font Times-Bold
%%IncludeResource: font Times-BoldItalic
%%IncludeResource: font Courier
%FOPEndFontDict
%%BeginResource: encoding WinAnsiEncoding
/WinAnsiEncoding [
/.notdef /.notdef /.notdef /.notdef /.notdef
/.notdef /.notdef /.notdef /.notdef /.notdef
/.notdef /.notdef /.notdef /.notdef /.notdef
/.notdef /.notdef /.notdef /.notdef /.notdef
/.notdef /.notdef /.notdef /.notdef /.notdef
/.notdef /.notdef /.notdef /.notdef /.notdef
/.notdef /.notdef /space /exclam /quotedbl
/numbersign /dollar /percent /ampersand /quotesingle
/parenleft /parenright /asterisk /plus /comma
/hyphen /period /slash /zero /one
/two /three /four /five /six
/seven /eight /nine /colon /semicolon
/less /equal /greater /question /at
/A /B /C /D /E
/F /G /H /I /J
/K /L /M /N /O
/P /Q /R /S /T
/U /V /W /X /Y
/Z /bracketleft /backslash /bracketright /asciicircum
/underscore /quoteleft /a /b /c
/d /e /f /g /h
/i /j /k /l /m
/n /o /p /q /r
/s /t /u /v /w
/x /y /z /braceleft /bar
/braceright /asciitilde /bullet /Euro /bullet
/quotesinglbase /florin /quotedblbase /ellipsis /dagger
/daggerdbl /circumflex /perthousand /Scaron /guilsinglleft
/OE /bullet /Zcaron /bullet /bullet
/quoteleft /quoteright /quotedblleft /quotedblright /bullet
/endash /emdash /asciitilde /trademark /scaron
/guilsinglright /oe /bullet /zcaron /Ydieresis
/space /exclamdown /cent /sterling /currency
/yen /brokenbar /section /dieresis /copyright
/ordfeminine /guillemotleft /logicalnot /sfthyphen /registered
/macron /degree /plusminus /twosuperior /threesuperior
/acute /mu /paragraph /middot /cedilla
/onesuperior /ordmasculine /guillemotright /onequarter /onehalf
/threequarters /questiondown /Agrave /Aacute /Acircumflex
/Atilde /Adieresis /Aring /AE /Ccedilla
/Egrave /Eacute /Ecircumflex /Edieresis /Igrave
/Iacute /Icircumflex /Idieresis /Eth /Ntilde
/Ograve /Oacute /Ocircumflex /Otilde /Odieresis
/multiply /Oslash /Ugrave /Uacute /Ucircumflex
/Udieresis /Yacute /Thorn /germandbls /agrave
/aacute /acircumflex /atilde /adieresis /aring
/ae /ccedilla /egrave /eacute /ecircumflex
/edieresis /igrave /iacute /icircumflex /idieresis
/eth /ntilde /ograve /oacute /ocircumflex
/otilde /odieresis /divide /oslash /ugrave
/uacute /ucircumflex /udieresis /yacute /thorn
/ydieresis
] def
%%EndResource
%FOPBeginFontReencode
/Courier-Oblique findfont
dup length dict begin
  {1 index /FID ne {def} {pop pop} ifelse} forall
  /Encoding WinAnsiEncoding def
  currentdict
end
/Courier-Oblique exch definefont pop
/Courier-BoldOblique findfont
dup length dict begin
  {1 index /FID ne {def} {pop pop} ifelse} forall
  /Encoding WinAnsiEncoding def
  currentdict
end
/Courier-BoldOblique exch definefont pop
/Courier-Bold findfont
dup length dict begin
  {1 index /FID ne {def} {pop pop} ifelse} forall
  /Encoding WinAnsiEncoding def
  currentdict
end
/Courier-Bold exch definefont pop
/Helvetica findfont
dup length dict begin
  {1 index /FID ne {def} {pop pop} ifelse} forall
  /Encoding WinAnsiEncoding def
  currentdict
end
/Helvetica exch definefont pop
/Helvetica-Oblique findfont
dup length dict begin
  {1 index /FID ne {def} {pop pop} ifelse} forall
  /Encoding WinAnsiEncoding def
  currentdict
end
/Helvetica-Oblique exch definefont pop
/Helvetica-Bold findfont
dup length dict begin
  {1 index /FID ne {def} {pop pop} ifelse} forall
  /Encoding WinAnsiEncoding def
  currentdict
end
/Helvetica-Bold exch definefont pop
/Helvetica-BoldOblique findfont
dup length dict begin
  {1 index /FID ne {def} {pop pop} ifelse} forall
  /Encoding WinAnsiEncoding def
  currentdict
end
/Helvetica-BoldOblique exch definefont pop
/Times-Roman findfont
dup length dict begin
  {1 index /FID ne {def} {pop pop} ifelse} forall
  /Encoding WinAnsiEncoding def
  currentdict
end
/Times-Roman exch definefont pop
/Times-Italic findfont
dup length dict begin
  {1 index /FID ne {def} {pop pop} ifelse} forall
  /Encoding WinAnsiEncoding def
  currentdict
end
/Times-Italic exch definefont pop
/Times-Bold findfont
dup length dict begin
  {1 index /FID ne {def} {pop pop} ifelse} forall
  /Encoding WinAnsiEncoding def
  currentdict
end
/Times-Bold exch definefont pop
/Times-BoldItalic findfont
dup length dict begin
  {1 index /FID ne {def} {pop pop} ifelse} forall
  /Encoding WinAnsiEncoding def
  currentdict
end
/Times-BoldItalic exch definefont pop
/Courier findfont
dup length dict begin
  {1 index /FID ne {def} {pop pop} ifelse} forall
  /Encoding WinAnsiEncoding def
  currentdict
end
/Courier exch definefont pop
%FOPEndFontReencode
%%EndProlog
%%Page: 1 1
%%PageBoundingBox: 0 0 560 420
%%BeginPageSetup
[1 0 0 -1 0 420] CT
%%EndPageSetup
GS
1 GC
N
0 0 560 420 re
f
GR
GS
1 GC
N
0 0 560 420 re
f
GR
GS
1 GC
N
134.25 343 M
445.75 343 L
445.75 31.5 L
134.25 31.5 L
cp
f
GR
GS
0.896 GC
1 LJ
N
134.25 343 M
134.25 31.5 L
S
GR
GS
0.896 GC
1 LJ
N
258.85 343 M
258.85 31.5 L
S
GR
GS
0.896 GC
1 LJ
N
383.45 343 M
383.45 31.5 L
S
GR
GS
0.896 GC
1 LJ
N
445.75 322.233 M
134.25 322.233 L
S
GR
GS
0.896 GC
1 LJ
N
445.75 239.167 M
134.25 239.167 L
S
GR
GS
0.896 GC
1 LJ
N
445.75 156.1 M
134.25 156.1 L
S
GR
GS
0.896 GC
1 LJ
N
445.75 73.033 M
134.25 73.033 L
S
GR
GS
0.302 GC
2 setlinecap
1 LJ
N
134.25 343 M
445.75 343 L
S
GR
GS
0.302 GC
2 setlinecap
1 LJ
N
134.25 343 M
134.25 349.23 L
S
GR
GS
0.302 GC
2 setlinecap
1 LJ
N
258.85 343 M
258.85 349.23 L
S
GR
GS
0.302 GC
2 setlinecap
1 LJ
N
383.45 343 M
383.45 349.23 L
S
GR
GS
0.302 GC
2 setlinecap
1 LJ
N
159.17 343 M
159.17 346.115 L
S
GR
GS
0.302 GC
2 setlinecap
1 LJ
N
184.09 343 M
184.09 346.115 L
S
GR
GS
0.302 GC
2 setlinecap
1 LJ
N
209.01 343 M
209.01 346.115 L
S
GR
GS
0.302 GC
2 setlinecap
1 LJ
N
233.93 343 M
233.93 346.115 L
S
GR
GS
0.302 GC
2 setlinecap
1 LJ
N
283.77 343 M
283.77 346.115 L
S
GR
GS
0.302 GC
2 setlinecap
1 LJ
N
308.69 343 M
308.69 346.115 L
S
GR
GS
0.302 GC
2 setlinecap
1 LJ
N
333.61 343 M
333.61 346.115 L
S
GR
GS
0.302 GC
2 setlinecap
1 LJ
N
358.53 343 M
358.53 346.115 L
S
GR
GS
0.302 GC
2 setlinecap
1 LJ
N
408.37 343 M
408.37 346.115 L
S
GR
GS
0.302 GC
2 setlinecap
1 LJ
N
433.29 343 M
433.29 346.115 L
S
GR
GS
[1 0 0 1 134.25 356.23001] CT
0.302 GC
/Helvetica 25 F
GS
[1 0 0 1 0 0] CT
-7 24 moveto 
1 -1 scale
(0) t 
GR
GR
GS
[1 0 0 1 258.85001 356.23001] CT
0.302 GC
/Helvetica 25 F
GS
[1 0 0 1 0 0] CT
-17.5 24 moveto 
1 -1 scale
(0.1) t 
GR
GR
GS
[1 0 0 1 383.45001 356.23001] CT
0.302 GC
/Helvetica 25 F
GS
[1 0 0 1 0 0] CT
-17.5 24 moveto 
1 -1 scale
(0.2) t 
GR
GR
GS
[1 0 0 1 290.00015 386.73001] CT
0.302 GC
/Helvetica 27.5 F
GS
[1 0 0 1 0 0] CT
-44.5 27 moveto 
1 -1 scale
(time \(s\)) t 
GR
GR
GS
0.302 GC
2 setlinecap
1 LJ
N
134.25 343 M
134.25 31.5 L
S
GR
GS
0.302 GC
2 setlinecap
1 LJ
N
134.25 322.233 M
128.02 322.233 L
S
GR
GS
0.302 GC
2 setlinecap
1 LJ
N
134.25 239.167 M
128.02 239.167 L
S
GR
GS
0.302 GC
2 setlinecap
1 LJ
N
134.25 156.1 M
128.02 156.1 L
S
GR
GS
0.302 GC
2 setlinecap
1 LJ
N
134.25 73.033 M
128.02 73.033 L
S
GR
GS
0.302 GC
2 setlinecap
1 LJ
N
134.25 343 M
131.135 343 L
S
GR
GS
0.302 GC
2 setlinecap
1 LJ
N
134.25 301.467 M
131.135 301.467 L
S
GR
GS
0.302 GC
2 setlinecap
1 LJ
N
134.25 280.7 M
131.135 280.7 L
S
GR
GS
0.302 GC
2 setlinecap
1 LJ
N
134.25 259.933 M
131.135 259.933 L
S
GR
GS
0.302 GC
2 setlinecap
1 LJ
N
134.25 218.4 M
131.135 218.4 L
S
GR
GS
0.302 GC
2 setlinecap
1 LJ
N
134.25 197.633 M
131.135 197.633 L
S
GR
GS
0.302 GC
2 setlinecap
1 LJ
N
134.25 176.867 M
131.135 176.867 L
S
GR
GS
0.302 GC
2 setlinecap
1 LJ
N
134.25 135.333 M
131.135 135.333 L
S
GR
GS
0.302 GC
2 setlinecap
1 LJ
N
134.25 114.567 M
131.135 114.567 L
S
GR
GS
0.302 GC
2 setlinecap
1 LJ
N
134.25 93.8 M
131.135 93.8 L
S
GR
GS
0.302 GC
2 setlinecap
1 LJ
N
134.25 52.267 M
131.135 52.267 L
S
GR
GS
0.302 GC
2 setlinecap
1 LJ
N
134.25 31.5 M
131.135 31.5 L
S
GR
GS
[1 0 0 1 121.02 322.23334] CT
0.302 GC
/Helvetica 25 F
GS
[1 0 0 1 0 0] CT
-52 9 moveto 
1 -1 scale
(-400) t 
GR
GR
GS
[1 0 0 1 121.02 239.16667] CT
0.302 GC
/Helvetica 25 F
GS
[1 0 0 1 0 0] CT
-52 9 moveto 
1 -1 scale
(-200) t 
GR
GR
GS
[1 0 0 1 121.02 156.10001] CT
0.302 GC
/Helvetica 25 F
GS
[1 0 0 1 0 0] CT
-14 9 moveto 
1 -1 scale
(0) t 
GR
GR
GS
[1 0 0 1 121.02 73.03333] CT
0.302 GC
/Helvetica 25 F
GS
[1 0 0 1 0 0] CT
-42 9 moveto 
1 -1 scale
(200) t 
GR
GR
GS
[0 -1 1 0 66.52 187.24985] CT
0.302 GC
/Helvetica 27.5 F
GS
[1 0 0 1 0 0] CT
-167 -6 moveto 
1 -1 scale
(component velocity \(deg/s\)) t 
GR
GR
GS
1 LJ
2 LW
N
134.25 156.1 M
135.496 150.631 L
136.742 145.071 L
137.988 139.445 L
139.234 133.779 L
140.48 128.098 L
141.726 122.428 L
142.972 116.793 L
144.218 111.22 L
145.464 105.734 L
146.71 100.361 L
147.956 95.125 L
149.202 90.052 L
150.448 85.167 L
151.694 80.497 L
152.94 76.066 L
154.186 71.9 L
155.432 68.023 L
156.678 64.463 L
157.924 61.244 L
159.17 58.391 L
160.416 55.93 L
161.662 53.888 L
162.908 52.291 L
164.154 51.166 L
165.4 50.54 L
166.646 50.44 L
167.892 50.892 L
169.138 51.923 L
170.384 53.559 L
171.63 55.829 L
172.876 58.743 L
174.122 62.257 L
175.368 66.31 L
176.614 70.844 L
177.86 75.798 L
179.106 81.114 L
180.352 86.73 L
181.598 92.588 L
182.844 98.628 L
184.09 104.79 L
185.336 111.011 L
186.582 117.218 L
187.828 123.333 L
189.074 129.279 L
190.32 134.979 L
191.566 140.356 L
192.812 145.333 L
194.058 149.833 L
195.304 153.779 L
196.55 157.093 L
197.796 159.724 L
199.042 161.722 L
200.288 163.163 L
201.534 164.122 L
202.78 164.674 L
204.026 164.896 L
205.272 164.862 L
206.518 164.648 L
207.764 164.33 L
209.01 163.984 L
210.256 163.67 L
211.502 163.397 L
212.748 163.157 L
213.994 162.943 L
215.24 162.749 L
216.486 162.568 L
217.732 162.394 L
218.978 162.219 L
220.224 162.037 L
221.47 161.841 L
222.716 161.626 L
223.962 161.395 L
225.208 161.151 L
226.454 160.899 L
227.7 160.644 L
228.946 160.389 L
230.192 160.139 L
231.438 159.897 L
232.684 159.669 L
233.93 159.458 L
235.176 159.268 L
236.422 159.096 L
237.668 158.942 L
238.914 158.802 L
240.16 158.675 L
241.406 158.557 L
242.652 158.448 L
243.898 158.343 L
245.144 158.242 L
246.39 158.141 L
247.636 158.04 L
248.882 157.937 L
250.128 157.835 L
251.374 157.733 L
252.62 157.634 L
253.866 157.537 L
255.112 157.443 L
256.358 157.353 L
257.604 157.269 L
258.85 157.19 L
260.096 157.117 L
261.342 157.051 L
262.588 156.989 L
263.834 156.932 L
265.08 156.877 L
266.326 156.825 L
267.572 156.774 L
268.818 156.724 L
270.064 156.673 L
271.31 156.621 L
272.556 156.567 L
273.802 156.512 L
275.048 156.456 L
276.294 156.4 L
277.54 156.345 L
278.786 156.291 L
280.032 156.239 L
281.278 156.189 L
282.524 156.144 L
283.77 156.102 L
285.016 156.065 L
286.262 156.033 L
287.508 156.004 L
288.754 155.979 L
290 155.957 L
291.246 155.937 L
292.492 155.919 L
293.738 155.903 L
294.984 155.888 L
296.23 155.874 L
297.476 155.86 L
298.722 155.846 L
299.968 155.832 L
301.214 155.819 L
302.46 155.806 L
303.706 155.794 L
304.952 155.783 L
306.198 155.773 L
307.444 155.763 L
308.69 155.754 L
309.936 155.747 L
311.182 155.74 L
312.428 155.735 L
313.674 155.73 L
314.92 155.726 L
316.166 155.723 L
317.412 155.721 L
318.658 155.72 L
319.904 155.719 L
321.15 155.719 L
322.396 155.719 L
323.642 155.72 L
324.888 155.722 L
326.134 155.724 L
327.38 155.726 L
328.626 155.729 L
329.872 155.732 L
331.118 155.735 L
332.364 155.738 L
333.61 155.742 L
334.856 155.746 L
336.102 155.75 L
337.348 155.754 L
338.594 155.758 L
339.84 155.763 L
341.086 155.767 L
342.332 155.773 L
343.578 155.778 L
344.824 155.784 L
346.07 155.791 L
347.316 155.798 L
348.562 155.805 L
349.808 155.813 L
351.054 155.82 L
352.3 155.828 L
353.546 155.836 L
354.792 155.844 L
356.038 155.852 L
357.284 155.859 L
358.53 155.866 L
359.776 155.873 L
361.022 155.879 L
362.268 155.885 L
363.514 155.89 L
364.76 155.896 L
366.006 155.902 L
367.252 155.907 L
368.498 155.913 L
369.744 155.92 L
370.99 155.926 L
372.236 155.933 L
373.482 155.941 L
374.728 155.949 L
375.974 155.957 L
377.22 155.965 L
378.466 155.973 L
379.712 155.982 L
380.958 155.99 L
382.204 155.998 L
383.45 156.005 L
384.696 156.013 L
385.942 156.02 L
387.188 156.026 L
388.434 156.033 L
389.68 156.039 L
390.926 156.045 L
392.172 156.051 L
393.418 156.056 L
394.664 156.062 L
395.91 156.068 L
397.156 156.073 L
398.402 156.079 L
399.648 156.085 L
400.894 156.091 L
402.14 156.096 L
403.386 156.102 L
404.632 156.107 L
405.878 156.113 L
407.124 156.118 L
408.37 156.123 L
409.616 156.128 L
410.862 156.133 L
412.108 156.138 L
413.354 156.143 L
414.6 156.148 L
415.846 156.152 L
417.092 156.157 L
418.338 156.161 L
419.584 156.166 L
420.83 156.17 L
422.076 156.174 L
423.322 156.179 L
424.568 156.183 L
425.814 156.187 L
427.06 156.191 L
428.306 156.195 L
429.552 156.198 L
430.798 156.202 L
432.044 156.206 L
433.29 156.209 L
434.536 156.213 L
435.782 156.216 L
437.028 156.219 L
438.274 156.222 L
439.52 156.224 L
440.766 156.227 L
442.012 156.229 L
443.258 156.232 L
444.504 156.234 L
S
GR
GS
1 0 1 RC
1 LJ
1.5 LW
N
134.25 156.1 M
135.496 151.737 L
136.742 147.134 L
137.988 142.326 L
139.234 137.352 L
140.48 132.248 L
141.726 127.052 L
142.972 121.8 L
144.218 116.53 L
145.464 111.279 L
146.71 106.083 L
147.956 100.981 L
149.202 96.008 L
150.448 91.203 L
151.694 86.602 L
152.94 82.242 L
154.186 78.161 L
155.432 74.395 L
156.678 70.982 L
157.924 67.958 L
159.17 65.361 L
160.416 63.223 L
161.662 61.551 L
162.908 60.347 L
164.154 59.614 L
165.4 59.355 L
166.646 59.572 L
167.892 60.267 L
169.138 61.442 L
170.384 63.101 L
171.63 65.244 L
172.876 67.869 L
174.122 70.939 L
175.368 74.413 L
176.614 78.249 L
177.86 82.406 L
179.106 86.842 L
180.352 91.515 L
181.598 96.382 L
182.844 101.403 L
184.09 106.536 L
185.336 111.734 L
186.582 116.937 L
187.828 122.078 L
189.074 127.092 L
190.32 131.913 L
191.566 136.477 L
192.812 140.717 L
194.058 144.568 L
195.304 147.964 L
196.55 150.84 L
197.796 153.152 L
199.042 154.938 L
200.288 156.262 L
201.534 157.182 L
202.78 157.761 L
204.026 158.06 L
205.272 158.139 L
206.518 158.06 L
207.764 157.884 L
209.01 157.671 L
210.256 157.472 L
211.502 157.296 L
212.748 157.139 L
213.994 156.999 L
215.24 156.873 L
216.486 156.758 L
217.732 156.652 L
218.978 156.553 L
220.224 156.456 L
221.47 156.361 L
222.716 156.265 L
223.962 156.167 L
225.208 156.07 L
226.454 155.974 L
227.7 155.881 L
228.946 155.79 L
230.192 155.704 L
231.438 155.623 L
232.684 155.549 L
233.93 155.482 L
235.176 155.423 L
236.422 155.371 L
237.668 155.326 L
238.914 155.287 L
240.16 155.252 L
241.406 155.221 L
242.652 155.193 L
243.898 155.167 L
245.144 155.142 L
246.39 155.117 L
247.636 155.091 L
248.882 155.066 L
250.128 155.04 L
251.374 155.014 L
252.62 154.99 L
253.866 154.967 L
255.112 154.946 L
256.358 154.927 L
257.604 154.911 L
258.85 154.898 L
260.096 154.889 L
261.342 154.883 L
262.588 154.88 L
263.834 154.88 L
265.08 154.881 L
266.326 154.885 L
267.572 154.89 L
268.818 154.896 L
270.064 154.903 L
271.31 154.91 L
272.556 154.917 L
273.802 154.924 L
275.048 154.932 L
276.294 154.94 L
277.54 154.948 L
278.786 154.957 L
280.032 154.966 L
281.278 154.976 L
282.524 154.987 L
283.77 154.999 L
285.016 155.012 L
286.262 155.025 L
287.508 155.04 L
288.754 155.055 L
290 155.07 L
291.246 155.086 L
292.492 155.103 L
293.738 155.12 L
294.984 155.137 L
296.23 155.154 L
297.476 155.171 L
298.722 155.188 L
299.968 155.205 L
301.214 155.223 L
302.46 155.24 L
303.706 155.257 L
304.952 155.275 L
306.198 155.292 L
307.444 155.309 L
308.69 155.327 L
309.936 155.344 L
311.182 155.361 L
312.428 155.379 L
313.674 155.397 L
314.92 155.414 L
316.166 155.432 L
317.412 155.45 L
318.658 155.467 L
319.904 155.485 L
321.15 155.503 L
322.396 155.521 L
323.642 155.539 L
324.888 155.557 L
326.134 155.574 L
327.38 155.592 L
328.626 155.609 L
329.872 155.626 L
331.118 155.643 L
332.364 155.659 L
333.61 155.675 L
334.856 155.69 L
336.102 155.705 L
337.348 155.719 L
338.594 155.733 L
339.84 155.746 L
341.086 155.759 L
342.332 155.771 L
343.578 155.782 L
344.824 155.793 L
346.07 155.804 L
347.316 155.813 L
348.562 155.823 L
349.808 155.832 L
351.054 155.841 L
352.3 155.85 L
353.546 155.858 L
354.792 155.867 L
356.038 155.876 L
357.284 155.885 L
358.53 155.895 L
359.776 155.905 L
361.022 155.915 L
362.268 155.925 L
363.514 155.936 L
364.76 155.947 L
366.006 155.957 L
367.252 155.968 L
368.498 155.977 L
369.744 155.987 L
370.99 155.995 L
372.236 156.003 L
373.482 156.011 L
374.728 156.017 L
375.974 156.023 L
377.22 156.029 L
378.466 156.034 L
379.712 156.039 L
380.958 156.044 L
382.204 156.049 L
383.45 156.053 L
384.696 156.058 L
385.942 156.062 L
387.188 156.067 L
388.434 156.071 L
389.68 156.076 L
390.926 156.08 L
392.172 156.084 L
393.418 156.088 L
394.664 156.092 L
395.91 156.096 L
397.156 156.099 L
398.402 156.103 L
399.648 156.106 L
400.894 156.109 L
402.14 156.112 L
403.386 156.115 L
404.632 156.117 L
405.878 156.12 L
407.124 156.122 L
408.37 156.125 L
409.616 156.127 L
410.862 156.129 L
412.108 156.131 L
413.354 156.133 L
414.6 156.135 L
415.846 156.136 L
417.092 156.138 L
418.338 156.139 L
419.584 156.141 L
420.83 156.142 L
422.076 156.144 L
423.322 156.145 L
424.568 156.146 L
425.814 156.147 L
427.06 156.148 L
428.306 156.149 L
429.552 156.149 L
430.798 156.15 L
432.044 156.151 L
433.29 156.151 L
434.536 156.152 L
435.782 156.152 L
437.028 156.152 L
438.274 156.153 L
439.52 156.153 L
440.766 156.153 L
442.012 156.153 L
443.258 156.153 L
444.504 156.153 L
S
GR
GS
0 0 1 RC
1 LJ
1.5 LW
N
134.25 156.1 M
135.496 153.961 L
136.742 151.623 L
137.988 149.108 L
139.234 146.436 L
140.48 143.627 L
141.726 140.701 L
142.972 137.678 L
144.218 134.579 L
145.464 131.425 L
146.71 128.235 L
147.956 125.031 L
149.202 121.831 L
150.448 118.657 L
151.694 115.528 L
152.94 112.466 L
154.186 109.49 L
155.432 106.621 L
156.678 103.88 L
157.924 101.285 L
159.17 98.859 L
160.416 96.617 L
161.662 94.566 L
162.908 92.71 L
164.154 91.049 L
165.4 89.589 L
166.646 88.331 L
167.892 87.278 L
169.138 86.433 L
170.384 85.799 L
171.63 85.379 L
172.876 85.176 L
174.122 85.19 L
175.368 85.423 L
176.614 85.875 L
177.86 86.547 L
179.106 87.44 L
180.352 88.556 L
181.598 89.895 L
182.844 91.457 L
184.09 93.245 L
185.336 95.255 L
186.582 97.474 L
187.828 99.886 L
189.074 102.475 L
190.32 105.224 L
191.566 108.117 L
192.812 111.137 L
194.058 114.269 L
195.304 117.495 L
196.55 120.799 L
197.796 124.16 L
199.042 127.534 L
200.288 130.871 L
201.534 134.123 L
202.78 137.24 L
204.026 140.172 L
205.272 142.872 L
206.518 145.289 L
207.764 147.375 L
209.01 149.08 L
210.256 150.372 L
211.502 151.284 L
212.748 151.868 L
213.994 152.174 L
215.24 152.252 L
216.486 152.154 L
217.732 151.929 L
218.978 151.629 L
220.224 151.305 L
221.47 151.006 L
222.716 150.773 L
223.962 150.608 L
225.208 150.502 L
226.454 150.445 L
227.7 150.428 L
228.946 150.443 L
230.192 150.48 L
231.438 150.531 L
232.684 150.586 L
233.93 150.637 L
235.176 150.676 L
236.422 150.704 L
237.668 150.722 L
238.914 150.732 L
240.16 150.738 L
241.406 150.74 L
242.652 150.742 L
243.898 150.744 L
245.144 150.749 L
246.39 150.759 L
247.636 150.777 L
248.882 150.8 L
250.128 150.831 L
251.374 150.867 L
252.62 150.908 L
253.866 150.955 L
255.112 151.006 L
256.358 151.061 L
257.604 151.12 L
258.85 151.182 L
260.096 151.247 L
261.342 151.315 L
262.588 151.384 L
263.834 151.454 L
265.08 151.525 L
266.326 151.597 L
267.572 151.668 L
268.818 151.738 L
270.064 151.807 L
271.31 151.874 L
272.556 151.938 L
273.802 152.001 L
275.048 152.063 L
276.294 152.124 L
277.54 152.186 L
278.786 152.248 L
280.032 152.312 L
281.278 152.378 L
282.524 152.447 L
283.77 152.52 L
285.016 152.596 L
286.262 152.676 L
287.508 152.759 L
288.754 152.844 L
290 152.93 L
291.246 153.016 L
292.492 153.102 L
293.738 153.187 L
294.984 153.27 L
296.23 153.351 L
297.476 153.428 L
298.722 153.502 L
299.968 153.574 L
301.214 153.644 L
302.46 153.713 L
303.706 153.781 L
304.952 153.847 L
306.198 153.914 L
307.444 153.981 L
308.69 154.049 L
309.936 154.118 L
311.182 154.188 L
312.428 154.257 L
313.674 154.327 L
314.92 154.395 L
316.166 154.462 L
317.412 154.527 L
318.658 154.59 L
319.904 154.65 L
321.15 154.706 L
322.396 154.758 L
323.642 154.806 L
324.888 154.852 L
326.134 154.895 L
327.38 154.937 L
328.626 154.977 L
329.872 155.017 L
331.118 155.056 L
332.364 155.097 L
333.61 155.138 L
334.856 155.181 L
336.102 155.226 L
337.348 155.271 L
338.594 155.317 L
339.84 155.364 L
341.086 155.41 L
342.332 155.456 L
343.578 155.501 L
344.824 155.545 L
346.07 155.587 L
347.316 155.628 L
348.562 155.667 L
349.808 155.704 L
351.054 155.74 L
352.3 155.775 L
353.546 155.808 L
354.792 155.84 L
356.038 155.871 L
357.284 155.902 L
358.53 155.932 L
359.776 155.961 L
361.022 155.989 L
362.268 156.017 L
363.514 156.044 L
364.76 156.071 L
366.006 156.097 L
367.252 156.122 L
368.498 156.146 L
369.744 156.169 L
370.99 156.191 L
372.236 156.213 L
373.482 156.233 L
374.728 156.253 L
375.974 156.272 L
377.22 156.29 L
378.466 156.307 L
379.712 156.324 L
380.958 156.34 L
382.204 156.355 L
383.45 156.37 L
384.696 156.384 L
385.942 156.398 L
387.188 156.411 L
388.434 156.424 L
389.68 156.436 L
390.926 156.447 L
392.172 156.458 L
393.418 156.468 L
394.664 156.478 L
395.91 156.487 L
397.156 156.496 L
398.402 156.504 L
399.648 156.512 L
400.894 156.519 L
402.14 156.525 L
403.386 156.532 L
404.632 156.537 L
405.878 156.543 L
407.124 156.547 L
408.37 156.552 L
409.616 156.556 L
410.862 156.56 L
412.108 156.563 L
413.354 156.566 L
414.6 156.569 L
415.846 156.572 L
417.092 156.574 L
418.338 156.576 L
419.584 156.577 L
420.83 156.578 L
422.076 156.579 L
423.322 156.58 L
424.568 156.58 L
425.814 156.581 L
427.06 156.58 L
428.306 156.58 L
429.552 156.579 L
430.798 156.579 L
432.044 156.578 L
433.29 156.576 L
434.536 156.575 L
435.782 156.573 L
437.028 156.571 L
438.274 156.569 L
439.52 156.567 L
440.766 156.565 L
442.012 156.563 L
443.258 156.56 L
444.504 156.557 L
S
GR
GS
0 1 0 RC
1 LJ
1.5 LW
N
134.25 156.1 M
135.496 155.537 L
136.742 154.865 L
137.988 154.09 L
139.234 153.217 L
140.48 152.253 L
141.726 151.202 L
142.972 150.071 L
144.218 148.864 L
145.464 147.588 L
146.71 146.248 L
147.956 144.85 L
149.202 143.398 L
150.448 141.9 L
151.694 140.36 L
152.94 138.783 L
154.186 137.176 L
155.432 135.544 L
156.678 133.893 L
157.924 132.228 L
159.17 130.554 L
160.416 128.879 L
161.662 127.211 L
162.908 125.56 L
164.154 123.938 L
165.4 122.353 L
166.646 120.816 L
167.892 119.338 L
169.138 117.927 L
170.384 116.595 L
171.63 115.351 L
172.876 114.205 L
174.122 113.155 L
175.368 112.201 L
176.614 111.342 L
177.86 110.577 L
179.106 109.903 L
180.352 109.319 L
181.598 108.825 L
182.844 108.419 L
184.09 108.099 L
185.336 107.864 L
186.582 107.712 L
187.828 107.643 L
189.074 107.654 L
190.32 107.743 L
191.566 107.909 L
192.812 108.151 L
194.058 108.467 L
195.304 108.855 L
196.55 109.313 L
197.796 109.84 L
199.042 110.434 L
200.288 111.09 L
201.534 111.808 L
202.78 112.583 L
204.026 113.413 L
205.272 114.296 L
206.518 115.228 L
207.764 116.207 L
209.01 117.23 L
210.256 118.294 L
211.502 119.397 L
212.748 120.536 L
213.994 121.708 L
215.24 122.912 L
216.486 124.144 L
217.732 125.402 L
218.978 126.684 L
220.224 127.987 L
221.47 129.307 L
222.716 130.642 L
223.962 131.978 L
225.208 133.3 L
226.454 134.593 L
227.7 135.843 L
228.946 137.035 L
230.192 138.154 L
231.438 139.185 L
232.684 140.114 L
233.93 140.925 L
235.176 141.608 L
236.422 142.173 L
237.668 142.633 L
238.914 143.001 L
240.16 143.29 L
241.406 143.514 L
242.652 143.687 L
243.898 143.822 L
245.144 143.932 L
246.39 144.031 L
247.636 144.13 L
248.882 144.23 L
250.128 144.333 L
251.374 144.437 L
252.62 144.543 L
253.866 144.65 L
255.112 144.757 L
256.358 144.866 L
257.604 144.975 L
258.85 145.084 L
260.096 145.194 L
261.342 145.304 L
262.588 145.416 L
263.834 145.529 L
265.08 145.644 L
266.326 145.762 L
267.572 145.884 L
268.818 146.009 L
270.064 146.138 L
271.31 146.272 L
272.556 146.412 L
273.802 146.556 L
275.048 146.705 L
276.294 146.857 L
277.54 147.013 L
278.786 147.172 L
280.032 147.334 L
281.278 147.497 L
282.524 147.662 L
283.77 147.827 L
285.016 147.994 L
286.262 148.16 L
287.508 148.327 L
288.754 148.493 L
290 148.659 L
291.246 148.824 L
292.492 148.989 L
293.738 149.152 L
294.984 149.315 L
296.23 149.475 L
297.476 149.634 L
298.722 149.792 L
299.968 149.948 L
301.214 150.103 L
302.46 150.257 L
303.706 150.409 L
304.952 150.561 L
306.198 150.712 L
307.444 150.862 L
308.69 151.012 L
309.936 151.162 L
311.182 151.311 L
312.428 151.459 L
313.674 151.605 L
314.92 151.751 L
316.166 151.895 L
317.412 152.036 L
318.658 152.176 L
319.904 152.313 L
321.15 152.448 L
322.396 152.579 L
323.642 152.708 L
324.888 152.834 L
326.134 152.957 L
327.38 153.078 L
328.626 153.198 L
329.872 153.315 L
331.118 153.43 L
332.364 153.544 L
333.61 153.657 L
334.856 153.768 L
336.102 153.878 L
337.348 153.987 L
338.594 154.094 L
339.84 154.199 L
341.086 154.302 L
342.332 154.402 L
343.578 154.501 L
344.824 154.597 L
346.07 154.69 L
347.316 154.78 L
348.562 154.868 L
349.808 154.953 L
351.054 155.035 L
352.3 155.116 L
353.546 155.194 L
354.792 155.27 L
356.038 155.345 L
357.284 155.417 L
358.53 155.489 L
359.776 155.559 L
361.022 155.627 L
362.268 155.694 L
363.514 155.759 L
364.76 155.823 L
366.006 155.885 L
367.252 155.945 L
368.498 156.003 L
369.744 156.059 L
370.99 156.113 L
372.236 156.165 L
373.482 156.214 L
374.728 156.262 L
375.974 156.308 L
377.22 156.352 L
378.466 156.395 L
379.712 156.435 L
380.958 156.475 L
382.204 156.513 L
383.45 156.55 L
384.696 156.585 L
385.942 156.62 L
387.188 156.653 L
388.434 156.685 L
389.68 156.716 L
390.926 156.745 L
392.172 156.774 L
393.418 156.801 L
394.664 156.826 L
395.91 156.85 L
397.156 156.873 L
398.402 156.894 L
399.648 156.915 L
400.894 156.934 L
402.14 156.951 L
403.386 156.968 L
404.632 156.984 L
405.878 156.998 L
407.124 157.012 L
408.37 157.025 L
409.616 157.037 L
410.862 157.048 L
412.108 157.058 L
413.354 157.068 L
414.6 157.077 L
415.846 157.085 L
417.092 157.092 L
418.338 157.099 L
419.584 157.105 L
420.83 157.11 L
422.076 157.114 L
423.322 157.118 L
424.568 157.121 L
425.814 157.123 L
427.06 157.124 L
428.306 157.125 L
429.552 157.126 L
430.798 157.126 L
432.044 157.125 L
433.29 157.124 L
434.536 157.122 L
435.782 157.12 L
437.028 157.117 L
438.274 157.114 L
439.52 157.111 L
440.766 157.107 L
442.012 157.103 L
443.258 157.098 L
444.504 157.093 L
S
GR
GS
1 0 0 RC
1 LJ
1.5 LW
N
134.25 156.1 M
135.496 156.422 L
136.742 156.596 L
137.988 156.63 L
139.234 156.534 L
140.48 156.315 L
141.726 155.984 L
142.972 155.549 L
144.218 155.019 L
145.464 154.402 L
146.71 153.708 L
147.956 152.946 L
149.202 152.124 L
150.448 151.251 L
151.694 150.336 L
152.94 149.388 L
154.186 148.417 L
155.432 147.43 L
156.678 146.437 L
157.924 145.446 L
159.17 144.467 L
160.416 143.506 L
161.662 142.562 L
162.908 141.631 L
164.154 140.71 L
165.4 139.796 L
166.646 138.884 L
167.892 137.972 L
169.138 137.056 L
170.384 136.133 L
171.63 135.199 L
172.876 134.251 L
174.122 133.296 L
175.368 132.34 L
176.614 131.389 L
177.86 130.449 L
179.106 129.527 L
180.352 128.63 L
181.598 127.763 L
182.844 126.934 L
184.09 126.149 L
185.336 125.413 L
186.582 124.725 L
187.828 124.084 L
189.074 123.486 L
190.32 122.931 L
191.566 122.415 L
192.812 121.937 L
194.058 121.495 L
195.304 121.086 L
196.55 120.708 L
197.796 120.36 L
199.042 120.042 L
200.288 119.757 L
201.534 119.505 L
202.78 119.288 L
204.026 119.108 L
205.272 118.965 L
206.518 118.861 L
207.764 118.798 L
209.01 118.777 L
210.256 118.799 L
211.502 118.863 L
212.748 118.967 L
213.994 119.11 L
215.24 119.291 L
216.486 119.508 L
217.732 119.76 L
218.978 120.044 L
220.224 120.36 L
221.47 120.706 L
222.716 121.08 L
223.962 121.481 L
225.208 121.907 L
226.454 122.356 L
227.7 122.827 L
228.946 123.316 L
230.192 123.823 L
231.438 124.346 L
232.684 124.883 L
233.93 125.431 L
235.176 125.99 L
236.422 126.556 L
237.668 127.128 L
238.914 127.702 L
240.16 128.277 L
241.406 128.85 L
242.652 129.419 L
243.898 129.98 L
245.144 130.532 L
246.39 131.073 L
247.636 131.599 L
248.882 132.111 L
250.128 132.609 L
251.374 133.093 L
252.62 133.561 L
253.866 134.015 L
255.112 134.454 L
256.358 134.878 L
257.604 135.286 L
258.85 135.68 L
260.096 136.058 L
261.342 136.422 L
262.588 136.771 L
263.834 137.108 L
265.08 137.432 L
266.326 137.744 L
267.572 138.045 L
268.818 138.335 L
270.064 138.616 L
271.31 138.888 L
272.556 139.152 L
273.802 139.408 L
275.048 139.657 L
276.294 139.9 L
277.54 140.138 L
278.786 140.37 L
280.032 140.599 L
281.278 140.824 L
282.524 141.046 L
283.77 141.265 L
285.016 141.484 L
286.262 141.703 L
287.508 141.922 L
288.754 142.145 L
290 142.372 L
291.246 142.605 L
292.492 142.845 L
293.738 143.094 L
294.984 143.352 L
296.23 143.622 L
297.476 143.905 L
298.722 144.197 L
299.968 144.497 L
301.214 144.801 L
302.46 145.106 L
303.706 145.409 L
304.952 145.708 L
306.198 145.999 L
307.444 146.28 L
308.69 146.548 L
309.936 146.8 L
311.182 147.039 L
312.428 147.267 L
313.674 147.487 L
314.92 147.701 L
316.166 147.914 L
317.412 148.126 L
318.658 148.342 L
319.904 148.563 L
321.15 148.794 L
322.396 149.034 L
323.642 149.283 L
324.888 149.537 L
326.134 149.794 L
327.38 150.051 L
328.626 150.304 L
329.872 150.551 L
331.118 150.789 L
332.364 151.015 L
333.61 151.226 L
334.856 151.42 L
336.102 151.598 L
337.348 151.765 L
338.594 151.921 L
339.84 152.07 L
341.086 152.215 L
342.332 152.358 L
343.578 152.502 L
344.824 152.65 L
346.07 152.805 L
347.316 152.968 L
348.562 153.138 L
349.808 153.313 L
351.054 153.49 L
352.3 153.668 L
353.546 153.845 L
354.792 154.017 L
356.038 154.184 L
357.284 154.342 L
358.53 154.491 L
359.776 154.627 L
361.022 154.753 L
362.268 154.869 L
363.514 154.976 L
364.76 155.077 L
366.006 155.173 L
367.252 155.264 L
368.498 155.353 L
369.744 155.441 L
370.99 155.529 L
372.236 155.619 L
373.482 155.71 L
374.728 155.801 L
375.974 155.893 L
377.22 155.985 L
378.466 156.075 L
379.712 156.165 L
380.958 156.253 L
382.204 156.338 L
383.45 156.421 L
384.696 156.5 L
385.942 156.577 L
387.188 156.65 L
388.434 156.719 L
389.68 156.785 L
390.926 156.847 L
392.172 156.905 L
393.418 156.96 L
394.664 157.011 L
395.91 157.057 L
397.156 157.1 L
398.402 157.139 L
399.648 157.174 L
400.894 157.207 L
402.14 157.238 L
403.386 157.267 L
404.632 157.295 L
405.878 157.321 L
407.124 157.348 L
408.37 157.374 L
409.616 157.4 L
410.862 157.427 L
412.108 157.454 L
413.354 157.48 L
414.6 157.507 L
415.846 157.532 L
417.092 157.556 L
418.338 157.579 L
419.584 157.601 L
420.83 157.621 L
422.076 157.638 L
423.322 157.655 L
424.568 157.669 L
425.814 157.681 L
427.06 157.692 L
428.306 157.701 L
429.552 157.708 L
430.798 157.714 L
432.044 157.719 L
433.29 157.722 L
434.536 157.723 L
435.782 157.724 L
437.028 157.723 L
438.274 157.722 L
439.52 157.719 L
440.766 157.716 L
442.012 157.712 L
443.258 157.708 L
444.504 157.703 L
S
GR
GS
0 1 1 RC
1 LJ
1.5 LW
N
134.25 156.1 M
135.496 156.373 L
136.742 156.565 L
137.988 156.679 L
139.234 156.718 L
140.48 156.685 L
141.726 156.582 L
142.972 156.414 L
144.218 156.182 L
145.464 155.89 L
146.71 155.541 L
147.956 155.137 L
149.202 154.682 L
150.448 154.179 L
151.694 153.631 L
152.94 153.04 L
154.186 152.41 L
155.432 151.743 L
156.678 151.043 L
157.924 150.313 L
159.17 149.555 L
160.416 148.772 L
161.662 147.97 L
162.908 147.152 L
164.154 146.323 L
165.4 145.488 L
166.646 144.65 L
167.892 143.815 L
169.138 142.987 L
170.384 142.17 L
171.63 141.369 L
172.876 140.587 L
174.122 139.824 L
175.368 139.077 L
176.614 138.344 L
177.86 137.624 L
179.106 136.914 L
180.352 136.212 L
181.598 135.517 L
182.844 134.826 L
184.09 134.137 L
185.336 133.449 L
186.582 132.765 L
187.828 132.087 L
189.074 131.418 L
190.32 130.763 L
191.566 130.123 L
192.812 129.502 L
194.058 128.903 L
195.304 128.329 L
196.55 127.784 L
197.796 127.269 L
199.042 126.785 L
200.288 126.331 L
201.534 125.906 L
202.78 125.51 L
204.026 125.141 L
205.272 124.8 L
206.518 124.485 L
207.764 124.196 L
209.01 123.932 L
210.256 123.692 L
211.502 123.475 L
212.748 123.28 L
213.994 123.106 L
215.24 122.952 L
216.486 122.817 L
217.732 122.699 L
218.978 122.598 L
220.224 122.512 L
221.47 122.441 L
222.716 122.383 L
223.962 122.339 L
225.208 122.31 L
226.454 122.297 L
227.7 122.3 L
228.946 122.321 L
230.192 122.36 L
231.438 122.418 L
232.684 122.497 L
233.93 122.596 L
235.176 122.717 L
236.422 122.858 L
237.668 123.017 L
238.914 123.195 L
240.16 123.388 L
241.406 123.596 L
242.652 123.817 L
243.898 124.049 L
245.144 124.292 L
246.39 124.543 L
247.636 124.802 L
248.882 125.067 L
250.128 125.338 L
251.374 125.613 L
252.62 125.893 L
253.866 126.176 L
255.112 126.462 L
256.358 126.749 L
257.604 127.037 L
258.85 127.325 L
260.096 127.612 L
261.342 127.901 L
262.588 128.193 L
263.834 128.489 L
265.08 128.792 L
266.326 129.104 L
267.572 129.426 L
268.818 129.76 L
270.064 130.109 L
271.31 130.473 L
272.556 130.854 L
273.802 131.25 L
275.048 131.655 L
276.294 132.066 L
277.54 132.478 L
278.786 132.889 L
280.032 133.293 L
281.278 133.687 L
282.524 134.067 L
283.77 134.429 L
285.016 134.769 L
286.262 135.092 L
287.508 135.4 L
288.754 135.699 L
290 135.991 L
291.246 136.281 L
292.492 136.574 L
293.738 136.872 L
294.984 137.181 L
296.23 137.505 L
297.476 137.845 L
298.722 138.202 L
299.968 138.572 L
301.214 138.953 L
302.46 139.344 L
303.706 139.741 L
304.952 140.142 L
306.198 140.545 L
307.444 140.948 L
308.69 141.348 L
309.936 141.742 L
311.182 142.131 L
312.428 142.515 L
313.674 142.891 L
314.92 143.261 L
316.166 143.623 L
317.412 143.977 L
318.658 144.324 L
319.904 144.661 L
321.15 144.99 L
322.396 145.309 L
323.642 145.62 L
324.888 145.925 L
326.134 146.224 L
327.38 146.518 L
328.626 146.81 L
329.872 147.1 L
331.118 147.389 L
332.364 147.679 L
333.61 147.972 L
334.856 148.268 L
336.102 148.565 L
337.348 148.864 L
338.594 149.161 L
339.84 149.456 L
341.086 149.748 L
342.332 150.034 L
343.578 150.314 L
344.824 150.586 L
346.07 150.848 L
347.316 151.1 L
348.562 151.342 L
349.808 151.575 L
351.054 151.799 L
352.3 152.017 L
353.546 152.228 L
354.792 152.435 L
356.038 152.637 L
357.284 152.835 L
358.53 153.032 L
359.776 153.227 L
361.022 153.42 L
362.268 153.611 L
363.514 153.799 L
364.76 153.984 L
366.006 154.165 L
367.252 154.343 L
368.498 154.517 L
369.744 154.685 L
370.99 154.849 L
372.236 155.007 L
373.482 155.159 L
374.728 155.306 L
375.974 155.448 L
377.22 155.585 L
378.466 155.717 L
379.712 155.845 L
380.958 155.968 L
382.204 156.087 L
383.45 156.201 L
384.696 156.312 L
385.942 156.418 L
387.188 156.521 L
388.434 156.62 L
389.68 156.716 L
390.926 156.808 L
392.172 156.897 L
393.418 156.983 L
394.664 157.066 L
395.91 157.146 L
397.156 157.223 L
398.402 157.298 L
399.648 157.369 L
400.894 157.438 L
402.14 157.505 L
403.386 157.568 L
404.632 157.629 L
405.878 157.688 L
407.124 157.744 L
408.37 157.797 L
409.616 157.847 L
410.862 157.895 L
412.108 157.941 L
413.354 157.983 L
414.6 158.023 L
415.846 158.06 L
417.092 158.095 L
418.338 158.126 L
419.584 158.155 L
420.83 158.181 L
422.076 158.204 L
423.322 158.224 L
424.568 158.242 L
425.814 158.257 L
427.06 158.271 L
428.306 158.283 L
429.552 158.293 L
430.798 158.303 L
432.044 158.311 L
433.29 158.318 L
434.536 158.325 L
435.782 158.331 L
437.028 158.337 L
438.274 158.341 L
439.52 158.345 L
440.766 158.348 L
442.012 158.35 L
443.258 158.35 L
444.504 158.35 L
S
GR
GS
1 1 0 RC
1 LJ
1.5 LW
N
134.25 156.1 M
135.496 156.454 L
136.742 156.748 L
137.988 156.983 L
139.234 157.161 L
140.48 157.284 L
141.726 157.353 L
142.972 157.37 L
144.218 157.336 L
145.464 157.255 L
146.71 157.126 L
147.956 156.952 L
149.202 156.735 L
150.448 156.477 L
151.694 156.178 L
152.94 155.842 L
154.186 155.469 L
155.432 155.061 L
156.678 154.62 L
157.924 154.148 L
159.17 153.647 L
160.416 153.118 L
161.662 152.565 L
162.908 151.992 L
164.154 151.403 L
165.4 150.803 L
166.646 150.194 L
167.892 149.581 L
169.138 148.967 L
170.384 148.358 L
171.63 147.756 L
172.876 147.164 L
174.122 146.583 L
175.368 146.009 L
176.614 145.441 L
177.86 144.877 L
179.106 144.315 L
180.352 143.753 L
181.598 143.19 L
182.844 142.622 L
184.09 142.049 L
185.336 141.47 L
186.582 140.885 L
187.828 140.298 L
189.074 139.712 L
190.32 139.129 L
191.566 138.552 L
192.812 137.984 L
194.058 137.427 L
195.304 136.883 L
196.55 136.357 L
197.796 135.849 L
199.042 135.359 L
200.288 134.886 L
201.534 134.428 L
202.78 133.984 L
204.026 133.552 L
205.272 133.132 L
206.518 132.722 L
207.764 132.321 L
209.01 131.927 L
210.256 131.539 L
211.502 131.158 L
212.748 130.785 L
213.994 130.421 L
215.24 130.066 L
216.486 129.722 L
217.732 129.39 L
218.978 129.07 L
220.224 128.763 L
221.47 128.471 L
222.716 128.194 L
223.962 127.932 L
225.208 127.684 L
226.454 127.451 L
227.7 127.231 L
228.946 127.024 L
230.192 126.83 L
231.438 126.648 L
232.684 126.478 L
233.93 126.32 L
235.176 126.173 L
236.422 126.036 L
237.668 125.909 L
238.914 125.791 L
240.16 125.681 L
241.406 125.579 L
242.652 125.483 L
243.898 125.394 L
245.144 125.31 L
246.39 125.231 L
247.636 125.157 L
248.882 125.086 L
250.128 125.021 L
251.374 124.96 L
252.62 124.906 L
253.866 124.857 L
255.112 124.814 L
256.358 124.778 L
257.604 124.749 L
258.85 124.728 L
260.096 124.714 L
261.342 124.709 L
262.588 124.713 L
263.834 124.726 L
265.08 124.75 L
266.326 124.785 L
267.572 124.831 L
268.818 124.89 L
270.064 124.961 L
271.31 125.045 L
272.556 125.143 L
273.802 125.254 L
275.048 125.376 L
276.294 125.508 L
277.54 125.649 L
278.786 125.797 L
280.032 125.95 L
281.278 126.108 L
282.524 126.269 L
283.77 126.432 L
285.016 126.596 L
286.262 126.763 L
287.508 126.936 L
288.754 127.117 L
290 127.311 L
291.246 127.519 L
292.492 127.744 L
293.738 127.99 L
294.984 128.258 L
296.23 128.553 L
297.476 128.875 L
298.722 129.224 L
299.968 129.596 L
301.214 129.988 L
302.46 130.398 L
303.706 130.823 L
304.952 131.261 L
306.198 131.708 L
307.444 132.163 L
308.69 132.621 L
309.936 133.082 L
311.182 133.543 L
312.428 134.005 L
313.674 134.467 L
314.92 134.928 L
316.166 135.389 L
317.412 135.847 L
318.658 136.304 L
319.904 136.758 L
321.15 137.209 L
322.396 137.657 L
323.642 138.101 L
324.888 138.542 L
326.134 138.98 L
327.38 139.415 L
328.626 139.848 L
329.872 140.278 L
331.118 140.706 L
332.364 141.132 L
333.61 141.557 L
334.856 141.98 L
336.102 142.401 L
337.348 142.819 L
338.594 143.234 L
339.84 143.644 L
341.086 144.049 L
342.332 144.449 L
343.578 144.843 L
344.824 145.229 L
346.07 145.609 L
347.316 145.98 L
348.562 146.343 L
349.808 146.699 L
351.054 147.048 L
352.3 147.391 L
353.546 147.728 L
354.792 148.06 L
356.038 148.387 L
357.284 148.709 L
358.53 149.028 L
359.776 149.344 L
361.022 149.656 L
362.268 149.964 L
363.514 150.267 L
364.76 150.564 L
366.006 150.857 L
367.252 151.143 L
368.498 151.422 L
369.744 151.694 L
370.99 151.959 L
372.236 152.216 L
373.482 152.465 L
374.728 152.707 L
375.974 152.942 L
377.22 153.171 L
378.466 153.394 L
379.712 153.612 L
380.958 153.824 L
382.204 154.032 L
383.45 154.236 L
384.696 154.436 L
385.942 154.632 L
387.188 154.823 L
388.434 155.01 L
389.68 155.193 L
390.926 155.37 L
392.172 155.542 L
393.418 155.709 L
394.664 155.869 L
395.91 156.024 L
397.156 156.173 L
398.402 156.315 L
399.648 156.452 L
400.894 156.583 L
402.14 156.709 L
403.386 156.831 L
404.632 156.948 L
405.878 157.061 L
407.124 157.17 L
408.37 157.275 L
409.616 157.378 L
410.862 157.477 L
412.108 157.572 L
413.354 157.664 L
414.6 157.752 L
415.846 157.837 L
417.092 157.918 L
418.338 157.995 L
419.584 158.068 L
420.83 158.137 L
422.076 158.202 L
423.322 158.263 L
424.568 158.32 L
425.814 158.373 L
427.06 158.423 L
428.306 158.47 L
429.552 158.513 L
430.798 158.554 L
432.044 158.592 L
433.29 158.628 L
434.536 158.661 L
435.782 158.692 L
437.028 158.72 L
438.274 158.746 L
439.52 158.77 L
440.766 158.792 L
442.012 158.811 L
443.258 158.828 L
444.504 158.843 L
S
GR
GS
1 0 1 RC
1 LJ
1.5 LW
N
134.25 156.1 M
135.496 156.293 L
136.742 156.658 L
137.988 157.187 L
139.234 157.868 L
140.48 158.692 L
141.726 159.651 L
142.972 160.733 L
144.218 161.929 L
145.464 163.229 L
146.71 164.624 L
147.956 166.104 L
149.202 167.659 L
150.448 169.28 L
151.694 170.956 L
152.94 172.678 L
154.186 174.436 L
155.432 176.221 L
156.678 178.023 L
157.924 179.831 L
159.17 181.637 L
160.416 183.43 L
161.662 185.203 L
162.908 186.945 L
164.154 188.65 L
165.4 190.308 L
166.646 191.911 L
167.892 193.449 L
169.138 194.916 L
170.384 196.302 L
171.63 197.598 L
172.876 198.797 L
174.122 199.901 L
175.368 200.91 L
176.614 201.826 L
177.86 202.651 L
179.106 203.387 L
180.352 204.036 L
181.598 204.598 L
182.844 205.077 L
184.09 205.473 L
185.336 205.787 L
186.582 206.004 L
187.828 206.11 L
189.074 206.089 L
190.32 205.927 L
191.566 205.608 L
192.812 205.116 L
194.058 204.436 L
195.304 203.553 L
196.55 202.451 L
197.796 201.124 L
199.042 199.6 L
200.288 197.913 L
201.534 196.101 L
202.78 194.199 L
204.026 192.244 L
205.272 190.271 L
206.518 188.317 L
207.764 186.417 L
209.01 184.608 L
210.256 182.917 L
211.502 181.341 L
212.748 179.866 L
213.994 178.481 L
215.24 177.172 L
216.486 175.927 L
217.732 174.734 L
218.978 173.579 L
220.224 172.452 L
221.47 171.338 L
222.716 170.229 L
223.962 169.129 L
225.208 168.046 L
226.454 166.988 L
227.7 165.962 L
228.946 164.976 L
230.192 164.039 L
231.438 163.157 L
232.684 162.339 L
233.93 161.592 L
235.176 160.921 L
236.422 160.318 L
237.668 159.774 L
238.914 159.277 L
240.16 158.816 L
241.406 158.382 L
242.652 157.963 L
243.898 157.55 L
245.144 157.131 L
246.39 156.696 L
247.636 156.237 L
248.882 155.758 L
250.128 155.267 L
251.374 154.77 L
252.62 154.275 L
253.866 153.788 L
255.112 153.316 L
256.358 152.867 L
257.604 152.446 L
258.85 152.063 L
260.096 151.72 L
261.342 151.417 L
262.588 151.15 L
263.834 150.914 L
265.08 150.705 L
266.326 150.521 L
267.572 150.356 L
268.818 150.207 L
270.064 150.07 L
271.31 149.941 L
272.556 149.817 L
273.802 149.697 L
275.048 149.581 L
276.294 149.47 L
277.54 149.363 L
278.786 149.26 L
280.032 149.161 L
281.278 149.066 L
282.524 148.976 L
283.77 148.89 L
285.016 148.809 L
286.262 148.731 L
287.508 148.659 L
288.754 148.591 L
290 148.527 L
291.246 148.469 L
292.492 148.415 L
293.738 148.366 L
294.984 148.322 L
296.23 148.283 L
297.476 148.249 L
298.722 148.22 L
299.968 148.196 L
301.214 148.176 L
302.46 148.16 L
303.706 148.148 L
304.952 148.14 L
306.198 148.134 L
307.444 148.132 L
308.69 148.133 L
309.936 148.136 L
311.182 148.141 L
312.428 148.15 L
313.674 148.16 L
314.92 148.173 L
316.166 148.189 L
317.412 148.207 L
318.658 148.228 L
319.904 148.251 L
321.15 148.276 L
322.396 148.305 L
323.642 148.335 L
324.888 148.368 L
326.134 148.402 L
327.38 148.438 L
328.626 148.476 L
329.872 148.515 L
331.118 148.556 L
332.364 148.597 L
333.61 148.639 L
334.856 148.682 L
336.102 148.726 L
337.348 148.769 L
338.594 148.813 L
339.84 148.856 L
341.086 148.899 L
342.332 148.941 L
343.578 148.983 L
344.824 149.023 L
346.07 149.062 L
347.316 149.1 L
348.562 149.136 L
349.808 149.173 L
351.054 149.209 L
352.3 149.246 L
353.546 149.284 L
354.792 149.325 L
356.038 149.367 L
357.284 149.413 L
358.53 149.462 L
359.776 149.514 L
361.022 149.57 L
362.268 149.629 L
363.514 149.689 L
364.76 149.751 L
366.006 149.813 L
367.252 149.875 L
368.498 149.936 L
369.744 149.995 L
370.99 150.052 L
372.236 150.106 L
373.482 150.157 L
374.728 150.206 L
375.974 150.253 L
377.22 150.298 L
378.466 150.343 L
379.712 150.386 L
380.958 150.429 L
382.204 150.472 L
383.45 150.516 L
384.696 150.56 L
385.942 150.605 L
387.188 150.65 L
388.434 150.696 L
389.68 150.743 L
390.926 150.789 L
392.172 150.836 L
393.418 150.882 L
394.664 150.929 L
395.91 150.975 L
397.156 151.021 L
398.402 151.067 L
399.648 151.113 L
400.894 151.158 L
402.14 151.203 L
403.386 151.247 L
404.632 151.292 L
405.878 151.335 L
407.124 151.379 L
408.37 151.422 L
409.616 151.465 L
410.862 151.508 L
412.108 151.55 L
413.354 151.593 L
414.6 151.635 L
415.846 151.677 L
417.092 151.719 L
418.338 151.761 L
419.584 151.803 L
420.83 151.846 L
422.076 151.889 L
423.322 151.931 L
424.568 151.974 L
425.814 152.017 L
427.06 152.059 L
428.306 152.101 L
429.552 152.142 L
430.798 152.183 L
432.044 152.224 L
433.29 152.263 L
434.536 152.302 L
435.782 152.339 L
437.028 152.376 L
438.274 152.411 L
439.52 152.445 L
440.766 152.477 L
442.012 152.508 L
443.258 152.537 L
444.504 152.565 L
S
GR
GS
0 0 1 RC
1 LJ
1.5 LW
N
134.25 156.1 M
135.496 157.035 L
136.742 158.212 L
137.988 159.618 L
139.234 161.238 L
140.48 163.057 L
141.726 165.06 L
142.972 167.234 L
144.218 169.562 L
145.464 172.031 L
146.71 174.626 L
147.956 177.333 L
149.202 180.136 L
150.448 183.021 L
151.694 185.974 L
152.94 188.98 L
154.186 192.024 L
155.432 195.092 L
156.678 198.169 L
157.924 201.24 L
159.17 204.291 L
160.416 207.31 L
161.662 210.289 L
162.908 213.226 L
164.154 216.116 L
165.4 218.955 L
166.646 221.739 L
167.892 224.465 L
169.138 227.129 L
170.384 229.725 L
171.63 232.252 L
172.876 234.703 L
174.122 237.073 L
175.368 239.356 L
176.614 241.545 L
177.86 243.634 L
179.106 245.616 L
180.352 247.484 L
181.598 249.233 L
182.844 250.855 L
184.09 252.344 L
185.336 253.696 L
186.582 254.907 L
187.828 255.977 L
189.074 256.905 L
190.32 257.691 L
191.566 258.332 L
192.812 258.83 L
194.058 259.182 L
195.304 259.387 L
196.55 259.446 L
197.796 259.353 L
199.042 259.094 L
200.288 258.65 L
201.534 258.002 L
202.78 257.131 L
204.026 256.02 L
205.272 254.649 L
206.518 252.999 L
207.764 251.053 L
209.01 248.792 L
210.256 246.209 L
211.502 243.344 L
212.748 240.251 L
213.994 236.982 L
215.24 233.59 L
216.486 230.126 L
217.732 226.645 L
218.978 223.198 L
220.224 219.838 L
221.47 216.618 L
222.716 213.58 L
223.962 210.722 L
225.208 208.032 L
226.454 205.499 L
227.7 203.109 L
228.946 200.851 L
230.192 198.714 L
231.438 196.684 L
232.684 194.75 L
233.93 192.9 L
235.176 191.123 L
236.422 189.415 L
237.668 187.774 L
238.914 186.199 L
240.16 184.685 L
241.406 183.232 L
242.652 181.836 L
243.898 180.496 L
245.144 179.209 L
246.39 177.973 L
247.636 176.786 L
248.882 175.643 L
250.128 174.543 L
251.374 173.481 L
252.62 172.453 L
253.866 171.457 L
255.112 170.489 L
256.358 169.546 L
257.604 168.624 L
258.85 167.719 L
260.096 166.83 L
261.342 165.958 L
262.588 165.109 L
263.834 164.285 L
265.08 163.489 L
266.326 162.727 L
267.572 162.002 L
268.818 161.316 L
270.064 160.675 L
271.31 160.081 L
272.556 159.538 L
273.802 159.04 L
275.048 158.582 L
276.294 158.158 L
277.54 157.762 L
278.786 157.388 L
280.032 157.032 L
281.278 156.685 L
282.524 156.344 L
283.77 156.003 L
285.016 155.655 L
286.262 155.305 L
287.508 154.954 L
288.754 154.606 L
290 154.263 L
291.246 153.93 L
292.492 153.608 L
293.738 153.302 L
294.984 153.015 L
296.23 152.749 L
297.476 152.506 L
298.722 152.286 L
299.968 152.087 L
301.214 151.905 L
302.46 151.739 L
303.706 151.588 L
304.952 151.448 L
306.198 151.317 L
307.444 151.194 L
308.69 151.076 L
309.936 150.961 L
311.182 150.85 L
312.428 150.743 L
313.674 150.64 L
314.92 150.543 L
316.166 150.451 L
317.412 150.366 L
318.658 150.287 L
319.904 150.215 L
321.15 150.151 L
322.396 150.095 L
323.642 150.047 L
324.888 150.006 L
326.134 149.97 L
327.38 149.94 L
328.626 149.915 L
329.872 149.894 L
331.118 149.875 L
332.364 149.859 L
333.61 149.845 L
334.856 149.831 L
336.102 149.819 L
337.348 149.808 L
338.594 149.798 L
339.84 149.791 L
341.086 149.785 L
342.332 149.781 L
343.578 149.78 L
344.824 149.781 L
346.07 149.785 L
347.316 149.791 L
348.562 149.801 L
349.808 149.813 L
351.054 149.828 L
352.3 149.845 L
353.546 149.864 L
354.792 149.885 L
356.038 149.907 L
357.284 149.932 L
358.53 149.957 L
359.776 149.984 L
361.022 150.012 L
362.268 150.042 L
363.514 150.072 L
364.76 150.103 L
366.006 150.136 L
367.252 150.169 L
368.498 150.203 L
369.744 150.237 L
370.99 150.273 L
372.236 150.309 L
373.482 150.345 L
374.728 150.382 L
375.974 150.42 L
377.22 150.459 L
378.466 150.497 L
379.712 150.537 L
380.958 150.577 L
382.204 150.618 L
383.45 150.659 L
384.696 150.7 L
385.942 150.742 L
387.188 150.785 L
388.434 150.827 L
389.68 150.87 L
390.926 150.913 L
392.172 150.956 L
393.418 151 L
394.664 151.043 L
395.91 151.086 L
397.156 151.129 L
398.402 151.172 L
399.648 151.215 L
400.894 151.258 L
402.14 151.3 L
403.386 151.343 L
404.632 151.386 L
405.878 151.428 L
407.124 151.471 L
408.37 151.514 L
409.616 151.557 L
410.862 151.6 L
412.108 151.643 L
413.354 151.686 L
414.6 151.728 L
415.846 151.771 L
417.092 151.813 L
418.338 151.856 L
419.584 151.897 L
420.83 151.939 L
422.076 151.98 L
423.322 152.021 L
424.568 152.061 L
425.814 152.101 L
427.06 152.141 L
428.306 152.18 L
429.552 152.22 L
430.798 152.259 L
432.044 152.298 L
433.29 152.336 L
434.536 152.375 L
435.782 152.414 L
437.028 152.452 L
438.274 152.49 L
439.52 152.528 L
440.766 152.566 L
442.012 152.603 L
443.258 152.64 L
444.504 152.677 L
S
GR
GS
0 1 0 RC
1 LJ
1.5 LW
N
134.25 156.1 M
135.496 157.111 L
136.742 158.295 L
137.988 159.646 L
139.234 161.159 L
140.48 162.829 L
141.726 164.65 L
142.972 166.617 L
144.218 168.724 L
145.464 170.966 L
146.71 173.337 L
147.956 175.833 L
149.202 178.446 L
150.448 181.173 L
151.694 184.007 L
152.94 186.944 L
154.186 189.977 L
155.432 193.101 L
156.678 196.312 L
157.924 199.602 L
159.17 202.968 L
160.416 206.4 L
161.662 209.884 L
162.908 213.401 L
164.154 216.932 L
165.4 220.459 L
166.646 223.964 L
167.892 227.429 L
169.138 230.834 L
170.384 234.163 L
171.63 237.395 L
172.876 240.518 L
174.122 243.528 L
175.368 246.427 L
176.614 249.218 L
177.86 251.902 L
179.106 254.481 L
180.352 256.956 L
181.598 259.329 L
182.844 261.603 L
184.09 263.778 L
185.336 265.856 L
186.582 267.835 L
187.828 269.714 L
189.074 271.489 L
190.32 273.16 L
191.566 274.724 L
192.812 276.179 L
194.058 277.522 L
195.304 278.752 L
196.55 279.867 L
197.796 280.864 L
199.042 281.743 L
200.288 282.505 L
201.534 283.148 L
202.78 283.673 L
204.026 284.079 L
205.272 284.367 L
206.518 284.535 L
207.764 284.584 L
209.01 284.513 L
210.256 284.323 L
211.502 284.018 L
212.748 283.603 L
213.994 283.081 L
215.24 282.459 L
216.486 281.74 L
217.732 280.929 L
218.978 280.031 L
220.224 279.051 L
221.47 277.992 L
222.716 276.855 L
223.962 275.613 L
225.208 274.236 L
226.454 272.691 L
227.7 270.948 L
228.946 268.976 L
230.192 266.743 L
231.438 264.218 L
232.684 261.369 L
233.93 258.166 L
235.176 254.594 L
236.422 250.706 L
237.668 246.573 L
238.914 242.264 L
240.16 237.851 L
241.406 233.403 L
242.652 228.991 L
243.898 224.684 L
245.144 220.554 L
246.39 216.669 L
247.636 213.086 L
248.882 209.794 L
250.128 206.77 L
251.374 203.987 L
252.62 201.422 L
253.866 199.049 L
255.112 196.843 L
256.358 194.781 L
257.604 192.836 L
258.85 190.984 L
260.096 189.204 L
261.342 187.487 L
262.588 185.828 L
263.834 184.221 L
265.08 182.661 L
266.326 181.142 L
267.572 179.661 L
268.818 178.21 L
270.064 176.785 L
271.31 175.381 L
272.556 173.994 L
273.802 172.626 L
275.048 171.28 L
276.294 169.961 L
277.54 168.672 L
278.786 167.416 L
280.032 166.198 L
281.278 165.022 L
282.524 163.89 L
283.77 162.807 L
285.016 161.775 L
286.262 160.793 L
287.508 159.859 L
288.754 158.972 L
290 158.128 L
291.246 157.326 L
292.492 156.564 L
293.738 155.839 L
294.984 155.151 L
296.23 154.495 L
297.476 153.872 L
298.722 153.278 L
299.968 152.713 L
301.214 152.176 L
302.46 151.665 L
303.706 151.179 L
304.952 150.717 L
306.198 150.276 L
307.444 149.857 L
308.69 149.457 L
309.936 149.076 L
311.182 148.712 L
312.428 148.367 L
313.674 148.039 L
314.92 147.728 L
316.166 147.435 L
317.412 147.158 L
318.658 146.897 L
319.904 146.653 L
321.15 146.425 L
322.396 146.213 L
323.642 146.016 L
324.888 145.833 L
326.134 145.663 L
327.38 145.506 L
328.626 145.361 L
329.872 145.228 L
331.118 145.105 L
332.364 144.991 L
333.61 144.887 L
334.856 144.791 L
336.102 144.703 L
337.348 144.623 L
338.594 144.551 L
339.84 144.486 L
341.086 144.428 L
342.332 144.378 L
343.578 144.334 L
344.824 144.297 L
346.07 144.267 L
347.316 144.243 L
348.562 144.225 L
349.808 144.212 L
351.054 144.206 L
352.3 144.205 L
353.546 144.209 L
354.792 144.217 L
356.038 144.231 L
357.284 144.248 L
358.53 144.27 L
359.776 144.295 L
361.022 144.324 L
362.268 144.357 L
363.514 144.393 L
364.76 144.431 L
366.006 144.473 L
367.252 144.517 L
368.498 144.564 L
369.744 144.613 L
370.99 144.664 L
372.236 144.717 L
373.482 144.771 L
374.728 144.828 L
375.974 144.886 L
377.22 144.946 L
378.466 145.008 L
379.712 145.071 L
380.958 145.136 L
382.204 145.203 L
383.45 145.272 L
384.696 145.342 L
385.942 145.414 L
387.188 145.488 L
388.434 145.562 L
389.68 145.637 L
390.926 145.713 L
392.172 145.79 L
393.418 145.867 L
394.664 145.944 L
395.91 146.022 L
397.156 146.099 L
398.402 146.176 L
399.648 146.253 L
400.894 146.331 L
402.14 146.408 L
403.386 146.486 L
404.632 146.564 L
405.878 146.643 L
407.124 146.722 L
408.37 146.802 L
409.616 146.882 L
410.862 146.963 L
412.108 147.044 L
413.354 147.126 L
414.6 147.207 L
415.846 147.288 L
417.092 147.37 L
418.338 147.45 L
419.584 147.53 L
420.83 147.61 L
422.076 147.688 L
423.322 147.766 L
424.568 147.843 L
425.814 147.92 L
427.06 147.996 L
428.306 148.071 L
429.552 148.147 L
430.798 148.222 L
432.044 148.297 L
433.29 148.373 L
434.536 148.448 L
435.782 148.524 L
437.028 148.6 L
438.274 148.675 L
439.52 148.75 L
440.766 148.825 L
442.012 148.899 L
443.258 148.972 L
444.504 149.045 L
S
GR
GS
1 0 0 RC
1 LJ
1.5 LW
N
134.25 156.1 M
135.496 155.74 L
136.742 155.828 L
137.988 156.335 L
139.234 157.232 L
140.48 158.492 L
141.726 160.084 L
142.972 161.981 L
144.218 164.154 L
145.464 166.574 L
146.71 169.212 L
147.956 172.04 L
149.202 175.03 L
150.448 178.151 L
151.694 181.377 L
152.94 184.678 L
154.186 188.025 L
155.432 191.389 L
156.678 194.743 L
157.924 198.058 L
159.17 201.304 L
160.416 204.46 L
161.662 207.537 L
162.908 210.551 L
164.154 213.519 L
165.4 216.457 L
166.646 219.384 L
167.892 222.315 L
169.138 225.269 L
170.384 228.261 L
171.63 231.308 L
172.876 234.422 L
174.122 237.588 L
175.368 240.783 L
176.614 243.987 L
177.86 247.178 L
179.106 250.335 L
180.352 253.436 L
181.598 256.46 L
182.844 259.385 L
184.09 262.191 L
185.336 264.861 L
186.582 267.398 L
187.828 269.812 L
189.074 272.111 L
190.32 274.305 L
191.566 276.402 L
192.812 278.412 L
194.058 280.343 L
195.304 282.204 L
196.55 284.004 L
197.796 285.749 L
199.042 287.433 L
200.288 289.048 L
201.534 290.585 L
202.78 292.036 L
204.026 293.391 L
205.272 294.643 L
206.518 295.782 L
207.764 296.799 L
209.01 297.687 L
210.256 298.439 L
211.502 299.056 L
212.748 299.544 L
213.994 299.908 L
215.24 300.151 L
216.486 300.279 L
217.732 300.295 L
218.978 300.205 L
220.224 300.013 L
221.47 299.723 L
222.716 299.34 L
223.962 298.861 L
225.208 298.283 L
226.454 297.605 L
227.7 296.822 L
228.946 295.933 L
230.192 294.935 L
231.438 293.825 L
232.684 292.6 L
233.93 291.258 L
235.176 289.798 L
236.422 288.233 L
237.668 286.576 L
238.914 284.844 L
240.16 283.049 L
241.406 281.208 L
242.652 279.334 L
243.898 277.442 L
245.144 275.547 L
246.39 273.664 L
247.636 271.797 L
248.882 269.916 L
250.128 267.981 L
251.374 265.952 L
252.62 263.788 L
253.866 261.45 L
255.112 258.898 L
256.358 256.091 L
257.604 252.989 L
258.85 249.553 L
260.096 245.761 L
261.342 241.666 L
262.588 237.34 L
263.834 232.857 L
265.08 228.288 L
266.326 223.705 L
267.572 219.181 L
268.818 214.788 L
270.064 210.598 L
271.31 206.684 L
272.556 203.1 L
273.802 199.833 L
275.048 196.853 L
276.294 194.13 L
277.54 191.634 L
278.786 189.333 L
280.032 187.199 L
281.278 185.199 L
282.524 183.305 L
283.77 181.486 L
285.016 179.716 L
286.262 177.987 L
287.508 176.295 L
288.754 174.638 L
290 173.011 L
291.246 171.412 L
292.492 169.837 L
293.738 168.283 L
294.984 166.745 L
296.23 165.221 L
297.476 163.71 L
298.722 162.217 L
299.968 160.752 L
301.214 159.323 L
302.46 157.94 L
303.706 156.61 L
304.952 155.343 L
306.198 154.147 L
307.444 153.031 L
308.69 152.004 L
309.936 151.071 L
311.182 150.225 L
312.428 149.456 L
313.674 148.754 L
314.92 148.107 L
316.166 147.507 L
317.412 146.943 L
318.658 146.404 L
319.904 145.88 L
321.15 145.362 L
322.396 144.84 L
323.642 144.318 L
324.888 143.8 L
326.134 143.292 L
327.38 142.799 L
328.626 142.325 L
329.872 141.875 L
331.118 141.455 L
332.364 141.069 L
333.61 140.723 L
334.856 140.419 L
336.102 140.155 L
337.348 139.926 L
338.594 139.728 L
339.84 139.557 L
341.086 139.408 L
342.332 139.276 L
343.578 139.157 L
344.824 139.046 L
346.07 138.94 L
347.316 138.834 L
348.562 138.73 L
349.808 138.627 L
351.054 138.529 L
352.3 138.436 L
353.546 138.349 L
354.792 138.271 L
356.038 138.202 L
357.284 138.144 L
358.53 138.098 L
359.776 138.066 L
361.022 138.046 L
362.268 138.038 L
363.514 138.041 L
364.76 138.053 L
366.006 138.074 L
367.252 138.101 L
368.498 138.136 L
369.744 138.175 L
370.99 138.219 L
372.236 138.266 L
373.482 138.316 L
374.728 138.37 L
375.974 138.428 L
377.22 138.491 L
378.466 138.558 L
379.712 138.629 L
380.958 138.706 L
382.204 138.788 L
383.45 138.875 L
384.696 138.969 L
385.942 139.067 L
387.188 139.169 L
388.434 139.273 L
389.68 139.379 L
390.926 139.486 L
392.172 139.592 L
393.418 139.696 L
394.664 139.798 L
395.91 139.897 L
397.156 139.99 L
398.402 140.08 L
399.648 140.168 L
400.894 140.253 L
402.14 140.339 L
403.386 140.424 L
404.632 140.511 L
405.878 140.6 L
407.124 140.693 L
408.37 140.79 L
409.616 140.892 L
410.862 141 L
412.108 141.113 L
413.354 141.23 L
414.6 141.352 L
415.846 141.479 L
417.092 141.609 L
418.338 141.743 L
419.584 141.88 L
420.83 142.021 L
422.076 142.165 L
423.322 142.311 L
424.568 142.459 L
425.814 142.607 L
427.06 142.755 L
428.306 142.902 L
429.552 143.047 L
430.798 143.189 L
432.044 143.329 L
433.29 143.464 L
434.536 143.594 L
435.782 143.719 L
437.028 143.84 L
438.274 143.957 L
439.52 144.069 L
440.766 144.177 L
442.012 144.282 L
443.258 144.383 L
444.504 144.481 L
S
GR
GS
0 1 1 RC
1 LJ
1.5 LW
N
134.25 156.1 M
135.496 156.759 L
136.742 157.671 L
137.988 158.826 L
139.234 160.214 L
140.48 161.823 L
141.726 163.645 L
142.972 165.669 L
144.218 167.885 L
145.464 170.282 L
146.71 172.85 L
147.956 175.579 L
149.202 178.459 L
150.448 181.479 L
151.694 184.63 L
152.94 187.901 L
154.186 191.281 L
155.432 194.761 L
156.678 198.331 L
157.924 201.98 L
159.17 205.697 L
160.416 209.472 L
161.662 213.289 L
162.908 217.13 L
164.154 220.979 L
165.4 224.819 L
166.646 228.633 L
167.892 232.403 L
169.138 236.113 L
170.384 239.746 L
171.63 243.284 L
172.876 246.716 L
174.122 250.047 L
175.368 253.289 L
176.614 256.452 L
177.86 259.547 L
179.106 262.585 L
180.352 265.577 L
181.598 268.533 L
182.844 271.465 L
184.09 274.384 L
185.336 277.295 L
186.582 280.189 L
187.828 283.052 L
189.074 285.869 L
190.32 288.626 L
191.566 291.308 L
192.812 293.902 L
194.058 296.393 L
195.304 298.766 L
196.55 301.008 L
197.796 303.107 L
199.042 305.064 L
200.288 306.883 L
201.534 308.567 L
202.78 310.121 L
204.026 311.548 L
205.272 312.853 L
206.518 314.038 L
207.764 315.109 L
209.01 316.069 L
210.256 316.921 L
211.502 317.669 L
212.748 318.318 L
213.994 318.871 L
215.24 319.331 L
216.486 319.703 L
217.732 319.989 L
218.978 320.194 L
220.224 320.322 L
221.47 320.375 L
222.716 320.357 L
223.962 320.264 L
225.208 320.088 L
226.454 319.826 L
227.7 319.472 L
228.946 319.019 L
230.192 318.462 L
231.438 317.796 L
232.684 317.015 L
233.93 316.113 L
235.176 315.087 L
236.422 313.94 L
237.668 312.677 L
238.914 311.302 L
240.16 309.822 L
241.406 308.24 L
242.652 306.562 L
243.898 304.793 L
245.144 302.938 L
246.39 301.002 L
247.636 298.99 L
248.882 296.91 L
250.128 294.769 L
251.374 292.575 L
252.62 290.335 L
253.866 288.058 L
255.112 285.75 L
256.358 283.419 L
257.604 281.074 L
258.85 278.721 L
260.096 276.361 L
261.342 273.967 L
262.588 271.504 L
263.834 268.939 L
265.08 266.236 L
266.326 263.361 L
267.572 260.281 L
268.818 256.96 L
270.064 253.364 L
271.31 249.458 L
272.556 245.228 L
273.802 240.731 L
275.048 236.046 L
276.294 231.249 L
277.54 226.417 L
278.786 221.628 L
280.032 216.96 L
281.278 212.49 L
282.524 208.294 L
283.77 204.451 L
285.016 201.015 L
286.262 197.958 L
287.508 195.226 L
288.754 192.768 L
290 190.532 L
291.246 188.467 L
292.492 186.519 L
293.738 184.637 L
294.984 182.77 L
296.23 180.866 L
297.476 178.884 L
298.722 176.834 L
299.968 174.738 L
301.214 172.617 L
302.46 170.492 L
303.706 168.387 L
304.952 166.321 L
306.198 164.316 L
307.444 162.395 L
308.69 160.578 L
309.936 158.883 L
311.182 157.306 L
312.428 155.84 L
313.674 154.476 L
314.92 153.208 L
316.166 152.028 L
317.412 150.927 L
318.658 149.897 L
319.904 148.933 L
321.15 148.024 L
322.396 147.165 L
323.642 146.351 L
324.888 145.581 L
326.134 144.85 L
327.38 144.156 L
328.626 143.496 L
329.872 142.867 L
331.118 142.266 L
332.364 141.691 L
333.61 141.138 L
334.856 140.604 L
336.102 140.091 L
337.348 139.6 L
338.594 139.131 L
339.84 138.685 L
341.086 138.264 L
342.332 137.869 L
343.578 137.5 L
344.824 137.159 L
346.07 136.847 L
347.316 136.564 L
348.562 136.309 L
349.808 136.079 L
351.054 135.874 L
352.3 135.69 L
353.546 135.526 L
354.792 135.38 L
356.038 135.251 L
357.284 135.134 L
358.53 135.03 L
359.776 134.937 L
361.022 134.853 L
362.268 134.779 L
363.514 134.715 L
364.76 134.662 L
366.006 134.618 L
367.252 134.584 L
368.498 134.56 L
369.744 134.547 L
370.99 134.543 L
372.236 134.55 L
373.482 134.566 L
374.728 134.59 L
375.974 134.624 L
377.22 134.665 L
378.466 134.713 L
379.712 134.768 L
380.958 134.829 L
382.204 134.896 L
383.45 134.968 L
384.696 135.044 L
385.942 135.124 L
387.188 135.209 L
388.434 135.298 L
389.68 135.39 L
390.926 135.486 L
392.172 135.586 L
393.418 135.689 L
394.664 135.796 L
395.91 135.906 L
397.156 136.019 L
398.402 136.135 L
399.648 136.254 L
400.894 136.377 L
402.14 136.503 L
403.386 136.632 L
404.632 136.766 L
405.878 136.902 L
407.124 137.043 L
408.37 137.188 L
409.616 137.336 L
410.862 137.487 L
412.108 137.64 L
413.354 137.794 L
414.6 137.947 L
415.846 138.098 L
417.092 138.247 L
418.338 138.391 L
419.584 138.531 L
420.83 138.664 L
422.076 138.79 L
423.322 138.911 L
424.568 139.027 L
425.814 139.14 L
427.06 139.251 L
428.306 139.362 L
429.552 139.474 L
430.798 139.588 L
432.044 139.707 L
433.29 139.831 L
434.536 139.961 L
435.782 140.098 L
437.028 140.239 L
438.274 140.384 L
439.52 140.532 L
440.766 140.682 L
442.012 140.834 L
443.258 140.985 L
444.504 141.136 L
S
GR
GS
1 1 0 RC
1 LJ
1.5 LW
N
134.25 156.1 M
135.496 155.945 L
136.742 156.153 L
137.988 156.704 L
139.234 157.581 L
140.48 158.765 L
141.726 160.238 L
142.972 161.982 L
144.218 163.979 L
145.464 166.21 L
146.71 168.657 L
147.956 171.301 L
149.202 174.126 L
150.448 177.112 L
151.694 180.24 L
152.94 183.494 L
154.186 186.855 L
155.432 190.304 L
156.678 193.823 L
157.924 197.394 L
159.17 200.998 L
160.416 204.62 L
161.662 208.247 L
162.908 211.87 L
164.154 215.479 L
165.4 219.064 L
166.646 222.616 L
167.892 226.124 L
169.138 229.579 L
170.384 232.97 L
171.63 236.289 L
172.876 239.529 L
174.122 242.695 L
175.368 245.798 L
176.614 248.848 L
177.86 251.853 L
179.106 254.824 L
180.352 257.771 L
181.598 260.703 L
182.844 263.629 L
184.09 266.56 L
185.336 269.501 L
186.582 272.442 L
187.828 275.37 L
189.074 278.271 L
190.32 281.131 L
191.566 283.937 L
192.812 286.674 L
194.058 289.328 L
195.304 291.887 L
196.55 294.337 L
197.796 296.666 L
199.042 298.877 L
200.288 300.977 L
201.534 302.97 L
202.78 304.864 L
204.026 306.663 L
205.272 308.374 L
206.518 310.002 L
207.764 311.553 L
209.01 313.033 L
210.256 314.445 L
211.502 315.788 L
212.748 317.056 L
213.994 318.243 L
215.24 319.345 L
216.486 320.358 L
217.732 321.275 L
218.978 322.093 L
220.224 322.805 L
221.47 323.408 L
222.716 323.898 L
223.962 324.28 L
225.208 324.561 L
226.454 324.747 L
227.7 324.844 L
228.946 324.86 L
230.192 324.801 L
231.438 324.673 L
232.684 324.484 L
233.93 324.239 L
235.176 323.944 L
236.422 323.594 L
237.668 323.184 L
238.914 322.708 L
240.16 322.159 L
241.406 321.532 L
242.652 320.82 L
243.898 320.018 L
245.144 319.121 L
246.39 318.121 L
247.636 317.016 L
248.882 315.811 L
250.128 314.517 L
251.374 313.142 L
252.62 311.695 L
253.866 310.186 L
255.112 308.623 L
256.358 307.015 L
257.604 305.372 L
258.85 303.703 L
260.096 302.012 L
261.342 300.292 L
262.588 298.53 L
263.834 296.713 L
265.08 294.828 L
266.326 292.864 L
267.572 290.807 L
268.818 288.645 L
270.064 286.365 L
271.31 283.956 L
272.556 281.41 L
273.802 278.745 L
275.048 275.983 L
276.294 273.15 L
277.54 270.267 L
278.786 267.358 L
280.032 264.446 L
281.278 261.556 L
282.524 258.709 L
283.77 255.929 L
285.016 253.232 L
286.262 250.601 L
287.508 248.012 L
288.754 245.439 L
290 242.858 L
291.246 240.243 L
292.492 237.572 L
293.738 234.818 L
294.984 231.957 L
296.23 228.965 L
297.476 225.825 L
298.722 222.557 L
299.968 219.188 L
301.214 215.747 L
302.46 212.261 L
303.706 208.759 L
304.952 205.268 L
306.198 201.816 L
307.444 198.432 L
308.69 195.142 L
309.936 191.971 L
311.182 188.921 L
312.428 185.988 L
313.674 183.17 L
314.92 180.465 L
316.166 177.869 L
317.412 175.38 L
318.658 172.995 L
319.904 170.711 L
321.15 168.527 L
322.396 166.438 L
323.642 164.441 L
324.888 162.532 L
326.134 160.707 L
327.38 158.963 L
328.626 157.294 L
329.872 155.698 L
331.118 154.169 L
332.364 152.705 L
333.61 151.301 L
334.856 149.954 L
336.102 148.663 L
337.348 147.427 L
338.594 146.246 L
339.84 145.12 L
341.086 144.048 L
342.332 143.03 L
343.578 142.066 L
344.824 141.155 L
346.07 140.298 L
347.316 139.492 L
348.562 138.736 L
349.808 138.027 L
351.054 137.363 L
352.3 136.739 L
353.546 136.155 L
354.792 135.606 L
356.038 135.09 L
357.284 134.605 L
358.53 134.147 L
359.776 133.714 L
361.022 133.306 L
362.268 132.922 L
363.514 132.562 L
364.76 132.226 L
366.006 131.914 L
367.252 131.625 L
368.498 131.36 L
369.744 131.117 L
370.99 130.898 L
372.236 130.701 L
373.482 130.525 L
374.728 130.37 L
375.974 130.235 L
377.22 130.117 L
378.466 130.017 L
379.712 129.932 L
380.958 129.863 L
382.204 129.807 L
383.45 129.764 L
384.696 129.732 L
385.942 129.712 L
387.188 129.703 L
388.434 129.703 L
389.68 129.714 L
390.926 129.735 L
392.172 129.765 L
393.418 129.805 L
394.664 129.853 L
395.91 129.909 L
397.156 129.974 L
398.402 130.046 L
399.648 130.126 L
400.894 130.213 L
402.14 130.307 L
403.386 130.407 L
404.632 130.514 L
405.878 130.627 L
407.124 130.746 L
408.37 130.87 L
409.616 130.999 L
410.862 131.133 L
412.108 131.272 L
413.354 131.414 L
414.6 131.56 L
415.846 131.71 L
417.092 131.862 L
418.338 132.017 L
419.584 132.174 L
420.83 132.333 L
422.076 132.493 L
423.322 132.654 L
424.568 132.818 L
425.814 132.982 L
427.06 133.149 L
428.306 133.317 L
429.552 133.487 L
430.798 133.659 L
432.044 133.833 L
433.29 134.009 L
434.536 134.187 L
435.782 134.367 L
437.028 134.548 L
438.274 134.73 L
439.52 134.913 L
440.766 135.097 L
442.012 135.28 L
443.258 135.463 L
444.504 135.645 L
S
GR
GS
1 LJ
0.5 LW
N
346.07 185.173 M
433.29 185.173 L
S
GR
GS
1 LJ
0.5 LW
N
346.07 334.693 M
433.29 334.693 L
S
GR
GS
1 LJ
0.5 LW
N
346.07 185.173 M
346.07 334.693 L
S
GR
GS
1 LJ
0.5 LW
N
433.29 185.173 M
433.29 334.693 L
S
GR
GS
1 LJ
2 LW
N
358.53 197.633 M
383.45 197.633 L
S
GR
GS
[1 0 0 1 390 200] CT
/Helvetica 12 F
GS
[1 0 0 1 0 0] CT
0 0 moveto 
1 -1 scale
(v) t 
GR
GR
GS
[1 0 0 1 396 206] CT
/Helvetica 9.6 F
GS
[1 0 0 1 0 0] CT
0 0 moveto 
1 -1 scale
(z) t 
GR
GR
GS
[1 0 0 1 401 200] CT
/Helvetica 12 F
GS
[1 0 0 1 0 0] CT
0 0 moveto 
1 -1 scale
(\(0\)) t 
GR
GR
GS
1 0 1 RC
1 LJ
1.5 LW
N
358.53 218.4 M
383.45 218.4 L
S
GR
GS
[1 0 0 1 390 220] CT
/Helvetica 12 F
GS
[1 0 0 1 0 0] CT
0 0 moveto 
1 -1 scale
(v) t 
GR
GR
GS
[1 0 0 1 396 226] CT
/Helvetica 9.6 F
GS
[1 0 0 1 0 0] CT
0 0 moveto 
1 -1 scale
(z) t 
GR
GR
GS
[1 0 0 1 401 220] CT
/Helvetica 12 F
GS
[1 0 0 1 0 0] CT
0 0 moveto 
1 -1 scale
(\(5\)) t 
GR
GR
GS
0 0 1 RC
1 LJ
1.5 LW
N
358.53 239.167 M
383.45 239.167 L
S
GR
GS
[1 0 0 1 390 241] CT
/Helvetica 12 F
GS
[1 0 0 1 0 0] CT
0 0 moveto 
1 -1 scale
(v) t 
GR
GR
GS
[1 0 0 1 396 247] CT
/Helvetica 9.6 F
GS
[1 0 0 1 0 0] CT
0 0 moveto 
1 -1 scale
(z) t 
GR
GR
GS
[1 0 0 1 401 241] CT
/Helvetica 12 F
GS
[1 0 0 1 0 0] CT
0 0 moveto 
1 -1 scale
(\(10\)) t 
GR
GR
GS
0 1 0 RC
1 LJ
1.5 LW
N
358.53 259.933 M
383.45 259.933 L
S
GR
GS
[1 0 0 1 390 262] CT
/Helvetica 12 F
GS
[1 0 0 1 0 0] CT
0 0 moveto 
1 -1 scale
(v) t 
GR
GR
GS
[1 0 0 1 396 268] CT
/Helvetica 9.6 F
GS
[1 0 0 1 0 0] CT
0 0 moveto 
1 -1 scale
(z) t 
GR
GR
GS
[1 0 0 1 401 262] CT
/Helvetica 12 F
GS
[1 0 0 1 0 0] CT
0 0 moveto 
1 -1 scale
(\(15\)) t 
GR
GR
GS
1 0 0 RC
1 LJ
1.5 LW
N
358.53 280.7 M
383.45 280.7 L
S
GR
GS
[1 0 0 1 390 283] CT
/Helvetica 12 F
GS
[1 0 0 1 0 0] CT
0 0 moveto 
1 -1 scale
(v) t 
GR
GR
GS
[1 0 0 1 396 289] CT
/Helvetica 9.6 F
GS
[1 0 0 1 0 0] CT
0 0 moveto 
1 -1 scale
(z) t 
GR
GR
GS
[1 0 0 1 401 283] CT
/Helvetica 12 F
GS
[1 0 0 1 0 0] CT
0 0 moveto 
1 -1 scale
(\(20\)) t 
GR
GR
GS
0 1 1 RC
1 LJ
1.5 LW
N
358.53 301.467 M
383.45 301.467 L
S
GR
GS
[1 0 0 1 390 303] CT
/Helvetica 12 F
GS
[1 0 0 1 0 0] CT
0 0 moveto 
1 -1 scale
(v) t 
GR
GR
GS
[1 0 0 1 396 309] CT
/Helvetica 9.6 F
GS
[1 0 0 1 0 0] CT
0 0 moveto 
1 -1 scale
(z) t 
GR
GR
GS
[1 0 0 1 401 303] CT
/Helvetica 12 F
GS
[1 0 0 1 0 0] CT
0 0 moveto 
1 -1 scale
(\(25\)) t 
GR
GR
GS
1 1 0 RC
1 LJ
1.5 LW
N
358.53 322.233 M
383.45 322.233 L
S
GR
GS
[1 0 0 1 390 324] CT
/Helvetica 12 F
GS
[1 0 0 1 0 0] CT
0 0 moveto 
1 -1 scale
(v) t 
GR
GR
GS
[1 0 0 1 396 330] CT
/Helvetica 9.6 F
GS
[1 0 0 1 0 0] CT
0 0 moveto 
1 -1 scale
(z) t 
GR
GR
GS
[1 0 0 1 401 324] CT
/Helvetica 12 F
GS
[1 0 0 1 0 0] CT
0 0 moveto 
1 -1 scale
(\(30\)) t 
GR
GR
%%Trailer
%%Pages: 1
%%EOF
